"coordinate for region52 background"
0 23 16
0 24 9
0 24 10
0 24 11
0 24 12
0 24 13
0 24 14
0 24 15
0 24 16
0 25 9
0 25 10
0 25 11
0 25 12
0 25 13
0 25 14
0 25 15
0 25 16
0 26 9
0 26 10
0 26 11
0 26 12
0 26 13
0 26 14
0 26 15
0 26 16
1 0 11
1 0 12
1 0 13
1 0 14
1 0 15
1 0 16
1 0 17
1 0 18
1 1 11
1 1 12
1 1 13
1 1 14
1 1 15
1 1 16
1 1 17
1 1 18
1 2 11
1 2 12
1 2 13
1 2 14
1 2 15
1 2 16
1 2 17
1 2 18
1 3 11
1 3 12
1 3 13
1 3 14
1 3 15
1 3 16
1 3 17
1 3 18
1 4 10
1 4 11
1 4 12
1 4 13
1 4 14
1 4 15
1 4 16
1 4 17
1 4 18
1 5 10
1 5 11
1 5 12
1 5 13
1 5 14
