"coordinate for region1 ACC"
14 17 16
14 18 15
14 18 16
14 19 14
14 19 15
14 19 16
15 17 15
15 17 16
15 18 14
15 18 15
15 18 16
15 19 13
15 19 14
15 19 15
15 19 16
15 20 13
15 20 14
15 20 15
15 20 16
15 21 14
15 21 15
16 16 15
16 17 14
16 17 16
16 18 13
16 18 14
16 18 15
16 18 16
16 19 13
16 19 14
16 19 15
16 19 16
16 20 13
16 20 14
16 20 15
16 20 16
16 21 13
16 21 14
16 21 15
16 21 16
16 22 12
16 22 15
16 22 16
17 16 15
17 17 14
17 17 15
17 18 13
17 18 14
17 18 15
17 18 16
17 19 13
17 19 14
17 19 15
17 19 16
17 20 13
17 20 14
17 20 15
17 20 16
17 21 13
17 21 14
17 21 15
17 21 16
18 16 15
18 16 16
18 17 14
18 17 15
18 17 16
18 18 13
18 18 14
18 18 15
18 18 16
18 19 12
18 19 13
18 19 14
18 19 15
18 19 16
18 20 13
18 20 14
18 20 15
18 20 16
18 21 13
18 21 14
18 21 15
18 21 16
19 16 15
19 17 14
19 17 15
19 17 16
19 18 13
19 18 14
19 18 15
19 18 16
19 19 13
19 19 14
19 19 15
19 19 16
19 20 12
19 20 13
19 20 14
19 20 15
19 20 16
19 21 13
19 21 14
19 21 15
19 21 16
19 22 15
20 17 15
20 17 16
20 18 14
20 18 15
20 18 16
20 19 13
20 19 14
20 19 15
20 19 16
20 20 13
20 20 15
20 20 16
21 18 16
21 19 15
21 19 16
