"coordinate for region44 Sep_l"
18 10 14
18 11 14
18 12 14
18 13 14
18 14 13
18 14 14
18 15 13
19 10 14
19 11 13
19 11 14
19 12 13
19 12 14
19 13 14
19 14 13
19 14 14
19 15 13
20 10 14
20 11 14
20 12 13
20 12 14
20 13 13
20 13 14
20 14 13
20 15 13
