"coordinate for region4 AU_r"
2 11 10
2 11 11
2 12 10
2 12 11
2 13 10
2 13 11
2 14 10
2 14 11
3 11 11
3 12 11
3 13 10
3 13 11
3 16 9
3 17 9
3 18 9
4 11 10
4 11 11
4 12 10
4 12 11
4 13 11
4 14 11
4 15 11
4 16 9
4 17 9
5 11 11
5 12 11
5 13 10
5 13 11
5 14 10
5 14 11
5 15 10
5 15 11
5 16 9
5 16 10
5 17 9
5 17 10
