"coordinate for region39 HIP_r"
6 8 10
6 9 10
7 6 10
7 7 10
7 8 10
7 9 10
7 10 10
7 11 10
7 12 10
7 13 9
7 13 10
8 6 10
8 7 10
8 8 10
8 9 10
8 12 10
8 13 10
8 14 9
8 14 10
8 16 9
9 5 10
9 6 10
9 7 10
9 8 10
9 10 9
9 12 9
9 14 9
9 14 10
9 15 10
9 16 9
9 16 10
9 17 9
9 17 10
10 5 10
10 6 10
10 7 10
10 14 9
10 15 11
10 16 9
10 16 11
10 17 9
10 17 10
11 5 10
11 6 10
11 14 9
11 15 9
11 15 10
11 15 11
11 16 9
11 16 10
11 16 11
11 17 9
11 17 10
11 17 11
11 18 10
12 5 10
12 15 9
12 15 10
12 15 11
12 16 10
12 16 11
12 17 9
12 17 10
12 17 11
12 18 9
12 18 10
13 15 10
13 15 11
13 16 10
13 16 11
13 17 9
13 17 10
13 17 11
13 18 10
13 18 11
14 15 10
14 15 11
14 16 10
14 16 11
14 16 12
14 17 10
14 17 11
14 18 10
14 18 11
15 14 11
15 15 10
15 15 11
15 16 10
15 16 11
15 16 12
15 17 10
15 17 11
16 14 11
16 15 11
16 15 12
16 16 11
16 17 11
17 15 11
