"coordinate for region34 H_r"
15 4 11
15 4 12
16 3 11
16 3 12
16 4 10
16 4 11
16 4 12
16 5 10
16 5 11
16 5 12
16 6 11
16 6 12
17 3 11
17 3 12
17 4 10
17 4 11
17 4 12
17 4 13
17 5 10
17 5 11
17 5 12
17 5 13
17 6 11
17 6 12
