"coordinate for region53 background"
24 0 15
24 0 16
24 0 17
24 0 18
24 1 10
24 1 11
24 1 12
24 1 13
24 1 14
24 1 15
24 1 16
24 1 17
24 1 18
24 2 10
24 2 11
24 2 12
24 2 13
24 2 14
24 2 15
24 2 16
24 2 17
24 2 18
24 3 10
24 3 16
24 3 17
24 3 18
24 4 16
24 4 17
24 5 17
24 6 17
24 7 17
24 8 17
24 9 16
24 9 17
24 10 16
24 10 17
24 11 16
24 11 17
25 0 11
25 0 12
25 0 13
25 0 14
25 0 15
25 0 16
25 0 17
25 0 18
25 1 10
25 1 11
25 1 12
25 1 13
25 1 14
25 1 15
25 1 16
25 1 17
25 1 18
25 2 10
25 2 11
25 2 12
25 2 13
25 2 14
25 2 15
25 2 16
25 2 17
25 2 18
25 3 10
25 3 16
25 3 17
25 3 18
25 4 10
25 4 16
25 4 17
25 5 17
25 6 17
25 7 16
