"coordinate for region43 Th_l"
18 7 11
18 7 12
18 8 11
18 8 12
18 9 11
18 9 12
18 10 11
18 10 12
18 11 10
18 11 11
18 11 12
18 12 10
18 12 11
18 12 12
18 13 11
18 13 12
19 7 11
19 7 12
19 8 11
19 8 12
19 9 10
19 9 11
19 9 12
19 10 11
19 10 12
19 11 11
19 11 12
19 12 10
19 12 11
19 12 12
19 13 10
19 13 11
19 13 12
20 7 11
20 7 12
20 8 11
20 8 12
20 9 10
20 9 11
20 9 12
20 10 10
20 10 11
20 10 12
20 11 10
20 11 11
20 11 12
20 12 10
20 12 11
20 12 12
20 13 10
20 13 11
20 13 12
20 14 11
21 7 11
21 8 11
21 8 12
21 9 11
21 9 12
21 10 10
21 10 11
21 10 12
21 11 10
21 11 11
21 11 12
21 12 10
21 12 11
21 12 12
21 13 10
21 13 11
21 13 12
21 14 10
21 14 11
21 14 12
22 8 10
22 8 11
22 9 11
22 9 12
22 10 10
22 10 11
22 10 12
22 11 10
22 11 11
22 11 12
22 12 10
22 12 11
22 12 12
22 13 10
22 13 11
22 13 12
22 14 10
22 14 11
22 14 12
22 15 11
23 8 10
23 8 11
23 9 10
23 9 11
23 10 10
23 10 11
23 10 12
23 11 10
23 11 11
23 11 12
23 12 10
23 12 11
23 12 12
23 13 10
23 13 11
23 13 12
23 14 10
23 14 11
23 15 10
23 15 11
24 8 10
24 9 10
24 9 11
24 10 10
24 10 11
24 11 9
24 11 10
24 11 11
24 11 12
24 12 9
24 12 10
24 12 11
24 12 12
24 13 10
24 13 11
24 13 12
24 14 9
24 14 10
24 14 11
24 15 10
24 15 11
25 9 10
25 10 9
25 10 10
25 10 11
25 11 9
25 11 10
25 11 11
25 12 9
25 12 10
25 12 11
25 13 9
25 13 10
25 13 11
25 14 9
25 14 10
25 14 11
25 15 10
26 10 9
26 10 10
26 11 9
26 11 10
26 11 11
26 12 9
26 12 10
26 12 11
26 13 9
26 13 10
26 13 11
26 14 10
27 12 10
