0.721756298224057
0.870791396905061
0.834531789387459
0.979421766618046
0.487220967196822
0.999984994667883
0.901018669746087
1
0.602666401113352
0.400102694415354
0.768376946593226
0.651641508745834
0.949355548999893
1
0.97724525110516
0.949355548999893
1
0.999999999999999
0.969619594792852
1
0.687675598925075
0.984116257427962
0.71212596172113
0.461423017633426
0.779820817262381
0.810264840405174
0.995280333276516
0.891055458551105
0.900326057681276
0.457106935314955
0.899854165603392
0.999126863901452
0.999968338720014
0.913376455668481
0.972194561420806
0.722795752693613
0.95555815335377
1
0.999841453611833
0.871375580565765
0.958471060438554
0.733771709978946
0.961469924418581
0.999999999999999
0.717212765438269
0.86440483968763
0.416187986636587
0.883309344648771
0.850512294442785
0.397328690648529
0.951248333479898
0.889589130307364
0.980182567415588
0.938970591501885
