0.588708584364072
0.8399296921546
0.76208374393227
0.408622831338493
0.655833814423514
0.99484508766016
0.999999999999999
0.618904571533201
0.997257982232893
0.999999999999999
0.924859082339774
0.775957247109119
0.999999999999999
0.809844102117979
0.987456982860635
0.447284472143955
0.371283383726108
0.621166050282425
0.965334583294434
0.733510000622366
0.985695320150386
0.998237299717815
0.866780600472838
1
1
0.430838472264567
0.864508752344949
1
1
0.430072543560664
0.517043805891355
0.999999999999999
0.770343611902718
0.598903049514249
0.881759931257769
0.61563623898829
0.681983148702953
0.948741662138028
0.793411569920382
1
0.599823766437953
0.902735942627112
1
0.716359355228709
0.97687250881176
1
0.714814990717569
1
0.361965792085487
0.953287303233973
0.366297745438914
0.696735254674649
0.836518571468585
0.371267633188714
0.940767949842406
0.592597014027132
0.653508133437843
0.999999999999999
0.837390120473286
0.686954728796381
1
0.941032055087242
0.710003319893886
0.999999999999999
0.817821385244375
0.750034421789371
1
0.636483334978371
0.98093714942427
0.404056302072252
0.787602731358606
0.424515109144924
0.877348618539514
0.622016159325197
0.400305658397968
0.975849064547546
0.917342087403922
0.591839236656546
0.999999999999999
0.994692597408024
0.581879056858253
0.999999999999999
0.996758907155974
0.611712205372153
1
0.923391837165809
0.526619279954044
0.999999999999999
0.853716891872228
0.407600130664262
0.880760907291829
0.485052972294575
0.962666566701217
0.986222312479269
0.864949394100147
0.440851342010678
0.994780887454277
0.991121107914746
0.546497691761364
0.999999999999999
0.999999999999999
0.546497691761363
1
1
0.546497691761363
1
0.999329574014554
0.462693856743969
0.999531901030406
0.936462682313618
0.365438134084499
0.783978658441267
0.623395128114805
0.928480248014874
0.880158708322751
0.472366769465594
1
0.970873325506955
0.449202404617806
1
1
0.450616115495879
1
0.996758907155976
0.494006089634014
0.994373876971579
0.895115547826919
0.55243571417735
0.945455181243156
0.515138029071082
0.685929791574282
0.538938588338862
0.837087151314149
0.825997120006486
0.352825435305439
0.845879115376597
0.841918300541268
0.845879115376596
0.845879115376596
0.453149443090674
0.845879115376597
0.845879115376597
0.438984209745225
0.837884495919728
0.824363546150116
0.456631175772498
0.83564687947897
0.523644434573633
