0.599599374077504
0.439887858028969
0.594066885730429
0.99304568724226
0.592402691637834
0.832831378647012
0.451122438185488
0.373355375136981
0.715054156466635
0.63293358489415
0.977832914032525
0.971052448288251
0.921191186475825
1
0.723998870894659
1
0.722639103536463
0.606289999200825
0.416895593251414
0.54990849203986
0.805222172255014
0.670424777481241
0.978907204789941
0.976229580965909
0.991919085174185
1
0.976229580965908
0.998614818107633
0.999999999999999
0.976229580965908
0.974429842932062
1
0.713534383410516
0.847583635097473
0.96838226724265
0.81622513204463
0.679928809105362
0.641527354039894
0.999981951529301
0.877475026423745
0.86682885585247
1
0.938633934040986
0.951649721702049
1
0.973766044724746
0.999999999999999
0.999999999999999
0.976229580965907
0.9998271843628
1
0.91986564651222
0.686875721611502
0.511113731414613
0.668983486406019
0.437189514412889
0.793855684832148
0.855454204294527
1
0.865803835190111
0.876836901884445
1
0.911942134094571
0.997879920015164
0.993129381989658
0.896652025163351
0.745294506027307
0.91909441603207
0.707393986243846
0.655544170736743
0.999403766613246
0.850749533305481
0.868643801564236
0.441465101703574
