0.878033836812025
0.432586620491162
0.794152436619296
0.563123795261042
0.621638654898708
0.974286547533417
0.462955052294178
0.437967346040804
0.869793270344307
0.467030722051191
0.70007021796387
0.780727859394533
0.960801595431574
0.603129067162071
0.414894895072037
0.869793270344306
0.354284947606613
0.786969918436518
0.927390759984775
0.350445983609796
