0.670883239005369
0.614380464938442
0.841499907105951
0.696902971882221
0.553557243400066
0.463202443099804
0.505091471878869
0.459799327970459
0.416439889969883
0.569307988554037
0.681643062134277
0.648440193982812
0.588908217416575
0.388751020152426
0.679710317150971
0.650665196371671
0.454408615094909
0.406063668004049
