0.873468654041689
0.887449555521385
0.841112419165449
0.856938808120912
0.456523380307254
0.627061338216931
0.681465840434422
0.89012321110019
0.363252171966685
1
0.373093207228638
1
0.998846865598877
0.423873662918233
0.875242855515293
0.697310877705045
0.431657821307741
0.841245181312096
0.378608130683088
0.771437191995676
0.408032200887083
0.624972933189359
0.474613783399835
0.466419439005016
