0.426862688478351
0.688203860087358
0.54221050620157
0.86987795738676
0.907370440994987
0.38253293442493
0.768588631469101
0.473261791958238
0.658729564404238
0.727284542694469
0.672423965401261
0.444194834647394
0.724988386563117
0.87707307145745
0.621956441663754
0.802294911564844
0.761823231534875
0.530480535087072
0.359466040450063
