0.389977219730524
0.536610288935924
0.36139654434582
0.479673795601935
0.693093886886846
0.773668602108102
0.534571440899674
0.887034818917908
0.705683484409715
0.985106323961829
0.699253871921583
0.826818501291834
0.777066632632425
0.626865871069294
0.547397643080683
0.542360138797983
0.35428196674254
0.938479093465784
0.930775035511364
0.701912630120816
0.986854831848897
0.930775035511364
0.841658387604451
1
0.735533168060871
1
0.605584848969649
0.705588600852274
0.921159834584108
0.700841343106817
0.832657668989331
0.405009994080759
0.383263211033382
0.99858923430447
1
0.999999999999999
1
0.863015300008375
1
0.76381814094168
1
0.605981394409203
0.658631977509314
0.998302820086589
0.983818185902903
0.8883621321008
0.643831378957052
