0.6387176529126
0.515183497581311
0.694465110215949
0.688122016057446
0.494786439894722
0.580451483459452
0.457671636002263
0.392219099759244
0.45244766350348
0.450042710036746
0.685036488209913
0.942407896837893
1
0.415334184614442
0.863196708564225
1
1
0.445064786302808
0.63493113062054
0.913116301829733
0.959095027458205
0.437690184812833
0.444159572442956
0.978107845347651
0.999904281528235
0.417374103281776
0.786118309611682
1
1
0.882494297298884
0.97163184965835
0.593640065850327
0.703415403682738
0.449906190276125
0.643280700929907
0.867361433770126
