"EST" "CORR"
"agg" 0.880110379726435
"ave" 0.0798837289876797
"laveB" 0.375562464838618
"agg" 0.85304419219411
"ave" 0.0919566095682549
"laveB" 0.412215529680181
"agg" 0.821929521320831
"ave" 0.0921321124240689
"laveB" 0.394660123998718
"agg" 0.860461986158417
"ave" 0.0551522868956412
"laveB" 0.305751586494243
"agg" 0.81534411922298
"ave" 0.0393141159652654
"laveB" 0.262759754947265
"agg" 0.65361808499076
"ave" 0.0636222800182519
"laveB" 0.314086045941725
"agg" 0.616028673566413
"ave" 0.0657763845251052
"laveB" 0.307782649635566
"agg" 0.744286753275636
"ave" 0.0775831518188972
"laveB" 0.38021936389267
"agg" 0.746127609430196
"ave" 0.0720982643775463
"laveB" 0.358778942986919
"agg" 0.478140667912698
"ave" 0.0458463348024252
"laveB" 0.204210813423129
"agg" 0.264472536667948
"ave" 0.0282339063825051
"laveB" 0.124550598761105
"agg" 0.564453657051395
"ave" 0.0450174249139157
"laveB" 0.246245624779796
"agg" 0.516837078770111
"ave" 0.0476819029481913
"laveB" 0.227134831108308
"agg" 0.314547159788481
"ave" 0.0400416277410851
"laveB" 0.147647616693653
"agg" 0.190423355244605
"ave" 0.0191453075220203
"laveB" 0.082784826945071
"agg" 0.534330524978453
"ave" 0.051441255259298
"laveB" 0.237183472820735
"agg" 0.637380898975197
"ave" 0.0535187528192988
"laveB" 0.263429091195239
"agg" 0.65905952772862
"ave" 0.0679585350239404
"laveB" 0.335741486694227
"agg" 0.700949469998039
"ave" 0.0621024698214053
"laveB" 0.308576075208353
"agg" 0.454896951896846
"ave" 0.0292800324125159
"laveB" 0.152500895196024
"agg" 0.484403789905788
"ave" 0.0314087483016932
"laveB" 0.176377321034269
"agg" 0.367441382689172
"ave" 0.021500080971383
"laveB" 0.152913227537308
"agg" 0.463259863189371
"ave" 0.0289053380572047
"laveB" 0.197512087428311
"agg" 0.0877667065703472
"ave" 0.0087979714953289
"laveB" 0.0353631682052608
"agg" 0.192141691988386
"ave" 0.0169511511238679
"laveB" 0.0897730113677585
"agg" 0.468112817666842
"ave" 0.0331064674119523
"laveB" 0.204955926904405
"agg" 0.296827623903385
"ave" 0.0229093221498887
"laveB" 0.11152274104335
"agg" 0.534705934216749
"ave" 0.0412818442987439
"laveB" 0.26039848630491
"agg" 0.472700880311193
"ave" 0.052253242158644
"laveB" 0.270314113675533
"agg" 0.625721094892106
"ave" 0.0538570053357282
"laveB" 0.308933010798124
"agg" 0.577998298881939
"ave" 0.0466435920576585
"laveB" 0.244961962002878
"agg" 0.357676680156874
"ave" 0.0143342074206057
"laveB" 0.120663896990423
"agg" 0.572926493815395
"ave" 0.0261080174504984
"laveB" 0.202746325787561
"agg" 0.474740397463551
"ave" 0.0371570328660614
"laveB" 0.18873513870078
"agg" 0.548543730076973
"ave" 0.0390743454209037
"laveB" 0.198849616313158
"agg" 0.596163734479454
"ave" 0.0264129816283336
"laveB" 0.147155792754792
"agg" 0.655129931287407
"ave" 0.0349517170578315
"laveB" 0.215523036428489
"agg" 0.45273426280279
"ave" 0.031111219185056
"laveB" 0.192466263147603
"agg" 0.446351574501202
"ave" 0.0260806851700798
"laveB" 0.18997549126473
"agg" 0.486052672103214
"ave" 0.025804746847743
"laveB" 0.18264520238468
"agg" 0.506399603057851
"ave" 0.0202388844018014
"laveB" 0.170390848470191
"agg" 0.667218007221842
"ave" 0.0343411261536022
"laveB" 0.258113226567473
"agg" 0.611264905512591
"ave" 0.0334740011742101
"laveB" 0.235481591391603
"agg" 0.507948738334389
"ave" 0.0221315110475734
"laveB" 0.161549954071745
"agg" 0.814902670510801
"ave" 0.0799230283674295
"laveB" 0.373360254817325
"agg" 0.81440005850723
"ave" 0.0840005359238863
"laveB" 0.377959522019416
"agg" 0.859545221512577
"ave" 0.0493139123024036
"laveB" 0.282416570239309
"agg" 0.769645117092235
"ave" 0.0336900801906399
"laveB" 0.229476451332238
"agg" 0.578116565536944
"ave" 0.0521306272280957
"laveB" 0.255345586496999
"agg" 0.529457225185724
"ave" 0.0524097721799074
"laveB" 0.262822306504177
"agg" 0.696077900829893
"ave" 0.0664646845441871
"laveB" 0.323068413207784
"agg" 0.666403209740048
"ave" 0.0578940290437567
"laveB" 0.307458291273954
"agg" 0.403707374947001
"ave" 0.033736681581759
"laveB" 0.15385913125509
"agg" 0.217878841734578
"ave" 0.0216919749212626
"laveB" 0.0861578187995803
"agg" 0.491866559311809
"ave" 0.0341158750057323
"laveB" 0.1994962782474
"agg" 0.639585816572714
"ave" 0.0550117725644212
"laveB" 0.249163760430101
"agg" 0.272633699715501
"ave" 0.0325879172399609
"laveB" 0.110889140672336
"agg" 0.158604833054046
"ave" 0.0150816256103049
"laveB" 0.047864091133321
"agg" 0.357507860059643
"ave" 0.0317334442160872
"laveB" 0.14364539207923
"agg" 0.590237563410922
"ave" 0.0462980510669499
"laveB" 0.239470099550526
"agg" 0.448781395021677
"ave" 0.0403478144317987
"laveB" 0.19516721870566
"agg" 0.519177161583753
"ave" 0.0396219483216791
"laveB" 0.21608181754848
"agg" 0.379398489805558
"ave" 0.0243075183801573
"laveB" 0.134899806759136
"agg" 0.530881850204463
"ave" 0.032331698168961
"laveB" 0.21208100205922
"agg" 0.584237918852291
"ave" 0.0329313409821388
"laveB" 0.252144128710407
"agg" 0.627347440260359
"ave" 0.0365173391635065
"laveB" 0.273458089560671
"agg" 0.275774042463347
"ave" 0.0252362438309626
"laveB" 0.140911067902198
"agg" 0.254150385364801
"ave" 0.0208118769955414
"laveB" 0.120554046613928
"agg" 0.599226821659695
"ave" 0.0390187372622711
"laveB" 0.245695289898698
"agg" 0.53564095502014
"ave" 0.0388563585377204
"laveB" 0.235764067828695
"agg" 0.518090967356242
"ave" 0.0370331062785379
"laveB" 0.242066180669319
"agg" 0.620585283794599
"ave" 0.0641910548789371
"laveB" 0.335125513058582
"agg" 0.617379428011564
"ave" 0.0484956485398418
"laveB" 0.296821792077798
"agg" 0.621112154797825
"ave" 0.0482932321257022
"laveB" 0.283917967739337
"agg" 0.464912349370235
"ave" 0.0171375551208368
"laveB" 0.137383088150067
"agg" 0.647396276005936
"ave" 0.0278626446476574
"laveB" 0.238079281297068
"agg" 0.400564329993431
"ave" 0.028195642475661
"laveB" 0.150449608872482
"agg" 0.600806292541447
"ave" 0.0400898864147292
"laveB" 0.210577780368727
"agg" 0.536295156421844
"ave" 0.0209327769293272
"laveB" 0.138386180991216
"agg" 0.670331176532414
"ave" 0.0331239813938132
"laveB" 0.206393849207969
"agg" 0.398981771762445
"ave" 0.0255840373206462
"laveB" 0.166442113676233
"agg" 0.403490181332804
"ave" 0.0221695654993719
"laveB" 0.168505772482817
"agg" 0.18013047656226
"ave" 0.00950432367661594
"laveB" 0.0704633204283584
"agg" 0.260212800919157
"ave" 0.0101858348231668
"laveB" 0.0735673616430461
"agg" 0.655304347268163
"ave" 0.0322053476649964
"laveB" 0.254680067095026
"agg" 0.644768993882168
"ave" 0.032177129114421
"laveB" 0.238068693692499
"agg" 0.267072638096831
"ave" 0.0112770953506933
"laveB" 0.0728043462322098
"agg" 0.926461921062226
"ave" 0.111644159205789
"laveB" 0.471581024221296
"agg" 0.798889570945565
"ave" 0.055881758338199
"laveB" 0.30286580163587
"agg" 0.775296450448244
"ave" 0.0418534258462434
"laveB" 0.253766459501439
"agg" 0.570840777677756
"ave" 0.0622921051317077
"laveB" 0.280430539435163
"agg" 0.493624545507427
"ave" 0.0593985420352472
"laveB" 0.26065217086326
"agg" 0.825621130311607
"ave" 0.0908831133004882
"laveB" 0.43141989980994
"agg" 0.81144405604246
"ave" 0.0832404909173071
"laveB" 0.409716514131237
"agg" 0.488164333970599
"ave" 0.0468929198658142
"laveB" 0.213401070814249
"agg" 0.288043800347923
"ave" 0.0288640015327134
"laveB" 0.135873116507062
"agg" 0.472503409120241
"ave" 0.0411631980134926
"laveB" 0.211342642984064
"agg" 0.497027101469135
"ave" 0.0482801508625892
"laveB" 0.216008000002237
"agg" 0.363236213209588
"ave" 0.0476337027088922
"laveB" 0.166489406055091
"agg" 0.228471762603704
"ave" 0.0205085005472917
"laveB" 0.102180972823809
"agg" 0.588421588540844
"ave" 0.0587801856994241
"laveB" 0.261564078444651
"agg" 0.699262362163668
"ave" 0.0618403307827327
"laveB" 0.302862458900116
"agg" 0.554326765119543
"ave" 0.0613867477600025
"laveB" 0.281055738808625
"agg" 0.648518176018108
"ave" 0.0613566990573425
"laveB" 0.302580889164992
"agg" 0.351454319685835
"ave" 0.0258063370139635
"laveB" 0.135146169764947
"agg" 0.440741741837999
"ave" 0.0315392606515765
"laveB" 0.19040562454437
"agg" 0.36464973181441
"ave" 0.0233129130882385
"laveB" 0.169354043085446
"agg" 0.426221231986861
"ave" 0.0292347670531495
"laveB" 0.192583388419926
"agg" 0.0667909142639123
"ave" 0.00712781153225
"laveB" 0.043137443876603
"agg" 0.0641134493886124
"ave" 0.00781583743699016
"laveB" 0.0365437222899607
"agg" 0.47337044707595
"ave" 0.0340641006745947
"laveB" 0.215100242490171
"agg" 0.407968404008167
"ave" 0.0318332527184013
"laveB" 0.18350388965264
"agg" 0.373208458638324
"ave" 0.0326796062631731
"laveB" 0.192315036001359
"agg" 0.428282906615382
"ave" 0.0524188018366847
"laveB" 0.264072610831104
"agg" 0.463806093880527
"ave" 0.0460107572237194
"laveB" 0.241686935240863
"agg" 0.467302596170218
"ave" 0.0440923799123366
"laveB" 0.213273966065315
"agg" 0.26285223678142
"ave" 0.0123797312610258
"laveB" 0.0950209655555541
"agg" 0.472374726561127
"ave" 0.0237300426661452
"laveB" 0.187668859531769
"agg" 0.378242145385476
"ave" 0.0336648237078527
"laveB" 0.161324460130185
"agg" 0.556107288188379
"ave" 0.0427974611944137
"laveB" 0.213068495993193
"agg" 0.575689140240139
"ave" 0.0272254923889292
"laveB" 0.158412149393121
"agg" 0.679310104979893
"ave" 0.0386542794570602
"laveB" 0.246175760388133
"agg" 0.573966531653019
"ave" 0.0398396310353831
"laveB" 0.277435355374846
"agg" 0.575501370125454
"ave" 0.0351581146438541
"laveB" 0.257111930579073
"agg" 0.391651632531965
"ave" 0.0231680289664216
"laveB" 0.180686357991481
"agg" 0.518149248998008
"ave" 0.0224471939564735
"laveB" 0.174789398134198
"agg" 0.765138944768073
"ave" 0.0413305872275714
"laveB" 0.317610505421615
"agg" 0.696889377476211
"ave" 0.0404207060215662
"laveB" 0.283126450175811
"agg" 0.468398191273056
"ave" 0.0220814169151397
"laveB" 0.135932359617498
"agg" 0.773736067232562
"ave" 0.0564902223636203
"laveB" 0.299984492279977
"agg" 0.82713923606241
"ave" 0.0459604748476602
"laveB" 0.307886168381971
"agg" 0.555609353304542
"ave" 0.0636248091488669
"laveB" 0.288186483048669
"agg" 0.512819151014389
"ave" 0.0649222631951236
"laveB" 0.266872474969679
"agg" 0.81567079410707
"ave" 0.0949603770526275
"laveB" 0.444750909788627
"agg" 0.84627591349907
"ave" 0.0916234643739241
"laveB" 0.439466662667196
"agg" 0.445659030342191
"ave" 0.0471208040427013
"laveB" 0.208761787564273
"agg" 0.232905450313891
"ave" 0.0267323952944816
"laveB" 0.139372938390205
"agg" 0.427803290624326
"ave" 0.0399405821127216
"laveB" 0.194731646201118
"agg" 0.429440844299821
"ave" 0.0468565999793349
"laveB" 0.198869093031599
"agg" 0.304216690562339
"ave" 0.0417040195770952
"laveB" 0.138768332667111
"agg" 0.149100588052863
"ave" 0.0140354925153954
"laveB" 0.0457787715345763
"agg" 0.487820452478304
"ave" 0.0526898219490119
"laveB" 0.242974084325873
"agg" 0.603966878037765
"ave" 0.0576333531001597
"laveB" 0.2742787421737
"agg" 0.556490986775107
"ave" 0.0647954831249031
"laveB" 0.273283854312862
"agg" 0.658209733228385
"ave" 0.0662049467850456
"laveB" 0.315436349933305
"agg" 0.347974980247515
"ave" 0.0269785959199927
"laveB" 0.129210849869387
"agg" 0.403512513856392
"ave" 0.0303972294389034
"laveB" 0.182941144732086
"agg" 0.329575766277073
"ave" 0.0225158758600038
"laveB" 0.161967963803069
"agg" 0.403276838214509
"ave" 0.029305557718636
"laveB" 0.190731400462209
"agg" 0.0289358013736822
"ave" 0.00435770122961562
"laveB" 0.0191221204566431
"agg" 0.0838186954569826
"ave" 0.0107891049176856
"laveB" 0.0500566237777866
"agg" 0.383279975084481
"ave" 0.0302500554767528
"laveB" 0.18671669270405
"agg" 0.323835733267987
"ave" 0.0277238420779276
"laveB" 0.142379016498897
"agg" 0.382975602558389
"ave" 0.0353852969592481
"laveB" 0.21100644443491
"agg" 0.427494308133082
"ave" 0.0567518863911984
"laveB" 0.272250369747942
"agg" 0.472141539106892
"ave" 0.0488044684297814
"laveB" 0.248234477500168
"agg" 0.49176992980998
"ave" 0.0498603403949011
"laveB" 0.246421164384704
"agg" 0.299424243334382
"ave" 0.0146700702370021
"laveB" 0.0979916071253624
"agg" 0.497308279546344
"ave" 0.0268655177187597
"laveB" 0.213424400392276
"agg" 0.413801460207145
"ave" 0.0374587743737679
"laveB" 0.196221688238419
"agg" 0.531133165472252
"ave" 0.0438291909424642
"laveB" 0.195291184184014
"agg" 0.587510995025005
"ave" 0.0292437895394748
"laveB" 0.176760002862791
"agg" 0.674464523834284
"ave" 0.0415075646369015
"laveB" 0.245321947392806
"agg" 0.495609486356333
"ave" 0.0366263728619725
"laveB" 0.238422160516737
"agg" 0.536255248208159
"ave" 0.0339865381894691
"laveB" 0.250467940838871
"agg" 0.38031686594807
"ave" 0.0231747082523776
"laveB" 0.167497287223354
"agg" 0.484148617435495
"ave" 0.0218400218260917
"laveB" 0.165504486034213
"agg" 0.70262514557503
"ave" 0.0403613880746542
"laveB" 0.30075052420852
"agg" 0.63999766208876
"ave" 0.039456476043204
"laveB" 0.261758290089288
"agg" 0.416933097856802
"ave" 0.0205280214713356
"laveB" 0.130405867829211
"agg" 0.809594084961222
"ave" 0.0255470153925941
"laveB" 0.219711038529505
"agg" 0.690446891601931
"ave" 0.0442928076037085
"laveB" 0.261140848358435
"agg" 0.650816394216537
"ave" 0.0464612627225593
"laveB" 0.274830600327044
"agg" 0.703263730220522
"ave" 0.0480098205517251
"laveB" 0.273263945375977
"agg" 0.663948157971048
"ave" 0.0418241459583967
"laveB" 0.236867178413947
"agg" 0.420283068403034
"ave" 0.0251523393885959
"laveB" 0.149648193477559
"agg" 0.171227579320913
"ave" 0.0111114933390908
"laveB" 0.0701504414569237
"agg" 0.533291462933068
"ave" 0.0268380358357848
"laveB" 0.179765724050026
"agg" 0.578157579312462
"ave" 0.0333319845703126
"laveB" 0.174099700459319
"agg" 0.355471998005529
"ave" 0.0281838999022088
"laveB" 0.124007496321549
"agg" 0.168493225090615
"ave" 0.00912120999228366
"laveB" 0.0479195725356995
"agg" 0.388447728676135
"ave" 0.0245283490794527
"laveB" 0.151663510618316
"agg" 0.576759086904376
"ave" 0.0310173123183226
"laveB" 0.195049409191489
"agg" 0.579027056182609
"ave" 0.0405103352528267
"laveB" 0.221094762717204
"agg" 0.587508386555494
"ave" 0.0341385857116676
"laveB" 0.2060683252833
"agg" 0.428496967333105
"ave" 0.0183794572557792
"laveB" 0.11623445568188
"agg" 0.581689996871065
"ave" 0.0233979367989741
"laveB" 0.193081566167736
"agg" 0.55726163227518
"ave" 0.0202003781424508
"laveB" 0.198276016355434
"agg" 0.593687174714686
"ave" 0.0230568349436618
"laveB" 0.202343971317086
"agg" 0.226239991770949
"ave" 0.0128959641094164
"laveB" 0.0989844210884784
"agg" 0.294401389537519
"ave" 0.0162322463074027
"laveB" 0.106611242549434
"agg" 0.497261901236098
"ave" 0.0209219355240596
"laveB" 0.167793225519166
"agg" 0.434674320674246
"ave" 0.0192903740890795
"laveB" 0.129411010848412
"agg" 0.601108214974951
"ave" 0.030337929244264
"laveB" 0.242888917432847
"agg" 0.639221275291247
"ave" 0.0443111803485204
"laveB" 0.280574665111621
"agg" 0.727472564253017
"ave" 0.0405028256379371
"laveB" 0.282033711162017
"agg" 0.69423719213151
"ave" 0.0367869797314899
"laveB" 0.24652370183492
"agg" 0.601165653392267
"ave" 0.0152962407428182
"laveB" 0.156460523538114
"agg" 0.678519330713343
"ave" 0.0200510305082574
"laveB" 0.206694600583469
"agg" 0.530112189005357
"ave" 0.0262495038796462
"laveB" 0.183493019981526
"agg" 0.615267650145122
"ave" 0.0275604746927549
"laveB" 0.163144078772121
"agg" 0.614275697487653
"ave" 0.016648030201633
"laveB" 0.113477873650703
"agg" 0.639655033575506
"ave" 0.0211788994785493
"laveB" 0.158240324839216
"agg" 0.368918955427661
"ave" 0.0158332340662986
"laveB" 0.114682477041173
"agg" 0.400373418080018
"ave" 0.014857928370344
"laveB" 0.125469506986333
"agg" 0.24210812357204
"ave" 0.00986808048762406
"laveB" 0.0883735415649961
"agg" 0.334525609278998
"ave" 0.00945047814640045
"laveB" 0.0812720688423485
"agg" 0.562249157107623
"ave" 0.0189755270440317
"laveB" 0.177832074390027
"agg" 0.598629748615761
"ave" 0.0202448043582469
"laveB" 0.179073370543674
"agg" 0.271871183693545
"ave" 0.00854589064727971
"laveB" 0.057774991455264
"agg" 0.612904634682719
"ave" 0.0296587519881665
"laveB" 0.19993642481828
"agg" 0.605304371300977
"ave" 0.0327394149148086
"laveB" 0.213283660251098
"agg" 0.682010335179739
"ave" 0.0357711269341541
"laveB" 0.241615261022894
"agg" 0.732346527233412
"ave" 0.0350329243486205
"laveB" 0.269590441158312
"agg" 0.310287258425422
"ave" 0.0154683382813393
"laveB" 0.1006908032272
"agg" 0.102965697527712
"ave" 0.00532899305860027
"laveB" 0.0409509409842688
"agg" 0.468134689650751
"ave" 0.0186823034097154
"laveB" 0.139523327570141
"agg" 0.385774532105385
"ave" 0.0179695796480194
"laveB" 0.120946028263825
"agg" 0.126516979486708
"ave" 0.00756919948192914
"laveB" 0.0491619970204559
"agg" -0.00568344913915233
"ave" -0.00162078211980083
"laveB" -0.00712675707972307
"agg" 0.360593227213444
"ave" 0.0178331257419751
"laveB" 0.142576602238644
"agg" 0.516341314843016
"ave" 0.0217148658811993
"laveB" 0.173031396995546
"agg" 0.591604085908114
"ave" 0.0309424506883271
"laveB" 0.178497932949165
"agg" 0.648781119472094
"ave" 0.0295208198734952
"laveB" 0.1995618277335
"agg" 0.337635002325926
"ave" 0.0106674118716917
"laveB" 0.0909167408368613
"agg" 0.378402956779093
"ave" 0.0118713809850095
"laveB" 0.118610639723605
"agg" 0.258888334487635
"ave" 0.00720195374561984
"laveB" 0.0759457986505139
"agg" 0.369760486394634
"ave" 0.0110601731139343
"laveB" 0.120427230817562
"agg" -0.00588349431646986
"ave" -0.000390168259621586
"laveB" 0.0189843576400924
"agg" 0.134919589211665
"ave" 0.00571604546655871
"laveB" 0.0505543780200843
"agg" 0.217984195052532
"ave" 0.00746436339350824
"laveB" 0.0649610673780213
"agg" 0.134341108152689
"ave" 0.00471027255624632
"laveB" 0.0542694276784674
"agg" 0.505590099292005
"ave" 0.0194097654090894
"laveB" 0.184304359850466
"agg" 0.413577533999762
"ave" 0.0226376370224137
"laveB" 0.16449870879572
"agg" 0.613219631897215
"ave" 0.0265225436937645
"laveB" 0.206199668686539
"agg" 0.561004624073123
"ave" 0.0229366524159977
"laveB" 0.176972533163254
"agg" 0.293891812171558
"ave" 0.00604998910230244
"laveB" 0.0689933652730836
"agg" 0.482705517729153
"ave" 0.0112309746968121
"laveB" 0.125896984480847
"agg" 0.379408663529594
"ave" 0.0147042912646395
"laveB" 0.108460105080097
"agg" 0.430402935590544
"ave" 0.0150835152279919
"laveB" 0.100816780163875
"agg" 0.43287308264473
"ave" 0.0099058321394491
"laveB" 0.093627573155814
"agg" 0.498816732360671
"ave" 0.0131224526738847
"laveB" 0.116108715401911
"agg" 0.251938180520636
"ave" 0.00814218589244183
"laveB" 0.0618975678177204
"agg" 0.32000923866944
"ave" 0.00897387763494511
"laveB" 0.0940878945523469
"agg" 0.470417203561582
"ave" 0.0123455615681574
"laveB" 0.131827556130458
"agg" 0.482795314404255
"ave" 0.00936938104239098
"laveB" 0.104252985602582
"agg" 0.471021416497846
"ave" 0.0119209954434184
"laveB" 0.124024595620247
"agg" 0.452537639457974
"ave" 0.012291577443881
"laveB" 0.135938974956781
"agg" 0.408650331326664
"ave" 0.00892733918767097
"laveB" 0.0806520254956477
"agg" 0.941676603478699
"ave" 0.105125080353945
"laveB" 0.475031677210785
"agg" 0.630943723876692
"ave" 0.068734676406847
"laveB" 0.327681349005129
"agg" 0.670748359712527
"ave" 0.0660447761533152
"laveB" 0.349936208657504
"agg" 0.466539930666218
"ave" 0.0475171292248245
"laveB" 0.22559448747095
"agg" 0.218493870154823
"ave" 0.0228653190341989
"laveB" 0.116797953608407
"agg" 0.616515002094028
"ave" 0.050541887852597
"laveB" 0.258092467869424
"agg" 0.437289440469556
"ave" 0.0424178622478342
"laveB" 0.184844971341501
"agg" 0.385001717908633
"ave" 0.0505370933547187
"laveB" 0.207489993757421
"agg" 0.237434113340695
"ave" 0.0250559113804966
"laveB" 0.10105186518394
"agg" 0.475713549676683
"ave" 0.0461179619918974
"laveB" 0.227592214706199
"agg" 0.558745431549828
"ave" 0.0479636697743533
"laveB" 0.249850393626319
"agg" 0.771197753489785
"ave" 0.0846186620401243
"laveB" 0.400664137458224
"agg" 0.750395147649856
"ave" 0.0696806148831141
"laveB" 0.364129386030262
"agg" 0.424651333828299
"ave" 0.0275326129498806
"laveB" 0.152993958695184
"agg" 0.435475952531978
"ave" 0.0283673051430528
"laveB" 0.185936993493621
"agg" 0.33104912946754
"ave" 0.0203284199494919
"laveB" 0.148647212607974
"agg" 0.385422631250212
"ave" 0.0243098114283263
"laveB" 0.175929131792428
"agg" 0.254240767374571
"ave" 0.0265448145558127
"laveB" 0.14952831248702
"agg" 0.284714057439592
"ave" 0.0249813678136368
"laveB" 0.126245667494726
"agg" 0.372140415769503
"ave" 0.0261847661403945
"laveB" 0.176228867535721
"agg" 0.194371945816256
"ave" 0.0144668825285274
"laveB" 0.0706548959382684
"agg" 0.711973088569345
"ave" 0.0574924141613753
"laveB" 0.371125860637168
"agg" 0.601273394119782
"ave" 0.068408613133969
"laveB" 0.348115609311557
"agg" 0.787211142162701
"ave" 0.0711442509483498
"laveB" 0.398120528358531
"agg" 0.756002629265095
"ave" 0.0637876936100895
"laveB" 0.348887461941644
"agg" 0.506305695819692
"ave" 0.021107668226251
"laveB" 0.194794010807082
"agg" 0.637315419772114
"ave" 0.0299911953507357
"laveB" 0.264211224980407
"agg" 0.631050026327349
"ave" 0.0503964534498571
"laveB" 0.271030940383793
"agg" 0.564255055589583
"ave" 0.0413274385189816
"laveB" 0.209270817893006
"agg" 0.516420655969143
"ave" 0.0228669804546263
"laveB" 0.145322601189446
"agg" 0.531180499995849
"ave" 0.0283536330144652
"laveB" 0.18279957974414
"agg" 0.296084247448563
"ave" 0.0195819641645012
"laveB" 0.147231572272719
"agg" 0.322463537816979
"ave" 0.0180598130373037
"laveB" 0.142484076142318
"agg" 0.349747854114617
"ave" 0.0181108648809434
"laveB" 0.136408983476797
"agg" 0.434103171151238
"ave" 0.0169190548334079
"laveB" 0.148672902353168
"agg" 0.467982335123945
"ave" 0.0234065814768153
"laveB" 0.198653106798441
"agg" 0.549120247460885
"ave" 0.0293338120484315
"laveB" 0.225241795621573
"agg" 0.349871170711752
"ave" 0.0146471743802857
"laveB" 0.0901719278118513
"agg" 0.538001230390102
"ave" 0.0657805384046861
"laveB" 0.293559246206465
"agg" 0.605613917756811
"ave" 0.0662630069248246
"laveB" 0.325493474483887
"agg" 0.400261113038479
"ave" 0.0444731457360874
"laveB" 0.196131019596289
"agg" 0.167767189556297
"ave" 0.018045655671136
"laveB" 0.113219475209966
"agg" 0.556215582093798
"ave" 0.0490855842255828
"laveB" 0.232202589320331
"agg" 0.389623882024789
"ave" 0.0427362922039207
"laveB" 0.195077783633315
"agg" 0.377291972518747
"ave" 0.0546077647621926
"laveB" 0.208100818856641
"agg" 0.200307379787837
"ave" 0.0219925794265377
"laveB" 0.0982466088240115
"agg" 0.425157600831939
"ave" 0.044736596762877
"laveB" 0.220917737216957
"agg" 0.487066497534889
"ave" 0.0453133124435383
"laveB" 0.222723204435879
"agg" 0.769905064516158
"ave" 0.0940332136309592
"laveB" 0.410284863083378
"agg" 0.711736760072613
"ave" 0.07373061326231
"laveB" 0.347476274198986
"agg" 0.416905750990802
"ave" 0.0295424488550375
"laveB" 0.174743331158625
"agg" 0.410333768512857
"ave" 0.0293123086955123
"laveB" 0.186772673726782
"agg" 0.258149955214886
"ave" 0.0181643794994343
"laveB" 0.122540001454766
"agg" 0.327499035721427
"ave" 0.0233576236127513
"laveB" 0.143576388606613
"agg" 0.223001350848766
"ave" 0.0262005637264597
"laveB" 0.139615184273041
"agg" 0.236660385854553
"ave" 0.0237692936239994
"laveB" 0.114120885031716
"agg" 0.315502740714663
"ave" 0.0245753268570255
"laveB" 0.154348793968134
"agg" 0.130207955042899
"ave" 0.0102009320734788
"laveB" 0.0548403134372341
"agg" 0.73055913973332
"ave" 0.0661908078672767
"laveB" 0.387571559397782
"agg" 0.607941575740172
"ave" 0.0782139940472591
"laveB" 0.366801580067122
"agg" 0.78564292969579
"ave" 0.0792483092581245
"laveB" 0.398366440451397
"agg" 0.767635864646942
"ave" 0.072552425859914
"laveB" 0.36181807620299
"agg" 0.495255624427431
"ave" 0.0232809478410572
"laveB" 0.181419106418661
"agg" 0.642907376739071
"ave" 0.0342879206974627
"laveB" 0.2692188821715
"agg" 0.635866942786473
"ave" 0.0549046315015652
"laveB" 0.264857406137911
"agg" 0.521773071089493
"ave" 0.041937776223357
"laveB" 0.214090804201287
"agg" 0.469688674695426
"ave" 0.0225114746200359
"laveB" 0.131429776489174
"agg" 0.462005330605312
"ave" 0.0262663531640958
"laveB" 0.152063137986816
"agg" 0.189844427484558
"ave" 0.0117005015214269
"laveB" 0.0804276688220857
"agg" 0.251674269367837
"ave" 0.0141249336293812
"laveB" 0.106420797748975
"agg" 0.336081572907169
"ave" 0.0185326442914587
"laveB" 0.133336972633396
"agg" 0.374832875544306
"ave" 0.015788409150337
"laveB" 0.129378331512317
"agg" 0.38632462088397
"ave" 0.0201152797070334
"laveB" 0.164507034428493
"agg" 0.477453612959123
"ave" 0.0276144603261252
"laveB" 0.19448295795295
"agg" 0.32097379334127
"ave" 0.0139076648402963
"laveB" 0.0962136083669787
"agg" 0.920635552817263
"ave" 0.0912659850006877
"laveB" 0.47596034065556
"agg" 0.621010417356904
"ave" 0.0592352756991472
"laveB" 0.298340668151924
"agg" 0.379058899681284
"ave" 0.0354457685898521
"laveB" 0.186453621104995
"agg" 0.485060957524273
"ave" 0.0396578963246374
"laveB" 0.209167958198569
"agg" 0.435086979993523
"ave" 0.0400229052199482
"laveB" 0.209491500195601
"agg" 0.3934872603782
"ave" 0.0499882628624672
"laveB" 0.2055898367768
"agg" 0.274160704625766
"ave" 0.0242235652139125
"laveB" 0.10667065364044
"agg" 0.658318408323107
"ave" 0.063527327166366
"laveB" 0.320240542037561
"agg" 0.71010549150469
"ave" 0.0598680218503278
"laveB" 0.314307663291424
"agg" 0.554097591893792
"ave" 0.0622720466366467
"laveB" 0.294995484665077
"agg" 0.659643538902004
"ave" 0.0615332455393134
"laveB" 0.343589096236261
"agg" 0.374196164678385
"ave" 0.0257964201933613
"laveB" 0.140451788485876
"agg" 0.421886849037311
"ave" 0.0290735202015486
"laveB" 0.187276435462444
"agg" 0.333039344718076
"ave" 0.0204746760707612
"laveB" 0.159094020929901
"agg" 0.398499268475487
"ave" 0.026417631066178
"laveB" 0.186075279477451
"agg" 0.056260477899624
"ave" 0.00728143354229727
"laveB" 0.0441068206078017
"agg" 0.0580089701993306
"ave" 0.0074263227286362
"laveB" 0.0411087872183685
"agg" 0.407837513920328
"ave" 0.0273704591169975
"laveB" 0.18416597053713
"agg" 0.295150924868805
"ave" 0.0214035555900486
"laveB" 0.133575596179876
"agg" 0.33790462386729
"ave" 0.0305648769295173
"laveB" 0.198651895531244
"agg" 0.363943375119799
"ave" 0.0444320478287853
"laveB" 0.241091829326487
"agg" 0.420897089057369
"ave" 0.0431084509336392
"laveB" 0.241459614128457
"agg" 0.424954237081309
"ave" 0.0405344740598915
"laveB" 0.203008701073015
"agg" 0.289475798017104
"ave" 0.0138223130308931
"laveB" 0.107429721910129
"agg" 0.452475277355044
"ave" 0.0228082982439124
"laveB" 0.205969876066182
"agg" 0.426400723810144
"ave" 0.0368387191824864
"laveB" 0.18403820525602
"agg" 0.504853610765991
"ave" 0.036999135194926
"laveB" 0.200274710917277
"agg" 0.623031626175534
"ave" 0.0284066907542287
"laveB" 0.171471155037686
"agg" 0.692939385037253
"ave" 0.038641132288691
"laveB" 0.257155675941784
"agg" 0.575249839634116
"ave" 0.0370466206102614
"laveB" 0.265828697535205
"agg" 0.615658281514539
"ave" 0.0345581488016001
"laveB" 0.288279139547531
"agg" 0.409857725625967
"ave" 0.0229227413983943
"laveB" 0.170000053114369
"agg" 0.546870682072436
"ave" 0.0220339238851722
"laveB" 0.184670944917985
"agg" 0.732766055634971
"ave" 0.037030918298768
"laveB" 0.300650337939555
"agg" 0.666757459732145
"ave" 0.0369588719020631
"laveB" 0.297879430871531
"agg" 0.468808824822099
"ave" 0.0209319023923465
"laveB" 0.14254050400221
"agg" 0.581292371639005
"ave" 0.0519354432983955
"laveB" 0.281448709980688
"agg" 0.377608889139964
"ave" 0.032089563126535
"laveB" 0.187612251397582
"agg" 0.540180342357176
"ave" 0.0425003563889506
"laveB" 0.229347819804039
"agg" 0.423104379615546
"ave" 0.0348223882458837
"laveB" 0.174299507007009
"agg" 0.288875041377923
"ave" 0.0327086756240015
"laveB" 0.156806714059623
"agg" 0.247979408908698
"ave" 0.019233202046575
"laveB" 0.117073713184609
"agg" 0.666591052597395
"ave" 0.06089467953375
"laveB" 0.324046224833154
"agg" 0.752939661448488
"ave" 0.0591877897849575
"laveB" 0.320569253710461
"agg" 0.639073433659279
"ave" 0.0676236345843304
"laveB" 0.313160876135186
"agg" 0.755398821482311
"ave" 0.0684265020097327
"laveB" 0.361858012455553
"agg" 0.3626135535894
"ave" 0.0221127165566932
"laveB" 0.136354359805892
"agg" 0.374474662227834
"ave" 0.0229946427419784
"laveB" 0.166044931783907
"agg" 0.22071802949615
"ave" 0.010958956203443
"laveB" 0.100604987125781
"agg" 0.318559544462688
"ave" 0.0182468983493032
"laveB" 0.147048048604445
"agg" -0.0271908782732279
"ave" -0.00285374962437051
"laveB" -0.00626651314589135
"agg" 0.0855238197906344
"ave" 0.00714088908259012
"laveB" 0.0397236458214477
"agg" 0.329543270652668
"ave" 0.0207633142871614
"laveB" 0.14733794547195
"agg" 0.196211257962327
"ave" 0.0110479206114253
"laveB" 0.0775300044743925
"agg" 0.387179964979684
"ave" 0.0315863854827035
"laveB" 0.21500332079295
"agg" 0.372531377841562
"ave" 0.0401484477187935
"laveB" 0.239315239771715
"agg" 0.458218122257025
"ave" 0.0420844039864618
"laveB" 0.244584002000958
"agg" 0.464305155827467
"ave" 0.0380552631977888
"laveB" 0.234573520933325
"agg" 0.224346640428815
"ave" 0.00937499306326542
"laveB" 0.090870637379025
"agg" 0.422275695605596
"ave" 0.0186188007673865
"laveB" 0.170884406994206
"agg" 0.406344603689978
"ave" 0.0317223744642584
"laveB" 0.18729679509595
"agg" 0.456146985189492
"ave" 0.0293075466104512
"laveB" 0.156117818039538
"agg" 0.560483603297024
"ave" 0.0241766946959587
"laveB" 0.153380404303647
"agg" 0.650335198432071
"ave" 0.0332103475332526
"laveB" 0.229221816308501
"agg" 0.547612686817001
"ave" 0.0326783771035705
"laveB" 0.231218648894801
"agg" 0.531036795590532
"ave" 0.0275184397298234
"laveB" 0.240648983675399
"agg" 0.52852831959498
"ave" 0.0278324522190544
"laveB" 0.210917567206451
"agg" 0.603898175415557
"ave" 0.0231839845031971
"laveB" 0.204023264529963
"agg" 0.732279268117519
"ave" 0.0342420020165451
"laveB" 0.291405040958394
"agg" 0.65859144408587
"ave" 0.03379828118631
"laveB" 0.263145378069831
"agg" 0.521991130775732
"ave" 0.0221779646335007
"laveB" 0.160835226595193
"agg" 0.837173880347988
"ave" 0.0936147950728086
"laveB" 0.384364423377383
"agg" 0.699208131733653
"ave" 0.0661793669048356
"laveB" 0.29915871092236
"agg" 0.610674585457359
"ave" 0.0581678978801861
"laveB" 0.266906566913837
"agg" 0.566310450382436
"ave" 0.0712068239074186
"laveB" 0.266125546655642
"agg" 0.618041722926232
"ave" 0.0676932207192014
"laveB" 0.240207605244869
"agg" 0.639642456487095
"ave" 0.0612388556281975
"laveB" 0.266587759935358
"agg" 0.66299917479304
"ave" 0.0557749055168524
"laveB" 0.265012295592211
"agg" 0.468772743801492
"ave" 0.0513161692748926
"laveB" 0.217007146938156
"agg" 0.520100855850043
"ave" 0.0461210856714001
"laveB" 0.237055692169044
"agg" 0.461426924799501
"ave" 0.029848840008531
"laveB" 0.157281446667102
"agg" 0.398535985086305
"ave" 0.0259983469685361
"laveB" 0.151852659973619
"agg" 0.28618104045656
"ave" 0.0152413732096581
"laveB" 0.115669949947847
"agg" 0.290502888009657
"ave" 0.0167071676144032
"laveB" 0.120844586000423
"agg" 0.227435489616582
"ave" 0.021050129444454
"laveB" 0.1174759186026
"agg" 0.150587931992386
"ave" 0.0151808844774066
"laveB" 0.0864037245023914
"agg" 0.509166868613799
"ave" 0.0330960011128901
"laveB" 0.202878701897591
"agg" 0.314792957397873
"ave" 0.020721380264576
"laveB" 0.139143480932997
"agg" 0.259378171348803
"ave" 0.021207107057865
"laveB" 0.140339390786649
"agg" 0.241244483494539
"ave" 0.0230844201768493
"laveB" 0.124372266996402
"agg" 0.283746378817157
"ave" 0.0268971414483534
"laveB" 0.148106293380619
"agg" 0.325280120184786
"ave" 0.0261250087432717
"laveB" 0.140833579132247
"agg" 0.232759684966962
"ave" 0.00808581990728558
"laveB" 0.0670073844280098
"agg" 0.351713906635913
"ave" 0.0137587987560894
"laveB" 0.130803185060804
"agg" 0.572057922610717
"ave" 0.0472434156220998
"laveB" 0.230093833920053
"agg" 0.615741894192539
"ave" 0.0439859128773389
"laveB" 0.20385323508818
"agg" 0.78382790162716
"ave" 0.0356409554690143
"laveB" 0.202168395336873
"agg" 0.76223787679182
"ave" 0.0410361786613908
"laveB" 0.280572439164658
"agg" 0.684231671559675
"ave" 0.0457209811321215
"laveB" 0.272904670301432
"agg" 0.631305201598487
"ave" 0.0347188189151866
"laveB" 0.265415563154253
"agg" 0.407267016541009
"ave" 0.02380471818828
"laveB" 0.16617150083686
"agg" 0.541219543306693
"ave" 0.02336591457573
"laveB" 0.175243230035309
"agg" 0.649270599060029
"ave" 0.0317026173553913
"laveB" 0.240522278965925
"agg" 0.580925088572399
"ave" 0.0307308874551815
"laveB" 0.226044486229634
"agg" 0.496725377303358
"ave" 0.0219582581283287
"laveB" 0.145543787372912
"agg" 0.546032033127339
"ave" 0.0559031180797275
"laveB" 0.246536923753504
"agg" 0.604729193474569
"ave" 0.0641909379041969
"laveB" 0.258871905888612
"agg" 0.356202477378408
"ave" 0.0540822246577483
"laveB" 0.174234026237563
"agg" 0.654390310510977
"ave" 0.083283816981863
"laveB" 0.314666749477698
"agg" 0.426066087448754
"ave" 0.0435628960252945
"laveB" 0.175361528684798
"agg" 0.504483671623802
"ave" 0.0461503320438446
"laveB" 0.2179276588473
"agg" 0.2864033859143
"ave" 0.0314412543055409
"laveB" 0.135628429739418
"agg" 0.334364036744164
"ave" 0.0275934303731428
"laveB" 0.136229561494159
"agg" 0.252359942221837
"ave" 0.0183915809675157
"laveB" 0.101236497652978
"agg" 0.238886301950747
"ave" 0.0184951021317325
"laveB" 0.0858096810285358
"agg" 0.131320689422846
"ave" 0.00907443179402096
"laveB" 0.072679839321524
"agg" 0.170383158025706
"ave" 0.0118916166986848
"laveB" 0.0874805269487961
"agg" 0.126558363265487
"ave" 0.0135497979979284
"laveB" 0.0834156992653156
"agg" 0.0834549853144997
"ave" 0.0102856897295716
"laveB" 0.0438766191885828
"agg" 0.438372869514899
"ave" 0.0342734119075191
"laveB" 0.190135503920204
"agg" 0.28715711414644
"ave" 0.0264590192226365
"laveB" 0.150913972692586
"agg" 0.135764535423813
"ave" 0.0116803601815687
"laveB" 0.0739836472577467
"agg" 0.0875132609910179
"ave" 0.00993787121520366
"laveB" 0.0635300328412594
"agg" 0.0941535991047169
"ave" 0.00992844395307879
"laveB" 0.0553400884402687
"agg" 0.148229223328727
"ave" 0.0146217943687988
"laveB" 0.0807822086278257
"agg" 0.0668897612880448
"ave" 0.00306557329221574
"laveB" 0.0148842928074906
"agg" 0.174396971593941
"ave" 0.00800452768919181
"laveB" 0.0668470431312275
"agg" 0.305937283780716
"ave" 0.0305333827886311
"laveB" 0.157633038479163
"agg" 0.470913148913878
"ave" 0.040380214376979
"laveB" 0.179786039680402
"agg" 0.539513874422105
"ave" 0.0275927815700146
"laveB" 0.160331200688294
"agg" 0.629564373243729
"ave" 0.0394011897529611
"laveB" 0.255673099557937
"agg" 0.618892924176429
"ave" 0.0475262658044254
"laveB" 0.273552468957233
"agg" 0.446450720695512
"ave" 0.0283290226683413
"laveB" 0.201334701233413
"agg" 0.334733641083017
"ave" 0.0186928444592822
"laveB" 0.14313813294114
"agg" 0.417938964771065
"ave" 0.0183089926993774
"laveB" 0.138923956728164
"agg" 0.501284531538307
"ave" 0.0281099774572784
"laveB" 0.209778156877433
"agg" 0.389751945961178
"ave" 0.0233370774900025
"laveB" 0.158449689645579
"agg" 0.38367980689224
"ave" 0.0175621453457567
"laveB" 0.102856833425816
"agg" 0.769297198848672
"ave" 0.0653524333306228
"laveB" 0.322249941839272
"agg" 0.203523747670057
"ave" 0.0178612223084445
"laveB" 0.0619080736477739
"agg" 0.221965573738735
"ave" 0.0196136864529427
"laveB" 0.0765922083335886
"agg" 0.389995810414954
"ave" 0.0338598997874262
"laveB" 0.163483678122569
"agg" 0.526713927248086
"ave" 0.0385900154761642
"laveB" 0.202390584843554
"agg" 0.521948737219949
"ave" 0.0493018105288144
"laveB" 0.225606179829713
"agg" 0.574729060699161
"ave" 0.0468317350940986
"laveB" 0.239680808264834
"agg" 0.444596706120848
"ave" 0.0252087772494416
"laveB" 0.133510848805135
"agg" 0.400344468715418
"ave" 0.0212861172393387
"laveB" 0.142795783824862
"agg" 0.309480187947533
"ave" 0.0140937292673543
"laveB" 0.129153865827754
"agg" 0.399054943356057
"ave" 0.0199015537461596
"laveB" 0.168212830288358
"agg" 0.180597965392413
"ave" 0.0139279263543123
"laveB" 0.0804684730215884
"agg" 0.356501730671763
"ave" 0.0288996197775974
"laveB" 0.163535386009215
"agg" 0.459089892267558
"ave" 0.0265439676389907
"laveB" 0.198296076372095
"agg" 0.25228549425388
"ave" 0.0143346846184791
"laveB" 0.117514997316934
"agg" 0.562256259803873
"ave" 0.0360747105156736
"laveB" 0.255869692942835
"agg" 0.450857895319837
"ave" 0.0363553252167944
"laveB" 0.222100638100295
"agg" 0.604191518674409
"ave" 0.0446880660149058
"laveB" 0.271962616595488
"agg" 0.586202141593826
"ave" 0.03935561603209
"laveB" 0.218763457366151
"agg" 0.385037199523731
"ave" 0.0126196864750372
"laveB" 0.113517219869686
"agg" 0.434371860877416
"ave" 0.0149682374154732
"laveB" 0.136240351673718
"agg" 0.537628426335945
"ave" 0.0399477673789407
"laveB" 0.190057476495462
"agg" 0.526267123979112
"ave" 0.0328995196568437
"laveB" 0.191769068513872
"agg" 0.551408827753832
"ave" 0.0218634129706764
"laveB" 0.111511846735594
"agg" 0.5489888391902
"ave" 0.0246956573636518
"laveB" 0.17545014950753
"agg" 0.372340555992501
"ave" 0.0224962911762763
"laveB" 0.162363742238343
"agg" 0.296199874626837
"ave" 0.014048269511101
"laveB" 0.113009588030289
"agg" 0.475339183860243
"ave" 0.0253846387565972
"laveB" 0.188402754918872
"agg" 0.526884166334919
"ave" 0.020756197221432
"laveB" 0.166261070252049
"agg" 0.50088149900963
"ave" 0.0223764146348518
"laveB" 0.185712362114694
"agg" 0.479169389570527
"ave" 0.0209962391304818
"laveB" 0.171981649942252
"agg" 0.401532864308512
"ave" 0.0165713324223244
"laveB" 0.111000508857633
"agg" 0.23584722472937
"ave" 0.0324237878592774
"laveB" 0.0938787089466245
"agg" 0.348961748701355
"ave" 0.0380622852486052
"laveB" 0.147680107248539
"agg" 0.243873734206902
"ave" 0.022315674432003
"laveB" 0.107465325704671
"agg" 0.529287826983563
"ave" 0.0432758524360088
"laveB" 0.198087023088446
"agg" 0.236490699150709
"ave" 0.0217902046635808
"laveB" 0.104837544741581
"agg" 0.285495514950993
"ave" 0.0180100765154767
"laveB" 0.115826873594552
"agg" 0.307662986553957
"ave" 0.0214997736731818
"laveB" 0.0912187080765267
"agg" 0.491816260069787
"ave" 0.0313299962217713
"laveB" 0.180952289068503
"agg" 0.577814851027679
"ave" 0.0347361978192016
"laveB" 0.226244877477968
"agg" 0.634652654742415
"ave" 0.0390575418717971
"laveB" 0.264698131262417
"agg" 0.354297762819639
"ave" 0.0358098325097027
"laveB" 0.191205529231945
"agg" 0.393179766424078
"ave" 0.034600303558733
"laveB" 0.184166519880747
"agg" 0.683404959728202
"ave" 0.0455988200736639
"laveB" 0.275185358820573
"agg" 0.623547154334189
"ave" 0.0471972238971581
"laveB" 0.249173264804572
"agg" 0.490887278665073
"ave" 0.0366371965050822
"laveB" 0.214626000959577
"agg" 0.605930397674474
"ave" 0.0653922266711977
"laveB" 0.300873471821823
"agg" 0.532941502373589
"ave" 0.0454805393825086
"laveB" 0.244311221826663
"agg" 0.597792609043384
"ave" 0.0512015603323252
"laveB" 0.259396152952676
"agg" 0.456596541638388
"ave" 0.0184551188125705
"laveB" 0.129265354056279
"agg" 0.534451006710009
"ave" 0.0251612152486425
"laveB" 0.178377678830921
"agg" 0.34893075910751
"ave" 0.0299553063107128
"laveB" 0.136322474508249
"agg" 0.649467749952114
"ave" 0.0484659534919599
"laveB" 0.220146376994989
"agg" 0.494220233225697
"ave" 0.0205961735987262
"laveB" 0.104614084662484
"agg" 0.64004629546667
"ave" 0.0334059017845892
"laveB" 0.22213864794089
"agg" 0.389137486060409
"ave" 0.0254290557562299
"laveB" 0.168626515102773
"agg" 0.256323058534932
"ave" 0.0141278971543912
"laveB" 0.111634185810097
"agg" 0.0880183940675837
"ave" 0.00534591137904829
"laveB" 0.0461157225756085
"agg" 0.160103729889195
"ave" 0.00683917772335131
"laveB" 0.0669987361052221
"agg" 0.531112403223369
"ave" 0.0279217228611712
"laveB" 0.208446851497248
"agg" 0.546456765847149
"ave" 0.0274001606016035
"laveB" 0.194013914448681
"agg" 0.12290608829503
"ave" 0.00538614365818232
"laveB" 0.020739319546865
"agg" 0.742371027408566
"ave" 0.110716955742408
"laveB" 0.403062363823404
"agg" 0.662946314616287
"ave" 0.0805693224697145
"laveB" 0.310486443381499
"agg" 0.514096497802672
"ave" 0.0579112659319239
"laveB" 0.227251873294836
"agg" 0.297697096391693
"ave" 0.0361107149047297
"laveB" 0.147889973235153
"agg" 0.279381706505945
"ave" 0.0227469560886188
"laveB" 0.121517975426747
"agg" 0.443468831414891
"ave" 0.0375597609927885
"laveB" 0.185329493256461
"agg" 0.407295219113676
"ave" 0.0369411134021415
"laveB" 0.192366922889876
"agg" 0.357485446307
"ave" 0.0294752783689615
"laveB" 0.182627797799793
"agg" 0.243322598699041
"ave" 0.020687268673797
"laveB" 0.112092069864939
"agg" 0.2363078854222
"ave" 0.0299974367027777
"laveB" 0.128485423406307
"agg" 0.035186680907701
"ave" 0.00491647359482527
"laveB" 0.0178011937594802
"agg" 0.483942869864905
"ave" 0.0456851074462518
"laveB" 0.236234869958802
"agg" 0.397015738208526
"ave" 0.0439986453454021
"laveB" 0.204437730746244
"agg" 0.199708643286423
"ave" 0.0215422951788382
"laveB" 0.109286788819707
"agg" 0.24066271901404
"ave" 0.0377301618168102
"laveB" 0.15346698721811
"agg" 0.225444905288737
"ave" 0.0261127533255987
"laveB" 0.107045100383307
"agg" 0.321107919052712
"ave" 0.0364250425464202
"laveB" 0.150704070614538
"agg" 0.346605439667953
"ave" 0.0176612501770175
"laveB" 0.116943215543903
"agg" 0.480324325701531
"ave" 0.0288466739443607
"laveB" 0.202218594207905
"agg" 0.687540936335797
"ave" 0.0692929003130991
"laveB" 0.327476716301178
"agg" 0.69386381556818
"ave" 0.069759256943139
"laveB" 0.314412815663821
"agg" 0.71809000026815
"ave" 0.0405061038758545
"laveB" 0.230671240440119
"agg" 0.627859138025675
"ave" 0.0442759891492467
"laveB" 0.262667632274925
"agg" 0.606521784055218
"ave" 0.0572290615287796
"laveB" 0.329044355561796
"agg" 0.663432732977556
"ave" 0.0518054334596963
"laveB" 0.34776686773997
"agg" 0.0627522088630714
"ave" 0.00247234702919091
"laveB" 0.0254914119592063
"agg" 0.254550863083453
"ave" 0.0132520935661942
"laveB" 0.0935427462419772
"agg" 0.479433122300465
"ave" 0.0305590747612817
"laveB" 0.195851561226874
"agg" 0.532129118364361
"ave" 0.0387983174321265
"laveB" 0.228415895769339
"agg" 0.338883114616726
"ave" 0.0177993574600133
"laveB" 0.110174271820063
"agg" 0.592282196820849
"ave" 0.0574039227887887
"laveB" 0.235734605684293
"agg" 0.616445623528222
"ave" 0.0559543769903455
"laveB" 0.24942950830463
"agg" 0.174182464764431
"ave" 0.0154023517818123
"laveB" 0.074891258617927
"agg" 0.1685779378098
"ave" 0.007835367067976
"laveB" 0.0538322866097938
"agg" 0.291693199005493
"ave" 0.0209356307085683
"laveB" 0.116351979250803
"agg" 0.32541109647759
"ave" 0.0241116163560751
"laveB" 0.131110242841375
"agg" 0.214088132446616
"ave" 0.0144130241317063
"laveB" 0.112106008898579
"agg" 0.163297384451069
"ave" 0.0116537156803155
"laveB" 0.0799087079846104
"agg" 0.164440207696808
"ave" 0.0192873763230595
"laveB" 0.0921316729173431
"agg" -0.031086232333665
"ave" -0.000719055655600461
"laveB" -0.00989880165401777
"agg" 0.418607573537764
"ave" 0.0328666597832638
"laveB" 0.196034524397053
"agg" 0.387844686372833
"ave" 0.0352915929740833
"laveB" 0.188042248848217
"agg" 0.164068928316998
"ave" 0.0143259413514231
"laveB" 0.0841955757666257
"agg" 0.13375525959259
"ave" 0.0157143917343611
"laveB" 0.0601519625698696
"agg" 0.0969694469028871
"ave" 0.00923112999927492
"laveB" 0.0310925431274207
"agg" 0.193654031440761
"ave" 0.0181115049568074
"laveB" 0.0788148889275
"agg" 0.12613341151836
"ave" 0.00508676587791736
"laveB" 0.0367178160386172
"agg" 0.294532254776171
"ave" 0.0130503249200002
"laveB" 0.0955929849272039
"agg" 0.396139289973898
"ave" 0.036275335182148
"laveB" 0.173832151136306
"agg" 0.647071334084057
"ave" 0.0542197183827515
"laveB" 0.258507528522892
"agg" 0.547945954178838
"ave" 0.0266840611807628
"laveB" 0.14459434650563
"agg" 0.586401091732769
"ave" 0.0355043797178789
"laveB" 0.226657933340344
"agg" 0.645210984941397
"ave" 0.0497355535699732
"laveB" 0.31008072079311
"agg" 0.483196209754404
"ave" 0.0301773356538933
"laveB" 0.219329091992003
"agg" 0.109899398176877
"ave" 0.00516210572228942
"laveB" 0.0302087969592824
"agg" 0.231676939732812
"ave" 0.00992708119066346
"laveB" 0.068035481087134
"agg" 0.440276232969887
"ave" 0.0233290367017693
"laveB" 0.17188609366016
"agg" 0.451400662362844
"ave" 0.025913425643696
"laveB" 0.16675067298223
"agg" 0.302759927448131
"ave" 0.0131850865860488
"laveB" 0.0848542520821609
"agg" 0.84745570707421
"ave" 0.0677061693807788
"laveB" 0.358134029079248
"agg" 0.497768457962441
"ave" 0.0499034187136
"laveB" 0.232730507118097
"agg" 0.580613918543991
"ave" 0.0502909154072255
"laveB" 0.277254094302282
"agg" 0.498925892538981
"ave" 0.0295338990126255
"laveB" 0.180750990919941
"agg" 0.353308856594401
"ave" 0.0225892726185339
"laveB" 0.130578009416778
"agg" 0.168509808244013
"ave" 0.00891810090731587
"laveB" 0.0690593027874657
"agg" 0.100946836593577
"ave" 0.00623184687234868
"laveB" 0.044292695695806
"agg" -0.0174169163591539
"ave" -0.00152169751099783
"laveB" -0.0209827650604258
"agg" -0.040653095208985
"ave" -0.00153653505852895
"laveB" -0.00880734376697374
"agg" 0.365644008149446
"ave" 0.0242855199766791
"laveB" 0.143460532450986
"agg" 0.19258794253337
"ave" 0.0142058139784995
"laveB" 0.0740999028346378
"agg" 0.177037273265554
"ave" 0.0147613113106721
"laveB" 0.0933261537218694
"agg" 0.11047587109836
"ave" 0.0122294056508487
"laveB" 0.078566129452055
"agg" 0.225290418649919
"ave" 0.0217423700923441
"laveB" 0.124148677686417
"agg" 0.265940283422671
"ave" 0.0209336310293655
"laveB" 0.106042301922181
"agg" 0.0232718103358188
"ave" 0.000482625103397667
"laveB" 0.00678439088666846
"agg" 0.250920707622219
"ave" 0.00937546467150392
"laveB" 0.0909305987957635
"agg" 0.480657092083251
"ave" 0.0369404087302317
"laveB" 0.189902481663058
"agg" 0.463459099703827
"ave" 0.0310450896324018
"laveB" 0.154149874188
"agg" 0.577621373475778
"ave" 0.0258701596807359
"laveB" 0.156172020476637
"agg" 0.544618461531065
"ave" 0.0283192385242638
"laveB" 0.19645566136853
"agg" 0.680893606744651
"ave" 0.0439879483638897
"laveB" 0.286289511904273
"agg" 0.661770282527685
"ave" 0.0361198917490641
"laveB" 0.290669197543795
"agg" 0.524967297541984
"ave" 0.0269068198391223
"laveB" 0.187434335725819
"agg" 0.619417050304386
"ave" 0.0236827682681908
"laveB" 0.175595262019926
"agg" 0.667694197977447
"ave" 0.0304428133810561
"laveB" 0.243358741394434
"agg" 0.623369415302577
"ave" 0.0327958483614334
"laveB" 0.246448082559262
"agg" 0.648954133753598
"ave" 0.0264285814098475
"laveB" 0.187116047907345
"agg" 0.492496088857497
"ave" 0.0418462686427562
"laveB" 0.216574660639547
"agg" 0.600463915076696
"ave" 0.0436426786292508
"laveB" 0.237753235025507
"agg" 0.418596980182602
"ave" 0.0233027581135249
"laveB" 0.149187271752541
"agg" 0.464976500043441
"ave" 0.0269821431910992
"laveB" 0.168309584957393
"agg" 0.331802785969684
"ave" 0.0177044304748269
"laveB" 0.13262560779133
"agg" 0.321484638497897
"ave" 0.018309190635431
"laveB" 0.122576815959164
"agg" 0.0906790521641328
"ave" 0.00888252244469508
"laveB" 0.0514731911234066
"agg" 0.102832040692231
"ave" 0.00964532291576382
"laveB" 0.0459854669064527
"agg" 0.487634411641973
"ave" 0.0295908361054867
"laveB" 0.180751969062475
"agg" 0.421026942446039
"ave" 0.0303280385385442
"laveB" 0.168925966588901
"agg" 0.347145246288259
"ave" 0.0248153331288806
"laveB" 0.170511809406641
"agg" 0.371837536711569
"ave" 0.0378590658486097
"laveB" 0.192976720440026
"agg" 0.387379725738991
"ave" 0.0319541450003126
"laveB" 0.177353027328887
"agg" 0.452362657663781
"ave" 0.0341062154822681
"laveB" 0.190719012378002
"agg" 0.158082073116308
"ave" 0.0056030235678112
"laveB" 0.0428881893482996
"agg" 0.395711023897575
"ave" 0.0149698683427863
"laveB" 0.144980416573562
"agg" 0.394165647366014
"ave" 0.0282556694198283
"laveB" 0.155567451241067
"agg" 0.602690199361972
"ave" 0.0385035504020711
"laveB" 0.205411941867839
"agg" 0.565308430318322
"ave" 0.0224716630317957
"laveB" 0.138908972521035
"agg" 0.643022074973846
"ave" 0.0302811312876875
"laveB" 0.207118417164527
"agg" 0.673120790604112
"ave" 0.0392234202551114
"laveB" 0.269116910236241
"agg" 0.574455731326927
"ave" 0.0279855591957563
"laveB" 0.238472019238706
"agg" 0.420443225441168
"ave" 0.018793296373466
"laveB" 0.171745533297787
"agg" 0.520035097442422
"ave" 0.0174895957325741
"laveB" 0.151134795531828
"agg" 0.756441018526046
"ave" 0.0325560296838535
"laveB" 0.265994341455542
"agg" 0.740232378676561
"ave" 0.0346016425921979
"laveB" 0.276631736488534
"agg" 0.515031715258155
"ave" 0.0187097320354439
"laveB" 0.148184052230593
"agg" 0.88343680364104
"ave" 0.0951629523235104
"laveB" 0.452980543481181
"agg" 0.353819028189025
"ave" 0.0222655959774223
"laveB" 0.143585286486071
"agg" 0.254094580500752
"ave" 0.0160112263965382
"laveB" 0.0987365294284353
"agg" 0.0245732283611176
"ave" -0.00193035719946414
"laveB" -0.0156012976115584
"agg" 0.0923443624373045
"ave" 0.00352849436468486
"laveB" 0.0266336775974643
"agg" -0.00525329802309261
"ave" -0.00366189032898842
"laveB" -0.0202042597679947
"agg" 0.115220456278231
"ave" 0.0123217753775547
"laveB" 0.0541880739467335
"agg" 0.215170113276801
"ave" 0.0136067803509953
"laveB" 0.0989560069093782
"agg" -0.0560439683703348
"ave" -0.0105873655157362
"laveB" -0.0641381499634655
"agg" 0.545806334773737
"ave" 0.0488191266205913
"laveB" 0.29636052149132
"agg" 0.316342841836328
"ave" 0.0361908556236746
"laveB" 0.179966708369108
"agg" 0.557908523735742
"ave" 0.0552483669229586
"laveB" 0.287989492585021
"agg" 0.503333232151358
"ave" 0.0436468274594205
"laveB" 0.234194171690021
"agg" 0.285543048112787
"ave" 0.0131600850625046
"laveB" 0.0998857509987513
"agg" 0.431391535920254
"ave" 0.0203333502355303
"laveB" 0.178152019356405
"agg" 0.542941408056158
"ave" 0.0472313524655937
"laveB" 0.240679481803042
"agg" 0.383928104342899
"ave" 0.0270644520903421
"laveB" 0.139117658817968
"agg" 0.531221749678078
"ave" 0.0256008230517926
"laveB" 0.149588325485879
"agg" 0.449682161447423
"ave" 0.0239006220136224
"laveB" 0.148942630275193
"agg" 0.304143132695036
"ave" 0.0186048997426005
"laveB" 0.142405906799737
"agg" 0.32647742821393
"ave" 0.016913875465856
"laveB" 0.14568648652308
"agg" 0.608628467388774
"ave" 0.0351644322161193
"laveB" 0.255983607032762
"agg" 0.617326927957362
"ave" 0.0266913752961827
"laveB" 0.194792088099373
"agg" 0.448147403468281
"ave" 0.020891271551092
"laveB" 0.172289914589854
"agg" 0.433018446003814
"ave" 0.0228751265957304
"laveB" 0.185312294798459
"agg" 0.55556882902074
"ave" 0.0246742017624733
"laveB" 0.146698230962421
"agg" 0.447642340558377
"ave" 0.0243733913352979
"laveB" 0.159279462796202
"agg" 0.339096679935797
"ave" 0.0174388666154499
"laveB" 0.123069957904048
"agg" 0.11496580678468
"ave" 0.000790098181451946
"laveB" 0.02338981146885
"agg" 0.169738491024562
"ave" 0.0055086443833159
"laveB" 0.0494409750143222
"agg" 0.00685868747726041
"ave" -0.0038683947965985
"laveB" -0.0102155077697977
"agg" 0.127783814522051
"ave" 0.0105979703400762
"laveB" 0.068632492917908
"agg" 0.266070556757985
"ave" 0.0127858191612262
"laveB" 0.103628057585855
"agg" 0.00873848223343924
"ave" -0.00725604287693218
"laveB" -0.0268029900749813
"agg" 0.515240891837624
"ave" 0.0393860704987868
"laveB" 0.252209381317728
"agg" 0.31733242438292
"ave" 0.0291583036210735
"laveB" 0.169335213917044
"agg" 0.542929037828719
"ave" 0.0457415709002864
"laveB" 0.251190651753849
"agg" 0.492156862198174
"ave" 0.0350364207932875
"laveB" 0.216014756262633
"agg" 0.215059398745419
"ave" 0.00716026853300521
"laveB" 0.0598243527375263
"agg" 0.379466008338971
"ave" 0.0137324173006337
"laveB" 0.125615069911282
"agg" 0.502607777526199
"ave" 0.0363248432467255
"laveB" 0.200984516948397
"agg" 0.369188796880387
"ave" 0.0182561544401274
"laveB" 0.109721427924551
"agg" 0.539621339125692
"ave" 0.0212044177418965
"laveB" 0.137363921008998
"agg" 0.515422760443823
"ave" 0.0222623916943743
"laveB" 0.142385895450873
"agg" 0.440817255476403
"ave" 0.0221574062786661
"laveB" 0.192432089052181
"agg" 0.465966531535978
"ave" 0.0202038042139742
"laveB" 0.190635633318687
"agg" 0.669300184880165
"ave" 0.0350723663734215
"laveB" 0.2592673665672
"agg" 0.720556173818993
"ave" 0.0272766948284076
"laveB" 0.23474979999083
"agg" 0.579824129979334
"ave" 0.023276322671479
"laveB" 0.204363000800815
"agg" 0.524754480391185
"ave" 0.0233524640365859
"laveB" 0.187335676433195
"agg" 0.633035832526831
"ave" 0.0256291143856072
"laveB" 0.160340991782148
"agg" 0.715163449143931
"ave" 0.0299174376974326
"laveB" 0.257307457132314
"agg" 0.476010996781557
"ave" 0.0192405780675077
"laveB" 0.154776947790961
"agg" 0.405302187340093
"ave" 0.0175529710072073
"laveB" 0.120355781002998
"agg" 0.259972267546716
"ave" 0.0173605616793976
"laveB" 0.117683482421149
"agg" 0.242490847564667
"ave" 0.0151642479336533
"laveB" 0.0887329627354657
"agg" 0.455929759468915
"ave" 0.0220753322530744
"laveB" 0.177188798182562
"agg" 0.216358482070124
"ave" 0.0135780781180004
"laveB" 0.0589151667922341
"agg" 0.311346733747808
"ave" 0.0165221551393916
"laveB" 0.125289624828004
"agg" 0.213320267056925
"ave" 0.0177912687467399
"laveB" 0.100685098353604
"agg" 0.429652488207294
"ave" 0.0247056305397464
"laveB" 0.168763321341995
"agg" 0.409364474882142
"ave" 0.0226233193273084
"laveB" 0.148343704014905
"agg" 0.273392917527887
"ave" 0.0077452238178294
"laveB" 0.0551562794905659
"agg" 0.364229960630751
"ave" 0.011927265688972
"laveB" 0.0845025466548155
"agg" 0.585178823063723
"ave" 0.0292426216802596
"laveB" 0.197236028610784
"agg" 0.409240144505569
"ave" 0.020520087683444
"laveB" 0.104239309705803
"agg" 0.552697748876667
"ave" 0.0157914919065804
"laveB" 0.118861312992861
"agg" 0.471214433439966
"ave" 0.0169583548735477
"laveB" 0.131334942646547
"agg" 0.390086157142324
"ave" 0.0180314694880753
"laveB" 0.134679040517573
"agg" 0.456904681759722
"ave" 0.0174683064343433
"laveB" 0.157398873086035
"agg" 0.340167406768628
"ave" 0.0101993228044031
"laveB" 0.106193484802267
"agg" 0.383747651405952
"ave" 0.00945236614308142
"laveB" 0.110264156859954
"agg" 0.376506306190637
"ave" 0.0123699051599575
"laveB" 0.0986094834854937
"agg" 0.396048786593274
"ave" 0.0146769782216436
"laveB" 0.122037823043582
"agg" 0.41483233201583
"ave" 0.0105961292933415
"laveB" 0.0942574913734429
"agg" 0.691788802235583
"ave" 0.027377568238386
"laveB" 0.298716418077224
"agg" 0.673866407282738
"ave" 0.0279470912736191
"laveB" 0.286526569247017
"agg" 0.324326871093124
"ave" 0.0219844441112805
"laveB" 0.179494341946098
"agg" 0.390168672005925
"ave" 0.0219521529509961
"laveB" 0.171144689221165
"agg" 0.614731775612356
"ave" 0.0292182142811593
"laveB" 0.258732636489985
"agg" 0.478000016969062
"ave" 0.0259729922478189
"laveB" 0.20935769433576
"agg" 0.450058098339506
"ave" 0.0231258110962862
"laveB" 0.201386608393675
"agg" 0.500409618291312
"ave" 0.0370206350196996
"laveB" 0.261767815681482
"agg" 0.544607322249219
"ave" 0.0302792635096702
"laveB" 0.233097922030566
"agg" 0.536321564217588
"ave" 0.0295445330117128
"laveB" 0.206002817502674
"agg" 0.460919513103541
"ave" 0.0122166497167499
"laveB" 0.140886139292438
"agg" 0.501047449915759
"ave" 0.0156418016127542
"laveB" 0.169960083805414
"agg" 0.454354610926248
"ave" 0.0229748890288293
"laveB" 0.167829391287949
"agg" 0.491623344745497
"ave" 0.0241377647829657
"laveB" 0.161032677162105
"agg" 0.528259757940911
"ave" 0.0150506672050723
"laveB" 0.114825179428593
"agg" 0.521469726569018
"ave" 0.0187949531336086
"laveB" 0.172414787839888
"agg" 0.4243924906999
"ave" 0.0203198583481757
"laveB" 0.173568109108392
"agg" 0.40975508484729
"ave" 0.0162483682340406
"laveB" 0.167855986018082
"agg" 0.159915906344626
"ave" 0.00581417061602739
"laveB" 0.0524818486098156
"agg" 0.264720389272446
"ave" 0.00755076249747663
"laveB" 0.077152847500262
"agg" 0.460265851276454
"ave" 0.0164669502110785
"laveB" 0.154823338192203
"agg" 0.475838631051801
"ave" 0.0174616967605229
"laveB" 0.155350782465745
"agg" 0.260598865310196
"ave" 0.0079601391179737
"laveB" 0.0733843031081233
"agg" 0.81669783322334
"ave" 0.0323642665892609
"laveB" 0.369007643218013
"agg" 0.564579311634717
"ave" 0.035096538935309
"laveB" 0.342196312128228
"agg" 0.452750129718252
"ave" 0.0250418769504865
"laveB" 0.23668081687416
"agg" 0.666783296901511
"ave" 0.0288557225387169
"laveB" 0.314270822770784
"agg" 0.702897170393577
"ave" 0.035694471171754
"laveB" 0.338006403441104
"agg" 0.356438016077
"ave" 0.0175482833806151
"laveB" 0.170633232239085
"agg" 0.583980985128465
"ave" 0.0422906791835927
"laveB" 0.340898770710093
"agg" 0.446323841275506
"ave" 0.0231628952166121
"laveB" 0.21934538055517
"agg" 0.466565856836537
"ave" 0.0262142275396416
"laveB" 0.206753546571184
"agg" 0.537827352331336
"ave" 0.0135868113628675
"laveB" 0.169910433260639
"agg" 0.496529647532899
"ave" 0.0148280808193722
"laveB" 0.1839740286394
"agg" 0.348659480694128
"ave" 0.0156192126157314
"laveB" 0.140251433456877
"agg" 0.50285376437212
"ave" 0.023400360579587
"laveB" 0.187098454909285
"agg" 0.434210065530518
"ave" 0.0103088798396727
"laveB" 0.105991877477018
"agg" 0.481396398275438
"ave" 0.0154526227299731
"laveB" 0.165553040599285
"agg" 0.300845199479584
"ave" 0.0128793023851501
"laveB" 0.137438146426598
"agg" 0.325555845410575
"ave" 0.0116619651958776
"laveB" 0.140414678118012
"agg" -0.198094497894564
"ave" -0.00658556149697363
"laveB" -0.0669089308728627
"agg" -0.0276483061748255
"ave" -0.000590867791384006
"laveB" -0.00624746025223581
"agg" 0.393733634989485
"ave" 0.0133893955797538
"laveB" 0.153126146058175
"agg" 0.483589764225413
"ave" 0.0160115666295004
"laveB" 0.180423065200193
"agg" -0.0245423263391978
"ave" -0.0008023092047931
"laveB" -0.00317712919052775
"agg" 0.494604314916887
"ave" 0.0324723964679215
"laveB" 0.308289641464162
"agg" 0.570473363144632
"ave" 0.0315912458704249
"laveB" 0.282707590761276
"agg" 0.605019041641132
"ave" 0.0271708351572701
"laveB" 0.276520628680711
"agg" 0.601317477203588
"ave" 0.0310132658542039
"laveB" 0.288046507654926
"agg" 0.439935885052916
"ave" 0.0218092931596871
"laveB" 0.223392453094662
"agg" 0.626737098037811
"ave" 0.0460847539514638
"laveB" 0.364317208759114
"agg" 0.528583104595122
"ave" 0.0286537896519645
"laveB" 0.245747771312671
"agg" 0.535597523878026
"ave" 0.0301864010078265
"laveB" 0.237564385129428
"agg" 0.511696194739544
"ave" 0.0131424922127957
"laveB" 0.156212626206767
"agg" 0.495754332069886
"ave" 0.0152628523034195
"laveB" 0.195243190134972
"agg" 0.332002548390143
"ave" 0.0158083324849505
"laveB" 0.135417820730977
"agg" 0.497803827282837
"ave" 0.0235434534609286
"laveB" 0.18229248520236
"agg" 0.385098999847271
"ave" 0.00966839410662857
"laveB" 0.0811022960331589
"agg" 0.495835702347342
"ave" 0.0166991785354165
"laveB" 0.168431663345039
"agg" 0.271724932720008
"ave" 0.0122189355809743
"laveB" 0.113645611462018
"agg" 0.269683507205546
"ave" 0.0102572118464129
"laveB" 0.110420568134468
"agg" -0.0823391832277862
"ave" -0.00231130223438123
"laveB" -0.0278003221037618
"agg" 0.0294120642674671
"ave" 0.00116662021449335
"laveB" 0.00871360044283283
"agg" 0.392028581987649
"ave" 0.0143967039205636
"laveB" 0.175701845996959
"agg" 0.428407895544612
"ave" 0.0148774146277272
"laveB" 0.158674327416653
"agg" 0.0128626620905389
"ave" 0.000556553035087053
"laveB" 0.0218523729171071
"agg" 0.232437151740365
"ave" 0.0215851713340919
"laveB" 0.168334637048244
"agg" 0.484540806393725
"ave" 0.0336224413364113
"laveB" 0.287404748680894
"agg" 0.435501485320432
"ave" 0.0339887760143452
"laveB" 0.29226106963267
"agg" 0.208606102659266
"ave" 0.0176301950029284
"laveB" 0.124097803639073
"agg" 0.353910093807977
"ave" 0.0421037360358868
"laveB" 0.275594947627846
"agg" 0.271805541211532
"ave" 0.0236109538744568
"laveB" 0.170545766888775
"agg" 0.258198782596771
"ave" 0.0240647442143898
"laveB" 0.158496545759634
"agg" 0.394603304386387
"ave" 0.0153537003516845
"laveB" 0.162024084115636
"agg" 0.363503304831754
"ave" 0.0178558901746752
"laveB" 0.19164987431607
"agg" 0.278092979169116
"ave" 0.0198519164628783
"laveB" 0.124372093708902
"agg" 0.273076593799645
"ave" 0.0201260422252302
"laveB" 0.142030272340804
"agg" 0.237967837706465
"ave" 0.00802239033010108
"laveB" 0.0621997983086311
"agg" 0.242385365760225
"ave" 0.0122856512056039
"laveB" 0.117220298634081
"agg" 0.0503981859207918
"ave" 0.00353260710206422
"laveB" 0.0314627283705807
"agg" 0.0620150676741838
"ave" 0.00327920516827108
"laveB" 0.0226039909253013
"agg" -0.298422195477909
"ave" -0.0148582123612841
"laveB" -0.143134813063221
"agg" -0.198927970042887
"ave" -0.00690280890620252
"laveB" -0.0657349393396283
"agg" 0.118683028445359
"ave" 0.00773520914619934
"laveB" 0.0857283403521831
"agg" 0.204322843946508
"ave" 0.0102014790527101
"laveB" 0.0981013899112047
"agg" -0.159463847881434
"ave" -0.00733856736107412
"laveB" -0.0586430047684555
"agg" 0.305829296149069
"ave" 0.0189731852567445
"laveB" 0.163402864503868
"agg" 0.298178226062314
"ave" 0.0210609944669547
"laveB" 0.172730847804653
"agg" 0.349677010346519
"ave" 0.0244312012204477
"laveB" 0.181733147938597
"agg" 0.44763547803818
"ave" 0.0436148725986375
"laveB" 0.265023584114694
"agg" 0.391195337325235
"ave" 0.0300739612319292
"laveB" 0.193136023126708
"agg" 0.410627671593904
"ave" 0.0307169651065992
"laveB" 0.175772566898143
"agg" 0.405052705172249
"ave" 0.0141004176073202
"laveB" 0.138924428445749
"agg" 0.262702888703119
"ave" 0.011221184944128
"laveB" 0.108740975019561
"agg" 0.261649653619674
"ave" 0.0179081264303896
"laveB" 0.109644978173633
"agg" 0.222352359253209
"ave" 0.0151588058781181
"laveB" 0.0944564084167011
"agg" 0.173158292931462
"ave" 0.00628182680743132
"laveB" 0.047010485672877
"agg" 0.172016525860808
"ave" 0.00861988713020867
"laveB" 0.0803112537238122
"agg" 0.0418556729109384
"ave" 0.00349607893943965
"laveB" 0.0379333718009415
"agg" -0.0281586252384136
"ave" -0.00115595411616944
"laveB" 0.00766157719913072
"agg" -0.02115831718887
"ave" 0.000387052279538399
"laveB" -0.011463815102479
"agg" -0.0110900169312198
"ave" 0.000420564885196032
"laveB" 0.000629898095138626
"agg" 0.0891936076095292
"ave" 0.00631264802711551
"laveB" 0.0580441227593153
"agg" 0.107033069333964
"ave" 0.00463343241858461
"laveB" 0.0501005783525156
"agg" -0.0872900123626249
"ave" -0.00285430165846696
"laveB" -0.0229823727632002
"agg" 0.720017036848065
"ave" 0.0402841093409377
"laveB" 0.343709975754566
"agg" 0.391291415364335
"ave" 0.0228166919868597
"laveB" 0.216764269553252
"agg" 0.557798686306115
"ave" 0.0448355521768509
"laveB" 0.347246595062916
"agg" 0.434273944656249
"ave" 0.026962251066231
"laveB" 0.227341745942252
"agg" 0.43342364449059
"ave" 0.0272315112708891
"laveB" 0.200737909921624
"agg" 0.418908517925742
"ave" 0.0113735533757714
"laveB" 0.12230779281292
"agg" 0.529710385144481
"ave" 0.0175126914510903
"laveB" 0.190897704292147
"agg" 0.357772724519674
"ave" 0.0200903787890739
"laveB" 0.146297727684047
"agg" 0.556015239601506
"ave" 0.0290876639391262
"laveB" 0.207402979399985
"agg" 0.565638731737427
"ave" 0.0165144526619649
"laveB" 0.114064843447795
"agg" 0.616395431610246
"ave" 0.0230998819478983
"laveB" 0.207757639938597
"agg" 0.494484361913719
"ave" 0.0244271930448994
"laveB" 0.226486976301081
"agg" 0.402845832187835
"ave" 0.0168562425833768
"laveB" 0.154447866097084
"agg" 0.00462023800998309
"ave" 0.00124036679422125
"laveB" -0.000546380924965049
"agg" 0.155384051980534
"ave" 0.00544407190263437
"laveB" 0.0291626262862676
"agg" 0.571506421526639
"ave" 0.0215484340619015
"laveB" 0.223335798762355
"agg" 0.566323711435071
"ave" 0.0211637602086486
"laveB" 0.208139638977132
"agg" 0.232096313245913
"ave" 0.00756222499773519
"laveB" 0.061846561159722
"agg" 0.203965890671488
"ave" 0.0121163414569215
"laveB" 0.0987641559822604
"agg" 0.582794550293654
"ave" 0.0531030544870665
"laveB" 0.345035866639256
"agg" 0.266839364001107
"ave" 0.0169910198393073
"laveB" 0.120434801843899
"agg" 0.389622304147233
"ave" 0.028601228025712
"laveB" 0.17786729286903
"agg" 0.410107979214577
"ave" 0.012485973234346
"laveB" 0.131527563880236
"agg" 0.477290368350438
"ave" 0.0175262663259001
"laveB" 0.18888137021943
"agg" 0.190927769049356
"ave" 0.0113552556912189
"laveB" 0.085323511509653
"agg" 0.579831675380899
"ave" 0.0353377499008494
"laveB" 0.221391096126886
"agg" 0.392599768492336
"ave" 0.0119885773619565
"laveB" 0.0812945394725727
"agg" 0.531707034998184
"ave" 0.0227842338375598
"laveB" 0.196529957667919
"agg" 0.377093332070545
"ave" 0.0217448771230265
"laveB" 0.183947949143294
"agg" 0.287152078667983
"ave" 0.0141092405276691
"laveB" 0.124922344479744
"agg" -0.348432665864643
"ave" -0.0138877390367509
"laveB" -0.125274122954433
"agg" -0.13456766271451
"ave" -0.00313308764929682
"laveB" -0.0325471161436651
"agg" 0.436052490539725
"ave" 0.0194124067392433
"laveB" 0.196782212505707
"agg" 0.488269670422637
"ave" 0.0208598643171646
"laveB" 0.176733824175928
"agg" -0.0930677271077322
"ave" -0.00259382345458934
"laveB" -0.0252074429987983
"agg" 0.718267435721523
"ave" 0.0656952889513331
"laveB" 0.443092276437345
"agg" 0.855031552938548
"ave" 0.0599706246221641
"laveB" 0.448193250880121
"agg" 0.776894823719482
"ave" 0.0529522876918681
"laveB" 0.385833274562995
"agg" 0.53009577719627
"ave" 0.0175554270071242
"laveB" 0.200972368220993
"agg" 0.54055197844725
"ave" 0.0207990273493161
"laveB" 0.231652947016005
"agg" 0.445036496448968
"ave" 0.0281941605175519
"laveB" 0.18048003419775
"agg" 0.46060425196604
"ave" 0.0268640517705953
"laveB" 0.185480395848417
"agg" 0.367588531214842
"ave" 0.0127154286132715
"laveB" 0.108564590008954
"agg" 0.387618395819238
"ave" 0.0161415097440691
"laveB" 0.142288305665022
"agg" 0.0737022636784845
"ave" 0.00371519362521465
"laveB" 0.0334189384149464
"agg" 0.0432597925264078
"ave" 0.00159599705771772
"laveB" 0.0176668635353155
"agg" 0.211387135302313
"ave" 0.00919011694828755
"laveB" 0.0980242754576873
"agg" 0.237201685905035
"ave" 0.00787084306245832
"laveB" 0.0819724571764197
"agg" 0.238327797416531
"ave" 0.0104797590109213
"laveB" 0.113804662462561
"agg" 0.327515612344452
"ave" 0.0140619282029351
"laveB" 0.143674720997855
"agg" 0.169775762325555
"ave" 0.00613287777160708
"laveB" 0.0560444813821013
"agg" 0.771155095491014
"ave" 0.0763829981019999
"laveB" 0.459668424334057
"agg" 0.820065147828218
"ave" 0.0824003536264124
"laveB" 0.457225882550477
"agg" 0.601089970320012
"ave" 0.0273927333765527
"laveB" 0.242129380337671
"agg" 0.641263880258603
"ave" 0.0354602144472418
"laveB" 0.305787092662913
"agg" 0.346768788885012
"ave" 0.0298188499068082
"laveB" 0.179204586187824
"agg" 0.55172518178328
"ave" 0.047046845745938
"laveB" 0.253253070857545
"agg" 0.375471279535451
"ave" 0.0166466890626428
"laveB" 0.104791777295351
"agg" 0.458922499884931
"ave" 0.0277344824280282
"laveB" 0.185058955127202
"agg" 0.114582290589879
"ave" 0.0080487698048301
"laveB" 0.0976359546425242
"agg" 0.0754440453313841
"ave" 0.0044900271937663
"laveB" 0.0415731883469431
"agg" -0.150552283288992
"ave" -0.00854907014777934
"laveB" -0.0582277521963233
"agg" -0.0218856985678672
"ave" -0.000377586302544441
"laveB" 0.00968414466499075
"agg" 0.35543720207659
"ave" 0.0230075336277664
"laveB" 0.215451169992801
"agg" 0.463727538279256
"ave" 0.0278493827376479
"laveB" 0.227145263398176
"agg" -0.0388687874814624
"ave" -0.00147681517591232
"laveB" -0.00335936609594907
"agg" 0.907759188160445
"ave" 0.0684016079554922
"laveB" 0.4282534388624
"agg" 0.594380845100593
"ave" 0.0211699093442127
"laveB" 0.214005231265113
"agg" 0.653653797671138
"ave" 0.0273375829124251
"laveB" 0.280353665735073
"agg" 0.534297759970018
"ave" 0.0377198502731645
"laveB" 0.22574650730425
"agg" 0.513308940393803
"ave" 0.0329307348792184
"laveB" 0.196252501316082
"agg" 0.414716096909709
"ave" 0.0156316016304663
"laveB" 0.0940244978567329
"agg" 0.41718582020716
"ave" 0.0188123243725975
"laveB" 0.145870038538743
"agg" 0.105770463105906
"ave" 0.00616308188330234
"laveB" 0.0376682849021467
"agg" 0.103794182045031
"ave" 0.00511285067465594
"laveB" 0.0422434506196934
"agg" 0.236584810165608
"ave" 0.0124937517574248
"laveB" 0.101655148020501
"agg" 0.247512905771774
"ave" 0.00970832074220512
"laveB" 0.0918637070728578
"agg" 0.297803622200383
"ave" 0.0140232992194696
"laveB" 0.132360093200447
"agg" 0.395690044377895
"ave" 0.0182431196931317
"laveB" 0.156571230114427
"agg" 0.209345027915154
"ave" 0.00856344584978199
"laveB" 0.0662865071530755
"agg" 0.644446311909273
"ave" 0.0224284645632279
"laveB" 0.199433712073934
"agg" 0.733235147332989
"ave" 0.0301605293359682
"laveB" 0.276949180829224
"agg" 0.605652140573924
"ave" 0.0389603194358278
"laveB" 0.222204575519978
"agg" 0.68667095406733
"ave" 0.0442242878888545
"laveB" 0.252441141024355
"agg" 0.446176276839906
"ave" 0.0156407347457109
"laveB" 0.0887267766696094
"agg" 0.507274677664184
"ave" 0.0229949679340635
"laveB" 0.166160053068599
"agg" 0.159656241108548
"ave" 0.0090293709161987
"laveB" 0.0459602744168229
"agg" 0.154487295201116
"ave" 0.00730120852166691
"laveB" 0.0615753431262724
"agg" 0.111707432305695
"ave" 0.00378010597545786
"laveB" 0.0503647506508417
"agg" 0.163821228323259
"ave" 0.0052711649575695
"laveB" 0.0600856480571636
"agg" 0.371938637541945
"ave" 0.0170468533648587
"laveB" 0.149150292275397
"agg" 0.463804637265612
"ave" 0.0209041810916619
"laveB" 0.158306062517625
"agg" 0.146765506176205
"ave" 0.00456498597663026
"laveB" 0.0269894628833972
"agg" 0.776521778048825
"ave" 0.0158153031979929
"laveB" 0.233290651511078
"agg" 0.665334428201134
"ave" 0.020086546586848
"laveB" 0.206093011288749
"agg" 0.572465188596777
"ave" 0.0170320511369463
"laveB" 0.15614300200347
"agg" 0.507541036027692
"ave" 0.00787351867377511
"laveB" 0.0871366026535639
"agg" 0.455590280273087
"ave" 0.00934037326824457
"laveB" 0.114750083484694
"agg" 0.0962963201739643
"ave" 0.00276372342018988
"laveB" 0.0311637433704945
"agg" 0.126683172161453
"ave" 0.00307269999898828
"laveB" 0.0464326474365969
"agg" -0.169208417590932
"ave" -0.00306450869321077
"laveB" -0.0436289389886298
"agg" -0.0900567809272772
"ave" -0.000979825135567957
"laveB" -0.0049113142583646
"agg" 0.191298652297605
"ave" 0.00483205382288245
"laveB" 0.0642847206544362
"agg" 0.289164743010687
"ave" 0.00625811792547979
"laveB" 0.0815143609742428
"agg" -0.0984689147455976
"ave" -0.00154301523475696
"laveB" -0.0124039755596356
"agg" 0.675394474360194
"ave" 0.0243089208660748
"laveB" 0.229039400007872
"agg" 0.763202568065391
"ave" 0.0267164622663636
"laveB" 0.233976351321296
"agg" 0.614948025775169
"ave" 0.0114914022897015
"laveB" 0.120802467839941
"agg" 0.676583916502377
"ave" 0.0163315518366859
"laveB" 0.194866826491509
"agg" 0.293931672299301
"ave" 0.00857739395062715
"laveB" 0.101178199166797
"agg" 0.317672965837883
"ave" 0.00820439054296857
"laveB" 0.118111946726722
"agg" 0.0193978621176183
"ave" -0.000302246481248426
"laveB" -0.00391621142740849
"agg" 0.0722121319273773
"ave" 0.00105350561099348
"laveB" 0.0106097246545018
"agg" 0.459402584795769
"ave" 0.0108029010824095
"laveB" 0.155972828565919
"agg" 0.562312726398889
"ave" 0.0136793928235703
"laveB" 0.170134274562049
"agg" 0.15282866200407
"ave" 0.00239074949043382
"laveB" 0.0304897962358558
"agg" 0.709626138036639
"ave" 0.04160921573937
"laveB" 0.244321635463436
"agg" 0.750759059250235
"ave" 0.0254562326386368
"laveB" 0.188250796581978
"agg" 0.633700350479705
"ave" 0.0265416423792094
"laveB" 0.205869063060374
"agg" 0.382046565420749
"ave" 0.0222384714703078
"laveB" 0.168035693185237
"agg" 0.495747369818758
"ave" 0.0228070068376895
"laveB" 0.206863534384664
"agg" 0.245694131778833
"ave" 0.0113031036057563
"laveB" 0.0963117145866669
"agg" 0.344004711558115
"ave" 0.0123213126385067
"laveB" 0.10074373520553
"agg" 0.397536060719144
"ave" 0.01593814534576
"laveB" 0.144753698171953
"agg" 0.426320991943044
"ave" 0.0186646899943151
"laveB" 0.151231153314536
"agg" 0.348704849955671
"ave" 0.0118054687415454
"laveB" 0.0808147022743694
"agg" 0.721213114155369
"ave" 0.0228156967597392
"laveB" 0.143770884240627
"agg" 0.829557274844114
"ave" 0.03328385117876
"laveB" 0.22488639162417
"agg" 0.558683168199228
"ave" 0.0294631301177952
"laveB" 0.212884620556732
"agg" 0.516542330210964
"ave" 0.0225668043075994
"laveB" 0.196686750598183
"agg" 0.0658865721474548
"ave" 0.00187258224827451
"laveB" 0.0164464660492601
"agg" 0.212708001633628
"ave" 0.00652472277151321
"laveB" 0.0500538396026036
"agg" 0.582196557360021
"ave" 0.0222778521685884
"laveB" 0.19579189988711
"agg" 0.619631429685593
"ave" 0.024773377933474
"laveB" 0.195351007514973
"agg" 0.246067226656259
"ave" 0.00725735873358332
"laveB" 0.0505639757824912
"agg" 0.848994164099214
"ave" 0.0203504510313955
"laveB" 0.190092207031758
"agg" 0.670091121763751
"ave" 0.0212955030162533
"laveB" 0.179447285877996
"agg" 0.708903260371322
"ave" 0.0186669886741073
"laveB" 0.198145176492096
"agg" 0.292211909820008
"ave" 0.00831569511466849
"laveB" 0.0923455694929107
"agg" 0.44241873560221
"ave" 0.00906472314563754
"laveB" 0.0836309151244659
"agg" 0.659846597894517
"ave" 0.0151874900535425
"laveB" 0.147943432377942
"agg" 0.648599156464744
"ave" 0.0161755997252701
"laveB" 0.146150416675772
"agg" 0.467232985694825
"ave" 0.00981708237477104
"laveB" 0.0883691897169688
"agg" 0.751791743107652
"ave" 0.0292894473587875
"laveB" 0.28979673319581
"agg" 0.708882032110162
"ave" 0.0232161512758377
"laveB" 0.260910126331702
"agg" 0.228667343131116
"ave" 0.00667702550542054
"laveB" 0.0633347174892304
"agg" 0.367968627757959
"ave" 0.00854036370654836
"laveB" 0.0951263330440706
"agg" 0.753454545567754
"ave" 0.0214672501285256
"laveB" 0.236351834287485
"agg" 0.717718402829654
"ave" 0.0218991173153783
"laveB" 0.215061163576052
"agg" 0.397159609669019
"ave" 0.00944587967275083
"laveB" 0.0944756520301334
"agg" 0.887398335171194
"ave" 0.0372961380189132
"laveB" 0.405966872995242
"agg" 0.397446490477358
"ave" 0.0141683372771002
"laveB" 0.164281556293607
"agg" 0.535841458756498
"ave" 0.0149818960959993
"laveB" 0.163469354942229
"agg" 0.805426211547729
"ave" 0.028445169047404
"laveB" 0.324673941499739
"agg" 0.720999128955631
"ave" 0.0284304098549861
"laveB" 0.278372695639989
"agg" 0.570871614110382
"ave" 0.0171421510575429
"laveB" 0.169445885725453
"agg" 0.35159338869635
"ave" 0.0101493355598056
"laveB" 0.131785952190767
"agg" 0.529736712885504
"ave" 0.0123070748368656
"laveB" 0.14681730580068
"agg" 0.746880555145514
"ave" 0.0222122591668882
"laveB" 0.284635405861317
"agg" 0.708716368133038
"ave" 0.0240644811449119
"laveB" 0.281021006661352
"agg" 0.559560615235529
"ave" 0.0141767963496271
"laveB" 0.161038207871472
"agg" 0.871444164970846
"ave" 0.0178257413111572
"laveB" 0.232147573647036
"agg" 0.395724672793358
"ave" 0.00968590837767132
"laveB" 0.126632708177135
"agg" 0.248249264674825
"ave" 0.00791610655990344
"laveB" 0.103297170444244
"agg" 0.815990332299177
"ave" 0.0179537857839018
"laveB" 0.190838201378798
"agg" 0.505771744575765
"ave" 0.01003525309718
"laveB" 0.13041335525754
"agg" 0.389586781609263
"ave" 0.00940980726189954
"laveB" 0.117337073320257
"agg" 0.801161769351908
"ave" 0.0135061053619312
"laveB" 0.162171754052737
"agg" 0.892017847498711
"ave" 0.0252299059287051
"laveB" 0.288144736181397
"agg" 0.601416085211451
"ave" 0.0124300087601525
"laveB" 0.158447649076127
"agg" 0.49024449942126
"ave" 0.0123690769745107
"laveB" 0.135191373044908
