"EST" "CORR"
"agg" 0.918064389163088
"ave" 0.0607489453214984
"laveB" 0.460328982599054
"agg" 0.861641133080584
"ave" 0.0759683294202579
"laveB" 0.433445946601837
"agg" 0.832245559393626
"ave" 0.0745500946737857
"laveB" 0.436329752967925
"agg" 0.883431678229774
"ave" 0.0382899676444198
"laveB" 0.354217696543239
"agg" 0.865539628954325
"ave" 0.0376624673615188
"laveB" 0.357843427918101
"agg" 0.771095690997746
"ave" 0.0718369246900139
"laveB" 0.428949409129886
"agg" 0.746648003312015
"ave" 0.0654516791027426
"laveB" 0.421827724925414
"agg" 0.763310562635463
"ave" 0.0629065661058781
"laveB" 0.426416900534453
"agg" 0.796931236526659
"ave" 0.0612491275276051
"laveB" 0.426107062942335
"agg" 0.613489010904988
"ave" 0.0389652037593555
"laveB" 0.275828769317401
"agg" 0.618526563295204
"ave" 0.0302125379087229
"laveB" 0.237315161968736
"agg" 0.57644249714825
"ave" 0.0316165172878659
"laveB" 0.23033619871803
"agg" 0.605606049870638
"ave" 0.036337712554559
"laveB" 0.258805997622956
"agg" 0.411965573491679
"ave" 0.0360558584343206
"laveB" 0.230054291418513
"agg" 0.568002571642633
"ave" 0.0393162042757416
"laveB" 0.267592550530807
"agg" 0.805792189563106
"ave" 0.0534955413988886
"laveB" 0.377406989884069
"agg" 0.811487697221294
"ave" 0.0454510082933792
"laveB" 0.359558804245259
"agg" 0.772954488604162
"ave" 0.0614653190681913
"laveB" 0.444043389455932
"agg" 0.726553922675522
"ave" 0.0506700543994636
"laveB" 0.39862974723584
"agg" 0.189113115910078
"ave" 0.00536192804712554
"laveB" 0.0573716682138044
"agg" 0.237734492495331
"ave" 0.0097816922592336
"laveB" 0.0990494534873811
"agg" 0.226080533687403
"ave" 0.00529386433534492
"laveB" 0.0737224796505793
"agg" 0.398510095129775
"ave" 0.0206488836898573
"laveB" 0.187408168681452
"agg" 0.207694752588967
"ave" 0.0103337388764321
"laveB" 0.0743742358810313
"agg" 0.364168264553688
"ave" 0.0230572963161477
"laveB" 0.189377843787979
"agg" 0.468392224281268
"ave" 0.0162277621437926
"laveB" 0.204778056852879
"agg" 0.627085464098615
"ave" 0.0221999101588597
"laveB" 0.2737604032751
"agg" 0.678303245145557
"ave" 0.0421542916356876
"laveB" 0.369299647387328
"agg" 0.758825172695033
"ave" 0.0469023267230596
"laveB" 0.377450409712461
"agg" 0.705781287587508
"ave" 0.0370587673347584
"laveB" 0.342126452863391
"agg" 0.731387203942256
"ave" 0.0425252432207333
"laveB" 0.365062997168401
"agg" 0.601620700958348
"ave" 0.0154857414646072
"laveB" 0.21453356024015
"agg" 0.388334013435978
"ave" 0.0342468101104179
"laveB" 0.263341602203867
"agg" 0.705775120876519
"ave" 0.0312065585954428
"laveB" 0.274674993545521
"agg" 0.753052204023907
"ave" 0.0420251861815167
"laveB" 0.31923496630836
"agg" 0.62753072265244
"ave" 0.0170660914842685
"laveB" 0.160424731615069
"agg" 0.698113099196684
"ave" 0.0214546280791245
"laveB" 0.244289678375102
"agg" 0.0513751602804518
"ave" -0.000132259389570844
"laveB" 0.0135022099494666
"agg" 0.159006284790554
"ave" 0.00458634040881378
"laveB" 0.0427713364287181
"agg" 0.607316300795029
"ave" 0.0107961585298641
"laveB" 0.140841252469263
"agg" 0.470146274922062
"ave" 0.00727945824712281
"laveB" 0.0892600379911108
"agg" 0.505134700474176
"ave" 0.0132540532784039
"laveB" 0.166350694414443
"agg" 0.528829304217885
"ave" 0.0168215742776595
"laveB" 0.196770089946587
"agg" 0.751813026119229
"ave" 0.0243860443837604
"laveB" 0.279337366719608
"agg" 0.868498032658477
"ave" 0.0759104416811246
"laveB" 0.427105404711432
"agg" 0.850609052890831
"ave" 0.0755968801560208
"laveB" 0.446426950388258
"agg" 0.898892127216936
"ave" 0.0383920390336938
"laveB" 0.3535679096155
"agg" 0.894857475420885
"ave" 0.0383618667579234
"laveB" 0.373615173589467
"agg" 0.760351812768236
"ave" 0.0704060578328182
"laveB" 0.423046190470624
"agg" 0.752120137324675
"ave" 0.0649642125059615
"laveB" 0.415209826761589
"agg" 0.773321875675828
"ave" 0.062580965935537
"laveB" 0.422391311002171
"agg" 0.792190672488325
"ave" 0.0600481731127749
"laveB" 0.41931888332915
"agg" 0.584469881403649
"ave" 0.0363952794370026
"laveB" 0.236300581937413
"agg" 0.566538839013844
"ave" 0.0272610728047184
"laveB" 0.219535350882461
"agg" 0.513945895152822
"ave" 0.0281833507829274
"laveB" 0.188269048629926
"agg" 0.546987327566074
"ave" 0.0325940580475359
"laveB" 0.23234301729011
"agg" 0.390982131526709
"ave" 0.0331012206200006
"laveB" 0.211965738723557
"agg" 0.552699331171182
"ave" 0.0366494182888991
"laveB" 0.257612047094816
"agg" 0.820593616717044
"ave" 0.0539425235409441
"laveB" 0.37563587306068
"agg" 0.856423385238308
"ave" 0.0469359996784151
"laveB" 0.380389465415141
"agg" 0.758323333856934
"ave" 0.059835060014756
"laveB" 0.429113810198105
"agg" 0.74717255457288
"ave" 0.0512819307058764
"laveB" 0.390051726478776
"agg" 0.195197162217367
"ave" 0.00599292417026163
"laveB" 0.0836110585010587
"agg" 0.204689369739135
"ave" 0.00847314087349345
"laveB" 0.0782072425915644
"agg" 0.186680800657356
"ave" 0.00466037275871858
"laveB" 0.0658703849093866
"agg" 0.329110144913862
"ave" 0.0171251347498554
"laveB" 0.157291334172019
"agg" 0.242446450255758
"ave" 0.0119098242991485
"laveB" 0.112210705937577
"agg" 0.306617175711886
"ave" 0.0195439988224343
"laveB" 0.152627469340896
"agg" 0.485373523204163
"ave" 0.0169956326900183
"laveB" 0.231840922524001
"agg" 0.652913267060493
"ave" 0.0232271961231211
"laveB" 0.307961399707717
"agg" 0.634757486557119
"ave" 0.0393147863837689
"laveB" 0.34859065803993
"agg" 0.733220859479039
"ave" 0.0452450035213846
"laveB" 0.369311220670117
"agg" 0.662551119594045
"ave" 0.0351403310663327
"laveB" 0.318119353524451
"agg" 0.69262475009256
"ave" 0.0401355872899508
"laveB" 0.353817034243395
"agg" 0.581307688643435
"ave" 0.0153205180316142
"laveB" 0.193706341091475
"agg" 0.35184154002638
"ave" 0.0303206218459772
"laveB" 0.236040434837918
"agg" 0.685448207804479
"ave" 0.0299590772560297
"laveB" 0.271571663117685
"agg" 0.725178657606983
"ave" 0.0399936673581624
"laveB" 0.295667693000057
"agg" 0.655721141070862
"ave" 0.0177206202034433
"laveB" 0.172615116012535
"agg" 0.693464119163751
"ave" 0.021157756593918
"laveB" 0.231949766469037
"agg" 0.071875888132178
"ave" 0.00126397304290685
"laveB" 0.0108532184525495
"agg" 0.195084134149441
"ave" 0.00648732504736269
"laveB" 0.0643608224865744
"agg" 0.575578116891939
"ave" 0.0100793800279203
"laveB" 0.126800785113083
"agg" 0.478753427462076
"ave" 0.00744141814095334
"laveB" 0.0998657487786464
"agg" 0.493848906211645
"ave" 0.0132670326972806
"laveB" 0.162009297957977
"agg" 0.550186365223711
"ave" 0.0180398864320079
"laveB" 0.199614629823416
"agg" 0.715641856512546
"ave" 0.0233122956218275
"laveB" 0.237387614299092
"agg" 0.966337149196747
"ave" 0.112365336963758
"laveB" 0.511322124489593
"agg" 0.916113348751129
"ave" 0.0519994625867324
"laveB" 0.355572711421828
"agg" 0.882353145823713
"ave" 0.0504604698774975
"laveB" 0.345588880388044
"agg" 0.727145747306987
"ave" 0.0871067624809502
"laveB" 0.409615693054323
"agg" 0.689074936398876
"ave" 0.0782200237002436
"laveB" 0.383750437198751
"agg" 0.831236321112399
"ave" 0.0901363523582028
"laveB" 0.476092413023911
"agg" 0.815557559558701
"ave" 0.0832597506503346
"laveB" 0.44318333948341
"agg" 0.605023187620775
"ave" 0.0502506212825251
"laveB" 0.271352963672479
"agg" 0.62193324468663
"ave" 0.0395522928287742
"laveB" 0.259256781978827
"agg" 0.602107921738268
"ave" 0.043586968992543
"laveB" 0.22432139127959
"agg" 0.654899622144471
"ave" 0.0529222634942261
"laveB" 0.301214133822683
"agg" 0.312727575270301
"ave" 0.0341168204671968
"laveB" 0.169031652299669
"agg" 0.528134959968788
"ave" 0.0460752485358319
"laveB" 0.241879181323614
"agg" 0.787429253251961
"ave" 0.0702332578800162
"laveB" 0.377181535285362
"agg" 0.787578480468241
"ave" 0.0585410717348816
"laveB" 0.344235792910397
"agg" 0.744342081105379
"ave" 0.0764232645843034
"laveB" 0.41357799874934
"agg" 0.744490407423206
"ave" 0.0656938294835548
"laveB" 0.404574392204565
"agg" 0.248439880002261
"ave" 0.00976324936073619
"laveB" 0.0917012105375815
"agg" 0.235789858311396
"ave" 0.0123320185819364
"laveB" 0.0845813856719164
"agg" 0.232558890796022
"ave" 0.00788526929693408
"laveB" 0.0814972078532165
"agg" 0.391264653511101
"ave" 0.0266574248154708
"laveB" 0.198348204659582
"agg" 0.206143592896686
"ave" 0.0138787584416925
"laveB" 0.094424101094857
"agg" 0.335814958709361
"ave" 0.0279187967616504
"laveB" 0.170862328019475
"agg" 0.502180327819553
"ave" 0.0229850457107432
"laveB" 0.221511460675113
"agg" 0.62962316109813
"ave" 0.029494600287616
"laveB" 0.289820986790522
"agg" 0.682633311452322
"ave" 0.0560194515927232
"laveB" 0.375739452084037
"agg" 0.706796393993125
"ave" 0.057426065424594
"laveB" 0.3613146809125
"agg" 0.72095436133514
"ave" 0.0495093340046807
"laveB" 0.357781870894272
"agg" 0.702927989426442
"ave" 0.0536437847029894
"laveB" 0.351390624210511
"agg" 0.5968166342905
"ave" 0.0203001766931091
"laveB" 0.203728241144766
"agg" 0.329085265212939
"ave" 0.0375670016844538
"laveB" 0.217754242861951
"agg" 0.669561746840415
"ave" 0.0380893929172145
"laveB" 0.266462934708193
"agg" 0.751228896751605
"ave" 0.0546266864646946
"laveB" 0.312780067320514
"agg" 0.704153338280966
"ave" 0.0248909642800876
"laveB" 0.193748689466726
"agg" 0.803501777870182
"ave" 0.0328284888222419
"laveB" 0.26086638766977
"agg" 0.155187030444474
"ave" 0.00515530089786091
"laveB" 0.0440296261371309
"agg" 0.264369414726306
"ave" 0.0110435927650022
"laveB" 0.0826577641703091
"agg" 0.605949350139229
"ave" 0.0145723489472483
"laveB" 0.141707701195697
"agg" 0.510912763761538
"ave" 0.0107017041971154
"laveB" 0.09872136707494
"agg" 0.564726029783819
"ave" 0.0204120461629473
"laveB" 0.204698040226444
"agg" 0.628159344978204
"ave" 0.0277890555946236
"laveB" 0.237833310329334
"agg" 0.692784904342167
"ave" 0.0302579267738439
"laveB" 0.260401975731706
"agg" 0.890284090786326
"ave" 0.0513599882545956
"laveB" 0.358429834637413
"agg" 0.89615768745308
"ave" 0.0520604741666311
"laveB" 0.383741705725857
"agg" 0.691461549877034
"ave" 0.0848001710054228
"laveB" 0.384186726320695
"agg" 0.653767196282435
"ave" 0.0751677942777444
"laveB" 0.366621256326725
"agg" 0.807208968657321
"ave" 0.0905985777144661
"laveB" 0.462272030920831
"agg" 0.805347008016744
"ave" 0.0851829918661008
"laveB" 0.453546308681829
"agg" 0.53516276730862
"ave" 0.0466268226539069
"laveB" 0.237000066431098
"agg" 0.550758610431372
"ave" 0.0355720330911439
"laveB" 0.234060324778525
"agg" 0.554810442191035
"ave" 0.0420464828278311
"laveB" 0.228479103849595
"agg" 0.581648652913261
"ave" 0.0488852835010473
"laveB" 0.275449909754843
"agg" 0.269941594514429
"ave" 0.0290912023420757
"laveB" 0.137924368249135
"agg" 0.452129624123445
"ave" 0.0405403021152697
"laveB" 0.212899483936342
"agg" 0.71093072063756
"ave" 0.0662451978840222
"laveB" 0.343320243396495
"agg" 0.717638178160881
"ave" 0.0559352674455297
"laveB" 0.342779070575185
"agg" 0.690413464497036
"ave" 0.072296402818094
"laveB" 0.392790754769043
"agg" 0.676560533947794
"ave" 0.0616631003004283
"laveB" 0.372732522389747
"agg" 0.155750596695006
"ave" 0.00549384805577257
"laveB" 0.0594500421399865
"agg" 0.192905894595877
"ave" 0.0109285358289325
"laveB" 0.0824008004034666
"agg" 0.144881598752896
"ave" 0.00472444867435341
"laveB" 0.0658929042997182
"agg" 0.372338499453834
"ave" 0.0260399044686656
"laveB" 0.193956441847447
"agg" 0.161996127479963
"ave" 0.011509400719296
"laveB" 0.0825533172110312
"agg" 0.338055809443637
"ave" 0.0292523629639665
"laveB" 0.166845137816111
"agg" 0.40372105511002
"ave" 0.0184999840324514
"laveB" 0.190504433024843
"agg" 0.563288274195719
"ave" 0.0269094532807798
"laveB" 0.265730890022386
"agg" 0.614449134564106
"ave" 0.0512180737598913
"laveB" 0.350759008186248
"agg" 0.650149069670095
"ave" 0.0540342043494047
"laveB" 0.332484932460013
"agg" 0.665363442733851
"ave" 0.0472387827170658
"laveB" 0.339430960934847
"agg" 0.677557787471257
"ave" 0.0534856308814154
"laveB" 0.35418551809771
"agg" 0.551752447897017
"ave" 0.0189598105642365
"laveB" 0.186323055730352
"agg" 0.362233369196754
"ave" 0.041986270333987
"laveB" 0.238837695745027
"agg" 0.636790616092236
"ave" 0.0360315585379493
"laveB" 0.250490252570918
"agg" 0.729671695907119
"ave" 0.0546636424419293
"laveB" 0.307275631759558
"agg" 0.619703825404764
"ave" 0.0220826531683334
"laveB" 0.174835697100434
"agg" 0.752103320333376
"ave" 0.0314120795245801
"laveB" 0.250636246675041
"agg" 0.0676505153826043
"ave" 0.000424448178044967
"laveB" 0.0128133480832681
"agg" 0.170581441145416
"ave" 0.00691425546161793
"laveB" 0.0519447801162069
"agg" 0.545858298516792
"ave" 0.0132730789063113
"laveB" 0.126929572552176
"agg" 0.478421175946725
"ave" 0.0103250234022782
"laveB" 0.0993741487608945
"agg" 0.490193184167965
"ave" 0.0182867771992338
"laveB" 0.171283655707884
"agg" 0.550533281844447
"ave" 0.0249766756430486
"laveB" 0.216101512029402
"agg" 0.705156196657726
"ave" 0.0308423325255607
"laveB" 0.245068290877084
"agg" 0.925334576154491
"ave" 0.0257667652782879
"laveB" 0.294385403382941
"agg" 0.756166863230839
"ave" 0.0440132724066631
"laveB" 0.32721155070064
"agg" 0.704452738219154
"ave" 0.0390271988384677
"laveB" 0.29518805374234
"agg" 0.803491307704058
"ave" 0.0423448185452249
"laveB" 0.353929578176222
"agg" 0.805939149425216
"ave" 0.0395983190703896
"laveB" 0.333947167270918
"agg" 0.648794412733182
"ave" 0.0262664786146677
"laveB" 0.225830753201175
"agg" 0.57949498041245
"ave" 0.017769937225746
"laveB" 0.194171299499258
"agg" 0.569694825438727
"ave" 0.019982731398432
"laveB" 0.183859295393074
"agg" 0.62002931339419
"ave" 0.0240005728354493
"laveB" 0.239050997472917
"agg" 0.371255634245893
"ave" 0.019798939577378
"laveB" 0.166609911985369
"agg" 0.535735585370232
"ave" 0.0234110021361101
"laveB" 0.209099390857614
"agg" 0.813640888243842
"ave" 0.0351951582993385
"laveB" 0.297501252843753
"agg" 0.791250160928743
"ave" 0.028822228199794
"laveB" 0.281784710453664
"agg" 0.746016397864587
"ave" 0.0369900688517342
"laveB" 0.335205730981185
"agg" 0.704801273102281
"ave" 0.0308924133761429
"laveB" 0.303643837045042
"agg" 0.204447676218023
"ave" 0.00367466167848289
"laveB" 0.0737281797571163
"agg" 0.23625011279165
"ave" 0.00562505254852964
"laveB" 0.0688658190957384
"agg" 0.237795194515218
"ave" 0.00374498601586267
"laveB" 0.0818480267135899
"agg" 0.41333762125243
"ave" 0.0127961306383541
"laveB" 0.155535674670447
"agg" 0.236071402888234
"ave" 0.00737108697151687
"laveB" 0.0875966754858682
"agg" 0.390587118054223
"ave" 0.0151079143669629
"laveB" 0.154395343432716
"agg" 0.450173054717104
"ave" 0.0102234335968002
"laveB" 0.161792715776236
"agg" 0.585015005798553
"ave" 0.0133349846113644
"laveB" 0.217923899620119
"agg" 0.695308426509974
"ave" 0.0277963733608625
"laveB" 0.317307279350899
"agg" 0.758311158751022
"ave" 0.0298817155373898
"laveB" 0.305866387501925
"agg" 0.716848055051619
"ave" 0.0241650200483657
"laveB" 0.282406952841674
"agg" 0.746999090320912
"ave" 0.0275054312039764
"laveB" 0.298858573495976
"agg" 0.599191708233662
"ave" 0.0100401084967261
"laveB" 0.170774596272097
"agg" 0.400512462739535
"ave" 0.0207000826549768
"laveB" 0.192876835217108
"agg" 0.696391166826948
"ave" 0.0194911072284959
"laveB" 0.206577302040801
"agg" 0.741137654866465
"ave" 0.0263227382014066
"laveB" 0.262710373444648
"agg" 0.707562972237731
"ave" 0.0123174102232337
"laveB" 0.160053380721509
"agg" 0.775867433029794
"ave" 0.0154626882322626
"laveB" 0.212282043860564
"agg" 0.0596058477741725
"ave" 0.00030832550200778
"laveB" 0.0223477974244143
"agg" 0.200777630951344
"ave" 0.00397927854503722
"laveB" 0.0569355960033318
"agg" 0.597522607102157
"ave" 0.00705347997909891
"laveB" 0.117843848891858
"agg" 0.472139779330796
"ave" 0.00485954609609956
"laveB" 0.0801259900269876
"agg" 0.528559902784428
"ave" 0.00902179309642636
"laveB" 0.147151360253796
"agg" 0.589536053753136
"ave" 0.0123088467012448
"laveB" 0.186688251410124
"agg" 0.727166443317752
"ave" 0.0150071264650735
"laveB" 0.205291504242249
"agg" 0.779087914577191
"ave" 0.046836276391806
"laveB" 0.361140772933273
"agg" 0.723142532386043
"ave" 0.0406064746650198
"laveB" 0.346770546314863
"agg" 0.774260720418234
"ave" 0.0409816133151948
"laveB" 0.36588291946969
"agg" 0.804251098359394
"ave" 0.0402325178348288
"laveB" 0.354870335884786
"agg" 0.596810221095519
"ave" 0.0241681318136285
"laveB" 0.227543320030411
"agg" 0.55342879015297
"ave" 0.0169283652750509
"laveB" 0.194864095549964
"agg" 0.570285554556335
"ave" 0.0210664615564439
"laveB" 0.208922102828658
"agg" 0.571756860297028
"ave" 0.0230829677572609
"laveB" 0.208212385891957
"agg" 0.414908877589727
"ave" 0.0225510280870298
"laveB" 0.210579223028377
"agg" 0.50418099713546
"ave" 0.0218873972419927
"laveB" 0.201668353783041
"agg" 0.771321044278431
"ave" 0.0338810241779758
"laveB" 0.300703145179554
"agg" 0.752489286215752
"ave" 0.0277093864443483
"laveB" 0.267388104201129
"agg" 0.760864491492126
"ave" 0.0387857584973528
"laveB" 0.36455541792283
"agg" 0.690338855665273
"ave" 0.0314361270503253
"laveB" 0.29599435561354
"agg" 0.159272127268921
"ave" 0.00313037754005895
"laveB" 0.0700224727862327
"agg" 0.330112958289259
"ave" 0.00890239161472756
"laveB" 0.131030109339366
"agg" 0.139012025813994
"ave" 0.00234230946360218
"laveB" 0.0288382629072063
"agg" 0.530544708143318
"ave" 0.0175506777052743
"laveB" 0.249265692048336
"agg" 0.189685931422352
"ave" 0.00601267890779483
"laveB" 0.0744370994587896
"agg" 0.469179079451089
"ave" 0.018922310536015
"laveB" 0.205668184874225
"agg" 0.385756716470998
"ave" 0.00921266395538906
"laveB" 0.151611809727769
"agg" 0.529230857617405
"ave" 0.012520078283135
"laveB" 0.194093202065911
"agg" 0.617709241582454
"ave" 0.0256307134724935
"laveB" 0.276063063147428
"agg" 0.717852732825752
"ave" 0.0293042727776286
"laveB" 0.303162629467826
"agg" 0.673857412093762
"ave" 0.0237073513846381
"laveB" 0.264206727393083
"agg" 0.75245545636856
"ave" 0.0285445055670809
"laveB" 0.332857284569927
"agg" 0.554559718415852
"ave" 0.00952819825720905
"laveB" 0.155373784678202
"agg" 0.565123909763975
"ave" 0.0298003626492123
"laveB" 0.318485419781875
"agg" 0.726071231016465
"ave" 0.020374399231349
"laveB" 0.257192829610841
"agg" 0.786885816377291
"ave" 0.0284149051293482
"laveB" 0.282433971108146
"agg" 0.650684798369432
"ave" 0.011358188482982
"laveB" 0.142168486644964
"agg" 0.805993264783076
"ave" 0.016206729830863
"laveB" 0.223615723753846
"agg" 0.0106807088372868
"ave" -0.000610612438332319
"laveB" -0.0187115755827504
"agg" 0.147460776468635
"ave" 0.00332295054069521
"laveB" 0.0369329318979229
"agg" 0.549455750017107
"ave" 0.00629883755623411
"laveB" 0.107176516658905
"agg" 0.453879946562527
"ave" 0.00444559710620325
"laveB" 0.0696981392965691
"agg" 0.49675188269569
"ave" 0.00879034181520891
"laveB" 0.129579982598731
"agg" 0.554081291121168
"ave" 0.0120620746166511
"laveB" 0.171019388360789
"agg" 0.760263503044228
"ave" 0.0157081449985334
"laveB" 0.228131144358249
"agg" 0.929353721226582
"ave" 0.115117752462035
"laveB" 0.574602469044917
"agg" 0.735360126239849
"ave" 0.0840922694712255
"laveB" 0.45864083538074
"agg" 0.795352536984973
"ave" 0.0859645524218333
"laveB" 0.484915962201651
"agg" 0.629284495480612
"ave" 0.0561373852480124
"laveB" 0.293855643225358
"agg" 0.564338494500009
"ave" 0.0347227334446174
"laveB" 0.253398468093306
"agg" 0.64314163521832
"ave" 0.0490689092185974
"laveB" 0.274826188490568
"agg" 0.638492517484874
"ave" 0.0501630077936333
"laveB" 0.324822545503951
"agg" 0.388489695283185
"ave" 0.0486286071818761
"laveB" 0.247967819301889
"agg" 0.405362962383097
"ave" 0.0371727746356739
"laveB" 0.212427988254699
"agg" 0.685273578748059
"ave" 0.0614503721713781
"laveB" 0.366043959395481
"agg" 0.647746764360974
"ave" 0.0487047061918704
"laveB" 0.313613812309146
"agg" 0.891359252566782
"ave" 0.0991118421956968
"laveB" 0.579365589875762
"agg" 0.770229750050881
"ave" 0.0790755603574274
"laveB" 0.479464265476127
"agg" 0.147665809531704
"ave" 0.00436380280067543
"laveB" 0.0643836356182315
"agg" 0.208968199910918
"ave" 0.0108872076203713
"laveB" 0.0873822655159543
"agg" 0.260839528185986
"ave" 0.00802634502173102
"laveB" 0.108705536469513
"agg" 0.410641721994049
"ave" 0.0282413168506089
"laveB" 0.233297600849909
"agg" 0.282349380579276
"ave" 0.0208076074010544
"laveB" 0.136096656112939
"agg" 0.335169205612301
"ave" 0.0289931868780018
"laveB" 0.183174174545129
"agg" 0.350579594657643
"ave" 0.0149359613678924
"laveB" 0.190647857194302
"agg" 0.515037699822124
"ave" 0.023914190464458
"laveB" 0.271061425151415
"agg" 0.684080248136751
"ave" 0.0572506359805426
"laveB" 0.42357017779713
"agg" 0.809366130714043
"ave" 0.0686622548973021
"laveB" 0.447181400724581
"agg" 0.657264559879598
"ave" 0.046125036885757
"laveB" 0.357706083826875
"agg" 0.756306891409272
"ave" 0.0596575512547424
"laveB" 0.430659570197091
"agg" 0.505473161266411
"ave" 0.0169169879027872
"laveB" 0.177490667945468
"agg" 0.421915568385925
"ave" 0.0506643950649445
"laveB" 0.308517220304198
"agg" 0.672006399955913
"ave" 0.0408376965816851
"laveB" 0.289149627940381
"agg" 0.656661541402925
"ave" 0.0492762698154824
"laveB" 0.301545742670968
"agg" 0.569992096090261
"ave" 0.0211785703955402
"laveB" 0.167595415347591
"agg" 0.650006678587794
"ave" 0.0272482672805236
"laveB" 0.256285948324101
"agg" -0.0944838927475247
"ave" -0.0108874333094388
"laveB" -0.0606991886981198
"agg" 0.10066636575093
"ave" 0.0020752045422024
"laveB" 0.0210376548980665
"agg" 0.434228273042984
"ave" 0.00858115952436129
"laveB" 0.111226063432235
"agg" 0.388443330829608
"ave" 0.00709988668420113
"laveB" 0.0955067744768378
"agg" 0.427807712520668
"ave" 0.0131554668543712
"laveB" 0.164178532517264
"agg" 0.466914863733131
"ave" 0.0182091732716036
"laveB" 0.189178967298474
"agg" 0.763933786312399
"ave" 0.0340536593194584
"laveB" 0.29628977086242
"agg" 0.693329171774645
"ave" 0.0760042530152611
"laveB" 0.424879876392245
"agg" 0.775764878458709
"ave" 0.0794506952230292
"laveB" 0.468868214957345
"agg" 0.605664734363277
"ave" 0.0515889017202752
"laveB" 0.279363470994078
"agg" 0.564505319347016
"ave" 0.0355701491658969
"laveB" 0.260909986524576
"agg" 0.543690249927937
"ave" 0.0395189780160088
"laveB" 0.236463361259177
"agg" 0.573603392111056
"ave" 0.0458156193237437
"laveB" 0.28222763670996
"agg" 0.400459990413583
"ave" 0.0451709047782756
"laveB" 0.236836206400568
"agg" 0.423364160540088
"ave" 0.0378288874622411
"laveB" 0.22996966825043
"agg" 0.66236100454111
"ave" 0.0577967558772674
"laveB" 0.347580797408224
"agg" 0.633178238750619
"ave" 0.0456123987098926
"laveB" 0.306175158009657
"agg" 0.863538253758728
"ave" 0.0895198607739481
"laveB" 0.557344236197117
"agg" 0.779784649553765
"ave" 0.0751553881264236
"laveB" 0.477079125070395
"agg" 0.0336353864108126
"ave" 0.000102619482845155
"laveB" 0.0334111513413704
"agg" 0.0519601539016118
"ave" 0.00268625683896808
"laveB" 0.0257052546662371
"agg" 0.195585932961562
"ave" 0.00651744196530976
"laveB" 0.0866470836584772
"agg" 0.265732163014709
"ave" 0.0177313034120969
"laveB" 0.167907804426226
"agg" 0.261326901040347
"ave" 0.0186369934838505
"laveB" 0.135983884028165
"agg" 0.236064438820276
"ave" 0.0195226123487221
"laveB" 0.136456395023341
"agg" 0.341379798692312
"ave" 0.0151025216368469
"laveB" 0.185828842290748
"agg" 0.490360910696156
"ave" 0.0221912102705132
"laveB" 0.260299578473375
"agg" 0.611259477737075
"ave" 0.0508539325247183
"laveB" 0.367367860718054
"agg" 0.772389107858549
"ave" 0.0625725399139365
"laveB" 0.425777989340155
"agg" 0.577179332276948
"ave" 0.0401259813347706
"laveB" 0.321846645448147
"agg" 0.693435978931007
"ave" 0.0522693541329129
"laveB" 0.391230781643938
"agg" 0.490114200752268
"ave" 0.0163006214598373
"laveB" 0.183767143584867
"agg" 0.301804618115341
"ave" 0.0336980464657133
"laveB" 0.226181361017247
"agg" 0.632231358556511
"ave" 0.0362097971247328
"laveB" 0.277099185209301
"agg" 0.606181689928642
"ave" 0.0432780054437738
"laveB" 0.275674947129888
"agg" 0.511763368320519
"ave" 0.0182851230545368
"laveB" 0.171612647041177
"agg" 0.562210595352751
"ave" 0.0227460660848275
"laveB" 0.202510839562576
"agg" -0.121256327134509
"ave" -0.0103193509984961
"laveB" -0.0901500748287859
"agg" 0.0758423738038076
"ave" 0.00181663432926699
"laveB" 0.0300801533618848
"agg" 0.364009698994675
"ave" 0.00695587956375973
"laveB" 0.0899975778259554
"agg" 0.326811505289542
"ave" 0.0060938012078002
"laveB" 0.0681029968543088
"agg" 0.342271744042972
"ave" 0.0105408978204793
"laveB" 0.120519987638474
"agg" 0.385070648161379
"ave" 0.015060142269141
"laveB" 0.155599679278731
"agg" 0.712374122090121
"ave" 0.0294514451922903
"laveB" 0.267357594832817
"agg" 0.957304486058763
"ave" 0.0943005796749831
"laveB" 0.570012945273449
"agg" 0.724762313416095
"ave" 0.0576604800660446
"laveB" 0.343600726645936
"agg" 0.619903354105326
"ave" 0.0362877125722803
"laveB" 0.268149943242315
"agg" 0.60970472888838
"ave" 0.0410701594600709
"laveB" 0.243579938551945
"agg" 0.676685781706635
"ave" 0.0522880046248738
"laveB" 0.342732418126843
"agg" 0.191918799670791
"ave" 0.0207980742712771
"laveB" 0.11216188580444
"agg" 0.447755980656487
"ave" 0.0360642191705334
"laveB" 0.222712484060388
"agg" 0.79215865332496
"ave" 0.0700888558209847
"laveB" 0.431348532445619
"agg" 0.744165860897056
"ave" 0.0549604914422535
"laveB" 0.371889171179143
"agg" 0.754549409729516
"ave" 0.0731642984484724
"laveB" 0.482865849410667
"agg" 0.695119747562487
"ave" 0.0591377391772351
"laveB" 0.409009968838342
"agg" 0.116241859682863
"ave" 0.00291362587090506
"laveB" 0.0569452175078677
"agg" 0.177857249288497
"ave" 0.00847303790914496
"laveB" 0.0769323688561361
"agg" 0.195982488406163
"ave" 0.00579918282302927
"laveB" 0.0770184021023675
"agg" 0.366528106377051
"ave" 0.0232949392799889
"laveB" 0.203151679426962
"agg" 0.220125471428398
"ave" 0.0142546467759386
"laveB" 0.0994616209003918
"agg" 0.312668986475783
"ave" 0.0241012016422456
"laveB" 0.166412922280048
"agg" 0.357944087493884
"ave" 0.0140741787741247
"laveB" 0.185355673971477
"agg" 0.527775823210467
"ave" 0.0227836146060532
"laveB" 0.267612245306366
"agg" 0.608929952930708
"ave" 0.0463042716871778
"laveB" 0.376291633155427
"agg" 0.631344156926312
"ave" 0.0474687213486399
"laveB" 0.352642462666779
"agg" 0.647148508032052
"ave" 0.0415303769803547
"laveB" 0.354109336601343
"agg" 0.654931963145166
"ave" 0.0467887238603871
"laveB" 0.351585251038724
"agg" 0.47615914874245
"ave" 0.0148791216509344
"laveB" 0.180562813146642
"agg" 0.30630119570574
"ave" 0.0323938090422554
"laveB" 0.225324993902303
"agg" 0.528021881336341
"ave" 0.027578188738701
"laveB" 0.219086656128493
"agg" 0.621765432961636
"ave" 0.0420230873394594
"laveB" 0.277184001391508
"agg" 0.589257918831395
"ave" 0.0197428445089034
"laveB" 0.152234823198951
"agg" 0.692876806315922
"ave" 0.0271868715559435
"laveB" 0.255604857607454
"agg" 0.0101719346856658
"ave" -0.0035163696538156
"laveB" -0.0103266427948432
"agg" 0.149092642350746
"ave" 0.00444689928995276
"laveB" 0.0606260744023731
"agg" 0.555732301166671
"ave" 0.0126481850421049
"laveB" 0.170391638950021
"agg" 0.479438451830202
"ave" 0.00965694724481419
"laveB" 0.118602334892618
"agg" 0.554315843122494
"ave" 0.0186404494777336
"laveB" 0.215969523734375
"agg" 0.576625433506486
"ave" 0.0234372062719852
"laveB" 0.239120320453269
"agg" 0.677233990419199
"ave" 0.0274985959020769
"laveB" 0.257451935803745
"agg" 0.678124221763965
"ave" 0.0507080268883097
"laveB" 0.296917355801506
"agg" 0.594168904706478
"ave" 0.0315775487714764
"laveB" 0.256945411252605
"agg" 0.594591926110329
"ave" 0.037180645305368
"laveB" 0.251308514298045
"agg" 0.64985065427263
"ave" 0.045332924975162
"laveB" 0.312181468862582
"agg" 0.230289918740464
"ave" 0.0243123637847194
"laveB" 0.135673382342846
"agg" 0.409820069269897
"ave" 0.0307507948092276
"laveB" 0.200821059757217
"agg" 0.763873721296675
"ave" 0.0606995402580669
"laveB" 0.398640725889539
"agg" 0.713779103261542
"ave" 0.0479459740701632
"laveB" 0.340627828949574
"agg" 0.785896561933143
"ave" 0.0710259740582931
"laveB" 0.490297044080237
"agg" 0.706137338221709
"ave" 0.055947908233518
"laveB" 0.416510143339613
"agg" 0.0934697685591575
"ave" 0.00114243064724114
"laveB" 0.0464369465465682
"agg" 0.191143865469203
"ave" 0.00904337302068077
"laveB" 0.0817516502813566
"agg" 0.182433667949423
"ave" 0.00462550662535233
"laveB" 0.067285279733379
"agg" 0.402790281896885
"ave" 0.0249063549592228
"laveB" 0.23592791566859
"agg" 0.21990485104294
"ave" 0.0133198278229306
"laveB" 0.100245578678223
"agg" 0.340206953642328
"ave" 0.026234313626063
"laveB" 0.186577925799182
"agg" 0.347168133500373
"ave" 0.0119131991464735
"laveB" 0.15869133465867
"agg" 0.518247126215035
"ave" 0.0198723642826263
"laveB" 0.241114157219844
"agg" 0.600045047914917
"ave" 0.0410378107687562
"laveB" 0.345866220061023
"agg" 0.665220932067195
"ave" 0.0461552746011723
"laveB" 0.346557876277064
"agg" 0.626612493500605
"ave" 0.0366678045106801
"laveB" 0.318304681886084
"agg" 0.668589877503037
"ave" 0.0445367191032506
"laveB" 0.370541414583491
"agg" 0.46016260362172
"ave" 0.0128743806073785
"laveB" 0.174614432862743
"agg" 0.386906581823559
"ave" 0.0400908700454749
"laveB" 0.275893512981919
"agg" 0.547912971993112
"ave" 0.0267887711884152
"laveB" 0.229973174022397
"agg" 0.626142697616871
"ave" 0.0395133260829947
"laveB" 0.263492608886724
"agg" 0.578700821328538
"ave" 0.0176444019827255
"laveB" 0.163214265256885
"agg" 0.675005166632721
"ave" 0.0245953343814331
"laveB" 0.229534475989368
"agg" -0.0615374960552578
"ave" -0.00745014124542129
"laveB" -0.0561842434625056
"agg" 0.093342780949068
"ave" 0.00142625246464959
"laveB" 0.00676928983613243
"agg" 0.539293575289824
"ave" 0.010614349019346
"laveB" 0.144248849957986
"agg" 0.433145530352794
"ave" 0.00751941983758808
"laveB" 0.0923989742576347
"agg" 0.511849257654443
"ave" 0.0150133785709028
"laveB" 0.183427571142045
"agg" 0.5294570164765
"ave" 0.0189172566372904
"laveB" 0.213365268548562
"agg" 0.713562444631665
"ave" 0.0271666348767417
"laveB" 0.270856579038212
"agg" 0.800981091197826
"ave" 0.0419543608461642
"laveB" 0.311491889267384
"agg" 0.629844981945657
"ave" 0.0354135485429552
"laveB" 0.220463578066101
"agg" 0.649020506565347
"ave" 0.0424999279474303
"laveB" 0.302543452538756
"agg" 0.492644521412216
"ave" 0.0414952403346212
"laveB" 0.242483446447426
"agg" 0.650861908024936
"ave" 0.0441394919361187
"laveB" 0.290791547187445
"agg" 0.698975691524342
"ave" 0.0460182078435565
"laveB" 0.300401588144618
"agg" 0.611123499118716
"ave" 0.0337369966925677
"laveB" 0.25192500986593
"agg" 0.625056769050917
"ave" 0.0466973555139337
"laveB" 0.305862952908702
"agg" 0.518725789664189
"ave" 0.0363016650508596
"laveB" 0.243991181580453
"agg" 0.131310436828789
"ave" 0.00365186947364196
"laveB" 0.0484393330096157
"agg" 0.290161836614426
"ave" 0.0110467034545094
"laveB" 0.106924980237292
"agg" 0.229313652851302
"ave" 0.00577798484763457
"laveB" 0.0832805627757186
"agg" 0.375513061336508
"ave" 0.017989312627242
"laveB" 0.168356510475673
"agg" 0.181882980804455
"ave" 0.0089722580570224
"laveB" 0.0607156147761341
"agg" 0.378152465125516
"ave" 0.0225243990957731
"laveB" 0.155144308493976
"agg" 0.309216900865375
"ave" 0.0100742033719151
"laveB" 0.127051456912824
"agg" 0.352763258653474
"ave" 0.0118328683616384
"laveB" 0.14942842361168
"agg" 0.466810887089869
"ave" 0.0280579922003802
"laveB" 0.234242062766745
"agg" 0.574370762627841
"ave" 0.0334217270249398
"laveB" 0.271380941674221
"agg" 0.534085075814614
"ave" 0.0266190942377211
"laveB" 0.229691929958191
"agg" 0.594685275539399
"ave" 0.0334392136087637
"laveB" 0.242868217802339
"agg" 0.348385778684843
"ave" 0.00822226953536426
"laveB" 0.111021756019233
"agg" 0.341219403567321
"ave" 0.0261974731137747
"laveB" 0.17169715886099
"agg" 0.544816402262823
"ave" 0.0240161518387642
"laveB" 0.177992681589157
"agg" 0.564849375796429
"ave" 0.0304405985664601
"laveB" 0.20314695035349
"agg" 0.608419190802175
"ave" 0.0171909050915096
"laveB" 0.124160582944872
"agg" 0.648286985641325
"ave" 0.0200776829905925
"laveB" 0.207600636466212
"agg" 0.130689468083742
"ave" 0.00480094926420776
"laveB" 0.0617513176288461
"agg" 0.249704913978577
"ave" 0.00912235404672118
"laveB" 0.0888806380083557
"agg" 0.537222714893452
"ave" 0.0106437462814705
"laveB" 0.13284995894257
"agg" 0.475235387660553
"ave" 0.00847419227408338
"laveB" 0.0980720164574748
"agg" 0.486859623105118
"ave" 0.0134473520672124
"laveB" 0.155740341950482
"agg" 0.526223809975047
"ave" 0.0181259479657257
"laveB" 0.197020747606323
"agg" 0.605094963979712
"ave" 0.0181392050983157
"laveB" 0.158555766524882
"agg" 0.556325439926571
"ave" 0.0233556266944739
"laveB" 0.187176302017128
"agg" 0.720787334441006
"ave" 0.0389542562749542
"laveB" 0.314553947823312
"agg" 0.457997715703551
"ave" 0.035559966906043
"laveB" 0.225542676352838
"agg" 0.759866710139692
"ave" 0.0494580484179697
"laveB" 0.340738670049024
"agg" 0.705625834203984
"ave" 0.0368896775013453
"laveB" 0.275325018081809
"agg" 0.680418304726746
"ave" 0.0306784125235394
"laveB" 0.251262184556927
"agg" 0.563841254564615
"ave" 0.0307706920057861
"laveB" 0.260642993366146
"agg" 0.553264403354749
"ave" 0.0274763788933497
"laveB" 0.217762768908854
"agg" 0.26004950397879
"ave" 0.00773383457276314
"laveB" 0.0950325574961357
"agg" 0.35601496726092
"ave" 0.0119032672301763
"laveB" 0.136472619019471
"agg" 0.310133383020841
"ave" 0.00673635412165039
"laveB" 0.0955481245844733
"agg" 0.367561925606335
"ave" 0.0141966399561747
"laveB" 0.171712349132486
"agg" 0.208748301920762
"ave" 0.00893763462360378
"laveB" 0.0835854051570228
"agg" 0.39526801175515
"ave" 0.0196272893320387
"laveB" 0.178825592998258
"agg" 0.447716929722275
"ave" 0.0128830178739607
"laveB" 0.161016097307207
"agg" 0.490333049831355
"ave" 0.013704887524984
"laveB" 0.184367493293795
"agg" 0.599531345179756
"ave" 0.0294808149410692
"laveB" 0.2909598008691
"agg" 0.630606679525785
"ave" 0.0298383807982501
"laveB" 0.276212444082906
"agg" 0.60204898436025
"ave" 0.0227988213747151
"laveB" 0.236618425371204
"agg" 0.566076377112165
"ave" 0.02482688170683
"laveB" 0.227011348785624
"agg" 0.444992372955159
"ave" 0.00838544334288591
"laveB" 0.132893755293046
"agg" 0.221420979297235
"ave" 0.011552107251853
"laveB" 0.128153024395036
"agg" 0.493610079452293
"ave" 0.0172243187522723
"laveB" 0.146314062812616
"agg" 0.568377674394076
"ave" 0.0254657057970889
"laveB" 0.211012374830927
"agg" 0.531727094850694
"ave" 0.0109485174071503
"laveB" 0.0974384765568632
"agg" 0.653524437018719
"ave" 0.0159526285993753
"laveB" 0.19526583801969
"agg" 0.255779416717687
"ave" 0.0106634458909513
"laveB" 0.121034024590271
"agg" 0.282053829539865
"ave" 0.00974379074131783
"laveB" 0.107043263532844
"agg" 0.585887596380763
"ave" 0.010253093927919
"laveB" 0.147126213065929
"agg" 0.543177264444756
"ave" 0.008714442466527
"laveB" 0.105089970138641
"agg" 0.579183389997127
"ave" 0.0141268746809911
"laveB" 0.179914599931276
"agg" 0.57394295585231
"ave" 0.0170767313080856
"laveB" 0.201863159160695
"agg" 0.566168424402451
"ave" 0.014161139674616
"laveB" 0.149949304136025
"agg" 0.838566976535675
"ave" 0.0480670243800702
"laveB" 0.345805228744004
"agg" 0.148661354313559
"ave" 0.0115176247433356
"laveB" 0.056214539948531
"agg" 0.286607760895618
"ave" 0.016351151540703
"laveB" 0.115943814511136
"agg" 0.550216962472635
"ave" 0.0322985247226353
"laveB" 0.204388456659368
"agg" 0.539420315164885
"ave" 0.0260177279520211
"laveB" 0.197512962812081
"agg" 0.558174242343418
"ave" 0.0359257224427812
"laveB" 0.255360122059601
"agg" 0.515990309450395
"ave" 0.027913458729571
"laveB" 0.213434438589451
"agg" 0.251188315747682
"ave" 0.00702497024981656
"laveB" 0.0948643199061889
"agg" 0.244423353916586
"ave" 0.00788412732631896
"laveB" 0.0827510695014012
"agg" 0.350900873953193
"ave" 0.00756836303702078
"laveB" 0.113399998880145
"agg" 0.372214392157343
"ave" 0.0157373930235919
"laveB" 0.159502047418108
"agg" 0.279054879842089
"ave" 0.0125237660254496
"laveB" 0.0992623550503357
"agg" 0.300666589011045
"ave" 0.0155942387186328
"laveB" 0.120642001120132
"agg" 0.330461953687251
"ave" 0.00923956716116161
"laveB" 0.10822529585726
"agg" 0.414548964698804
"ave" 0.0120230098179929
"laveB" 0.143184796320707
"agg" 0.662057766442869
"ave" 0.035257477643622
"laveB" 0.275449916395221
"agg" 0.646979830836529
"ave" 0.0336869078791507
"laveB" 0.269706996405056
"agg" 0.725261394285135
"ave" 0.0323662714843067
"laveB" 0.298036832666909
"agg" 0.659353189836614
"ave" 0.0330661248522061
"laveB" 0.243097034268972
"agg" 0.488326441847938
"ave" 0.0105646408833498
"laveB" 0.135081789134913
"agg" 0.25422343637494
"ave" 0.0191079565434268
"laveB" 0.144820351778132
"agg" 0.573906587224625
"ave" 0.0230098577385763
"laveB" 0.168479002093811
"agg" 0.640194508557777
"ave" 0.0319204818904235
"laveB" 0.24828556030223
"agg" 0.579755281853571
"ave" 0.0142351250225381
"laveB" 0.119951702568185
"agg" 0.606566552206823
"ave" 0.0166468659810348
"laveB" 0.151525799437592
"agg" 0.138281219935109
"ave" 0.00440926593917106
"laveB" 0.0641963523906718
"agg" 0.30792693276013
"ave" 0.0107098427649704
"laveB" 0.115620761677784
"agg" 0.486395970439577
"ave" 0.00825919899855185
"laveB" 0.100960308064214
"agg" 0.562108089759139
"ave" 0.00911675352709738
"laveB" 0.111806447521408
"agg" 0.607785999619204
"ave" 0.0158380334300215
"laveB" 0.174500139738614
"agg" 0.631306744969818
"ave" 0.0198875977993071
"laveB" 0.190511624127144
"agg" 0.605296682367175
"ave" 0.0170115896022789
"laveB" 0.172247689633618
"agg" 0.0852811709206549
"ave" 0.00581653380103089
"laveB" 0.0350055406454393
"agg" 0.36920388157896
"ave" 0.0271842596033263
"laveB" 0.16962302733098
"agg" 0.659068783588137
"ave" 0.0455658330872042
"laveB" 0.320532979143725
"agg" 0.651448371417959
"ave" 0.0373848554190367
"laveB" 0.296534877906614
"agg" 0.604910812180455
"ave" 0.0436763900089218
"laveB" 0.319229382918302
"agg" 0.590847711729595
"ave" 0.0346463892770008
"laveB" 0.284233568595897
"agg" 0.258988169427391
"ave" 0.00833073493416212
"laveB" 0.104593563716521
"agg" 0.25224026859813
"ave" 0.00984328035100699
"laveB" 0.109183449258673
"agg" 0.435906288523633
"ave" 0.0113999485612356
"laveB" 0.16781259822633
"agg" 0.384916587850582
"ave" 0.0194498424373238
"laveB" 0.200130113654082
"agg" 0.345438839735807
"ave" 0.0186943753555122
"laveB" 0.143674567991598
"agg" 0.311115309053941
"ave" 0.0197163208483521
"laveB" 0.159688854861513
"agg" 0.461147025144647
"ave" 0.0157618133620318
"laveB" 0.187895921568419
"agg" 0.532136250560599
"ave" 0.0182814919022935
"laveB" 0.21600360911623
"agg" 0.799528601223033
"ave" 0.0493124735362591
"laveB" 0.419713418307621
"agg" 0.706895461156579
"ave" 0.0426616446397627
"laveB" 0.34462385046923
"agg" 0.804832063538226
"ave" 0.0402319804145519
"laveB" 0.390484114803581
"agg" 0.686071987634418
"ave" 0.0394578700273959
"laveB" 0.334595751677128
"agg" 0.555604455208351
"ave" 0.0137388177573875
"laveB" 0.171069867912504
"agg" 0.151630735293883
"ave" 0.0122099258320172
"laveB" 0.117325168392011
"agg" 0.44552695746432
"ave" 0.0187343152784566
"laveB" 0.155455801501452
"agg" 0.615320396679296
"ave" 0.0351170618915855
"laveB" 0.261749913637288
"agg" 0.556585138880643
"ave" 0.0144945995523841
"laveB" 0.116880133613359
"agg" 0.625556078391315
"ave" 0.0197325188902647
"laveB" 0.19764659417472
"agg" 0.150179404834292
"ave" 0.00541526440431158
"laveB" 0.0632418900730298
"agg" 0.259737362020568
"ave" 0.00939419854404046
"laveB" 0.104985577142911
"agg" 0.563392848059056
"ave" 0.0117664330366125
"laveB" 0.150668424268955
"agg" 0.560455010456957
"ave" 0.0102222518964103
"laveB" 0.118802232127049
"agg" 0.686818871749558
"ave" 0.0206082888886325
"laveB" 0.243886948668298
"agg" 0.668481243684589
"ave" 0.0237741097769452
"laveB" 0.266882790305739
"agg" 0.541981476990103
"ave" 0.0172489441735412
"laveB" 0.182794613445926
"agg" 0.717906092863981
"ave" 0.0670540531119816
"laveB" 0.415098351031543
"agg" 0.501276215358077
"ave" 0.038130078262092
"laveB" 0.250121098625859
"agg" 0.396485999947266
"ave" 0.0258028477234116
"laveB" 0.193485814464261
"agg" 0.369560921949033
"ave" 0.0374959478391383
"laveB" 0.237829218462621
"agg" 0.321721298637572
"ave" 0.0320491462980406
"laveB" 0.19480741430524
"agg" 0.144307557772027
"ave" 0.00633423619370825
"laveB" 0.0762726162093276
"agg" 0.269512267936158
"ave" 0.014353676697248
"laveB" 0.13346026316888
"agg" 0.0140387598203721
"ave" 0.000600738439856652
"laveB" 0.00558419802763157
"agg" 0.233071815629349
"ave" 0.0145810256660631
"laveB" 0.117889163422259
"agg" 0.134946967541005
"ave" 0.00890337843701398
"laveB" 0.0762932566450216
"agg" 0.332031966358368
"ave" 0.025205423046618
"laveB" 0.161055945003145
"agg" 0.191163387566129
"ave" 0.00907947086489148
"laveB" 0.105628947108692
"agg" 0.141807070308453
"ave" 0.00654936854052051
"laveB" 0.0705654223118115
"agg" 0.204474973693786
"ave" 0.0169726187431699
"laveB" 0.143726840808931
"agg" 0.422600625773266
"ave" 0.0331560702017341
"laveB" 0.247549562639226
"agg" 0.25282663134161
"ave" 0.0177705640641741
"laveB" 0.136689065864059
"agg" 0.408275313068096
"ave" 0.0306485977620235
"laveB" 0.232865144021503
"agg" 0.30383909193158
"ave" 0.00971775590073674
"laveB" 0.111381814121374
"agg" 0.377879285074222
"ave" 0.0376659167515111
"laveB" 0.249122207129451
"agg" 0.695047406393401
"ave" 0.040653881633693
"laveB" 0.326085188743168
"agg" 0.519525996066904
"ave" 0.0353570219556267
"laveB" 0.25034435738675
"agg" 0.519082732308568
"ave" 0.0185356524431311
"laveB" 0.178261336025851
"agg" 0.506261766697096
"ave" 0.0184898216357148
"laveB" 0.185182741118637
"agg" 0.223547743090707
"ave" 0.0137624633776239
"laveB" 0.13606708084049
"agg" 0.3226237070563
"ave" 0.0170053522127917
"laveB" 0.175298498744367
"agg" 0.26698426007277
"ave" 0.00624724363871164
"laveB" 0.0639184440985223
"agg" 0.250248737860195
"ave" 0.00573039383164922
"laveB" 0.0613069575921284
"agg" 0.152668033441173
"ave" 0.0042048283521007
"laveB" 0.0497369534388532
"agg" 0.250611115593078
"ave" 0.0105335434387269
"laveB" 0.102119242998869
"agg" 0.470516474694047
"ave" 0.0184230110182922
"laveB" 0.175783397303939
"agg" 0.706087865356526
"ave" 0.0495551721002507
"laveB" 0.320867717689239
"agg" 0.672206643007628
"ave" 0.0395736769633363
"laveB" 0.288589576034661
"agg" 0.449132668877244
"ave" 0.0358764170067079
"laveB" 0.243186770970362
"agg" 0.456032218981227
"ave" 0.032397787693644
"laveB" 0.233792635136733
"agg" 0.197630081966396
"ave" 0.00775278151405272
"laveB" 0.0827779954405281
"agg" 0.309659381876756
"ave" 0.0142198991641527
"laveB" 0.134268570497596
"agg" 0.117070151117366
"ave" 0.00387220828062622
"laveB" 0.0495374003831997
"agg" 0.2200528223896
"ave" 0.0121434136021516
"laveB" 0.10230021264373
"agg" 0.182007532360269
"ave" 0.0100032943818426
"laveB" 0.0848450546722094
"agg" 0.345362663953187
"ave" 0.0232657174272308
"laveB" 0.162520744473802
"agg" 0.393455853887536
"ave" 0.01625282892191
"laveB" 0.187391054813968
"agg" 0.390714028823622
"ave" 0.0159625965108056
"laveB" 0.173024864885947
"agg" 0.392138450143331
"ave" 0.0274814390296143
"laveB" 0.22749067647382
"agg" 0.51297794277051
"ave" 0.0345137564094575
"laveB" 0.270948049304483
"agg" 0.426215683108672
"ave" 0.0236583390950536
"laveB" 0.20302168039814
"agg" 0.462905358543223
"ave" 0.0291457696036933
"laveB" 0.215939602610614
"agg" 0.400393195917073
"ave" 0.0112678836083506
"laveB" 0.141716570876816
"agg" 0.220698558547849
"ave" 0.0179838420428422
"laveB" 0.136745993233738
"agg" 0.5987634990614
"ave" 0.0292109735417131
"laveB" 0.250424241915268
"agg" 0.621721276294397
"ave" 0.0373386254613795
"laveB" 0.278883301732379
"agg" 0.551485554445813
"ave" 0.0161588318159159
"laveB" 0.1462231535778
"agg" 0.631316254422207
"ave" 0.0202073802815051
"laveB" 0.228489294697347
"agg" 0.344137262771951
"ave" 0.0173582321167772
"laveB" 0.160928810932785
"agg" 0.355884936186629
"ave" 0.0154516449155277
"laveB" 0.158354914474268
"agg" 0.524348098241483
"ave" 0.011895014277235
"laveB" 0.139595313627071
"agg" 0.466209058511626
"ave" 0.00959332318830174
"laveB" 0.105679287463048
"agg" 0.394193753892295
"ave" 0.0122677406784259
"laveB" 0.130498247904444
"agg" 0.470056702285762
"ave" 0.0185371566769483
"laveB" 0.182278751603183
"agg" 0.487068114767011
"ave" 0.016525828493563
"laveB" 0.16970026720577
"agg" 0.91637929213866
"ave" 0.0556958679409311
"laveB" 0.394886438205153
"agg" 0.754318986049821
"ave" 0.0611474809269074
"laveB" 0.426834864278181
"agg" 0.777246614714967
"ave" 0.0533124527015492
"laveB" 0.404957581710309
"agg" 0.348556648825393
"ave" 0.0125063799915732
"laveB" 0.145935068832089
"agg" 0.319606321233331
"ave" 0.0126387830978796
"laveB" 0.126332990580511
"agg" 0.29894590659581
"ave" 0.00848466978552101
"laveB" 0.118369037672627
"agg" 0.356931013467129
"ave" 0.0183894627919828
"laveB" 0.166397545915042
"agg" 0.285741800811658
"ave" 0.0157735906776982
"laveB" 0.13029213220464
"agg" 0.35147287779828
"ave" 0.0208099350165389
"laveB" 0.152936925250434
"agg" 0.625285486238317
"ave" 0.024190399933604
"laveB" 0.280736401942363
"agg" 0.695791984409705
"ave" 0.027281174537444
"laveB" 0.290003816098887
"agg" 0.732784343963777
"ave" 0.0485721531827249
"laveB" 0.41256600860755
"agg" 0.770310995992733
"ave" 0.0489600182112854
"laveB" 0.37491644045409
"agg" 0.772127254580604
"ave" 0.042970025659848
"laveB" 0.367094488955075
"agg" 0.728288698480997
"ave" 0.0435277919394348
"laveB" 0.33578487395367
"agg" 0.660495844101013
"ave" 0.0182380292136002
"laveB" 0.233417303782729
"agg" 0.289975756186839
"ave" 0.0226924813887307
"laveB" 0.181489950876908
"agg" 0.698702097053662
"ave" 0.0306675269953157
"laveB" 0.257262989524197
"agg" 0.754160477540853
"ave" 0.0436897612038
"laveB" 0.299128791125852
"agg" 0.739238578447913
"ave" 0.0209810450839287
"laveB" 0.175677366797149
"agg" 0.769244142520327
"ave" 0.0244885416549107
"laveB" 0.247464921131607
"agg" 0.264269409468014
"ave" 0.0116337707818973
"laveB" 0.114710639863997
"agg" 0.369553001692599
"ave" 0.0149235481655053
"laveB" 0.149585719027751
"agg" 0.687545444386626
"ave" 0.0150222962026386
"laveB" 0.171072292683375
"agg" 0.570134850486657
"ave" 0.0107923669799159
"laveB" 0.131446835948711
"agg" 0.639894307822877
"ave" 0.0200758733231575
"laveB" 0.222851355593179
"agg" 0.711197787232138
"ave" 0.0272563373118792
"laveB" 0.262202270361358
"agg" 0.656105091073384
"ave" 0.0216734005773105
"laveB" 0.213428402913975
"agg" 0.697574844763366
"ave" 0.0470216814970836
"laveB" 0.360775802265027
"agg" 0.760896157446348
"ave" 0.0425448958355836
"laveB" 0.360979044004326
"agg" 0.310144421998029
"ave" 0.00992115110817976
"laveB" 0.124017566869565
"agg" 0.277456974288095
"ave" 0.0103667894662629
"laveB" 0.105545882000646
"agg" 0.235927404997567
"ave" 0.00573357926435581
"laveB" 0.0807931277946014
"agg" 0.287169168805492
"ave" 0.0139449942240145
"laveB" 0.147521603272899
"agg" 0.320931618466945
"ave" 0.0148909978483007
"laveB" 0.147989006889264
"agg" 0.316359662177703
"ave" 0.0176893370412416
"laveB" 0.15014372029206
"agg" 0.55622928507658
"ave" 0.0179571812193901
"laveB" 0.24221995949231
"agg" 0.696348707675551
"ave" 0.0225695871185762
"laveB" 0.293576320020672
"agg" 0.72949392088983
"ave" 0.0404559771724919
"laveB" 0.368364377141601
"agg" 0.754874783995106
"ave" 0.0406241501163368
"laveB" 0.352739719426696
"agg" 0.742195352350434
"ave" 0.0347220446568698
"laveB" 0.33977170058174
"agg" 0.695162474180999
"ave" 0.0357327978844763
"laveB" 0.320844803420071
"agg" 0.632870066262531
"ave" 0.0146566140415989
"laveB" 0.205912365082487
"agg" 0.236806458633514
"ave" 0.0181324621216339
"laveB" 0.148908730918034
"agg" 0.661319023182019
"ave" 0.0245644018413433
"laveB" 0.255952149180139
"agg" 0.747977537680343
"ave" 0.0363851032154021
"laveB" 0.276198452410822
"agg" 0.690120779701608
"ave" 0.016656303873545
"laveB" 0.16981039036234
"agg" 0.701871444209651
"ave" 0.0188775146350305
"laveB" 0.216303957323421
"agg" 0.23237424593889
"ave" 0.00847502193280569
"laveB" 0.081942646588824
"agg" 0.327846397201531
"ave" 0.0108455219985881
"laveB" 0.135707354087254
"agg" 0.645493751756121
"ave" 0.0116272025611888
"laveB" 0.149220499646333
"agg" 0.564429036242835
"ave" 0.00878298099158166
"laveB" 0.117367644219921
"agg" 0.626018435190747
"ave" 0.0164759652606565
"laveB" 0.212624293130692
"agg" 0.673828858221713
"ave" 0.0214867230251214
"laveB" 0.250758496554279
"agg" 0.646500341753788
"ave" 0.0185612899142508
"laveB" 0.196771042228785
"agg" 0.881543752663891
"ave" 0.0769723478781083
"laveB" 0.577408574894363
"agg" 0.17642562241447
"ave" 0.00685525179914918
"laveB" 0.0862980905926377
"agg" 0.233103184816162
"ave" 0.0112750527977799
"laveB" 0.109275419597853
"agg" 0.25318816202826
"ave" 0.00774958738681794
"laveB" 0.112888699765767
"agg" 0.416988084425101
"ave" 0.0249701035375586
"laveB" 0.234006196302502
"agg" 0.272660788911725
"ave" 0.0177684202117859
"laveB" 0.135178981790068
"agg" 0.349862088149584
"ave" 0.0260539736959533
"laveB" 0.20116887771349
"agg" 0.425363026280428
"ave" 0.0181837709365007
"laveB" 0.227598392425321
"agg" 0.580124528542644
"ave" 0.0253531964445137
"laveB" 0.31760139022373
"agg" 0.643063465761403
"ave" 0.0485161469224005
"laveB" 0.408280177836613
"agg" 0.766698104334562
"ave" 0.0569285043223067
"laveB" 0.447618150798061
"agg" 0.622279076700377
"ave" 0.0392859136259788
"laveB" 0.359791432379444
"agg" 0.694152062984886
"ave" 0.0476416774968889
"laveB" 0.405570464758333
"agg" 0.513020989474152
"ave" 0.0158330659284661
"laveB" 0.218235243653048
"agg" 0.380501043067011
"ave" 0.0369537466070616
"laveB" 0.269590147091737
"agg" 0.633646883828787
"ave" 0.0329377248969757
"laveB" 0.28931753386427
"agg" 0.66552718637428
"ave" 0.0435072532080351
"laveB" 0.334555630833596
"agg" 0.576287930222357
"ave" 0.0187299447589941
"laveB" 0.177427168848486
"agg" 0.669488154205585
"ave" 0.0244191200813903
"laveB" 0.240106832981646
"agg" -0.0262718017106554
"ave" -0.00339539098572652
"laveB" -0.0175011782828289
"agg" 0.137814299576885
"ave" 0.00547069063593675
"laveB" 0.0541166772522882
"agg" 0.48271305073416
"ave" 0.00971021627416013
"laveB" 0.133018665154756
"agg" 0.351578276315728
"ave" 0.00597130043099081
"laveB" 0.0755617507194408
"agg" 0.440578342691373
"ave" 0.0134636817354089
"laveB" 0.182130233682321
"agg" 0.50363017467731
"ave" 0.0194683984279686
"laveB" 0.209720832002073
"agg" 0.688556085482087
"ave" 0.0262118699521413
"laveB" 0.280902946473275
"agg" 0.216206492663537
"ave" 0.00462937740555025
"laveB" 0.0839150791526853
"agg" 0.160007821998241
"ave" 0.00541092426595519
"laveB" 0.0768870925127865
"agg" 0.213427146068822
"ave" 0.00439862064024788
"laveB" 0.0743447344387043
"agg" 0.264713510953126
"ave" 0.0146406781759915
"laveB" 0.150262837680134
"agg" 0.235768723451027
"ave" 0.0133867078197614
"laveB" 0.120587982230887
"agg" 0.225884652066988
"ave" 0.0157855324617056
"laveB" 0.134851573379266
"agg" 0.536689420834448
"ave" 0.0175912658495359
"laveB" 0.253264083846989
"agg" 0.664609318291825
"ave" 0.023898402428753
"laveB" 0.320513357282583
"agg" 0.698096238536492
"ave" 0.0435554590499716
"laveB" 0.422210984032311
"agg" 0.75058977644923
"ave" 0.0487651865283108
"laveB" 0.417565230737739
"agg" 0.645444765952886
"ave" 0.0331926922187526
"laveB" 0.343850082039812
"agg" 0.622976873653148
"ave" 0.0378603649082059
"laveB" 0.33954452130776
"agg" 0.522028799593037
"ave" 0.0131245295023541
"laveB" 0.197569805529463
"agg" 0.224113687156693
"ave" 0.0231074265963902
"laveB" 0.168526842446548
"agg" 0.608545948103508
"ave" 0.0282997431202421
"laveB" 0.273715868947223
"agg" 0.612727606810049
"ave" 0.0349006074922573
"laveB" 0.276810268494919
"agg" 0.624163314338877
"ave" 0.0166039467034143
"laveB" 0.188122640010351
"agg" 0.648247651614877
"ave" 0.0200875084381603
"laveB" 0.227146359241599
"agg" 0.117547005144269
"ave" -0.000202639357181042
"laveB" 0.026644881602193
"agg" 0.228584427358635
"ave" 0.00534757477586408
"laveB" 0.0922324309310095
"agg" 0.525688455977194
"ave" 0.00846563114995054
"laveB" 0.118715822000613
"agg" 0.426170103230738
"ave" 0.00592641256586959
"laveB" 0.0984667134512306
"agg" 0.502439868665443
"ave" 0.0116722240586334
"laveB" 0.181551456816269
"agg" 0.565396790903545
"ave" 0.0172903228683579
"laveB" 0.211228740561178
"agg" 0.573685166687739
"ave" 0.0209688667815021
"laveB" 0.199811516692947
"agg" 0.598508200290984
"ave" 0.0126003378048565
"laveB" 0.204285726844236
"agg" 0.605116332314795
"ave" 0.00889360894190276
"laveB" 0.185210090676881
"agg" 0.366878611432065
"ave" 0.00909309283324388
"laveB" 0.161585286550181
"agg" 0.208609675223003
"ave" 0.00656429559592187
"laveB" 0.130001039063542
"agg" 0.193733473492483
"ave" 0.00595367125472836
"laveB" 0.0919090752745226
"agg" 0.592232341114208
"ave" 0.0121852569467719
"laveB" 0.20672495826756
"agg" 0.480518378145108
"ave" 0.00997166893796563
"laveB" 0.171446554671669
"agg" 0.340138359678312
"ave" 0.0116499378893446
"laveB" 0.159240781731444
"agg" 0.244132669167843
"ave" 0.00868466045386392
"laveB" 0.119399621335166
"agg" 0.356079181023135
"ave" 0.00948659968546539
"laveB" 0.137849385259286
"agg" 0.142909896329919
"ave" 0.00381863818711921
"laveB" 0.058136599665511
"agg" 0.342087210208509
"ave" 0.00518633525434813
"laveB" 0.107157712090732
"agg" 0.0283526569521748
"ave" -0.000602564381482693
"laveB" 0.0235336428524999
"agg" 0.240521273332386
"ave" 0.00599478736847291
"laveB" 0.0964939857453701
"agg" 0.192216839584527
"ave" 0.00578340102298242
"laveB" 0.0870858889853405
"agg" 0.477620079602821
"ave" 0.00690091210427735
"laveB" 0.106034281444381
"agg" 0.375175928080918
"ave" 0.00550120336220225
"laveB" 0.108779040552219
"agg" 0.689226157167141
"ave" 0.0171825538098398
"laveB" 0.24527918659453
"agg" 0.672570739313577
"ave" 0.0153456549966734
"laveB" 0.240792025809805
"agg" 0.550909481734965
"ave" 0.00699540593353268
"laveB" 0.119030584619652
"agg" 0.487720764144551
"ave" 0.00527249081729474
"laveB" 0.109454850908247
"agg" 0.560456371469583
"ave" 0.00989379758117758
"laveB" 0.178688600666406
"agg" 0.618582067650282
"ave" 0.0131658111785039
"laveB" 0.224357365260719
"agg" 0.109803677302473
"ave" 0.00258408725141512
"laveB" 0.0488969446541396
"agg" 0.342419535623687
"ave" 0.00550487215188747
"laveB" 0.121957614515654
"agg" 0.77793901538025
"ave" 0.0233702815945643
"laveB" 0.32603631198212
"agg" 0.103008323455815
"ave" 0.00299103581531736
"laveB" 0.0805214017239939
"agg" 0.570323715457028
"ave" 0.0213800016683247
"laveB" 0.223099243831271
"agg" 0.296764850030287
"ave" 0.00666349419047512
"laveB" 0.105567810859675
"agg" 0.282373748625337
"ave" 0.00642435203475778
"laveB" 0.109968027729226
"agg" 0.210253978440595
"ave" 0.00727989407533521
"laveB" 0.109409577595953
"agg" 0.241164793013813
"ave" 0.00925753415040825
"laveB" 0.122829530755461
"agg" 0.258610971194493
"ave" 0.00765628830863543
"laveB" 0.11231317628447
"agg" 0.268714701655531
"ave" 0.00918193358345315
"laveB" 0.121318149121295
"agg" 0.132021620669521
"ave" 0.00199525996216119
"laveB" 0.0357829970088347
"agg" 0.606462578861744
"ave" 0.0280127301945424
"laveB" 0.295467836524708
"agg" 0.254212410844324
"ave" 0.00690596349157863
"laveB" 0.0877700304714345
"agg" 0.332457457696827
"ave" 0.0112934962630838
"laveB" 0.12619823274341
"agg" 0.335066599228036
"ave" 0.00564932248727993
"laveB" 0.0822523725769184
"agg" 0.509290497087239
"ave" 0.00890300844190022
"laveB" 0.129211742844908
"agg" 0.41152338230873
"ave" 0.0115185944624765
"laveB" 0.186412842349785
"agg" 0.377035999429589
"ave" 0.00997740119911083
"laveB" 0.134287330469367
"agg" 0.480246114654992
"ave" 0.00638265241493111
"laveB" 0.111624102431088
"agg" 0.365643024086972
"ave" 0.00407989735731098
"laveB" 0.0678826356359863
"agg" 0.48558832386328
"ave" 0.00904057278802729
"laveB" 0.150408473681703
"agg" 0.501607264290039
"ave" 0.0110339952964491
"laveB" 0.167331163189388
"agg" 0.28616745983051
"ave" 0.00572545672466059
"laveB" 0.0805667258454411
"agg" 0.3407713390458
"ave" 0.00681072176894547
"laveB" 0.151976451897774
"agg" 0.288178613630365
"ave" 0.0059949871263696
"laveB" 0.0988376483821009
"agg" 0.140180907221896
"ave" 0.0035600769141726
"laveB" 0.0735683390247274
"agg" 0.510345234025338
"ave" 0.00760092786946127
"laveB" 0.171264510853136
"agg" 0.384983253030631
"ave" 0.00578219245691282
"laveB" 0.134935609996862
"agg" 0.469351572153049
"ave" 0.011962411647889
"laveB" 0.190555542788401
"agg" 0.347308730088728
"ave" 0.00886133057502116
"laveB" 0.143220341872052
"agg" 0.374114160134039
"ave" 0.00747866382120505
"laveB" 0.137118147949864
"agg" 0.174802580788981
"ave" 0.0040111137987416
"laveB" 0.0580326402658994
"agg" 0.368728443906592
"ave" 0.00387708320798845
"laveB" 0.106246616226253
"agg" -0.135405035861772
"ave" -0.00423690748123137
"laveB" -0.0493979546556309
"agg" 0.116032280771541
"ave" 0.00246034112855596
"laveB" 0.04387835643679
"agg" 0.0879228944792908
"ave" 0.00248379272600307
"laveB" 0.0408953056564567
"agg" 0.282658345597538
"ave" 0.00313313784306582
"laveB" 0.0464630164951421
"agg" 0.207107279387221
"ave" 0.00279468362757368
"laveB" 0.0677215248835618
"agg" 0.322546910893857
"ave" 0.00587663967249839
"laveB" 0.129277284773219
"agg" 0.344777370438942
"ave" 0.00566833985612461
"laveB" 0.108660204655579
"agg" 0.406855235503194
"ave" 0.00397537015421481
"laveB" 0.0987259702774912
"agg" 0.375050655021195
"ave" 0.00314478707915731
"laveB" 0.0801317748234769
"agg" 0.482320430018777
"ave" 0.00636110483309629
"laveB" 0.129775003622025
"agg" 0.453414103808641
"ave" 0.00705388359115028
"laveB" 0.138088921327763
"agg" 0.206863702165466
"ave" 0.00302681896089431
"laveB" 0.0614468877120155
"agg" 0.0999319056484533
"ave" 0.00381904760430619
"laveB" 0.0623626646612287
"agg" 0.694839272169949
"ave" 0.0314957438239453
"laveB" 0.30790032450839
"agg" 0.207885847777202
"ave" 0.00584676393886208
"laveB" 0.1096178854146
"agg" 0.277105392720617
"ave" 0.00757342224929543
"laveB" 0.137979372162276
"agg" 0.309818406160984
"ave" 0.0146607746668216
"laveB" 0.172148243642698
"agg" 0.370307210806223
"ave" 0.0173597396521172
"laveB" 0.192733890526008
"agg" 0.328828693902589
"ave" 0.0127524483198962
"laveB" 0.17510027829147
"agg" 0.390790719337591
"ave" 0.0168327970964821
"laveB" 0.184353466532595
"agg" 0.147373238362714
"ave" 0.00281682455294501
"laveB" 0.0470787989049513
"agg" 0.762094996393473
"ave" 0.0434426647596658
"laveB" 0.400544493864707
"agg" 0.298801206178505
"ave" 0.00939573270320686
"laveB" 0.109235362762011
"agg" 0.420181903368058
"ave" 0.0174748233227319
"laveB" 0.169852449221196
"agg" 0.304923465250392
"ave" 0.00627253373210744
"laveB" 0.0833244811599117
"agg" 0.577681078456768
"ave" 0.0129608143463985
"laveB" 0.176041896069717
"agg" 0.0693938118421352
"ave" 0.00223406301423696
"laveB" 0.037820338982042
"agg" 0.0929899030419144
"ave" 0.00321283188236135
"laveB" 0.0393816525109999
"agg" 0.396422200831241
"ave" 0.0057754194667976
"laveB" 0.0969676574578901
"agg" 0.237265010712167
"ave" 0.00278943192016575
"laveB" 0.0369832898121799
"agg" 0.433855629400744
"ave" 0.00944819181642041
"laveB" 0.159431830497012
"agg" 0.428168104223197
"ave" 0.010900405604849
"laveB" 0.169637709248628
"agg" 0.475706385051317
"ave" 0.0110171024368537
"laveB" 0.160337770285203
"agg" 0.0725547621209754
"ave" 0.00316498675504361
"laveB" 0.037314584365337
"agg" 0.181480656235402
"ave" 0.0052978589851222
"laveB" 0.104428515877088
"agg" 0.237346098765663
"ave" 0.00723216036511627
"laveB" 0.12391967536074
"agg" 0.337205805955756
"ave" 0.0175026948824188
"laveB" 0.18682983196129
"agg" 0.361782334360805
"ave" 0.0185474688582661
"laveB" 0.178312960021137
"agg" 0.341043889504577
"ave" 0.014514802406294
"laveB" 0.155296403638666
"agg" 0.316765323467987
"ave" 0.0155385821574075
"laveB" 0.137482122111141
"agg" 0.276768956894881
"ave" 0.00550635349788883
"laveB" 0.0875000893979078
"agg" -0.05704284161655
"ave" -0.00300561798669157
"laveB" -0.0094495830778055
"agg" 0.221456862619411
"ave" 0.00827643348326474
"laveB" 0.0851498956551575
"agg" 0.247174937457752
"ave" 0.0116551125433614
"laveB" 0.101452161223465
"agg" 0.253339366275279
"ave" 0.00576180204292447
"laveB" 0.0793776563517853
"agg" 0.186593202689616
"ave" 0.0052119851661601
"laveB" 0.0788296430654214
"agg" 0.0966257904457732
"ave" 0.00367844149303149
"laveB" 0.092111680803823
"agg" 0.215683318818105
"ave" 0.00732434274460643
"laveB" 0.129143088989961
"agg" 0.200156551834542
"ave" 0.00341828189205844
"laveB" 0.0509491592940621
"agg" 0.321891360949374
"ave" 0.0051056922665112
"laveB" 0.0925921350745575
"agg" 0.340122059156329
"ave" 0.00820602886158446
"laveB" 0.139843908472555
"agg" 0.321681070661051
"ave" 0.00951148657688414
"laveB" 0.145188181274561
"agg" 0.336162633146933
"ave" 0.00819708139112449
"laveB" 0.0940848137898749
"agg" 0.0676857239064852
"ave" 0.00270690694978361
"laveB" 0.0514381357968262
"agg" 0.197258118126165
"ave" 0.00645005019532693
"laveB" 0.103903041676251
"agg" 0.252208344779944
"ave" 0.0142180867633044
"laveB" 0.141913818122776
"agg" 0.388956726983827
"ave" 0.0222908011599674
"laveB" 0.206135897311787
"agg" 0.296421310787488
"ave" 0.0146151391179474
"laveB" 0.149754886565492
"agg" 0.40066320574892
"ave" 0.0217671658043322
"laveB" 0.195420921596914
"agg" 0.209889879350145
"ave" 0.00486553465654606
"laveB" 0.0781500013901563
"agg" 0.652552550670886
"ave" 0.0455344412092437
"laveB" 0.320523274912175
"agg" 0.377101959902186
"ave" 0.0150656431901104
"laveB" 0.138997730971096
"agg" 0.471799519145949
"ave" 0.0238171840787783
"laveB" 0.181336598634983
"agg" 0.315651703295842
"ave" 0.00815616888304361
"laveB" 0.081122295619569
"agg" 0.50208264714524
"ave" 0.013829541762033
"laveB" 0.146909650280328
"agg" -0.0142630742176187
"ave" 0.00026087449518497
"laveB" 0.00320672097312478
"agg" 0.0545121365311632
"ave" 0.00287728590707295
"laveB" 0.0339531008971986
"agg" 0.262737009117248
"ave" 0.00440774660189571
"laveB" 0.064284058202054
"agg" 0.164299369995799
"ave" 0.00229816249370423
"laveB" 0.0260582155891253
"agg" 0.255373696600546
"ave" 0.0066739850500764
"laveB" 0.0894847149518729
"agg" 0.312324968835451
"ave" 0.00948621272166611
"laveB" 0.10846993678785
"agg" 0.469612856746673
"ave" 0.0129490364161442
"laveB" 0.144718804587256
"agg" 0.777908902332599
"ave" 0.0165129857887629
"laveB" 0.297382903145031
"agg" 0.577992957250176
"ave" 0.0206039199320422
"laveB" 0.288229548878742
"agg" 0.470528765962599
"ave" 0.0169540446983772
"laveB" 0.233303297225294
"agg" 0.527981656295728
"ave" 0.0148092019564555
"laveB" 0.24059426452173
"agg" 0.315127793723675
"ave" 0.00988132671143499
"laveB" 0.160180383776306
"agg" 0.490281967674474
"ave" 0.00760672804367898
"laveB" 0.166496441865474
"agg" -0.0551183140546187
"ave" -0.00220647763970045
"laveB" 0.00649689140355368
"agg" 0.317129422637106
"ave" 0.00841743348250631
"laveB" 0.1240618297237
"agg" 0.325851941655747
"ave" 0.0108951365746755
"laveB" 0.131217721854527
"agg" 0.526086418829836
"ave" 0.00797342596224813
"laveB" 0.1119636773418
"agg" 0.452711317672567
"ave" 0.00756590935290869
"laveB" 0.138278657859364
"agg" 0.485738553619058
"ave" 0.011887135497916
"laveB" 0.166776932543059
"agg" 0.46663766534282
"ave" 0.0104908829243229
"laveB" 0.15871939290156
"agg" 0.622175273713615
"ave" 0.00768732943858024
"laveB" 0.143096400116173
"agg" 0.497893514472301
"ave" 0.00512496295502989
"laveB" 0.106219574885344
"agg" 0.571390444310307
"ave" 0.010055491913332
"laveB" 0.170451810192775
"agg" 0.634774559167496
"ave" 0.0134910847145496
"laveB" 0.213417317933234
"agg" 0.246919767654098
"ave" 0.00532579531791888
"laveB" 0.0911730345267265
"agg" 0.652542956561052
"ave" 0.0231410343191231
"laveB" 0.322760781550792
"agg" 0.582870288333563
"ave" 0.0208030085659388
"laveB" 0.279149525563927
"agg" 0.594875907110988
"ave" 0.0172146247052241
"laveB" 0.267015304232617
"agg" 0.453306186274632
"ave" 0.0145027865863506
"laveB" 0.212028482163231
"agg" 0.528345638299739
"ave" 0.00812726848928943
"laveB" 0.159388672322043
"agg" 0.0641954462493936
"ave" 0.00283395898403805
"laveB" 0.0746405124111738
"agg" 0.360050790758551
"ave" 0.00897566949743025
"laveB" 0.13020282990053
"agg" 0.439027206735603
"ave" 0.0143655147414697
"laveB" 0.181971290931476
"agg" 0.48986413879618
"ave" 0.0075502478124598
"laveB" 0.118638123357636
"agg" 0.499860167316513
"ave" 0.0086122634415226
"laveB" 0.14213963186021
"agg" 0.297192698130767
"ave" 0.00758121097978887
"laveB" 0.0947627566523557
"agg" 0.322397092757453
"ave" 0.00737467202729342
"laveB" 0.0991923655822099
"agg" 0.595911178556974
"ave" 0.00702847188170267
"laveB" 0.132572132944612
"agg" 0.504204531667871
"ave" 0.00503803660260813
"laveB" 0.0934787614429219
"agg" 0.610820799904782
"ave" 0.0106214541073747
"laveB" 0.1883308773409
"agg" 0.658514143571848
"ave" 0.0136743471445155
"laveB" 0.225062239295577
"agg" 0.442685783433831
"ave" 0.00844858174919068
"laveB" 0.149846697087517
"agg" 0.83742206598897
"ave" 0.0520627843098479
"laveB" 0.492251462799648
"agg" 0.857534004436806
"ave" 0.0434315036840373
"laveB" 0.475211137824431
"agg" 0.708302161635893
"ave" 0.039878776495046
"laveB" 0.402472026552927
"agg" 0.644063910834611
"ave" 0.0164905076458946
"laveB" 0.244749252520518
"agg" 0.119888803921696
"ave" 0.00918818900112352
"laveB" 0.108028841106337
"agg" 0.531983001809131
"ave" 0.0229629437350399
"laveB" 0.248123138532124
"agg" 0.578477277335913
"ave" 0.0320106704631461
"laveB" 0.280635312585982
"agg" 0.581373269305551
"ave" 0.0150388907761534
"laveB" 0.188161186265059
"agg" 0.569949317381784
"ave" 0.0171624941386053
"laveB" 0.226563184887305
"agg" 0.141937620176636
"ave" 0.00504740296904388
"laveB" 0.0737454784769389
"agg" 0.239397669783663
"ave" 0.00815284349757073
"laveB" 0.115738598653479
"agg" 0.552020228127233
"ave" 0.0106003109704851
"laveB" 0.155756495322382
"agg" 0.525048303763382
"ave" 0.00868122353513143
"laveB" 0.146062087014893
"agg" 0.636990448945696
"ave" 0.0182521860922118
"laveB" 0.246758876349557
"agg" 0.650686271898644
"ave" 0.0219969251712915
"laveB" 0.283715162521433
"agg" 0.589673457378362
"ave" 0.0189835406773027
"laveB" 0.237399917745751
"agg" 0.791926217134678
"ave" 0.0402406870371452
"laveB" 0.414888343177743
"agg" 0.81331845128052
"ave" 0.0449052902229948
"laveB" 0.42171760605667
"agg" 0.63244221554518
"ave" 0.0160158664939726
"laveB" 0.225226340721764
"agg" 0.320974475160221
"ave" 0.0242845321394956
"laveB" 0.210655118429951
"agg" 0.709503907161727
"ave" 0.0297857609515636
"laveB" 0.301450028364937
"agg" 0.708555635342119
"ave" 0.0379696593912493
"laveB" 0.310024498593285
"agg" 0.632499250087456
"ave" 0.016335874885529
"laveB" 0.172513060095281
"agg" 0.660514528371245
"ave" 0.0192250038187739
"laveB" 0.247013514815695
"agg" 0.0442480822700418
"ave" 0.00178575047564512
"laveB" 0.0424490916405628
"agg" 0.206505353225423
"ave" 0.007755460042474
"laveB" 0.104840726135524
"agg" 0.494534216661027
"ave" 0.00879033093181887
"laveB" 0.135276326000971
"agg" 0.438984989220545
"ave" 0.00692265152823742
"laveB" 0.114164317987142
"agg" 0.511355840145394
"ave" 0.0139571962753942
"laveB" 0.18703946594155
"agg" 0.575995813610761
"ave" 0.019266597262361
"laveB" 0.24988107672328
"agg" 0.719519799382413
"ave" 0.0215525142446255
"laveB" 0.256776183581134
"agg" 0.879960510607377
"ave" 0.0420141168134938
"laveB" 0.455967221045935
"agg" 0.731582272689349
"ave" 0.0156877737475842
"laveB" 0.24742940360411
"agg" 0.212426905878379
"ave" 0.0154650357650934
"laveB" 0.169531814029856
"agg" 0.67558002241059
"ave" 0.0248257231803327
"laveB" 0.277420848099142
"agg" 0.741459248836681
"ave" 0.0345641815812102
"laveB" 0.323702947432261
"agg" 0.661944282428103
"ave" 0.0145661499759531
"laveB" 0.175600580424985
"agg" 0.659697520104037
"ave" 0.0164227099309804
"laveB" 0.242264842649717
"agg" 0.229834686653364
"ave" 0.00711573138920218
"laveB" 0.11715801996961
"agg" 0.340990529838255
"ave" 0.0104333623744331
"laveB" 0.133016527258755
"agg" 0.615060056688941
"ave" 0.00974604060027426
"laveB" 0.155603074033809
"agg" 0.568803996976707
"ave" 0.00772383346924984
"laveB" 0.131979555639393
"agg" 0.651734055600012
"ave" 0.0149397824659562
"laveB" 0.245587198015057
"agg" 0.688439934862507
"ave" 0.0193703894170906
"laveB" 0.276239331575381
"agg" 0.63693677337449
"ave" 0.0169471462702789
"laveB" 0.211642800347431
"agg" 0.65541200563967
"ave" 0.0149398340890918
"laveB" 0.213938428605583
"agg" 0.443032716262128
"ave" 0.0313325033763985
"laveB" 0.284020439590758
"agg" 0.779556179242412
"ave" 0.0297812453748611
"laveB" 0.313559844895007
"agg" 0.834839740425256
"ave" 0.0415774402261144
"laveB" 0.369246154820762
"agg" 0.610197028907896
"ave" 0.0148439616315639
"laveB" 0.172847880883423
"agg" 0.685362926297573
"ave" 0.018721435928615
"laveB" 0.237643484065108
"agg" 0.023597443496412
"ave" 0.000283056532506097
"laveB" 0.0282958421502114
"agg" 0.18489913485634
"ave" 0.00655417084720578
"laveB" 0.0606673656854561
"agg" 0.445752322593359
"ave" 0.0070130447048501
"laveB" 0.105703098274932
"agg" 0.397652335247702
"ave" 0.00575611678401142
"laveB" 0.0870871729369567
"agg" 0.447843879035009
"ave" 0.0106533708385577
"laveB" 0.149033690068165
"agg" 0.521909339334693
"ave" 0.0158634402689447
"laveB" 0.206332861553208
"agg" 0.7436165548887
"ave" 0.0204459389413888
"laveB" 0.268071123327971
"agg" 0.102066238342568
"ave" 0.00351433017291209
"laveB" 0.063356658805468
"agg" 0.673539245613031
"ave" 0.0117577440977606
"laveB" 0.191468015927253
"agg" 0.600939137261607
"ave" 0.0131486111245884
"laveB" 0.189258213340869
"agg" 0.61186691797531
"ave" 0.00660216029983799
"laveB" 0.12973840989644
"agg" 0.517824372330806
"ave" 0.00626854361627671
"laveB" 0.128100889959594
"agg" 0.23092228418967
"ave" 0.00429293022910697
"laveB" 0.0758445768382452
"agg" 0.353309008822269
"ave" 0.00561463484631853
"laveB" 0.104077403034881
"agg" 0.499869202808569
"ave" 0.00425451563971799
"laveB" 0.0894257615933461
"agg" 0.483903653120764
"ave" 0.00354637614009922
"laveB" 0.0762740222304806
"agg" 0.457441564021978
"ave" 0.00536309532710131
"laveB" 0.117770670880381
"agg" 0.546580899984752
"ave" 0.00794228545301135
"laveB" 0.154739314726751
"agg" 0.494652024965155
"ave" 0.00641176401501947
"laveB" 0.120478502637034
"agg" 0.439492847895464
"ave" 0.0225859893064993
"laveB" 0.213520301036913
"agg" 0.498133946597539
"ave" 0.0323200135867911
"laveB" 0.266576475268279
"agg" 0.299367551596519
"ave" 0.010393899208873
"laveB" 0.112803378788329
"agg" 0.541350724883052
"ave" 0.0185245752124077
"laveB" 0.182890542032555
"agg" -0.134409732501688
"ave" -0.0074488718170278
"laveB" -0.0587451967548718
"agg" -0.0602582762898695
"ave" -0.00201831735984158
"laveB" -0.024313065580281
"agg" 0.212456256379775
"ave" 0.00319894707311383
"laveB" 0.0544663624285917
"agg" 0.0658049347593083
"ave" -7.48022257288528e-05
"laveB" -0.0166110021229811
"agg" 0.167375622676741
"ave" 0.00409369709232775
"laveB" 0.0667511524152143
"agg" 0.210586587309729
"ave" 0.00683468948322323
"laveB" 0.092701606006413
"agg" 0.465993427369471
"ave" 0.0165827681801989
"laveB" 0.181232614713596
"agg" 0.859704282593729
"ave" 0.0313426002539679
"laveB" 0.289303050303087
"agg" 0.780868089155641
"ave" 0.014828297998251
"laveB" 0.193791208944054
"agg" 0.7556681630455
"ave" 0.014959957007433
"laveB" 0.203336497451658
"agg" 0.220209570622925
"ave" 0.00757534378178654
"laveB" 0.0985323752961353
"agg" 0.402420495531647
"ave" 0.0119476327490275
"laveB" 0.155774304699151
"agg" 0.443901194470066
"ave" 0.00576441491739504
"laveB" 0.0892888666112978
"agg" 0.429394253420465
"ave" 0.00524094211792982
"laveB" 0.0680815206325391
"agg" 0.383196229973889
"ave" 0.00726531926792037
"laveB" 0.0991328458020437
"agg" 0.509853802665698
"ave" 0.0124399008792281
"laveB" 0.161339362614288
"agg" 0.661614875786668
"ave" 0.0138146248683413
"laveB" 0.179736169884773
"agg" 0.696414779057356
"ave" 0.0160184549307125
"laveB" 0.165224336775651
"agg" 0.821780791277285
"ave" 0.0208124629428321
"laveB" 0.238672970565519
"agg" 0.169017162430035
"ave" 0.00652641996957237
"laveB" 0.0989685944682883
"agg" 0.306597664629714
"ave" 0.0109217052541528
"laveB" 0.134511196218813
"agg" 0.500504887817666
"ave" 0.00806154976847485
"laveB" 0.102137872639335
"agg" 0.424193033398302
"ave" 0.00632011492800179
"laveB" 0.084724814666224
"agg" 0.451051167791247
"ave" 0.0109686201531789
"laveB" 0.141152340116275
"agg" 0.554682896161512
"ave" 0.0168595340761614
"laveB" 0.179088439381703
"agg" 0.681755345724388
"ave" 0.0181874672404334
"laveB" 0.213563272270234
"agg" 0.820655048705063
"ave" 0.0105995326204684
"laveB" 0.16202684592605
"agg" 0.475719443616387
"ave" 0.00880438959587026
"laveB" 0.114965875168599
"agg" 0.627530568276007
"ave" 0.0108598293328567
"laveB" 0.166874623989852
"agg" 0.64837585189763
"ave" 0.00569771339073295
"laveB" 0.0880364174777088
"agg" 0.573683745093754
"ave" 0.00443988577021696
"laveB" 0.0623510605936725
"agg" 0.600233967615811
"ave" 0.00750410845870897
"laveB" 0.111340873790491
"agg" 0.740193855248812
"ave" 0.0116688091305193
"laveB" 0.170812928748443
"agg" 0.495136755207818
"ave" 0.00708390242227797
"laveB" 0.0924690798892721
"agg" 0.361806378916547
"ave" 0.00651610803576113
"laveB" 0.132322265908801
"agg" 0.464030280275074
"ave" 0.00840180189124038
"laveB" 0.141297508858682
"agg" 0.640176453734443
"ave" 0.00594796019768674
"laveB" 0.100013325968519
"agg" 0.524186622557488
"ave" 0.00433852337925034
"laveB" 0.0915978520513882
"agg" 0.622862325082474
"ave" 0.00844820974240235
"laveB" 0.14971967219249
"agg" 0.711405784161932
"ave" 0.0119387090872319
"laveB" 0.192376910948095
"agg" 0.606182888541959
"ave" 0.0095242483885547
"laveB" 0.140420981711632
"agg" 0.896398101508819
"ave" 0.0258587775952328
"laveB" 0.368922518395424
"agg" 0.576287025178382
"ave" 0.00980425889516167
"laveB" 0.169880185189791
"agg" 0.536242932515554
"ave" 0.00769002887092193
"laveB" 0.129200040884705
"agg" 0.559975115687434
"ave" 0.0125627700548849
"laveB" 0.204925823595996
"agg" 0.620444943159077
"ave" 0.0173113155135266
"laveB" 0.239480010889403
"agg" -0.118170440657277
"ave" -0.00139536267308157
"laveB" -0.0153308382125824
"agg" 0.578043998436457
"ave" 0.00872067297639739
"laveB" 0.152384844584452
"agg" 0.616170507584564
"ave" 0.00799765292166891
"laveB" 0.137549554346042
"agg" 0.59200188036505
"ave" 0.011870828459589
"laveB" 0.178313895825917
"agg" 0.717132495850538
"ave" 0.0180962664636136
"laveB" 0.276501769164642
"agg" 0.0738999656586804
"ave" 0.00235039821968079
"laveB" 0.0318068564312217
"agg" 0.801181356033532
"ave" 0.00567117290012606
"laveB" 0.113688486572181
"agg" 0.758058775148233
"ave" 0.00821439601010976
"laveB" 0.151071517471908
"agg" 0.796414252908109
"ave" 0.0103313669190986
"laveB" 0.170291519494023
"agg" 0.480811727236059
"ave" 0.00461397300271512
"laveB" 0.0944921333592163
"agg" 0.726699556848908
"ave" 0.00672697067737344
"laveB" 0.139653449922175
"agg" 0.750612483907359
"ave" 0.0085521799254392
"laveB" 0.144817602486981
"agg" 0.497097489467764
"ave" 0.0044796647107146
"laveB" 0.0869274465226256
"agg" 0.905631458840164
"ave" 0.0162858266336877
"laveB" 0.269072748861677
"agg" 0.409646878525691
"ave" 0.00600129685461861
"laveB" 0.11015293684784
"agg" 0.459489976094057
"ave" 0.00810588872913267
"laveB" 0.131328647708197
