"EST" "CORR"
"agg" 0.865240975544015
"ave" 0.0320443110126882
"laveB" 0.340746269247563
"agg" 0.756418786429839
"ave" 0.0421240988070634
"laveB" 0.306095531837864
"agg" 0.708053153262689
"ave" 0.0401087215144837
"laveB" 0.287527989058825
"agg" 0.71042393575575
"ave" 0.0189729934432416
"laveB" 0.204925007835245
"agg" 0.757388942977051
"ave" 0.0166355650878068
"laveB" 0.196525957138765
"agg" 0.425334404112593
"ave" 0.0242863035493112
"laveB" 0.193169631897036
"agg" 0.427983350217518
"ave" 0.0222167517405733
"laveB" 0.173003369539781
"agg" 0.640366073517253
"ave" 0.0358778393747157
"laveB" 0.282233692740084
"agg" 0.593841452797852
"ave" 0.0313917559443104
"laveB" 0.264255947732335
"agg" 0.579047979936035
"ave" 0.0341235575296986
"laveB" 0.25819032376655
"agg" 0.518193345929337
"ave" 0.0315020857371885
"laveB" 0.233262816303379
"agg" 0.669764566553382
"ave" 0.0371738914577567
"laveB" 0.277308987260026
"agg" 0.642139938336516
"ave" 0.0331888856666698
"laveB" 0.276469561620786
"agg" 0.327637213166045
"ave" 0.0278873765261497
"laveB" 0.160988203431232
"agg" 0.374424953315495
"ave" 0.0274929781343485
"laveB" 0.170003384806268
"agg" 0.618219023253419
"ave" 0.0314875864975548
"laveB" 0.252674731418193
"agg" 0.643513475358505
"ave" 0.0288301547076994
"laveB" 0.257635436207941
"agg" 0.472844172627009
"ave" 0.0241339030725241
"laveB" 0.206615620542207
"agg" 0.450279732163807
"ave" 0.0295207711296008
"laveB" 0.212840203791697
"agg" 0.550420460863942
"ave" 0.0163810048491672
"laveB" 0.211042647122649
"agg" 0.532999956991049
"ave" 0.0188062253635883
"laveB" 0.199624047765907
"agg" 0.466680147849808
"ave" 0.0156658801440032
"laveB" 0.195372339946817
"agg" 0.423802521367286
"ave" 0.0175936327473617
"laveB" 0.192105767982919
"agg" 0.308359600778926
"ave" 0.0152997321313194
"laveB" 0.149996474254752
"agg" 0.398175756435932
"ave" 0.0167637379451475
"laveB" 0.160008604495186
"agg" 0.485217775027763
"ave" 0.0169199332051306
"laveB" 0.190388836762017
"agg" 0.609447620445372
"ave" 0.0165395289163651
"laveB" 0.199358775124331
"agg" 0.43946004738644
"ave" 0.0184856802277326
"laveB" 0.171088183170242
"agg" 0.387019349089447
"ave" 0.019883788523643
"laveB" 0.18059867172599
"agg" 0.585343141124765
"ave" 0.0232098190365422
"laveB" 0.24063444638849
"agg" 0.380436028353712
"ave" 0.016463901347566
"laveB" 0.163793097124038
"agg" 0.144953800829318
"ave" 0.00437132315275947
"laveB" 0.0614714809372707
"agg" 0.277528030566789
"ave" 0.00494290894758271
"laveB" 0.0606946081704919
"agg" 0.498591231902789
"ave" 0.0198241051218118
"laveB" 0.185500735209256
"agg" 0.396830754281604
"ave" 0.0195848395645623
"laveB" 0.175088151709991
"agg" 0.485647808813605
"ave" 0.0143501850322399
"laveB" 0.135513905579041
"agg" 0.344937771876856
"ave" 0.0119881015814142
"laveB" 0.128180434479618
"agg" 0.270158286918125
"ave" 0.0153473652312266
"laveB" 0.12031728608834
"agg" 0.224149997731182
"ave" 0.0119673089685398
"laveB" 0.097168475305522
"agg" 0.539388107254008
"ave" 0.0177421086425804
"laveB" 0.185909895457922
"agg" 0.517151268347483
"ave" 0.0118142831946369
"laveB" 0.160561366762135
"agg" 0.538305276956876
"ave" 0.0149008291355393
"laveB" 0.16644959068759
"agg" 0.46113549271978
"ave" 0.0153564690087018
"laveB" 0.167254776264747
"agg" 0.435720679201885
"ave" 0.013542685017317
"laveB" 0.150615909645137
"agg" 0.794397938376181
"ave" 0.0439119836727312
"laveB" 0.335249254262954
"agg" 0.74644352386712
"ave" 0.041811214524002
"laveB" 0.322325331944042
"agg" 0.704245684278135
"ave" 0.0183067597955417
"laveB" 0.193563771081661
"agg" 0.852442956386533
"ave" 0.0185647885472117
"laveB" 0.230563508734315
"agg" 0.560408017470587
"ave" 0.0302698527246823
"laveB" 0.248431808235848
"agg" 0.520796433586878
"ave" 0.0255697578758528
"laveB" 0.212882618334563
"agg" 0.675714815244008
"ave" 0.0371463345462323
"laveB" 0.296873887909706
"agg" 0.635540200699553
"ave" 0.0334378522385929
"laveB" 0.282170500284379
"agg" 0.667835409682351
"ave" 0.0392753447729621
"laveB" 0.295815024393054
"agg" 0.5472929914817
"ave" 0.0335532331478708
"laveB" 0.278965792185565
"agg" 0.690809822178295
"ave" 0.0393965376226581
"laveB" 0.305206973974633
"agg" 0.745834159732307
"ave" 0.0386975072862381
"laveB" 0.317068469857783
"agg" 0.403876203639108
"ave" 0.0301274864686443
"laveB" 0.194314813722698
"agg" 0.445688835420769
"ave" 0.0301861264367782
"laveB" 0.207578505891349
"agg" 0.710808781980996
"ave" 0.0359690553257354
"laveB" 0.295113087017269
"agg" 0.724745471078469
"ave" 0.0321605676326585
"laveB" 0.29456926392794
"agg" 0.495884761243314
"ave" 0.0252047495126639
"laveB" 0.203963757159902
"agg" 0.54527976332676
"ave" 0.0337615772718056
"laveB" 0.242296302787223
"agg" 0.692300500021213
"ave" 0.0203081598016911
"laveB" 0.273593403393324
"agg" 0.629757363589637
"ave" 0.0225958177019976
"laveB" 0.259244938163476
"agg" 0.617719198716551
"ave" 0.0201370561720822
"laveB" 0.248754771686014
"agg" 0.608118582150622
"ave" 0.024840355612359
"laveB" 0.238306734568232
"agg" 0.379879587834329
"ave" 0.0187896252264444
"laveB" 0.163589077410432
"agg" 0.490987810862398
"ave" 0.0211947762490607
"laveB" 0.196774142627928
"agg" 0.377374053224944
"ave" 0.0150887272172109
"laveB" 0.174395988615978
"agg" 0.693977728478722
"ave" 0.019190431020132
"laveB" 0.226903230741139
"agg" 0.447911252925959
"ave" 0.0203756062903291
"laveB" 0.191661338167405
"agg" 0.535730685317351
"ave" 0.0272755813485933
"laveB" 0.246926737302593
"agg" 0.619319000853813
"ave" 0.0251077206350281
"laveB" 0.247709480634853
"agg" 0.601086124988056
"ave" 0.0240424638525508
"laveB" 0.2209117091725
"agg" 0.383530254336043
"ave" 0.0079332753700253
"laveB" 0.096102129665388
"agg" 0.415018456988125
"ave" 0.00703862022954641
"laveB" 0.08936843680697
"agg" 0.610801421277264
"ave" 0.023035455990363
"laveB" 0.215410112295473
"agg" 0.525814657815648
"ave" 0.0229493093026004
"laveB" 0.201870867683454
"agg" 0.51349010588746
"ave" 0.0157030936040597
"laveB" 0.134479330087139
"agg" 0.513763654144464
"ave" 0.0148489234843358
"laveB" 0.145852207167426
"agg" 0.338103184586801
"ave" 0.0177396791638895
"laveB" 0.121632532557795
"agg" 0.385940162628799
"ave" 0.0167314959980076
"laveB" 0.157067321036077
"agg" 0.410688400791115
"ave" 0.0157032255603184
"laveB" 0.171094041271666
"agg" 0.666152882299215
"ave" 0.0146646304936274
"laveB" 0.186474992877123
"agg" 0.672873416279318
"ave" 0.0183659962390665
"laveB" 0.216264821506823
"agg" 0.579325617796861
"ave" 0.018215709806858
"laveB" 0.195913326246194
"agg" 0.282296158257134
"ave" 0.0107204817087679
"laveB" 0.124563195280773
"agg" 0.904869662585559
"ave" 0.071812758371685
"laveB" 0.440293756016023
"agg" 0.800815988380267
"ave" 0.0297600790095399
"laveB" 0.244502671854011
"agg" 0.858300207233148
"ave" 0.0278474981594103
"laveB" 0.288243227537994
"agg" 0.526435061603459
"ave" 0.0427153104315356
"laveB" 0.260662079532562
"agg" 0.549462446610838
"ave" 0.0388713454784968
"laveB" 0.251312667503031
"agg" 0.825757066715007
"ave" 0.0667914227744797
"laveB" 0.428258487046248
"agg" 0.802216472255524
"ave" 0.0616315821681807
"laveB" 0.398306478289819
"agg" 0.704916366757018
"ave" 0.0609113623061734
"laveB" 0.352016798495232
"agg" 0.67996257596044
"ave" 0.0608771084593902
"laveB" 0.370079669963263
"agg" 0.619346057034927
"ave" 0.0532725995186911
"laveB" 0.3083919727586
"agg" 0.697754792426389
"ave" 0.0546966055125116
"laveB" 0.338350164464859
"agg" 0.509152551047323
"ave" 0.0544747829916094
"laveB" 0.284158890590194
"agg" 0.586676198942185
"ave" 0.0557853859746865
"laveB" 0.305765666149444
"agg" 0.739184575353026
"ave" 0.0527121997746748
"laveB" 0.33407647202778
"agg" 0.730058066791084
"ave" 0.0479007948552989
"laveB" 0.335638328589234
"agg" 0.45774026682483
"ave" 0.032726662119664
"laveB" 0.226744616538874
"agg" 0.552838225435428
"ave" 0.0459571166048098
"laveB" 0.274975863066721
"agg" 0.695971057017475
"ave" 0.0296741363841831
"laveB" 0.308502511718408
"agg" 0.657086551497375
"ave" 0.0330386145880215
"laveB" 0.282028402396623
"agg" 0.560758947660139
"ave" 0.0282469629367031
"laveB" 0.254726068754781
"agg" 0.588725810074296
"ave" 0.0365681626984477
"laveB" 0.283030391921559
"agg" 0.320441543460097
"ave" 0.0264756110878595
"laveB" 0.154077466775479
"agg" 0.377328031489316
"ave" 0.025539504568228
"laveB" 0.183709069674801
"agg" 0.300835765090408
"ave" 0.0157946078243588
"laveB" 0.161539691111848
"agg" 0.624000368937507
"ave" 0.0245174621919297
"laveB" 0.239434845232013
"agg" 0.349840863870572
"ave" 0.0221280989310203
"laveB" 0.154143042609869
"agg" 0.499239423360662
"ave" 0.0377114634902771
"laveB" 0.253828233234133
"agg" 0.526296680871523
"ave" 0.031902773222748
"laveB" 0.243537477276414
"agg" 0.599462751824989
"ave" 0.0367463459351592
"laveB" 0.248977309024682
"agg" 0.402719746098188
"ave" 0.012525596597017
"laveB" 0.115466140564618
"agg" 0.404618657115696
"ave" 0.0101842845266063
"laveB" 0.107067342173559
"agg" 0.64599324573596
"ave" 0.0358154293584716
"laveB" 0.270492271056978
"agg" 0.635566179106204
"ave" 0.0402167071868837
"laveB" 0.268417835786447
"agg" 0.618989485855457
"ave" 0.0260425127035275
"laveB" 0.194360212729686
"agg" 0.681905341811353
"ave" 0.0277922720823059
"laveB" 0.221273788148458
"agg" 0.513904642085987
"ave" 0.0337512468786295
"laveB" 0.254832646462912
"agg" 0.57458981207204
"ave" 0.0342106550238083
"laveB" 0.267252731041975
"agg" 0.422770443601199
"ave" 0.0209244198385258
"laveB" 0.165591629339938
"agg" 0.744855131056375
"ave" 0.0243983760152412
"laveB" 0.254106632952379
"agg" 0.76352951615635
"ave" 0.0296743046000407
"laveB" 0.279471161733906
"agg" 0.703823590185931
"ave" 0.0311462234490739
"laveB" 0.295336626618684
"agg" 0.337624240899426
"ave" 0.0152313332744801
"laveB" 0.159890160689815
"agg" 0.738764943467483
"ave" 0.0287716048807977
"laveB" 0.245695701841631
"agg" 0.75060050814915
"ave" 0.0243504325762528
"laveB" 0.236884102415054
"agg" 0.419328790421968
"ave" 0.0308920767167831
"laveB" 0.210417608831269
"agg" 0.451053156496826
"ave" 0.0311373313741955
"laveB" 0.205549004199363
"agg" 0.770375275327515
"ave" 0.0632868573744897
"laveB" 0.39661008340968
"agg" 0.795728488424922
"ave" 0.0607208213196997
"laveB" 0.402733642241626
"agg" 0.621531825040813
"ave" 0.054155068984199
"laveB" 0.307321005062459
"agg" 0.693649879705714
"ave" 0.0634085876216819
"laveB" 0.393989983162149
"agg" 0.527384975636527
"ave" 0.0444771121686365
"laveB" 0.257023337251425
"agg" 0.615137301134942
"ave" 0.0467087914439443
"laveB" 0.302617283413553
"agg" 0.427655200274238
"ave" 0.0451376365991574
"laveB" 0.236639780073056
"agg" 0.571536151384209
"ave" 0.054908282960733
"laveB" 0.310699134975516
"agg" 0.644372472824714
"ave" 0.0472203292860945
"laveB" 0.292039279104244
"agg" 0.637958607725586
"ave" 0.0424512350569348
"laveB" 0.301305787822692
"agg" 0.45273160737111
"ave" 0.0321905767013083
"laveB" 0.210685702610565
"agg" 0.55504360300869
"ave" 0.0453423547409407
"laveB" 0.267365440870675
"agg" 0.606160529045686
"ave" 0.0250197419815988
"laveB" 0.258655289339512
"agg" 0.650433589424185
"ave" 0.0318087231543568
"laveB" 0.281030469999341
"agg" 0.427833781960808
"ave" 0.020034340958675
"laveB" 0.199978088131263
"agg" 0.486186055631271
"ave" 0.0268072007354235
"laveB" 0.22493896774332
"agg" 0.209681694937352
"ave" 0.0165143411561319
"laveB" 0.10453393856445
"agg" 0.309193154296601
"ave" 0.0199617101510639
"laveB" 0.145027209355769
"agg" 0.404264783097339
"ave" 0.0236282075835125
"laveB" 0.213354902977873
"agg" 0.582411349932042
"ave" 0.0229270017117968
"laveB" 0.219769756519439
"agg" 0.36317776101661
"ave" 0.0227826391043435
"laveB" 0.157650863917259
"agg" 0.412968106206484
"ave" 0.027842256360418
"laveB" 0.203486361463528
"agg" 0.518722773071647
"ave" 0.0313703628845067
"laveB" 0.242603779299376
"agg" 0.497697400433897
"ave" 0.0273282648163187
"laveB" 0.214613839050318
"agg" 0.332627425263484
"ave" 0.00893933764985376
"laveB" 0.0877265727797641
"agg" 0.376943827877838
"ave" 0.00873965293719823
"laveB" 0.109030228126994
"agg" 0.594548908913668
"ave" 0.0319993171722792
"laveB" 0.249799796941161
"agg" 0.562459573444814
"ave" 0.0363657026237165
"laveB" 0.251615154633112
"agg" 0.606740778728784
"ave" 0.0251679291201409
"laveB" 0.201651642865113
"agg" 0.588099767976626
"ave" 0.0245933916266755
"laveB" 0.18359451559642
"agg" 0.580558189175095
"ave" 0.0383605070651857
"laveB" 0.308151927904423
"agg" 0.563544899504519
"ave" 0.0333947401776047
"laveB" 0.286103104681904
"agg" 0.498776701109494
"ave" 0.0260921808112537
"laveB" 0.215991787890335
"agg" 0.662498595112533
"ave" 0.0213480766576473
"laveB" 0.229281135184788
"agg" 0.736659108622052
"ave" 0.0275391074563452
"laveB" 0.2667464926595
"agg" 0.665716876825621
"ave" 0.0288068233251768
"laveB" 0.278002846030632
"agg" 0.433970949527486
"ave" 0.0214334984085185
"laveB" 0.207430069020189
"agg" 0.784288110343994
"ave" 0.0118159919806245
"laveB" 0.183044349770941
"agg" 0.486767958905278
"ave" 0.0169181232046687
"laveB" 0.168995324091036
"agg" 0.603557700493644
"ave" 0.0196426593403394
"laveB" 0.182416658438729
"agg" 0.790710134122542
"ave" 0.0293572294357364
"laveB" 0.252019278368403
"agg" 0.663939896586184
"ave" 0.0236554171012037
"laveB" 0.206748300687846
"agg" 0.712718824634916
"ave" 0.0282214970159024
"laveB" 0.236097782235638
"agg" 0.61375398568476
"ave" 0.026253654779415
"laveB" 0.213508848818751
"agg" 0.577961810392967
"ave" 0.0229607161364004
"laveB" 0.189935964766301
"agg" 0.592742619148416
"ave" 0.0203290653235741
"laveB" 0.19618180996699
"agg" 0.634099448597356
"ave" 0.0323086663866291
"laveB" 0.241001247315042
"agg" 0.657442298507845
"ave" 0.0301002921292249
"laveB" 0.238632275517136
"agg" 0.79634128450123
"ave" 0.0269264930354224
"laveB" 0.244894378203624
"agg" 0.709967134758895
"ave" 0.0210863076227984
"laveB" 0.200875950365801
"agg" 0.615669631553461
"ave" 0.0212746295740626
"laveB" 0.223821781097919
"agg" 0.598810749664067
"ave" 0.0238568178647555
"laveB" 0.201489004532318
"agg" 0.661375323716506
"ave" 0.0126757241608453
"laveB" 0.180410639611388
"agg" 0.674704027629783
"ave" 0.0152063466662006
"laveB" 0.185642839613765
"agg" 0.439553660313654
"ave" 0.00902075278969372
"laveB" 0.119173577698531
"agg" 0.422174001796333
"ave" 0.0095898685498969
"laveB" 0.117266598680826
"agg" 0.220109818757259
"ave" 0.00727680983700683
"laveB" 0.0818314100067502
"agg" 0.312813351992224
"ave" 0.00882290918056284
"laveB" 0.0963891543016382
"agg" 0.576757236453442
"ave" 0.0161687770228289
"laveB" 0.172566150375389
"agg" 0.71174325980813
"ave" 0.0130368935897222
"laveB" 0.1959293417946
"agg" 0.496303419314346
"ave" 0.0156013349315457
"laveB" 0.15889127808163
"agg" 0.498574750920412
"ave" 0.0151045364801634
"laveB" 0.149423859614979
"agg" 0.567757880804023
"ave" 0.0165849509210571
"laveB" 0.182139062099957
"agg" 0.45629402033975
"ave" 0.0107423406761859
"laveB" 0.134794826716101
"agg" 0.306875382512129
"ave" 0.00357806111759627
"laveB" 0.0720807260337909
"agg" 0.459724846590107
"ave" 0.00476982161659792
"laveB" 0.0738432403589365
"agg" 0.738102698419467
"ave" 0.0188843862033205
"laveB" 0.191608739105875
"agg" 0.610715672641983
"ave" 0.0180121367754958
"laveB" 0.177779951541798
"agg" 0.837822058418595
"ave" 0.0161480618481217
"laveB" 0.187734288481798
"agg" 0.592229155580662
"ave" 0.0113773956950615
"laveB" 0.140579284418604
"agg" 0.625853866341978
"ave" 0.0203145455912714
"laveB" 0.227865264449348
"agg" 0.594516543055605
"ave" 0.0166504284123494
"laveB" 0.200583111749858
"agg" 0.701852883780086
"ave" 0.0171520465387172
"laveB" 0.201271695608444
"agg" 0.643734986273727
"ave" 0.00937641101170275
"laveB" 0.148198505881785
"agg" 0.739452793946092
"ave" 0.0126851493632337
"laveB" 0.161795358384226
"agg" 0.699225470208678
"ave" 0.0140011292216646
"laveB" 0.195027824986477
"agg" 0.587029721553961
"ave" 0.0138717361018217
"laveB" 0.164655746055049
"agg" 0.572793487321939
"ave" 0.0183204149538676
"laveB" 0.18475266842368
"agg" 0.580038754932869
"ave" 0.0168380214541757
"laveB" 0.174412061559606
"agg" 0.774745289792394
"ave" 0.0249730530069556
"laveB" 0.246512467440174
"agg" 0.719120069604052
"ave" 0.0225009903631289
"laveB" 0.237963807220913
"agg" 0.749792358414675
"ave" 0.0258835166625438
"laveB" 0.243090578688274
"agg" 0.635426098311597
"ave" 0.0231201689605088
"laveB" 0.225976218708229
"agg" 0.667337405286605
"ave" 0.0226921076416876
"laveB" 0.214861035680631
"agg" 0.783985593959229
"ave" 0.0243766331565214
"laveB" 0.256365933274795
"agg" 0.547760630912928
"ave" 0.0237287005089117
"laveB" 0.191261953956497
"agg" 0.591197356622624
"ave" 0.0233473078102803
"laveB" 0.193568969577198
"agg" 0.782603849855223
"ave" 0.0228796258214117
"laveB" 0.243490460226149
"agg" 0.790868533762443
"ave" 0.0207262751993713
"laveB" 0.236851307397891
"agg" 0.504164031669021
"ave" 0.0150036679541571
"laveB" 0.163587597272486
"agg" 0.558056984615729
"ave" 0.0193357490805312
"laveB" 0.178631048989205
"agg" 0.730243533545875
"ave" 0.0123644758700477
"laveB" 0.215852945745045
"agg" 0.661613437234429
"ave" 0.0135179573269049
"laveB" 0.192687253799946
"agg" 0.656172665137936
"ave" 0.0127817958645805
"laveB" 0.205132837874817
"agg" 0.642404698975264
"ave" 0.0151510758904997
"laveB" 0.218810809396234
"agg" 0.420480352172267
"ave" 0.0132725044922736
"laveB" 0.146568425230152
"agg" 0.444759218368873
"ave" 0.0115684072505456
"laveB" 0.136530613039332
"agg" 0.325096310866656
"ave" 0.00762659745784209
"laveB" 0.0880140451118593
"agg" 0.702100767011145
"ave" 0.0112298213163271
"laveB" 0.172324474753568
"agg" 0.3484133632815
"ave" 0.00925379983601403
"laveB" 0.0998976491096298
"agg" 0.561049079473279
"ave" 0.0163769341301633
"laveB" 0.181228158000344
"agg" 0.555801128367799
"ave" 0.0134310316461516
"laveB" 0.166981464575269
"agg" 0.661030856500215
"ave" 0.0156035778803567
"laveB" 0.180672437684969
"agg" 0.464111907230278
"ave" 0.00548302629370749
"laveB" 0.0847619542871632
"agg" 0.542433696855344
"ave" 0.00540795581491074
"laveB" 0.0768486382430457
"agg" 0.704187096912138
"ave" 0.0156341671302105
"laveB" 0.183079038322594
"agg" 0.702338319753621
"ave" 0.0175532561026927
"laveB" 0.202426046980881
"agg" 0.645788114731778
"ave" 0.0111952880783374
"laveB" 0.159957012072303
"agg" 0.716852492418516
"ave" 0.0114342724024793
"laveB" 0.145022648029822
"agg" 0.458965246764352
"ave" 0.013420694994869
"laveB" 0.143497447635538
"agg" 0.549621711955591
"ave" 0.0136708084971327
"laveB" 0.163676295454417
"agg" 0.406736469066334
"ave" 0.0090740591970503
"laveB" 0.0866717560618586
"agg" 0.752110858141375
"ave" 0.00976071703820767
"laveB" 0.177186911327358
"agg" 0.755355678613107
"ave" 0.0118659280941457
"laveB" 0.189787363379344
"agg" 0.716899977261109
"ave" 0.0130793495049817
"laveB" 0.191431814242494
"agg" 0.281248169342672
"ave" 0.00607584050740506
"laveB" 0.0690347652620309
"agg" 0.788085732881695
"ave" 0.0543137363789695
"laveB" 0.344761633712441
"agg" 0.463440971565712
"ave" 0.0368465898896963
"laveB" 0.238212754826942
"agg" 0.420193071784171
"ave" 0.0336933887348904
"laveB" 0.224898614146797
"agg" 0.55960223338387
"ave" 0.0487882394148712
"laveB" 0.29864116563444
"agg" 0.287854290506022
"ave" 0.0252662314579768
"laveB" 0.161275647279777
"agg" 0.644657697247111
"ave" 0.0508099334410445
"laveB" 0.313848150421486
"agg" 0.659439514127775
"ave" 0.0495890899789318
"laveB" 0.33201207492096
"agg" 0.537571189123163
"ave" 0.0581496743208649
"laveB" 0.311666894052961
"agg" 0.431860986005654
"ave" 0.0420996403048075
"laveB" 0.244125320727426
"agg" 0.628019095197453
"ave" 0.0446093649730175
"laveB" 0.301998505543868
"agg" 0.603123005594962
"ave" 0.0387104211641389
"laveB" 0.283926115934647
"agg" 0.447216413831987
"ave" 0.0318362655319317
"laveB" 0.224784326207299
"agg" 0.523658779372656
"ave" 0.0452483120686159
"laveB" 0.286767829380311
"agg" 0.628660645477304
"ave" 0.02657059783649
"laveB" 0.299502594075429
"agg" 0.496292422393343
"ave" 0.0245328936800687
"laveB" 0.228384644438718
"agg" 0.6768068679513
"ave" 0.035013933984765
"laveB" 0.324585835003549
"agg" 0.627598461447999
"ave" 0.0389301869912492
"laveB" 0.318725523892578
"agg" 0.425880304825994
"ave" 0.0348103807422714
"laveB" 0.248678524050788
"agg" 0.370926295096868
"ave" 0.0245100648616754
"laveB" 0.187995507345454
"agg" 0.269372975330648
"ave" 0.0134423817063226
"laveB" 0.128690989311555
"agg" 0.54472158503099
"ave" 0.0211826530181323
"laveB" 0.21452892638989
"agg" 0.625785607453513
"ave" 0.0387295939605833
"laveB" 0.298343061165387
"agg" 0.733795878313599
"ave" 0.0549618807662966
"laveB" 0.38518557505187
"agg" 0.716729090232307
"ave" 0.0426244644038114
"laveB" 0.338983389387782
"agg" 0.763714433516922
"ave" 0.0474838275938067
"laveB" 0.349874823086949
"agg" 0.566975714044707
"ave" 0.016960223734822
"laveB" 0.178430967327924
"agg" 0.470963688446361
"ave" 0.0124264619155843
"laveB" 0.145430288672387
"agg" 0.605017592914405
"ave" 0.0330812427932595
"laveB" 0.250799273141816
"agg" 0.444493406516498
"ave" 0.0267870521230691
"laveB" 0.190651028784049
"agg" 0.398443795823483
"ave" 0.0179406175464506
"laveB" 0.159284768554685
"agg" 0.479077797324302
"ave" 0.0183187502866874
"laveB" 0.169625348530102
"agg" 0.281982746751621
"ave" 0.0189262859168421
"laveB" 0.145080683895773
"agg" 0.429376820358267
"ave" 0.0256157348030024
"laveB" 0.213113887214085
"agg" 0.281376707436235
"ave" 0.0130210844779928
"laveB" 0.131080790816484
"agg" 0.686784420213406
"ave" 0.0212318517324848
"laveB" 0.242646813158207
"agg" 0.541371510286813
"ave" 0.0210160318081932
"laveB" 0.218898375981816
"agg" 0.557754523082943
"ave" 0.0242760516474844
"laveB" 0.24405786192817
"agg" 0.189049071878989
"ave" 0.00815674126102359
"laveB" 0.117540838678481
"agg" 0.587220129912826
"ave" 0.0414409121930605
"laveB" 0.279828534379908
"agg" 0.600720552256594
"ave" 0.0423829239633263
"laveB" 0.305057980974386
"agg" 0.634329867711626
"ave" 0.0488900586051336
"laveB" 0.298942922858782
"agg" 0.430779912194247
"ave" 0.0349445621677922
"laveB" 0.220591513908685
"agg" 0.602533136376673
"ave" 0.0436673361003419
"laveB" 0.268909744204473
"agg" 0.684542759684975
"ave" 0.0467011132882784
"laveB" 0.305201249514785
"agg" 0.637336186352599
"ave" 0.0603450734002375
"laveB" 0.325809072387588
"agg" 0.577034849649624
"ave" 0.0500830143015775
"laveB" 0.293545937024454
"agg" 0.730257790098469
"ave" 0.0471198423268986
"laveB" 0.322982989970297
"agg" 0.681520831140823
"ave" 0.0394299606228457
"laveB" 0.284691474012338
"agg" 0.592914679104466
"ave" 0.0383679466279614
"laveB" 0.279392694704998
"agg" 0.694856860284196
"ave" 0.0531899038942722
"laveB" 0.33882962356348
"agg" 0.694488459935674
"ave" 0.0260768249521626
"laveB" 0.291340728581168
"agg" 0.602193125506468
"ave" 0.0268094151742007
"laveB" 0.249834706885807
"agg" 0.59766571790954
"ave" 0.0266315550078102
"laveB" 0.259602308845881
"agg" 0.535149248287262
"ave" 0.0285832490279096
"laveB" 0.244632710960884
"agg" 0.344082346905819
"ave" 0.024268055992545
"laveB" 0.178889380217823
"agg" 0.419894239029826
"ave" 0.025169307734412
"laveB" 0.195726958704121
"agg" 0.462302244045047
"ave" 0.0223336897637897
"laveB" 0.224787042286879
"agg" 0.639523685090946
"ave" 0.0223722853142835
"laveB" 0.234956951486397
"agg" 0.569058446369907
"ave" 0.0315570971176102
"laveB" 0.256090377166152
"agg" 0.648252092354241
"ave" 0.0428799213706312
"laveB" 0.307151163789624
"agg" 0.65438347092131
"ave" 0.0347227022441953
"laveB" 0.281306387533079
"agg" 0.668996346678524
"ave" 0.0358730369451617
"laveB" 0.284985101910877
"agg" 0.442458623341682
"ave" 0.0114769733827401
"laveB" 0.108163237049654
"agg" 0.538622867274809
"ave" 0.0121750714981769
"laveB" 0.126894801745891
"agg" 0.675326285647164
"ave" 0.0321386240614745
"laveB" 0.249999963368311
"agg" 0.554749988836555
"ave" 0.0299335440353902
"laveB" 0.220464457873166
"agg" 0.571801019524949
"ave" 0.0215625896145542
"laveB" 0.195870546767507
"agg" 0.563389953934912
"ave" 0.0197658729313303
"laveB" 0.162514106984313
"agg" 0.469678097025544
"ave" 0.0278540618352764
"laveB" 0.231290466463817
"agg" 0.573534135848768
"ave" 0.0304662193734745
"laveB" 0.24181132354364
"agg" 0.527345697235909
"ave" 0.0222787698862371
"laveB" 0.208835760658449
"agg" 0.680040398128847
"ave" 0.0190090053173945
"laveB" 0.227494697946841
"agg" 0.661095692660939
"ave" 0.0222496954854709
"laveB" 0.228472973359
"agg" 0.674990225172175
"ave" 0.0263218122940853
"laveB" 0.260780444252928
"agg" 0.403800170064438
"ave" 0.0161604118368008
"laveB" 0.181354031166397
"agg" 0.869990614882498
"ave" 0.0671487716162705
"laveB" 0.462186470388213
"agg" 0.870722536056401
"ave" 0.0738287721903728
"laveB" 0.443823832334513
"agg" 0.775666812733853
"ave" 0.0690433283406734
"laveB" 0.436633457388332
"agg" 0.591589179254117
"ave" 0.0523598135538314
"laveB" 0.319655995706199
"agg" 0.654989993287117
"ave" 0.0510584853211849
"laveB" 0.339914230043781
"agg" 0.529035436605002
"ave" 0.0520710902097059
"laveB" 0.283091133922162
"agg" 0.697043670906663
"ave" 0.0633192270471239
"laveB" 0.379647574649826
"agg" 0.804743847421693
"ave" 0.0575554392407611
"laveB" 0.383104143914836
"agg" 0.77462108227749
"ave" 0.0507794470933657
"laveB" 0.38094046001333
"agg" 0.545884567570662
"ave" 0.0388157367737112
"laveB" 0.288035288310938
"agg" 0.595241180570114
"ave" 0.0468472465179245
"laveB" 0.303202815352756
"agg" 0.663305076562904
"ave" 0.0274763052141671
"laveB" 0.302692943971149
"agg" 0.647750721353133
"ave" 0.0311272554062799
"laveB" 0.296582921144983
"agg" 0.496806985555362
"ave" 0.0246573292654047
"laveB" 0.234888814741847
"agg" 0.450268355966381
"ave" 0.0268955079923249
"laveB" 0.233879814604051
"agg" 0.294308567568399
"ave" 0.0245684296577584
"laveB" 0.161466237039107
"agg" 0.334694465997773
"ave" 0.0230015302537707
"laveB" 0.174142113732762
"agg" 0.46942624692589
"ave" 0.0247808226292024
"laveB" 0.237366542614211
"agg" 0.612475868661915
"ave" 0.0236808586596756
"laveB" 0.245060206151417
"agg" 0.338031734810883
"ave" 0.0209442489775161
"laveB" 0.15881162588039
"agg" 0.472296960310323
"ave" 0.0337009770326673
"laveB" 0.261732511382359
"agg" 0.501576429990574
"ave" 0.0307640714155167
"laveB" 0.253854788877538
"agg" 0.496434437784168
"ave" 0.0287876895310086
"laveB" 0.234035518181767
"agg" 0.288460196386942
"ave" 0.00826321119156868
"laveB" 0.0839091324128307
"agg" 0.365648694399164
"ave" 0.00813815218928127
"laveB" 0.095830868047892
"agg" 0.619816895477191
"ave" 0.0327891288098051
"laveB" 0.254774894828058
"agg" 0.651586395117989
"ave" 0.0401200690468891
"laveB" 0.28787926060961
"agg" 0.731828476419873
"ave" 0.0290083483401727
"laveB" 0.245968275111688
"agg" 0.660297527712992
"ave" 0.026576223774988
"laveB" 0.228415395863314
"agg" 0.521221623197765
"ave" 0.0316949022184221
"laveB" 0.265156248244812
"agg" 0.604903938881121
"ave" 0.0329491072980595
"laveB" 0.281831713593664
"agg" 0.515060500380968
"ave" 0.0244449421471457
"laveB" 0.228547283118633
"agg" 0.69744988516892
"ave" 0.0225003680176398
"laveB" 0.251103761214299
"agg" 0.741119730790143
"ave" 0.0274539067027694
"laveB" 0.270855648146475
"agg" 0.719536558630159
"ave" 0.0303671634319152
"laveB" 0.305085979371425
"agg" 0.427974394103342
"ave" 0.0185636137245271
"laveB" 0.175288271061408
"agg" 0.690505256108951
"ave" 0.0563542242045634
"laveB" 0.365812589866314
"agg" 0.713162351124599
"ave" 0.0599161269955841
"laveB" 0.390838080093394
"agg" 0.50440131498037
"ave" 0.0418469943383492
"laveB" 0.255861636104032
"agg" 0.62555141792169
"ave" 0.0477224049405836
"laveB" 0.338482730901019
"agg" 0.402406263884774
"ave" 0.0403417313381488
"laveB" 0.240332246575823
"agg" 0.598563776190081
"ave" 0.0527173127224684
"laveB" 0.329944162182709
"agg" 0.660635880250947
"ave" 0.0468250793914816
"laveB" 0.320106852397606
"agg" 0.685778592287122
"ave" 0.043999880045963
"laveB" 0.325280398926166
"agg" 0.474824000305909
"ave" 0.0329884911038824
"laveB" 0.252608699602674
"agg" 0.580618455070674
"ave" 0.0453996480447799
"laveB" 0.296918948769583
"agg" 0.600478380813935
"ave" 0.0245388668547969
"laveB" 0.281803492976641
"agg" 0.533827528898267
"ave" 0.0252331605485242
"laveB" 0.243516297351343
"agg" 0.479716555398512
"ave" 0.0237477309340871
"laveB" 0.250122567956069
"agg" 0.439271924325085
"ave" 0.0265775899039247
"laveB" 0.235108268303726
"agg" 0.228354975212343
"ave" 0.0192965207372348
"laveB" 0.135698882545071
"agg" 0.336954941397249
"ave" 0.0223729739813798
"laveB" 0.178425683930171
"agg" 0.353104342400642
"ave" 0.0166616023204958
"laveB" 0.184932027814159
"agg" 0.548423183574537
"ave" 0.0205151285859831
"laveB" 0.221820525592649
"agg" 0.248351085522656
"ave" 0.0139493962978188
"laveB" 0.136950217160846
"agg" 0.358328744498744
"ave" 0.0261218074166185
"laveB" 0.202980161432604
"agg" 0.444549964816099
"ave" 0.0262847436570271
"laveB" 0.220977503986718
"agg" 0.477071806719349
"ave" 0.029358199844238
"laveB" 0.239132436007425
"agg" 0.246236040823446
"ave" 0.00729765630862698
"laveB" 0.0860609912019582
"agg" 0.310548806342964
"ave" 0.00753087671118987
"laveB" 0.0765206387411834
"agg" 0.528194672995192
"ave" 0.027951296549469
"laveB" 0.23931406533738
"agg" 0.608093231897193
"ave" 0.0369515475629151
"laveB" 0.288278399649382
"agg" 0.576023256203283
"ave" 0.0222028222362745
"laveB" 0.192807057296104
"agg" 0.649730274748093
"ave" 0.0256846895211155
"laveB" 0.220078767350273
"agg" 0.505674166284661
"ave" 0.0302079950034949
"laveB" 0.266789499505973
"agg" 0.584026865005629
"ave" 0.0321833563510357
"laveB" 0.301880436574951
"agg" 0.443746403589184
"ave" 0.0200728992787668
"laveB" 0.195749685379099
"agg" 0.661425410085851
"ave" 0.02087580561596
"laveB" 0.240543715466053
"agg" 0.733928843880176
"ave" 0.0264655212117846
"laveB" 0.277288714110922
"agg" 0.725160995421212
"ave" 0.0302100162151847
"laveB" 0.32552442525519
"agg" 0.354742652599966
"ave" 0.0141980611674003
"laveB" 0.159101387448848
"agg" 0.780436844025589
"ave" 0.0758753430956982
"laveB" 0.446227337463906
"agg" 0.673352759188271
"ave" 0.0625191014133785
"laveB" 0.356038835601127
"agg" 0.751968761295677
"ave" 0.0620512947891692
"laveB" 0.386660460086845
"agg" 0.580748210381619
"ave" 0.0692977758736149
"laveB" 0.352662004104149
"agg" 0.697591693874148
"ave" 0.0738084622281593
"laveB" 0.397469608881675
"agg" 0.800953594639954
"ave" 0.0633667034907425
"laveB" 0.39710159405706
"agg" 0.780277642672681
"ave" 0.0553029812161765
"laveB" 0.367172105844705
"agg" 0.49544532450807
"ave" 0.0389745132275644
"laveB" 0.253226483624533
"agg" 0.540280581755838
"ave" 0.0481561325169592
"laveB" 0.280015413644323
"agg" 0.688940595580104
"ave" 0.0319912547316517
"laveB" 0.312961700629772
"agg" 0.654411116664264
"ave" 0.0350663931008694
"laveB" 0.302194000048868
"agg" 0.634148317029418
"ave" 0.0338748147533949
"laveB" 0.29848545736392
"agg" 0.539019747699978
"ave" 0.0344300982689643
"laveB" 0.252814203725968
"agg" 0.458759713158222
"ave" 0.0381420861285989
"laveB" 0.23436368733109
"agg" 0.454939072015985
"ave" 0.0321784862343033
"laveB" 0.217648234700365
"agg" 0.389854725770517
"ave" 0.0223237610350907
"laveB" 0.213341047184913
"agg" 0.674139939859347
"ave" 0.0289333648986776
"laveB" 0.278235052684342
"agg" 0.316355807990001
"ave" 0.0212381572938698
"laveB" 0.163727614300424
"agg" 0.561739061105388
"ave" 0.0446894243207525
"laveB" 0.29150082087538
"agg" 0.514417723722765
"ave" 0.0330313972072008
"laveB" 0.247998192341607
"agg" 0.583678533322939
"ave" 0.0381519523356311
"laveB" 0.262027472254711
"agg" 0.347989959661265
"ave" 0.0110797638861025
"laveB" 0.102297474702316
"agg" 0.420902484308176
"ave" 0.0110398989174998
"laveB" 0.105656179921316
"agg" 0.641250372235399
"ave" 0.0388798318197476
"laveB" 0.27470582437722
"agg" 0.7111935649905
"ave" 0.0486936897252828
"laveB" 0.336791406294606
"agg" 0.715129959932397
"ave" 0.0336510569190556
"laveB" 0.264635987390143
"agg" 0.664612319860038
"ave" 0.029489231448173
"laveB" 0.230574501192617
"agg" 0.428356644476575
"ave" 0.0310616241685164
"laveB" 0.238354236021995
"agg" 0.537761554524631
"ave" 0.0349783134463914
"laveB" 0.280079193061829
"agg" 0.426718761954173
"ave" 0.0224769399901652
"laveB" 0.196801893671019
"agg" 0.664762776219282
"ave" 0.0236825141809634
"laveB" 0.242183224024437
"agg" 0.668164484098406
"ave" 0.0271641233621654
"laveB" 0.2432587673619
"agg" 0.656998880150843
"ave" 0.0314808357656542
"laveB" 0.279259372800844
"agg" 0.293464224574737
"ave" 0.0143583157717197
"laveB" 0.152851154612079
"agg" 0.444250338149054
"ave" 0.0418420141732223
"laveB" 0.253369148959037
"agg" 0.636164903345181
"ave" 0.0552491967343943
"laveB" 0.357410205762282
"agg" 0.483839588300805
"ave" 0.0616438445492263
"laveB" 0.322247305219438
"agg" 0.773462411111074
"ave" 0.0871931785976915
"laveB" 0.466248021156747
"agg" 0.612194017904401
"ave" 0.0502916732996688
"laveB" 0.321060000713862
"agg" 0.667349054606637
"ave" 0.0499141228381838
"laveB" 0.343658687498845
"agg" 0.324423509360847
"ave" 0.0274562498064208
"laveB" 0.181082451027497
"agg" 0.423553564281812
"ave" 0.0387200974472407
"laveB" 0.221167524970304
"agg" 0.627636247457257
"ave" 0.0302354264269928
"laveB" 0.316864516513156
"agg" 0.647939485107818
"ave" 0.0363436784587587
"laveB" 0.333011949632166
"agg" 0.470923976585495
"ave" 0.025681963969684
"laveB" 0.254421966533954
"agg" 0.448287934128918
"ave" 0.0294534817422263
"laveB" 0.242244962309554
"agg" 0.366779996663413
"ave" 0.0313932597388873
"laveB" 0.222811554641269
"agg" 0.366174325765347
"ave" 0.0264642160388949
"laveB" 0.205152681034986
"agg" 0.344524879043819
"ave" 0.0211192524248868
"laveB" 0.199469689967976
"agg" 0.590174313519279
"ave" 0.0262341177215494
"laveB" 0.268902067493653
"agg" 0.184339011414219
"ave" 0.012554136480504
"laveB" 0.0837693062454757
"agg" 0.388849261597417
"ave" 0.0315810026916054
"laveB" 0.23284798495357
"agg" 0.329309696571189
"ave" 0.0215232520119393
"laveB" 0.167498119217919
"agg" 0.41971544373829
"ave" 0.0282231584134053
"laveB" 0.214407092538295
"agg" 0.235023314435527
"ave" 0.00777387646491941
"laveB" 0.0873817116626507
"agg" 0.328262585238194
"ave" 0.00903201614636263
"laveB" 0.107995884985173
"agg" 0.481903077593283
"ave" 0.0307429028228291
"laveB" 0.230194491577251
"agg" 0.688550562149499
"ave" 0.0504458434108153
"laveB" 0.343364933370821
"agg" 0.617404636057608
"ave" 0.0293736647528104
"laveB" 0.242932201407413
"agg" 0.634763304307394
"ave" 0.0302200392264133
"laveB" 0.264145043749491
"agg" 0.5380879743664
"ave" 0.04163583703146
"laveB" 0.315806294419159
"agg" 0.506517512976045
"ave" 0.0355380464411816
"laveB" 0.277441688841133
"agg" 0.429134137232232
"ave" 0.0244984008219739
"laveB" 0.221712658956977
"agg" 0.533650303575331
"ave" 0.0203147281053173
"laveB" 0.210910846096377
"agg" 0.613815378857357
"ave" 0.0258426622098161
"laveB" 0.251480554184233
"agg" 0.549588456135832
"ave" 0.0277865118915291
"laveB" 0.26057047085693
"agg" 0.297762581361363
"ave" 0.0156301898739096
"laveB" 0.134765366277644
"agg" 0.82470014572543
"ave" 0.0654685485326323
"laveB" 0.409167398276728
"agg" 0.345741998882762
"ave" 0.0361613398665001
"laveB" 0.184458184146843
"agg" 0.320407547279067
"ave" 0.030975926202304
"laveB" 0.165296903842231
"agg" 0.669818860754644
"ave" 0.0508978743911294
"laveB" 0.317376775371799
"agg" 0.689146091044145
"ave" 0.0471753099853124
"laveB" 0.33310730355427
"agg" 0.558193458323817
"ave" 0.041474391264702
"laveB" 0.264861585831502
"agg" 0.555760642029924
"ave" 0.0508437104064354
"laveB" 0.290219472332845
"agg" 0.562120601446541
"ave" 0.0244537403118907
"laveB" 0.233517922462032
"agg" 0.593498933195598
"ave" 0.030286970528852
"laveB" 0.260836810578109
"agg" 0.614858972874346
"ave" 0.0312569434990662
"laveB" 0.286601352857025
"agg" 0.575031918129903
"ave" 0.0347035426832806
"laveB" 0.268066163003816
"agg" 0.493495424997352
"ave" 0.0395137976213737
"laveB" 0.247585554253415
"agg" 0.505718093393586
"ave" 0.0343149424430013
"laveB" 0.243855864810007
"agg" 0.481233088816524
"ave" 0.0272169715774294
"laveB" 0.234879151639354
"agg" 0.657229249759609
"ave" 0.0270658223519309
"laveB" 0.260883580063069
"agg" 0.587526590534955
"ave" 0.0365187837984375
"laveB" 0.255674052671663
"agg" 0.599497096208227
"ave" 0.0420972217011311
"laveB" 0.301964555272931
"agg" 0.807609933876578
"ave" 0.0488948635794459
"laveB" 0.379667981153364
"agg" 0.59970852532396
"ave" 0.0347788335966768
"laveB" 0.2434743618114
"agg" 0.315846028531044
"ave" 0.00989667054969383
"laveB" 0.106436891171151
"agg" 0.351964891351066
"ave" 0.00801708324471821
"laveB" 0.0954029518539334
"agg" 0.58227239345391
"ave" 0.0331364385797783
"laveB" 0.241970390551791
"agg" 0.381836968387459
"ave" 0.025749610816253
"laveB" 0.184057176520216
"agg" 0.40050712193025
"ave" 0.0178584374090742
"laveB" 0.132975115980102
"agg" 0.340052577749042
"ave" 0.0149540637424023
"laveB" 0.129133707466925
"agg" 0.129690797522544
"ave" 0.00789499483158926
"laveB" 0.0788276523974572
"agg" 0.206830449592656
"ave" 0.0113730025331557
"laveB" 0.104464376944641
"agg" 0.410255881656311
"ave" 0.020745762623921
"laveB" 0.189117634405961
"agg" 0.599480872231124
"ave" 0.0198456073870885
"laveB" 0.202561030413812
"agg" 0.564644211829594
"ave" 0.022571989921986
"laveB" 0.227167312707241
"agg" 0.502578578551019
"ave" 0.0232059070428293
"laveB" 0.218387302031188
"agg" 0.299171294588123
"ave" 0.0143490936108723
"laveB" 0.138690654575872
"agg" 0.461886741635327
"ave" 0.0464990562118687
"laveB" 0.260901176977783
"agg" 0.544063095745142
"ave" 0.0515418774503267
"laveB" 0.286318954257894
"agg" 0.752265919915843
"ave" 0.0517200350442438
"laveB" 0.369913573334041
"agg" 0.814657704279486
"ave" 0.0517000865460091
"laveB" 0.380262270758635
"agg" 0.466733138707934
"ave" 0.0313727176054693
"laveB" 0.220782947817594
"agg" 0.572140893706063
"ave" 0.0474912582580032
"laveB" 0.310079899524156
"agg" 0.709765889411886
"ave" 0.0288954517134494
"laveB" 0.326773150862895
"agg" 0.681009668338771
"ave" 0.0323770260146124
"laveB" 0.303895037697166
"agg" 0.769719462192145
"ave" 0.0375528084747274
"laveB" 0.373676473537115
"agg" 0.74862143669277
"ave" 0.0441613334516835
"laveB" 0.356210571278587
"agg" 0.580623036495133
"ave" 0.0446978265920775
"laveB" 0.30471954659015
"agg" 0.588593267389452
"ave" 0.0373843764788498
"laveB" 0.275527878010248
"agg" 0.339145948267866
"ave" 0.0162944823875961
"laveB" 0.177736088048955
"agg" 0.744284078192083
"ave" 0.0283979897983056
"laveB" 0.287909406289981
"agg" 0.452831885355818
"ave" 0.0256075726074925
"laveB" 0.210957445257813
"agg" 0.711400333508872
"ave" 0.0498466955049584
"laveB" 0.379524162758493
"agg" 0.673283377774445
"ave" 0.0366583849203856
"laveB" 0.306613848861531
"agg" 0.772136515205623
"ave" 0.0456814920281523
"laveB" 0.356010204213525
"agg" 0.458682202335181
"ave" 0.0130514339921717
"laveB" 0.138873929777018
"agg" 0.529442339600024
"ave" 0.0127924291941216
"laveB" 0.129209445993723
"agg" 0.611700650381983
"ave" 0.0321056157762912
"laveB" 0.274445722231808
"agg" 0.664540563340872
"ave" 0.0407227930372127
"laveB" 0.281207572784343
"agg" 0.442211795003447
"ave" 0.0180917243316634
"laveB" 0.150739939618768
"agg" 0.616989710326324
"ave" 0.0241486831337264
"laveB" 0.19862141378459
"agg" 0.309003301043725
"ave" 0.0198211532410415
"laveB" 0.181928895719856
"agg" 0.377599949664158
"ave" 0.0212888420944677
"laveB" 0.188823030440537
"agg" 0.332547882129246
"ave" 0.0154972701805521
"laveB" 0.147568306350017
"agg" 0.643229779366832
"ave" 0.0195153497249129
"laveB" 0.215915032922488
"agg" 0.646004593190375
"ave" 0.0237492406574904
"laveB" 0.244235061089399
"agg" 0.59502183783246
"ave" 0.0256482715821611
"laveB" 0.251107571365343
"agg" 0.170263056900767
"ave" 0.00712570661047951
"laveB" 0.101005569952482
"agg" 0.83144747737107
"ave" 0.11242849154779
"laveB" 0.554855708345225
"agg" 0.761674621293589
"ave" 0.0713518438102047
"laveB" 0.407977643386997
"agg" 0.66276168489638
"ave" 0.0550724046327948
"laveB" 0.345878878622676
"agg" 0.483025291216916
"ave" 0.0466916622766575
"laveB" 0.282473158697825
"agg" 0.53885970794885
"ave" 0.0598401277408458
"laveB" 0.316471574899752
"agg" 0.655543810676004
"ave" 0.0379412393484054
"laveB" 0.34150956169879
"agg" 0.584690900901065
"ave" 0.0396613411040531
"laveB" 0.320597420232182
"agg" 0.448370607076527
"ave" 0.0298972554745039
"laveB" 0.247045908177124
"agg" 0.384157191333383
"ave" 0.0302782276574664
"laveB" 0.209786475075132
"agg" 0.195708783025472
"ave" 0.0224986503312082
"laveB" 0.132203886610424
"agg" 0.181795876854835
"ave" 0.0172728487988702
"laveB" 0.10717991120879
"agg" 0.353913968793707
"ave" 0.0276566083387085
"laveB" 0.220080785273131
"agg" 0.592326881049664
"ave" 0.0328845172988055
"laveB" 0.281936059343171
"agg" 0.392968942180372
"ave" 0.0356489863021701
"laveB" 0.243681907839062
"agg" 0.527054237496996
"ave" 0.0538013707795718
"laveB" 0.331596435542345
"agg" 0.440462494916867
"ave" 0.036768247362689
"laveB" 0.246675244187405
"agg" 0.57512547176551
"ave" 0.0463190834148637
"laveB" 0.297217959185092
"agg" 0.453814701510901
"ave" 0.0188608211192243
"laveB" 0.156112687688245
"agg" 0.677701661364416
"ave" 0.0232794105614835
"laveB" 0.232224213868709
"agg" 0.826562301623056
"ave" 0.0615105821894007
"laveB" 0.409599068799772
"agg" 0.759630688585605
"ave" 0.0607580254182061
"laveB" 0.361195618831616
"agg" 0.765098044657771
"ave" 0.0446963025822289
"laveB" 0.339206332531433
"agg" 0.723910634765118
"ave" 0.0364470446122536
"laveB" 0.266857939696854
"agg" 0.649606542238723
"ave" 0.0610168912993506
"laveB" 0.424377410155815
"agg" 0.698469333940721
"ave" 0.0586947315614739
"laveB" 0.418799556947871
"agg" 0.451511934349165
"ave" 0.0302952362960244
"laveB" 0.236267302105976
"agg" 0.577984928506652
"ave" 0.0247678684484915
"laveB" 0.236043119012119
"agg" 0.548733011481884
"ave" 0.0274142113764825
"laveB" 0.23192752201361
"agg" 0.557654627627412
"ave" 0.0319717488526027
"laveB" 0.260084089243097
"agg" 0.357080093675185
"ave" 0.0224977788263341
"laveB" 0.181099594499724
"agg" 0.767066158719328
"ave" 0.0660986169704903
"laveB" 0.394219446665755
"agg" 0.763676382082971
"ave" 0.0590198211991032
"laveB" 0.381613016861766
"agg" 0.405006584955627
"ave" 0.0356044630461041
"laveB" 0.227856983335036
"agg" 0.497837710910136
"ave" 0.047312944735842
"laveB" 0.263238609879448
"agg" 0.642845168302346
"ave" 0.0337803555033345
"laveB" 0.321824811998682
"agg" 0.591004474948396
"ave" 0.0357455389085625
"laveB" 0.292723733812837
"agg" 0.422524086671984
"ave" 0.0260946330040085
"laveB" 0.214119982464972
"agg" 0.361448781941559
"ave" 0.026430423120598
"laveB" 0.191136982939946
"agg" 0.236811593259209
"ave" 0.0250615063968109
"laveB" 0.15273098779039
"agg" 0.202924612932962
"ave" 0.0179086589414309
"laveB" 0.116139429676749
"agg" 0.392462457332152
"ave" 0.0267376902339119
"laveB" 0.214360652734544
"agg" 0.62117116024235
"ave" 0.0306762052857683
"laveB" 0.275036839744274
"agg" 0.349360405765309
"ave" 0.0278924745140696
"laveB" 0.190946261602386
"agg" 0.491238189287296
"ave" 0.0454570927147652
"laveB" 0.291404165917487
"agg" 0.350600647735349
"ave" 0.0261557374729403
"laveB" 0.180269375470338
"agg" 0.503821915550333
"ave" 0.0376983702696005
"laveB" 0.257653443790459
"agg" 0.323210046674672
"ave" 0.0112950277888518
"laveB" 0.110884372183162
"agg" 0.573029974238502
"ave" 0.0173259458240615
"laveB" 0.177675233972348
"agg" 0.653065439134298
"ave" 0.0440653161222637
"laveB" 0.312457077470591
"agg" 0.819317227683086
"ave" 0.061625261023743
"laveB" 0.381274953330529
"agg" 0.758730329421063
"ave" 0.0383642933098891
"laveB" 0.316093235266101
"agg" 0.768239700449661
"ave" 0.0366945120659136
"laveB" 0.280275557191918
"agg" 0.712705529885759
"ave" 0.0577172303561789
"laveB" 0.412937772488875
"agg" 0.686304114936977
"ave" 0.0501298141024957
"laveB" 0.394116456581162
"agg" 0.488468235841309
"ave" 0.0290892223057588
"laveB" 0.240049307875742
"agg" 0.548018141267501
"ave" 0.0213161610028915
"laveB" 0.223022926206174
"agg" 0.616776410599122
"ave" 0.0270876583871604
"laveB" 0.241748441814865
"agg" 0.610444111091313
"ave" 0.0311553848963024
"laveB" 0.29018805764666
"agg" 0.380451778676782
"ave" 0.0203955141931417
"laveB" 0.203491028569301
"agg" 0.923313794298798
"ave" 0.0528923577671736
"laveB" 0.403121507557401
"agg" 0.626506548483303
"ave" 0.0423117410488061
"laveB" 0.323043864700443
"agg" 0.687731223864056
"ave" 0.0538422239021567
"laveB" 0.347620712039
"agg" 0.733699444824762
"ave" 0.0281522635881069
"laveB" 0.314452157950195
"agg" 0.707402724526119
"ave" 0.0317958265137511
"laveB" 0.305788418922084
"agg" 0.576039870668348
"ave" 0.0252573464953005
"laveB" 0.268848840064911
"agg" 0.509884807676269
"ave" 0.0262353030818304
"laveB" 0.240452990797092
"agg" 0.328865121828568
"ave" 0.0231905354600908
"laveB" 0.160136527754873
"agg" 0.30814400166302
"ave" 0.0187382633660664
"laveB" 0.150387950762057
"agg" 0.52137306019924
"ave" 0.0269867423977651
"laveB" 0.254815501878121
"agg" 0.736431160454
"ave" 0.0263702500958775
"laveB" 0.283126540182911
"agg" 0.525485304061843
"ave" 0.0301075661662136
"laveB" 0.231786917817498
"agg" 0.617756458548319
"ave" 0.0398325725382678
"laveB" 0.303197771850742
"agg" 0.625992733856906
"ave" 0.0339753457987101
"laveB" 0.287079170699362
"agg" 0.665675506936907
"ave" 0.0349950204407738
"laveB" 0.290922499232052
"agg" 0.37799327148779
"ave" 0.00984529589350425
"laveB" 0.0988663350218501
"agg" 0.573554563521314
"ave" 0.0124418621318929
"laveB" 0.142264490238721
"agg" 0.770354265055553
"ave" 0.0376887140932379
"laveB" 0.306288784532759
"agg" 0.726877748337162
"ave" 0.0397209597030848
"laveB" 0.306681574095884
"agg" 0.724997331362737
"ave" 0.027942827779869
"laveB" 0.237993972939839
"agg" 0.693744519454863
"ave" 0.0248309553889181
"laveB" 0.224528595924735
"agg" 0.595866020510343
"ave" 0.0365432317275605
"laveB" 0.312629253286956
"agg" 0.662696897361667
"ave" 0.0364085394090489
"laveB" 0.313521563279177
"agg" 0.585511887338578
"ave" 0.0265395504442984
"laveB" 0.250573044375062
"agg" 0.741561085103261
"ave" 0.0214948696821186
"laveB" 0.252772567860877
"agg" 0.736225594015332
"ave" 0.0253117149394537
"laveB" 0.256039143903101
"agg" 0.74139174361623
"ave" 0.0297633650881695
"laveB" 0.302500362780165
"agg" 0.474144488358518
"ave" 0.0206965785301924
"laveB" 0.208910963000255
"agg" 0.535820064038272
"ave" 0.0313365836265983
"laveB" 0.255343527600223
"agg" 0.592313623977118
"ave" 0.0411777158885576
"laveB" 0.285878938959457
"agg" 0.691653183426668
"ave" 0.0238470036599791
"laveB" 0.296572320159345
"agg" 0.621731117357523
"ave" 0.0250888583859973
"laveB" 0.269075296205908
"agg" 0.615635366723285
"ave" 0.024995379865934
"laveB" 0.27991215717788
"agg" 0.523593844504809
"ave" 0.0257399421033747
"laveB" 0.230107339975447
"agg" 0.434630787125326
"ave" 0.0283867046098033
"laveB" 0.214338337348292
"agg" 0.365442248683908
"ave" 0.0205383319427315
"laveB" 0.174507790498964
"agg" 0.447103348143154
"ave" 0.0192736203527895
"laveB" 0.200627072716358
"agg" 0.746647255347868
"ave" 0.0237458404039707
"laveB" 0.277825682722524
"agg" 0.471445429690512
"ave" 0.0227074669479497
"laveB" 0.183186749231542
"agg" 0.568715974773497
"ave" 0.0331101236868449
"laveB" 0.277946686988254
"agg" 0.589184231173386
"ave" 0.0274060010101021
"laveB" 0.237315199978994
"agg" 0.658536413607951
"ave" 0.0320523946683703
"laveB" 0.274648921970176
"agg" 0.310144211082567
"ave" 0.00741013560150906
"laveB" 0.0855385257398058
"agg" 0.559989068419485
"ave" 0.0105479141534787
"laveB" 0.122758520294967
"agg" 0.665134354914891
"ave" 0.0288525618065104
"laveB" 0.248715513195954
"agg" 0.751925243244344
"ave" 0.0375231889050031
"laveB" 0.297340686814157
"agg" 0.608722087063881
"ave" 0.0204531869648381
"laveB" 0.171707907670146
"agg" 0.690065173212246
"ave" 0.0222532834695287
"laveB" 0.218501858363633
"agg" 0.487485973538427
"ave" 0.0260683833709687
"laveB" 0.228359873206699
"agg" 0.524855883914992
"ave" 0.025127197374877
"laveB" 0.249639130848475
"agg" 0.487868189914917
"ave" 0.0191025805503849
"laveB" 0.207823241873522
"agg" 0.671213043381034
"ave" 0.0173294859371849
"laveB" 0.224897188492896
"agg" 0.692876786230533
"ave" 0.0212713424184901
"laveB" 0.249997504544641
"agg" 0.658780860166006
"ave" 0.0235241740945327
"laveB" 0.269080905123713
"agg" 0.367833459732955
"ave" 0.0132808593489224
"laveB" 0.153669105787193
"agg" 0.817308785527757
"ave" 0.0661025083525814
"laveB" 0.435084864948246
"agg" 0.519049059611272
"ave" 0.0199763883450347
"laveB" 0.238897487965076
"agg" 0.535786107441289
"ave" 0.0243563544895691
"laveB" 0.248522921994559
"agg" 0.378166008002229
"ave" 0.0165679403471559
"laveB" 0.170633553077049
"agg" 0.307233683670611
"ave" 0.0158223955259209
"laveB" 0.186133972305945
"agg" 0.216330311147425
"ave" 0.0156061625047389
"laveB" 0.133987107907016
"agg" 0.188847513808457
"ave" 0.0119138992236437
"laveB" 0.0887838982373419
"agg" 0.51864576812465
"ave" 0.0257408400702292
"laveB" 0.268298447779914
"agg" 0.473795692073283
"ave" 0.0170032136870792
"laveB" 0.188014106674551
"agg" 0.455055418021567
"ave" 0.0262847951712217
"laveB" 0.208957770727556
"agg" 0.428234140901225
"ave" 0.0286126638293395
"laveB" 0.217738304762884
"agg" 0.555823326576815
"ave" 0.0313151861365532
"laveB" 0.262023097312363
"agg" 0.405249344245548
"ave" 0.0215272137234471
"laveB" 0.180017230683588
"agg" 0.259305306952244
"ave" 0.00814598843790883
"laveB" 0.116377944249496
"agg" 0.429563652271088
"ave" 0.00961284452460589
"laveB" 0.123861280335989
"agg" 0.635237799907863
"ave" 0.0314435788439194
"laveB" 0.277042758002363
"agg" 0.404215732521174
"ave" 0.022726486414372
"laveB" 0.165605941386986
"agg" 0.564212260350156
"ave" 0.02146429310709
"laveB" 0.20864876476533
"agg" 0.395644098495416
"ave" 0.0149330252597472
"laveB" 0.137977792762843
"agg" 0.382436281322247
"ave" 0.0231236963222524
"laveB" 0.200992635701696
"agg" 0.385894287108479
"ave" 0.0207003855705579
"laveB" 0.180963209291671
"agg" 0.524577114307676
"ave" 0.0224698822028235
"laveB" 0.22509834162647
"agg" 0.532885738992952
"ave" 0.0151626425618178
"laveB" 0.181541662999992
"agg" 0.487314717662918
"ave" 0.0165829839942066
"laveB" 0.168729283410634
"agg" 0.552851125746887
"ave" 0.0214840797803683
"laveB" 0.231076075845655
"agg" 0.476438072419274
"ave" 0.0197633652579131
"laveB" 0.207948230458319
"agg" 0.601674302045034
"ave" 0.0271565927535872
"laveB" 0.286582731032055
"agg" 0.627263197362286
"ave" 0.033358487105682
"laveB" 0.292285642784052
"agg" 0.406535542741076
"ave" 0.0224098344441287
"laveB" 0.205186748322921
"agg" 0.397094989521193
"ave" 0.0259025479996166
"laveB" 0.226598535708293
"agg" 0.102954203371682
"ave" 0.0109803568335782
"laveB" 0.0843764197177775
"agg" 0.271993863677798
"ave" 0.021205886132889
"laveB" 0.165693972302234
"agg" 0.490788588492427
"ave" 0.0297328279381581
"laveB" 0.263439796349844
"agg" 0.552993246137326
"ave" 0.0236875774168552
"laveB" 0.23272057770044
"agg" 0.451461889481559
"ave" 0.0326396343884186
"laveB" 0.239755243192864
"agg" 0.481470142033206
"ave" 0.0395744380966962
"laveB" 0.263141885963409
"agg" 0.565049444213786
"ave" 0.0390065241547282
"laveB" 0.296576988751335
"agg" 0.527424930927689
"ave" 0.034295323013453
"laveB" 0.25727778503957
"agg" 0.40799773154582
"ave" 0.0138053377033448
"laveB" 0.136164904812864
"agg" 0.476604423011003
"ave" 0.0129648887957317
"laveB" 0.134930852626143
"agg" 0.623962204985935
"ave" 0.0361829817448918
"laveB" 0.272701919260227
"agg" 0.477210207895152
"ave" 0.0293090899779483
"laveB" 0.213550284653773
"agg" 0.580618783358046
"ave" 0.0250443732773414
"laveB" 0.193887415443011
"agg" 0.515232434812692
"ave" 0.0209971723441555
"laveB" 0.165148726180199
"agg" 0.516399684933729
"ave" 0.0336024383139722
"laveB" 0.264087089755782
"agg" 0.587262331442533
"ave" 0.0337747854974201
"laveB" 0.278598980445131
"agg" 0.510237743075746
"ave" 0.0258545606893529
"laveB" 0.223508415822424
"agg" 0.63837744370148
"ave" 0.0210904226338062
"laveB" 0.21451229719888
"agg" 0.646197709987771
"ave" 0.0249522511075957
"laveB" 0.240345036830756
"agg" 0.689301658727215
"ave" 0.0298831793794366
"laveB" 0.276936125002948
"agg" 0.473037557316276
"ave" 0.0232412777103726
"laveB" 0.23203319850623
"agg" 0.831940467268369
"ave" 0.0227663148915942
"laveB" 0.342786013654535
"agg" 0.686081602999925
"ave" 0.0181270765689575
"laveB" 0.307511383838031
"agg" 0.696160964734889
"ave" 0.0225677822892738
"laveB" 0.300575978750757
"agg" 0.361564806066811
"ave" 0.0150020800252755
"laveB" 0.18546002454438
"agg" 0.481918805782157
"ave" 0.0172048441014063
"laveB" 0.213314017215341
"agg" 0.358668039956048
"ave" 0.0106056887019774
"laveB" 0.148100356078913
"agg" 0.66625629321001
"ave" 0.0143006288382696
"laveB" 0.236890347598544
"agg" 0.405473162183642
"ave" 0.0140511327770155
"laveB" 0.162880292473018
"agg" 0.649302596466024
"ave" 0.0262363647017516
"laveB" 0.29721818855943
"agg" 0.587255748975728
"ave" 0.0186371059010882
"laveB" 0.250478578645002
"agg" 0.682221758420366
"ave" 0.0219223304421617
"laveB" 0.273961432264471
"agg" 0.574962603806382
"ave" 0.00951525215449322
"laveB" 0.156649633614115
"agg" 0.56096038053146
"ave" 0.00767065371352037
"laveB" 0.134548519240346
"agg" 0.760676450027424
"ave" 0.0221835868573887
"laveB" 0.28435686256429
"agg" 0.670168000697872
"ave" 0.0220287006507645
"laveB" 0.264330772209295
"agg" 0.642729228588909
"ave" 0.0151190716016754
"laveB" 0.21762110341025
"agg" 0.684994970624605
"ave" 0.0144446788130597
"laveB" 0.206036894449521
"agg" 0.53121988227924
"ave" 0.0200343971462399
"laveB" 0.248540979754664
"agg" 0.612040121575963
"ave" 0.020568844660884
"laveB" 0.282620572524927
"agg" 0.412315739659018
"ave" 0.0114029794353662
"laveB" 0.176950418627084
"agg" 0.710555990083323
"ave" 0.0125009051774937
"laveB" 0.217717728471206
"agg" 0.713001858589167
"ave" 0.0149760157216953
"laveB" 0.241887232338406
"agg" 0.661287711376506
"ave" 0.015822026119863
"laveB" 0.252662554959232
"agg" 0.269274675731526
"ave" 0.00704892167251703
"laveB" 0.116221582315841
"agg" 0.523974998115118
"ave" 0.0164169664011473
"laveB" 0.237220766531378
"agg" 0.662057273579997
"ave" 0.0255917840447554
"laveB" 0.293268059172183
"agg" 0.286732565272216
"ave" 0.0138805490975545
"laveB" 0.122529490095148
"agg" 0.454969612894479
"ave" 0.0190770659786751
"laveB" 0.191224237773616
"agg" 0.49506694126027
"ave" 0.0168494966404484
"laveB" 0.211765908927755
"agg" 0.647000354539792
"ave" 0.0160789874740604
"laveB" 0.234347536812995
"agg" 0.442071137835037
"ave" 0.0181836117313822
"laveB" 0.180466382143031
"agg" 0.664584971461048
"ave" 0.0315379967622623
"laveB" 0.316151588113203
"agg" 0.601068087532464
"ave" 0.0223728083619839
"laveB" 0.252250718082807
"agg" 0.581695272220717
"ave" 0.0217570400206664
"laveB" 0.234583585118332
"agg" 0.534396751290168
"ave" 0.0109036732419445
"laveB" 0.1657007381604
"agg" 0.5372208971822
"ave" 0.00842294242451839
"laveB" 0.140119248705562
"agg" 0.687679042158624
"ave" 0.0236558104343537
"laveB" 0.276654833479567
"agg" 0.554995876660587
"ave" 0.022073137409325
"laveB" 0.228726251871126
"agg" 0.662241757571967
"ave" 0.0178293585815471
"laveB" 0.216421426496206
"agg" 0.547621514442916
"ave" 0.0143177650021767
"laveB" 0.173678359472985
"agg" 0.570962021367504
"ave" 0.0252556981737389
"laveB" 0.285268691591884
"agg" 0.579970385320333
"ave" 0.0233135295051257
"laveB" 0.2802673284342
"agg" 0.508543411405788
"ave" 0.0156714653298668
"laveB" 0.207963047585933
"agg" 0.658680735490542
"ave" 0.01383729601591
"laveB" 0.205471900826216
"agg" 0.6984935068527
"ave" 0.0170452400754058
"laveB" 0.229836742818525
"agg" 0.621695663344796
"ave" 0.0174779239099991
"laveB" 0.235945038779933
"agg" 0.396631362260403
"ave" 0.0115551760852939
"laveB" 0.148190225989897
"agg" 0.850078832444359
"ave" 0.0326407688714793
"laveB" 0.400223375665241
"agg" 0.657818930291106
"ave" 0.0320508468794473
"laveB" 0.322665799386172
"agg" 0.665164642274915
"ave" 0.0267472742808708
"laveB" 0.29316981388443
"agg" 0.0785608447076669
"ave" 0.00218529830380736
"laveB" 0.0414735893295683
"agg" 0.583512018423045
"ave" 0.0144234604464069
"laveB" 0.225002846038478
"agg" 0.311607227359448
"ave" 0.0123848271215752
"laveB" 0.141601341417183
"agg" 0.683813248715062
"ave" 0.0325546778634626
"laveB" 0.343735727780923
"agg" 0.564642638340841
"ave" 0.0208702092251934
"laveB" 0.258087333278662
"agg" 0.766651051904505
"ave" 0.0302029548077428
"laveB" 0.322101457207489
"agg" 0.498990198119127
"ave" 0.00924578455379016
"laveB" 0.146242070277378
"agg" 0.438743683257648
"ave" 0.00723110286300954
"laveB" 0.10923345529166
"agg" 0.57333649286824
"ave" 0.0192513688898702
"laveB" 0.236859738835894
"agg" 0.602923633931561
"ave" 0.0225185288989265
"laveB" 0.254793395394588
"agg" 0.345695555561176
"ave" 0.00980876577050455
"laveB" 0.122091387826981
"agg" 0.573901233545571
"ave" 0.0135578908234269
"laveB" 0.192598570549353
"agg" 0.171880131611403
"ave" 0.0077477399881162
"laveB" 0.098020155187413
"agg" 0.300261925411393
"ave" 0.0111797307595745
"laveB" 0.144412834717268
"agg" 0.0710497341084334
"ave" 0.00285300929008045
"laveB" 0.0461047261145468
"agg" 0.592362728457723
"ave" 0.011714675260869
"laveB" 0.200197160440332
"agg" 0.472309083872851
"ave" 0.0118452628263152
"laveB" 0.182116195281951
"agg" 0.432707442646375
"ave" 0.0126982242878712
"laveB" 0.181601082380151
"agg" -0.100749369374255
"ave" -0.00233386556627864
"laveB" -0.0142728010315647
"agg" 0.552790410181306
"ave" 0.033058052049212
"laveB" 0.25803985236384
"agg" 0.63546082974246
"ave" 0.0314196079950212
"laveB" 0.29039354336591
"agg" 0.0368824684052811
"ave" 0.000261695868349132
"laveB" 0.0528441469802422
"agg" 0.560721972977194
"ave" 0.0166387271704795
"laveB" 0.226373380532997
"agg" 0.322992509094214
"ave" 0.0154779024926867
"laveB" 0.169742324799319
"agg" 0.783924973217164
"ave" 0.0465234886617646
"laveB" 0.394141794021646
"agg" 0.536937215374136
"ave" 0.0233813133155045
"laveB" 0.265931810996655
"agg" 0.77263646422212
"ave" 0.0371488114821824
"laveB" 0.329250209166494
"agg" 0.67021151648395
"ave" 0.015786190481612
"laveB" 0.184550761157239
"agg" 0.475072018932176
"ave" 0.00970657886287218
"laveB" 0.101027947611719
"agg" 0.540714177858037
"ave" 0.0217582712596716
"laveB" 0.221219320586989
"agg" 0.535061898188316
"ave" 0.024191175500676
"laveB" 0.20976020862146
"agg" 0.322475448538292
"ave" 0.0111977079705082
"laveB" 0.128380164266412
"agg" 0.572138848695455
"ave" 0.0165308215291027
"laveB" 0.158559044956783
"agg" 0.21902575328666
"ave" 0.0119958811253732
"laveB" 0.133462648766138
"agg" 0.333998445881409
"ave" 0.0158296113801968
"laveB" 0.171373244048629
"agg" 0.0486982520124739
"ave" 0.00225482308558181
"laveB" 0.03731095796815
"agg" 0.597490673744072
"ave" 0.0147578187722823
"laveB" 0.215452057437364
"agg" 0.545583772819227
"ave" 0.0169740525413418
"laveB" 0.22987452924684
"agg" 0.442270224730201
"ave" 0.0157075161289498
"laveB" 0.193640184328614
"agg" -0.122164879582057
"ave" -0.00405931807161732
"laveB" -0.0163328450699559
"agg" 0.436088275171955
"ave" 0.0266986729224204
"laveB" 0.206738902735693
"agg" -0.0364594750212445
"ave" -0.00280786478082796
"laveB" 0.0294055293199678
"agg" 0.355946505890999
"ave" 0.0137400001114531
"laveB" 0.168178541284101
"agg" 0.182007036383684
"ave" 0.0109409465869138
"laveB" 0.103275298773711
"agg" 0.439761912777298
"ave" 0.0322049458074043
"laveB" 0.238940255497437
"agg" 0.378521139942228
"ave" 0.0219557879079061
"laveB" 0.197877280602195
"agg" 0.524411965664983
"ave" 0.0333449853770496
"laveB" 0.242313261441967
"agg" 0.283712308712645
"ave" 0.00859337138705085
"laveB" 0.0720225582147304
"agg" 0.233216640429779
"ave" 0.0065592979379544
"laveB" 0.0483718079861298
"agg" 0.307862069418553
"ave" 0.0173608740486384
"laveB" 0.138664876220363
"agg" 0.408292909185484
"ave" 0.0255048337211224
"laveB" 0.175675761589911
"agg" 0.121948946170343
"ave" 0.00609725328750853
"laveB" 0.0415124491698481
"agg" 0.308775778249924
"ave" 0.0122232012066145
"laveB" 0.105540275097468
"agg" -0.0177510162273444
"ave" 0.00043156995496583
"laveB" 0.00193533795685971
"agg" 0.0236687407563713
"ave" 0.00215329628357213
"laveB" 0.0130890753149193
"agg" -0.0146373294053419
"ave" 0.000313723028437558
"laveB" 0.0451059011525151
"agg" 0.294739553889171
"ave" 0.00933650861190024
"laveB" 0.112639881475266
"agg" 0.201307977721548
"ave" 0.00824781810564406
"laveB" 0.0761193710315524
"agg" 0.171837851811819
"ave" 0.00945684150128869
"laveB" 0.112029488639911
"agg" -0.198439770582269
"ave" -0.00795198589513077
"laveB" -0.0363636622195806
"agg" 0.18820796628677
"ave" 0.00789480551997254
"laveB" 0.0807008548859842
"agg" 0.530263784928975
"ave" 0.0172933669817778
"laveB" 0.192821954080939
"agg" 0.239985834587075
"ave" 0.0121562553129073
"laveB" 0.108677221175994
"agg" 0.521937304219525
"ave" 0.0318806996170379
"laveB" 0.246114955156291
"agg" 0.418162744798641
"ave" 0.0192209238934058
"laveB" 0.175496259635745
"agg" 0.431955968487201
"ave" 0.0218976534824472
"laveB" 0.182471216901138
"agg" 0.291988539391245
"ave" 0.00723567905323685
"laveB" 0.0813795046981272
"agg" 0.207752899045757
"ave" 0.00412794573304636
"laveB" 0.0392830101794478
"agg" 0.315591904513833
"ave" 0.0143321382365274
"laveB" 0.115022214990416
"agg" 0.340995474358214
"ave" 0.0181019184769156
"laveB" 0.150351274305694
"agg" 0.232173239778874
"ave" 0.00905101260552369
"laveB" 0.0904807805499539
"agg" 0.29943204154511
"ave" 0.0105497881247107
"laveB" 0.0975672542580089
"agg" -0.00625287459792316
"ave" 0.00122891440571772
"laveB" 0.0180543996746991
"agg" 0.0473020988317652
"ave" 0.00328823302115664
"laveB" 0.0404324191713891
"agg" 0.0860220442492157
"ave" 0.00439461552308101
"laveB" 0.0385757007502207
"agg" 0.314184897770208
"ave" 0.00856232648339744
"laveB" 0.100677020462508
"agg" 0.331003457625099
"ave" 0.0108855667141352
"laveB" 0.128538527089597
"agg" 0.191834302018496
"ave" 0.00834652025616786
"laveB" 0.0928084952816389
"agg" -0.0512177093223525
"ave" -0.000996590710321671
"laveB" -0.0291730225480476
"agg" 0.545019700494075
"ave" 0.0148498320239433
"laveB" 0.219159864364224
"agg" 0.629631607833887
"ave" 0.0271425510802041
"laveB" 0.306098420482006
"agg" 0.278150331861434
"ave" 0.0127178928252987
"laveB" 0.173389250736311
"agg" 0.591535691577828
"ave" 0.024329385120211
"laveB" 0.263833810296169
"agg" 0.0479098189557375
"ave" 0.00012980585958884
"laveB" 0.00291934304087155
"agg" -0.085445835075801
"ave" -0.000256015071605393
"laveB" 0.0167764605369238
"agg" 0.285730625648873
"ave" 0.00404831499826323
"laveB" 0.0823117174252963
"agg" 0.415329637318788
"ave" 0.0157649015827231
"laveB" 0.170783713715884
"agg" 0.12009379197633
"ave" 0.00741408492722184
"laveB" 0.0904363133545169
"agg" 0.586359152067942
"ave" 0.0152022299596451
"laveB" 0.222199856323893
"agg" 0.0615169063638462
"ave" 0.00406547641673401
"laveB" 0.0549224106138346
"agg" 0.396507078812221
"ave" 0.0179783179634965
"laveB" 0.195557189718048
"agg" 0.265247208235847
"ave" 0.011645630542803
"laveB" 0.14701419637288
"agg" 0.819429800142091
"ave" 0.0251693689857805
"laveB" 0.314197487612722
"agg" 0.362933825759821
"ave" 0.0080239310154987
"laveB" 0.123931187247234
"agg" 0.431854406119043
"ave" 0.0102848795855446
"laveB" 0.128766606375665
"agg" 0.382424472849758
"ave" 0.0106422693054315
"laveB" 0.16439891529815
"agg" 0.796044446451455
"ave" 0.02377246717492
"laveB" 0.318926935150252
"agg" 0.533679588247061
"ave" 0.0169424044952407
"laveB" 0.209724634643911
"agg" 0.60255174554845
"ave" 0.0219997356736724
"laveB" 0.232242229816642
"agg" 0.622643111614289
"ave" 0.0180638386589267
"laveB" 0.217774054346453
"agg" 0.574809631546804
"ave" 0.0166946864343697
"laveB" 0.203242352483297
"agg" 0.358858641226411
"ave" 0.00547083862054925
"laveB" 0.0908221171708867
"agg" 0.565106038372288
"ave" 0.00696190432790654
"laveB" 0.135637981612774
"agg" 0.663534169325362
"ave" 0.0183449433997334
"laveB" 0.22145336910499
"agg" 0.587451247136613
"ave" 0.0187114920682488
"laveB" 0.213987472898434
"agg" 0.656026958732348
"ave" 0.0135916460210077
"laveB" 0.172723782120127
"agg" 0.562871175496766
"ave" 0.0115844675780641
"laveB" 0.169985201214679
"agg" 0.498261884418468
"ave" 0.0173610702463066
"laveB" 0.221835870612055
"agg" 0.457237454089142
"ave" 0.0141327653385454
"laveB" 0.182146104230679
"agg" 0.560230085305172
"ave" 0.0137074754964508
"laveB" 0.194505847537028
"agg" 0.568754997597873
"ave" 0.00908215515563771
"laveB" 0.157172648440195
"agg" 0.669430897307923
"ave" 0.0125359561673441
"laveB" 0.208182703723099
"agg" 0.559412121513626
"ave" 0.0121087249476321
"laveB" 0.188666470334903
"agg" 0.398668581368881
"ave" 0.00922282770195381
"laveB" 0.131309463435566
"agg" 0.576747657155023
"ave" 0.0347929834819897
"laveB" 0.311765555264717
"agg" 0.782091856227741
"ave" 0.0379337760253088
"laveB" 0.374017334274802
"agg" 0.418612802337911
"ave" 0.0200955110932606
"laveB" 0.204287133565691
"agg" 0.236941735334709
"ave" 0.00736252422213142
"laveB" 0.0939347698425075
"agg" 0.344567911744048
"ave" 0.00672638736431921
"laveB" 0.0963750655612574
"agg" 0.505505617080601
"ave" 0.0225583484276329
"laveB" 0.216345603742942
"agg" 0.142598386330599
"ave" 0.00808560462971778
"laveB" 0.068654731806647
"agg" 0.386899948203882
"ave" 0.0124925157562619
"laveB" 0.132746491323191
"agg" 0.124080388483643
"ave" 0.00513890420417878
"laveB" 0.0400039948274093
"agg" 0.30848837676638
"ave" 0.0172056807516677
"laveB" 0.16846793863799
"agg" 0.206079387620352
"ave" 0.0105927974204001
"laveB" 0.108676750238351
"agg" 0.569009318186688
"ave" 0.0207731327596916
"laveB" 0.224129258844294
"agg" 0.411961486952083
"ave" 0.00994299502888901
"laveB" 0.139235797910376
"agg" 0.402248631777147
"ave" 0.0117503202945042
"laveB" 0.127623303715049
"agg" 0.308074595311911
"ave" 0.00967643040500078
"laveB" 0.12603982361978
"agg" 0.517727710729763
"ave" 0.0185639971784273
"laveB" 0.19736030072846
"agg" 0.684981922305612
"ave" 0.0370906931255515
"laveB" 0.339325724039714
"agg" 0.760420635219424
"ave" 0.0447060005539603
"laveB" 0.357078557930388
"agg" 0.611026033531339
"ave" 0.0180624784051756
"laveB" 0.188759872572014
"agg" 0.522627936088208
"ave" 0.0126794562992574
"laveB" 0.126955394467017
"agg" 0.585833098746133
"ave" 0.0297906125160019
"laveB" 0.267246031203943
"agg" 0.486675255895869
"ave" 0.0278489209715765
"laveB" 0.219669213545292
"agg" 0.434626421037321
"ave" 0.0183110283796004
"laveB" 0.174049084395959
"agg" 0.499894629696268
"ave" 0.0185066922604668
"laveB" 0.169306071542522
"agg" 0.259030754174601
"ave" 0.0175479090562763
"laveB" 0.150868473566068
"agg" 0.331389744400868
"ave" 0.0199914034533745
"laveB" 0.17642914415516
"agg" 0.240515551432404
"ave" 0.0103156129900118
"laveB" 0.11318013878239
"agg" 0.597130832300503
"ave" 0.0177889887143009
"laveB" 0.222012909250228
"agg" 0.506502760698576
"ave" 0.0184959330908002
"laveB" 0.215242471422166
"agg" 0.417163945656401
"ave" 0.0174230209166797
"laveB" 0.175865344727818
"agg" 0.102260168057507
"ave" 0.00419317277882548
"laveB" 0.078737518314131
"agg" 0.658875789800897
"ave" 0.0294157335143424
"laveB" 0.287401969646042
"agg" 0.372848189398432
"ave" 0.00944334223033392
"laveB" 0.14261264182583
"agg" 0.425285662821106
"ave" 0.00787713678373287
"laveB" 0.106226581286963
"agg" 0.66678376435119
"ave" 0.0281923876371471
"laveB" 0.276466178376145
"agg" 0.297706985036113
"ave" 0.0148915928312784
"laveB" 0.119837849784739
"agg" 0.430709317591593
"ave" 0.0140308682906407
"laveB" 0.158843210154342
"agg" 0.272947008913277
"ave" 0.00889049736517214
"laveB" 0.0834786862173541
"agg" 0.216679899245985
"ave" 0.0113491236398381
"laveB" 0.118032800195018
"agg" 0.249912383154957
"ave" 0.011554883517935
"laveB" 0.117128858332291
"agg" 0.483140174796314
"ave" 0.0173944220287388
"laveB" 0.201532530420676
"agg" 0.581433733227472
"ave" 0.0137099086093038
"laveB" 0.184663821607856
"agg" 0.500825071843233
"ave" 0.01400988875721
"laveB" 0.174423982434408
"agg" 0.421804625990999
"ave" 0.0137237074102223
"laveB" 0.183240490596114
"agg" 0.389615303241689
"ave" 0.0139802551169716
"laveB" 0.178197838231879
"agg" 0.705104164473138
"ave" 0.0159668860081439
"laveB" 0.17491314963244
"agg" 0.627196338396646
"ave" 0.0128797004473712
"laveB" 0.154068718352078
"agg" 0.708992859118008
"ave" 0.0288257394444952
"laveB" 0.284537444337192
"agg" 0.675393139081678
"ave" 0.0306904326157462
"laveB" 0.243245257230982
"agg" 0.341668921508847
"ave" 0.0121603969071343
"laveB" 0.121841301802967
"agg" 0.678583599427167
"ave" 0.019407479294603
"laveB" 0.180082958047372
"agg" 0.299538269205342
"ave" 0.015580511888996
"laveB" 0.156557006282391
"agg" 0.473666309109874
"ave" 0.0218930438430708
"laveB" 0.213157140235378
"agg" 0.0839869782633936
"ave" 0.0029706711861113
"laveB" 0.0304528534944855
"agg" 0.624583579465759
"ave" 0.0148949433397658
"laveB" 0.197257931308921
"agg" 0.517819250758239
"ave" 0.0154217690803241
"laveB" 0.182561327743029
"agg" 0.51631669030998
"ave" 0.017604589140021
"laveB" 0.195623065694565
"agg" -0.0318878980509717
"ave" -0.00135253141847666
"laveB" 0.0214012215631688
"agg" 0.583120457674279
"ave" 0.00632366260079194
"laveB" 0.0946687400703888
"agg" 0.567091193672816
"ave" 0.0122255315739911
"laveB" 0.181288872790421
"agg" 0.463494956035717
"ave" 0.009511520028759
"laveB" 0.116063901420604
"agg" 0.312086641956043
"ave" 0.00611239256467317
"laveB" 0.0810374175975744
"agg" 0.528960039984635
"ave" 0.006697886967908
"laveB" 0.0890299201927238
"agg" 0.317780418528647
"ave" 0.00919942169254353
"laveB" 0.115895334909259
"agg" 0.464283034154735
"ave" 0.0110902986420487
"laveB" 0.154130893345695
"agg" -0.0570054453253576
"ave" 0.00053881672442732
"laveB" 0.00896493229458308
"agg" 0.482529040484773
"ave" 0.00611390124167082
"laveB" 0.0972227158900372
"agg" 0.459449543039524
"ave" 0.00743686792786503
"laveB" 0.125820238193742
"agg" 0.435520829097813
"ave" 0.0075732558023983
"laveB" 0.125912744622099
"agg" -0.135950225169527
"ave" -0.00101023439316951
"laveB" -0.00343585148833825
"agg" 0.682886191775864
"ave" 0.0118676111088657
"laveB" 0.173855204765553
"agg" 0.624544172849493
"ave" 0.0116799716489588
"laveB" 0.133177128089994
"agg" 0.522346669995348
"ave" 0.00674172434804001
"laveB" 0.124243758332975
"agg" 0.629929029604801
"ave" 0.00759284761829958
"laveB" 0.106257964529463
"agg" 0.485801278776026
"ave" 0.0109354216390283
"laveB" 0.153832902308168
"agg" 0.50692627079362
"ave" 0.0105027875749121
"laveB" 0.143807312217635
"agg" 0.291381410322152
"ave" 0.00398673446799713
"laveB" 0.0685168032790495
"agg" 0.495324159685801
"ave" 0.00498249783265461
"laveB" 0.0882322637439451
"agg" 0.460210154403769
"ave" 0.00545864382309652
"laveB" 0.0927045437956587
"agg" 0.491890240484353
"ave" 0.00698227025677045
"laveB" 0.108949786552975
"agg" 0.22878502786817
"ave" 0.00294397525013948
"laveB" 0.0671586482391967
"agg" 0.729660334409117
"ave" 0.03062671134272
"laveB" 0.259310859741772
"agg" 0.750310833668378
"ave" 0.0220465562884879
"laveB" 0.224922448578058
"agg" 0.685827126262477
"ave" 0.0183641634701708
"laveB" 0.186246586772449
"agg" 0.570821513222985
"ave" 0.0271975549485761
"laveB" 0.254968200755004
"agg" 0.634116984948164
"ave" 0.0268136003045349
"laveB" 0.267396688813815
"agg" 0.498759326493165
"ave" 0.0171246337945175
"laveB" 0.172201347318771
"agg" 0.666805500322656
"ave" 0.0146847341623183
"laveB" 0.192409346202995
"agg" 0.657108565343916
"ave" 0.0171593829938186
"laveB" 0.208719615557469
"agg" 0.638598588585946
"ave" 0.0192734101373876
"laveB" 0.229278340883397
"agg" 0.368554399587237
"ave" 0.0119553956183881
"laveB" 0.140718364251516
"agg" 0.634795284935444
"ave" 0.021575642503422
"laveB" 0.199691599450429
"agg" 0.90858190343358
"ave" 0.0258042826607905
"laveB" 0.261274418412333
"agg" 0.557347318830973
"ave" 0.0293106217886303
"laveB" 0.250167002342477
"agg" 0.633659456193108
"ave" 0.0286183397877736
"laveB" 0.259566841928478
"agg" 0.248733423615611
"ave" 0.0120907989272246
"laveB" 0.130925280737917
"agg" 0.523281643862816
"ave" 0.012979865913102
"laveB" 0.164901777004905
"agg" 0.575772338680795
"ave" 0.0170542378275217
"laveB" 0.191932846514989
"agg" 0.601598563172536
"ave" 0.020419565401094
"laveB" 0.222202478238277
"agg" 0.112623266717149
"ave" 0.00563398672665566
"laveB" 0.0768647098140869
"agg" 0.642605106183602
"ave" 0.0143715036049455
"laveB" 0.164915768134295
"agg" 0.731872498750702
"ave" 0.0256248734316058
"laveB" 0.276479525115646
"agg" 0.713041005078484
"ave" 0.0237238250743449
"laveB" 0.264512664540097
"agg" 0.672193452531522
"ave" 0.0157101679042181
"laveB" 0.193321458793352
"agg" 0.592382930880068
"ave" 0.0105349774768646
"laveB" 0.1502327016076
"agg" 0.704572526507597
"ave" 0.0139217296195319
"laveB" 0.176833861104753
"agg" 0.696834829941461
"ave" 0.0160131772503546
"laveB" 0.199127343825756
"agg" 0.579100326198466
"ave" 0.0123948381234139
"laveB" 0.162845977732583
"agg" 0.600216758237368
"ave" 0.0208815267812391
"laveB" 0.214390665461097
"agg" 0.740077030139364
"ave" 0.0218010726567291
"laveB" 0.235624102329749
"agg" 0.198502093948619
"ave" 0.00761560093602506
"laveB" 0.0795584161967082
"agg" 0.620744914071622
"ave" 0.00999327385487913
"laveB" 0.145511024259203
"agg" 0.662965749587148
"ave" 0.0130341458560421
"laveB" 0.172648155412398
"agg" 0.710637766753797
"ave" 0.01565020409092
"laveB" 0.213787959958877
"agg" 0.083440605475324
"ave" 0.00401862473069466
"laveB" 0.0455186070616048
"agg" 0.860858834794431
"ave" 0.0469602543906582
"laveB" 0.475777803808231
"agg" 0.656779963321979
"ave" 0.0270129437530569
"laveB" 0.306444958697373
"agg" 0.523360343586936
"ave" 0.0146902587079868
"laveB" 0.198742109496109
"agg" 0.696504316691688
"ave" 0.0229388834779109
"laveB" 0.256911195600302
"agg" 0.732481851174654
"ave" 0.027313679759647
"laveB" 0.32704065349511
"agg" 0.591830727433588
"ave" 0.022371744238429
"laveB" 0.258816904527523
"agg" 0.46553802316083
"ave" 0.0183345529489301
"laveB" 0.221992989595832
"agg" 0.701715267366459
"ave" 0.0179211817166207
"laveB" 0.249309433005621
"agg" 0.765036138242392
"ave" 0.023470454711426
"laveB" 0.290311662937893
"agg" 0.858149359022531
"ave" 0.0289840580172758
"laveB" 0.365324605095335
"agg" 0.406750639772867
"ave" 0.0148022805769908
"laveB" 0.204291491432364
"agg" 0.434085923422827
"ave" 0.00875539895407479
"laveB" 0.145007548908997
"agg" 0.561403488451956
"ave" 0.0126282721751342
"laveB" 0.166152729988344
"agg" 0.554099093952654
"ave" 0.0147049849563149
"laveB" 0.190871984859964
"agg" 0.92126299682789
"ave" 0.0234057430909368
"laveB" 0.307481514977931
"agg" 0.784704390085518
"ave" 0.0128915190372121
"laveB" 0.219025516767449
"agg" 0.810563561023281
"ave" 0.014847000380476
"laveB" 0.235106690056003
"agg" 0.361128386347788
"ave" 0.00695230247579556
"laveB" 0.124519446053328
"agg" 0.881270426487063
"ave" 0.0192964997977554
"laveB" 0.267789958714589
"agg" 0.432190951914309
"ave" 0.00881666659633351
"laveB" 0.122115880920673
"agg" 0.472071204199329
"ave" 0.0113930637742951
"laveB" 0.180695770522571
