"EST" "CORR"
"agg" 0.931425023031778
"ave" 0.0705559613090731
"laveB" 0.475056849531033
"agg" 0.804541256966051
"ave" 0.0663538664687472
"laveB" 0.377528265057999
"agg" 0.731588291002264
"ave" 0.0590095839822411
"laveB" 0.32433283596511
"agg" 0.826707849430397
"ave" 0.0329629624127484
"laveB" 0.260937714913716
"agg" 0.861795063872862
"ave" 0.0313863411922924
"laveB" 0.279511622616305
"agg" 0.55928622379834
"ave" 0.0432154864448631
"laveB" 0.292521461825032
"agg" 0.596147954319815
"ave" 0.0439628679722457
"laveB" 0.312684803428141
"agg" 0.67276949786821
"ave" 0.0408084024766784
"laveB" 0.302002733727906
"agg" 0.719559121108928
"ave" 0.0495385744379826
"laveB" 0.329663265571625
"agg" 0.222130997523961
"ave" 0.0145969505615141
"laveB" 0.104131224860712
"agg" 0.126906876709681
"ave" 0.00754167016141491
"laveB" 0.0448997163016674
"agg" 0.551357719437787
"ave" 0.0351980084803709
"laveB" 0.277497891340298
"agg" 0.521818142092928
"ave" 0.0374970832820871
"laveB" 0.243629411749505
"agg" 0.264280203450601
"ave" 0.0226584953320762
"laveB" 0.162591521492584
"agg" 0.11531176385191
"ave" 0.0124748237307062
"laveB" 0.0614440819574657
"agg" 0.508618216690954
"ave" 0.0300284261583755
"laveB" 0.214580209895247
"agg" 0.412422312288047
"ave" 0.0204091479260213
"laveB" 0.172753091454697
"agg" 0.558309283040077
"ave" 0.0350294206861887
"laveB" 0.279063358356919
"agg" 0.53653706463751
"ave" 0.0288288946318127
"laveB" 0.239678064885306
"agg" 0.288023092927113
"ave" 0.00999052766786343
"laveB" 0.111937918794012
"agg" 0.187914212195305
"ave" 0.00688641587683796
"laveB" 0.0822770858239506
"agg" 0.365989695396186
"ave" 0.0112995765621609
"laveB" 0.155714305217647
"agg" 0.286152687187929
"ave" 0.0111560116575462
"laveB" 0.117060936030501
"agg" 0.295155348797929
"ave" 0.0192640901847673
"laveB" 0.173475275316715
"agg" 0.119957546775646
"ave" 0.00783268594531137
"laveB" 0.0540015214202669
"agg" 0.227182635529134
"ave" 0.00864170349168173
"laveB" 0.0990714788028141
"agg" 0.3195274686499
"ave" 0.0120051312941332
"laveB" 0.134686768375743
"agg" 0.50591045381088
"ave" 0.0302019007573591
"laveB" 0.219926519102289
"agg" 0.501467710690655
"ave" 0.0309314954578687
"laveB" 0.238666068674297
"agg" 0.558281996026901
"ave" 0.0322862872604492
"laveB" 0.277113323878776
"agg" 0.568453138596428
"ave" 0.0365348529006083
"laveB" 0.278403218722256
"agg" 0.520210286157929
"ave" 0.0161561000890074
"laveB" 0.165462818383749
"agg" 0.542715226519972
"ave" 0.0227954889775468
"laveB" 0.230267662795699
"agg" 0.620979854948462
"ave" 0.0386264749821251
"laveB" 0.286600731980778
"agg" 0.542380116799015
"ave" 0.0313303239163588
"laveB" 0.190040156068642
"agg" 0.538752147034047
"ave" 0.0165843576375983
"laveB" 0.14610769470812
"agg" 0.438008653897776
"ave" 0.0152156295831828
"laveB" 0.116323615121568
"agg" 0.112239878173741
"ave" 0.00505080353966378
"laveB" 0.0309521840481924
"agg" 0.208435210530615
"ave" 0.010372074958526
"laveB" 0.0822086479074158
"agg" 0.343823329298648
"ave" 0.0112382997463533
"laveB" 0.132110455925612
"agg" 0.521435072914137
"ave" 0.0155587401899382
"laveB" 0.173204522261097
"agg" 0.447064930186795
"ave" 0.0167365947335364
"laveB" 0.184031996890602
"agg" 0.494987655921766
"ave" 0.0164659730459454
"laveB" 0.182574272672303
"agg" 0.686585263167095
"ave" 0.020893038236866
"laveB" 0.242351653179914
"agg" 0.845725334682752
"ave" 0.0752253316045634
"laveB" 0.390163866972731
"agg" 0.789498028354205
"ave" 0.0682052938568968
"laveB" 0.356335640020539
"agg" 0.738933921342963
"ave" 0.0319746459609927
"laveB" 0.243058828400293
"agg" 0.870247741707624
"ave" 0.0342164212277282
"laveB" 0.291486588658809
"agg" 0.557601906346504
"ave" 0.0455921951238711
"laveB" 0.306013284850589
"agg" 0.557498669465101
"ave" 0.0431505101236556
"laveB" 0.295005716791089
"agg" 0.703451885400208
"ave" 0.0451637564517609
"laveB" 0.296922929304606
"agg" 0.707548500416767
"ave" 0.0515973378751358
"laveB" 0.325798327118052
"agg" 0.365177898721731
"ave" 0.0286099568824274
"laveB" 0.160897195662407
"agg" 0.249485794155382
"ave" 0.0192278815194079
"laveB" 0.108683476501525
"agg" 0.581694692309904
"ave" 0.0398226795670188
"laveB" 0.302070633168518
"agg" 0.57292365724473
"ave" 0.0439781929074148
"laveB" 0.283854151578646
"agg" 0.350644176034592
"ave" 0.0342310908503335
"laveB" 0.202306963484947
"agg" 0.265410126255355
"ave" 0.0310000639608854
"laveB" 0.149222558439027
"agg" 0.610950397534325
"ave" 0.0392781965793739
"laveB" 0.286862320131266
"agg" 0.560154403796992
"ave" 0.0306976622586653
"laveB" 0.22829897380205
"agg" 0.560161660484542
"ave" 0.0373986622528399
"laveB" 0.289886508565484
"agg" 0.48981998182548
"ave" 0.0264908932020972
"laveB" 0.232641650994057
"agg" 0.446280725278908
"ave" 0.0181965772824822
"laveB" 0.180140883868965
"agg" 0.319345781667928
"ave" 0.0130196998513618
"laveB" 0.128867980308054
"agg" 0.469610518414187
"ave" 0.0164556684243556
"laveB" 0.195806771021277
"agg" 0.403345826313594
"ave" 0.0174508444723565
"laveB" 0.16462259872129
"agg" 0.267913579555919
"ave" 0.0190306752375824
"laveB" 0.15641503665357
"agg" 0.166029882806461
"ave" 0.0110338085448365
"laveB" 0.0791013989405869
"agg" 0.393123510523074
"ave" 0.0162143076969533
"laveB" 0.162710596626281
"agg" 0.463769406529116
"ave" 0.0191541900242815
"laveB" 0.192257547568606
"agg" 0.515707005022161
"ave" 0.0319704147365014
"laveB" 0.242755807195676
"agg" 0.53890041037199
"ave" 0.0357590250568337
"laveB" 0.266215706785141
"agg" 0.509397147201798
"ave" 0.0305368911434054
"laveB" 0.237774410222125
"agg" 0.571277060038659
"ave" 0.038207338597961
"laveB" 0.265490279157817
"agg" 0.448578584950845
"ave" 0.014917759063063
"laveB" 0.138124001354109
"agg" 0.532544407221574
"ave" 0.0239807897410822
"laveB" 0.224073749139445
"agg" 0.605388926653429
"ave" 0.0399816594248363
"laveB" 0.273401698524795
"agg" 0.605639377902448
"ave" 0.037731321499678
"laveB" 0.249884443989687
"agg" 0.602764347616054
"ave" 0.0208261095166871
"laveB" 0.167502608662141
"agg" 0.524350045743874
"ave" 0.0196220082403896
"laveB" 0.157143129433426
"agg" 0.282744188782147
"ave" 0.018852913166156
"laveB" 0.130320856110572
"agg" 0.35343370465969
"ave" 0.0209544587564009
"laveB" 0.177716905998278
"agg" 0.460141138290588
"ave" 0.0173556439671915
"laveB" 0.168112210465197
"agg" 0.634399089933538
"ave" 0.0212863521583572
"laveB" 0.212545781974519
"agg" 0.584779957700326
"ave" 0.0232736835857715
"laveB" 0.237347211911643
"agg" 0.627909732794093
"ave" 0.0226692813954353
"laveB" 0.224143076644905
"agg" 0.782900246548669
"ave" 0.0262535841099448
"laveB" 0.284673543459035
"agg" 0.920875940737682
"ave" 0.0826326114450441
"laveB" 0.363820979977397
"agg" 0.730554546422577
"ave" 0.0359711821600907
"laveB" 0.220622102076901
"agg" 0.798276664043381
"ave" 0.0343029531750916
"laveB" 0.220572495711142
"agg" 0.516342635862938
"ave" 0.0458515481527001
"laveB" 0.258438225683538
"agg" 0.514606385952653
"ave" 0.0430422458471584
"laveB" 0.24243915065373
"agg" 0.850152541300188
"ave" 0.0589804591646639
"laveB" 0.333807763379403
"agg" 0.826407956490483
"ave" 0.0638175394398763
"laveB" 0.344396400242177
"agg" 0.398550697193811
"ave" 0.0332312947539163
"laveB" 0.15697000574024
"agg" 0.348874159811807
"ave" 0.0276852331392127
"laveB" 0.148832737460704
"agg" 0.458333581964878
"ave" 0.0354232336901507
"laveB" 0.217267542986869
"agg" 0.516862968840769
"ave" 0.0442465508336108
"laveB" 0.233114089796896
"agg" 0.364362676805554
"ave" 0.0392620233309229
"laveB" 0.184042270081402
"agg" 0.328838256329887
"ave" 0.0397413939064454
"laveB" 0.157641474863149
"agg" 0.65292145733941
"ave" 0.0460944601403746
"laveB" 0.255823943767574
"agg" 0.597186299711447
"ave" 0.0359311174559669
"laveB" 0.214629304966151
"agg" 0.50134977470916
"ave" 0.0362581435197583
"laveB" 0.224641582065424
"agg" 0.445946811157067
"ave" 0.0259007747120816
"laveB" 0.179661538896029
"agg" 0.465704856361221
"ave" 0.0203994938640551
"laveB" 0.160852244492602
"agg" 0.290680696549854
"ave" 0.0129167746647321
"laveB" 0.0953095725431516
"agg" 0.387511119881188
"ave" 0.0143514754711642
"laveB" 0.13995670320418
"agg" 0.298859169327969
"ave" 0.0139343929863609
"laveB" 0.108134557363833
"agg" 0.152687603025108
"ave" 0.0131362534679412
"laveB" 0.0935564766060561
"agg" 0.147976548957721
"ave" 0.0104246340556963
"laveB" 0.063720091261747
"agg" 0.47872020533257
"ave" 0.02141206970709
"laveB" 0.171841684284701
"agg" 0.430189976382801
"ave" 0.0194293358983824
"laveB" 0.159448838919617
"agg" 0.360809088439299
"ave" 0.0252515723009305
"laveB" 0.123665527634448
"agg" 0.337409612341603
"ave" 0.0248835564680571
"laveB" 0.145660751221417
"agg" 0.424358005734772
"ave" 0.0281631127051986
"laveB" 0.178215621477153
"agg" 0.435546459506161
"ave" 0.0317847475665585
"laveB" 0.193318661697574
"agg" 0.312956609315307
"ave" 0.0129661484246417
"laveB" 0.104617612767695
"agg" 0.462885203541948
"ave" 0.0226418145065893
"laveB" 0.176052699326821
"agg" 0.571683216684281
"ave" 0.0422093078168066
"laveB" 0.233844466206356
"agg" 0.594956870981938
"ave" 0.0399907094921661
"laveB" 0.219241513374037
"agg" 0.659281487257938
"ave" 0.0261293867554406
"laveB" 0.174566619855774
"agg" 0.62091882370573
"ave" 0.0252735370461866
"laveB" 0.155658351790247
"agg" 0.500317947427936
"ave" 0.0335576482819915
"laveB" 0.207685492992293
"agg" 0.552010165669355
"ave" 0.0335888312090171
"laveB" 0.25490374256891
"agg" 0.629148985855487
"ave" 0.02479077529299
"laveB" 0.216946352458797
"agg" 0.696922858661431
"ave" 0.0251939710234764
"laveB" 0.22742843557505
"agg" 0.720650673874405
"ave" 0.03027137107528
"laveB" 0.254942361274527
"agg" 0.732313507624812
"ave" 0.02789104155387
"laveB" 0.232053728050764
"agg" 0.78558379414654
"ave" 0.0293919043343564
"laveB" 0.258542122778417
"agg" 0.671264691665347
"ave" 0.0320063260200522
"laveB" 0.18601483658494
"agg" 0.750627379062894
"ave" 0.0318941598476037
"laveB" 0.209301393759616
"agg" 0.499409151586623
"ave" 0.042390168954991
"laveB" 0.221620704015241
"agg" 0.525114295394896
"ave" 0.0429062047811075
"laveB" 0.237709167870845
"agg" 0.823324064289299
"ave" 0.0556907890980558
"laveB" 0.31099713661708
"agg" 0.822817100517389
"ave" 0.0596616851555841
"laveB" 0.311135256367631
"agg" 0.40233439732202
"ave" 0.0326440094145906
"laveB" 0.16364692801922
"agg" 0.42363584556531
"ave" 0.0343779136921724
"laveB" 0.187643459826714
"agg" 0.446305504706737
"ave" 0.0343641752775107
"laveB" 0.213447223879899
"agg" 0.535429947997364
"ave" 0.0470158436324663
"laveB" 0.246419118165426
"agg" 0.291145290245343
"ave" 0.0312574419204115
"laveB" 0.156222091824714
"agg" 0.325401447080464
"ave" 0.0403517498178775
"laveB" 0.185869914285975
"agg" 0.523103131435107
"ave" 0.035531924488621
"laveB" 0.227824410913389
"agg" 0.466266152746465
"ave" 0.0274172275861162
"laveB" 0.178831598968847
"agg" 0.546834240430307
"ave" 0.0390453527389007
"laveB" 0.24679595154673
"agg" 0.476895421328794
"ave" 0.0282585463696954
"laveB" 0.204470386724385
"agg" 0.491382546108225
"ave" 0.0208032712513173
"laveB" 0.189439375999868
"agg" 0.357800270461855
"ave" 0.0167042225438091
"laveB" 0.13896778956492
"agg" 0.457914703167914
"ave" 0.0172723507262654
"laveB" 0.17414699874538
"agg" 0.379931560359833
"ave" 0.0186525641705837
"laveB" 0.161245821492005
"agg" 0.174723297044079
"ave" 0.0159518976547594
"laveB" 0.0878535043470003
"agg" 0.149811778477935
"ave" 0.0100322505422503
"laveB" 0.054665240940641
"agg" 0.404343613082812
"ave" 0.0166048611805313
"laveB" 0.140820622980628
"agg" 0.456570085490172
"ave" 0.0207128083329422
"laveB" 0.176200806032114
"agg" 0.346576490636019
"ave" 0.0252784872151774
"laveB" 0.131840484371663
"agg" 0.36394377720426
"ave" 0.0280349566611932
"laveB" 0.160889653161279
"agg" 0.412695939541132
"ave" 0.0272263551819825
"laveB" 0.168868064278136
"agg" 0.422904022114863
"ave" 0.0322891117006563
"laveB" 0.192474860594211
"agg" 0.337095572885233
"ave" 0.0139670370009111
"laveB" 0.0922746071510341
"agg" 0.406867124684784
"ave" 0.0203295798595205
"laveB" 0.15663600100918
"agg" 0.508834444553433
"ave" 0.0368884958929592
"laveB" 0.204059860487909
"agg" 0.536193123699333
"ave" 0.0367011837184243
"laveB" 0.208158182980916
"agg" 0.586387363181938
"ave" 0.0221623798789451
"laveB" 0.15788273560965
"agg" 0.69085588406885
"ave" 0.0282888284801714
"laveB" 0.185040738205034
"agg" 0.500565861862169
"ave" 0.0313841132342491
"laveB" 0.221583478659198
"agg" 0.533313599245642
"ave" 0.0307784999545749
"laveB" 0.236268133006035
"agg" 0.58754632163893
"ave" 0.0211447174737803
"laveB" 0.194541496957063
"agg" 0.682071535925971
"ave" 0.0238265118402036
"laveB" 0.21809852804735
"agg" 0.652178567078783
"ave" 0.0264393273961186
"laveB" 0.234100086515322
"agg" 0.657082098310357
"ave" 0.0242053413983929
"laveB" 0.215279333173612
"agg" 0.738290359171926
"ave" 0.0257745548357065
"laveB" 0.235499905808163
"agg" 0.841503730603615
"ave" 0.0172944011395053
"laveB" 0.165005238042394
"agg" 0.527702428288663
"ave" 0.0225161987839247
"laveB" 0.180799734602825
"agg" 0.599778543788899
"ave" 0.0234540886284142
"laveB" 0.197360125706791
"agg" 0.699932434765843
"ave" 0.0251605092526812
"laveB" 0.20824230365228
"agg" 0.686799828055654
"ave" 0.0276388489613314
"laveB" 0.207756771468596
"agg" 0.251163078367627
"ave" 0.0103680213801171
"laveB" 0.0785922141898231
"agg" 0.152286221298078
"ave" 0.00583562809360982
"laveB" 0.0303306866685992
"agg" 0.50813152773156
"ave" 0.0178105895913153
"laveB" 0.141716614019549
"agg" 0.524106916454019
"ave" 0.0203104353976019
"laveB" 0.15068122504281
"agg" 0.313612473943568
"ave" 0.0173974576656432
"laveB" 0.139146673055866
"agg" 0.169427644138421
"ave" 0.0114583832854623
"laveB" 0.0679021899756076
"agg" 0.480367905060211
"ave" 0.0172848443279492
"laveB" 0.146177102278048
"agg" 0.364610044541055
"ave" 0.0119604425529608
"laveB" 0.10314623828406
"agg" 0.564155103681027
"ave" 0.0181676986959559
"laveB" 0.163918425373781
"agg" 0.551620960321359
"ave" 0.0143728173630893
"laveB" 0.138676001311233
"agg" 0.241306280886013
"ave" 0.00522111720718176
"laveB" 0.0528242598086767
"agg" 0.184656413856426
"ave" 0.00318062137658902
"laveB" 0.0311384515886737
"agg" 0.299386318733924
"ave" 0.00502422394913405
"laveB" 0.0661595908324873
"agg" 0.198993445955961
"ave" 0.00371010004109615
"laveB" 0.0285888365759659
"agg" 0.278117479704151
"ave" 0.00890149703101127
"laveB" 0.0890777432135581
"agg" 0.10398487991069
"ave" 0.00358365965759498
"laveB" 0.017257521776689
"agg" 0.165347541730106
"ave" 0.00468299996274723
"laveB" 0.0622692426690431
"agg" 0.288588359483071
"ave" 0.00590988350433988
"laveB" 0.0703388767538373
"agg" 0.546122212948992
"ave" 0.0163546007958239
"laveB" 0.115394394062538
"agg" 0.470450347244204
"ave" 0.0141844834454538
"laveB" 0.107456687773864
"agg" 0.572899448805294
"ave" 0.0174531585371994
"laveB" 0.189348305056361
"agg" 0.594952641260064
"ave" 0.0199900874175936
"laveB" 0.159955073541401
"agg" 0.579714050174167
"ave" 0.00887334345994913
"laveB" 0.107659745066097
"agg" 0.551561042737035
"ave" 0.0130613389585762
"laveB" 0.145723892341046
"agg" 0.673766547814107
"ave" 0.0234496271296277
"laveB" 0.196793734950871
"agg" 0.59159498378966
"ave" 0.0200866993086858
"laveB" 0.148320645265886
"agg" 0.617820774367898
"ave" 0.0115312562281011
"laveB" 0.117320064630276
"agg" 0.511077682505892
"ave" 0.0102270392750971
"laveB" 0.0841599365305999
"agg" 0.0468203808003476
"ave" 0.00321314746160055
"laveB" 0.0258209384777284
"agg" 0.186283319336327
"ave" 0.00689048643858529
"laveB" 0.0786823816837094
"agg" 0.342338151866551
"ave" 0.00774075615326321
"laveB" 0.11599310528831
"agg" 0.449744626796273
"ave" 0.00795667540816356
"laveB" 0.106774982742225
"agg" 0.378774514276674
"ave" 0.00912626756588254
"laveB" 0.119713420162947
"agg" 0.455417182782106
"ave" 0.0092347410140986
"laveB" 0.118075342329607
"agg" 0.618873264392929
"ave" 0.0113558434156889
"laveB" 0.146852918929034
"agg" 0.481509598120553
"ave" 0.0184746301886493
"laveB" 0.14382301080432
"agg" 0.518784549757575
"ave" 0.0190778378847034
"laveB" 0.161136469851412
"agg" 0.721995154209823
"ave" 0.0226446976889188
"laveB" 0.161623280793725
"agg" 0.758816012646019
"ave" 0.0268296265804841
"laveB" 0.206675867895225
"agg" 0.31698420602357
"ave" 0.0116136208493693
"laveB" 0.0892951307125217
"agg" 0.275141552794244
"ave" 0.0102879545216783
"laveB" 0.0697061636817674
"agg" 0.513053057033092
"ave" 0.0169002910992468
"laveB" 0.146465604074059
"agg" 0.527020338036402
"ave" 0.0200694971971064
"laveB" 0.146670214673697
"agg" 0.327612991952325
"ave" 0.015143143365002
"laveB" 0.147472767670302
"agg" 0.258346144871266
"ave" 0.0147912203756803
"laveB" 0.0898747392976394
"agg" 0.504468727867892
"ave" 0.0157260344912698
"laveB" 0.149985769593115
"agg" 0.43900799007281
"ave" 0.0121180069044766
"laveB" 0.117429168619759
"agg" 0.524459396286583
"ave" 0.016599727026458
"laveB" 0.169092717643413
"agg" 0.519612526623364
"ave" 0.0134096299956723
"laveB" 0.145748359924611
"agg" 0.395809987202474
"ave" 0.007683032317673
"laveB" 0.09758805554421
"agg" 0.305923326957821
"ave" 0.00611548440377471
"laveB" 0.0819012544330511
"agg" 0.455794389751313
"ave" 0.0075499324782795
"laveB" 0.114179676550986
"agg" 0.347093609801489
"ave" 0.00738390647804767
"laveB" 0.0876196318683737
"agg" 0.311945560521003
"ave" 0.0103354230134551
"laveB" 0.108187417385905
"agg" 0.159798973161516
"ave" 0.00494097294809037
"laveB" 0.0458043664489544
"agg" 0.294247141627248
"ave" 0.00588658823081926
"laveB" 0.0732327082939256
"agg" 0.381561459393507
"ave" 0.00784012690764537
"laveB" 0.0988714576828365
"agg" 0.546508995305679
"ave" 0.0163241060123126
"laveB" 0.167636000617356
"agg" 0.488818003564487
"ave" 0.0154630601346989
"laveB" 0.151491215967264
"agg" 0.52918182951172
"ave" 0.0147897141501974
"laveB" 0.155232376446043
"agg" 0.585042724173297
"ave" 0.018316491938702
"laveB" 0.180222435289586
"agg" 0.47903238710824
"ave" 0.00766767724676343
"laveB" 0.101266312569581
"agg" 0.577289587564106
"ave" 0.0124321715400184
"laveB" 0.149609154634463
"agg" 0.638767241792241
"ave" 0.0201255190193831
"laveB" 0.185346254798333
"agg" 0.611401943611418
"ave" 0.018244361002483
"laveB" 0.163633011335216
"agg" 0.638584965812473
"ave" 0.0107692004666361
"laveB" 0.119666956428566
"agg" 0.535004468441839
"ave" 0.00989415107148954
"laveB" 0.0942692508732316
"agg" 0.244293188460901
"ave" 0.00779581292720045
"laveB" 0.0691980636102894
"agg" 0.304810629433374
"ave" 0.00873392517603853
"laveB" 0.0719981385770764
"agg" 0.439878630011913
"ave" 0.00792964448164406
"laveB" 0.0911451577300473
"agg" 0.583089389201081
"ave" 0.00946058470730688
"laveB" 0.125969950595747
"agg" 0.533831378315375
"ave" 0.0104095391864305
"laveB" 0.12190982541179
"agg" 0.550496363174711
"ave" 0.00947722833667562
"laveB" 0.13323240789976
"agg" 0.718115623438561
"ave" 0.0116339226107654
"laveB" 0.145412843737733
"agg" 0.924598216946472
"ave" 0.0693676410341065
"laveB" 0.483603251230485
"agg" 0.518830839415943
"ave" 0.036651067530257
"laveB" 0.260923534648767
"agg" 0.542754049357143
"ave" 0.0431137280476371
"laveB" 0.295128187193116
"agg" 0.246171358366924
"ave" 0.0188601144119806
"laveB" 0.114671295452076
"agg" 0.00199622721059101
"ave" -0.0013072207553931
"laveB" -0.00618213514157437
"agg" 0.76193960797439
"ave" 0.052614546178742
"laveB" 0.402363530671142
"agg" 0.63272119823902
"ave" 0.0474447330165726
"laveB" 0.313780194620255
"agg" 0.254340749063698
"ave" 0.0240685357368986
"laveB" 0.175800259989701
"agg" -0.0145364088671748
"ave" -0.000635521537373903
"laveB" -0.00380467465761414
"agg" 0.39197077987021
"ave" 0.0270513456519678
"laveB" 0.215906628492635
"agg" 0.185320858642444
"ave" 0.0114905404189945
"laveB" 0.098535420294885
"agg" 0.809462147627994
"ave" 0.0538007535177998
"laveB" 0.427131799687106
"agg" 0.65542709213691
"ave" 0.0363908925608028
"laveB" 0.3007496290124
"agg" 0.366183287346062
"ave" 0.0144819649674077
"laveB" 0.158930300853404
"agg" 0.182225410174339
"ave" 0.00747317745721799
"laveB" 0.0874856568114765
"agg" 0.432729792570591
"ave" 0.0155218247027122
"laveB" 0.192226120534773
"agg" 0.317081531886483
"ave" 0.0144961453318491
"laveB" 0.142793832931833
"agg" 0.252042910422642
"ave" 0.0175332046446688
"laveB" 0.127626634006457
"agg" 0.178284813727208
"ave" 0.0110800850499469
"laveB" 0.0870580233481207
"agg" 0.305919213349099
"ave" 0.0127152031127953
"laveB" 0.137063442707325
"agg" 0.195897175180135
"ave" 0.00712670992095439
"laveB" 0.0720811892566444
"agg" 0.607733677328429
"ave" 0.0385351850577958
"laveB" 0.272975757878231
"agg" 0.620078299680841
"ave" 0.0413905985426532
"laveB" 0.313111563149791
"agg" 0.81652931474036
"ave" 0.0501398201550361
"laveB" 0.402513076226518
"agg" 0.749301007958129
"ave" 0.0519738385073992
"laveB" 0.379790942632214
"agg" 0.446890704480342
"ave" 0.0158893889775911
"laveB" 0.146202313541693
"agg" 0.490636464829384
"ave" 0.0222883160403911
"laveB" 0.212140996586074
"agg" 0.683229084324438
"ave" 0.045131901270928
"laveB" 0.320830331746968
"agg" 0.470154370841172
"ave" 0.0301947788976163
"laveB" 0.19937826376918
"agg" 0.501667873223327
"ave" 0.0171758293289583
"laveB" 0.157540714550306
"agg" 0.414479195730337
"ave" 0.0149911739177493
"laveB" 0.121955513815011
"agg" 0.177773704846137
"ave" 0.010192439743867
"laveB" 0.0898970227979594
"agg" 0.352526618224524
"ave" 0.0197032558957857
"laveB" 0.172816562283126
"agg" 0.462165334454437
"ave" 0.0164467916697045
"laveB" 0.201387814791834
"agg" 0.582373209083445
"ave" 0.0189111228664124
"laveB" 0.216389419632517
"agg" 0.375811930933638
"ave" 0.0151364038047601
"laveB" 0.162920444715085
"agg" 0.578787216557973
"ave" 0.0212060139681871
"laveB" 0.222944165170215
"agg" 0.571059083353381
"ave" 0.0185547063264671
"laveB" 0.207336637652206
"agg" 0.57003271643702
"ave" 0.0376496771778776
"laveB" 0.263211495428518
"agg" 0.597315341001326
"ave" 0.0436900968005994
"laveB" 0.298977077778981
"agg" 0.272385417132866
"ave" 0.019009154389563
"laveB" 0.127439475916088
"agg" 0.0639551377891579
"ave" 0.00369545030519888
"laveB" 0.0218724784006352
"agg" 0.742072909387033
"ave" 0.0472680202152738
"laveB" 0.378868302216924
"agg" 0.672551119391715
"ave" 0.0478646933860827
"laveB" 0.309156633510229
"agg" 0.248417538385845
"ave" 0.0216164733376373
"laveB" 0.146913167040931
"agg" 0.0181924982948557
"ave" 0.0039806738773956
"laveB" 0.0106241236627291
"agg" 0.343333866959866
"ave" 0.0225803366160536
"laveB" 0.184565882177944
"agg" 0.139855908309129
"ave" 0.00869470996509755
"laveB" 0.072996350980797
"agg" 0.826776986196218
"ave" 0.0501740053793843
"laveB" 0.416943278588842
"agg" 0.728254582996768
"ave" 0.0378682541658581
"laveB" 0.326074235752262
"agg" 0.370612757630854
"ave" 0.0134085383182566
"laveB" 0.138572141940876
"agg" 0.224341598764363
"ave" 0.00874686872779433
"laveB" 0.0952402681346951
"agg" 0.430359432213275
"ave" 0.0142775957415774
"laveB" 0.165222832195626
"agg" 0.365024690593481
"ave" 0.0154751459586222
"laveB" 0.162844614586438
"agg" 0.29623876596867
"ave" 0.0187751019116282
"laveB" 0.142162982232535
"agg" 0.183136402099441
"ave" 0.0101507561003062
"laveB" 0.0747698231272091
"agg" 0.228017154131692
"ave" 0.00845735764817362
"laveB" 0.0974603936443836
"agg" 0.243588062256121
"ave" 0.00941835757864394
"laveB" 0.0815474441346807
"agg" 0.644018490697607
"ave" 0.0380184894345351
"laveB" 0.28456489363527
"agg" 0.653618053225111
"ave" 0.0401244555176632
"laveB" 0.308120893021159
"agg" 0.811032257750437
"ave" 0.0453996237243617
"laveB" 0.40026993079037
"agg" 0.770964573008628
"ave" 0.0498122662616448
"laveB" 0.365505222656538
"agg" 0.559925021786826
"ave" 0.0178138294464048
"laveB" 0.180338788363595
"agg" 0.494453316828535
"ave" 0.0210327953067708
"laveB" 0.212218481027877
"agg" 0.686484179859213
"ave" 0.0416966434370354
"laveB" 0.295450015540605
"agg" 0.497864899956535
"ave" 0.0306696659450122
"laveB" 0.203612707896852
"agg" 0.505348849072242
"ave" 0.0157968755768364
"laveB" 0.140864181701018
"agg" 0.498406422727652
"ave" 0.0171768239762387
"laveB" 0.119981212219492
"agg" 0.114152745265132
"ave" 0.00531425844620197
"laveB" 0.0410462076741998
"agg" 0.297344400752607
"ave" 0.0153612079663807
"laveB" 0.13692371185955
"agg" 0.38482431488791
"ave" 0.0121501002361561
"laveB" 0.135564970918258
"agg" 0.514359084378171
"ave" 0.0153997301031328
"laveB" 0.17552772878516
"agg" 0.311542887312722
"ave" 0.0122753864265425
"laveB" 0.143531697066069
"agg" 0.497240002077059
"ave" 0.0169318981658524
"laveB" 0.190030175441541
"agg" 0.559706565143887
"ave" 0.0165701054905715
"laveB" 0.188108797532307
"agg" 0.832017286349116
"ave" 0.051013279341919
"laveB" 0.353694836063652
"agg" 0.616411605200768
"ave" 0.0369198499323244
"laveB" 0.227069055762196
"agg" 0.495830043466879
"ave" 0.0292325455256525
"laveB" 0.174701299370507
"agg" 0.482312438893648
"ave" 0.0309354047998202
"laveB" 0.233394159721621
"agg" 0.540941972339712
"ave" 0.0378310324679945
"laveB" 0.241398948605154
"agg" 0.39612068923976
"ave" 0.0241892666623303
"laveB" 0.151362581365439
"agg" 0.417579583468585
"ave" 0.0302710063334348
"laveB" 0.155353447434992
"agg" 0.61197520817017
"ave" 0.030834122859891
"laveB" 0.239890241225526
"agg" 0.518405782494742
"ave" 0.0225074995226124
"laveB" 0.17881097699524
"agg" 0.55005891030785
"ave" 0.0305409903564506
"laveB" 0.242700468716439
"agg" 0.474218520230874
"ave" 0.0213668887848187
"laveB" 0.184526418497766
"agg" 0.523032033557969
"ave" 0.0162639293859583
"laveB" 0.171404371023719
"agg" 0.340131434205838
"ave" 0.0101340041734855
"laveB" 0.0971404973424262
"agg" 0.45915420129866
"ave" 0.0128788985599261
"laveB" 0.163014142599352
"agg" 0.331838850370771
"ave" 0.0120557855910258
"laveB" 0.115092193536119
"agg" 0.133076621459003
"ave" 0.00834509718505913
"laveB" 0.0650538897878722
"agg" 0.104242370277725
"ave" 0.00572306918443797
"laveB" 0.0385801348256782
"agg" 0.447350402464898
"ave" 0.0136828354454591
"laveB" 0.141151003925929
"agg" 0.41774598665294
"ave" 0.0131659214026889
"laveB" 0.137349720686444
"agg" 0.380055902679453
"ave" 0.0204576135082436
"laveB" 0.138356917718603
"agg" 0.379983534173256
"ave" 0.0214395651871653
"laveB" 0.168712806110656
"agg" 0.456018178763343
"ave" 0.0236637992900086
"laveB" 0.210341010674669
"agg" 0.472054582720478
"ave" 0.0259755897631883
"laveB" 0.191534109535625
"agg" 0.350818511221511
"ave" 0.0104683295648332
"laveB" 0.105200116983437
"agg" 0.433558820688868
"ave" 0.0146285884628274
"laveB" 0.153549101996521
"agg" 0.572443552595111
"ave" 0.0304497922823584
"laveB" 0.213993029052961
"agg" 0.565691001665757
"ave" 0.0261137290666062
"laveB" 0.1784240530368
"agg" 0.703803113579536
"ave" 0.0210733105713154
"laveB" 0.157666881916776
"agg" 0.6758756644903
"ave" 0.0206524711061049
"laveB" 0.155641349900928
"agg" 0.471783128305332
"ave" 0.0213752150215438
"laveB" 0.170300416155689
"agg" 0.5307754717884
"ave" 0.021513118508798
"laveB" 0.201145814089169
"agg" 0.589213508122993
"ave" 0.0170348903494816
"laveB" 0.178743156981889
"agg" 0.639241446185175
"ave" 0.016882021194933
"laveB" 0.19103005905729
"agg" 0.65323385620901
"ave" 0.0200398613795145
"laveB" 0.218591312521129
"agg" 0.714035047766015
"ave" 0.0195421296077923
"laveB" 0.198594000168913
"agg" 0.752194875119306
"ave" 0.0205089855918823
"laveB" 0.240350222041762
"agg" 0.254513709371559
"ave" 0.01601709835618
"laveB" 0.120744796278559
"agg" 0.303361352636285
"ave" 0.0172509565787145
"laveB" 0.118944761403411
"agg" 0.493077271884053
"ave" 0.032447931474752
"laveB" 0.236064339436101
"agg" 0.539425268889796
"ave" 0.0381456180096547
"laveB" 0.241936800873035
"agg" 0.137333184813053
"ave" 0.0104644992085215
"laveB" 0.0915910069566035
"agg" 0.086255327752162
"ave" 0.00710548916492897
"laveB" 0.048014289489027
"agg" 0.408262527049471
"ave" 0.024183499983365
"laveB" 0.185885363885816
"agg" 0.329049620115134
"ave" 0.0160490091055578
"laveB" 0.135537450446472
"agg" 0.543439266523074
"ave" 0.0337530302598156
"laveB" 0.253747618273911
"agg" 0.531318766278356
"ave" 0.0268144607250129
"laveB" 0.21598102969204
"agg" 0.3342729950744
"ave" 0.0113480179090637
"laveB" 0.112647393723903
"agg" 0.19102499311745
"ave" 0.00581670807546347
"laveB" 0.0631364868258742
"agg" 0.376257852612882
"ave" 0.0111009391014299
"laveB" 0.134336445853722
"agg" 0.268872072219434
"ave" 0.00977174941096164
"laveB" 0.104311582061005
"agg" 0.156259486568116
"ave" 0.0115818774565956
"laveB" 0.0752512186480526
"agg" 0.118217525008156
"ave" 0.00655004413145498
"laveB" 0.054449524138137
"agg" 0.297109842329999
"ave" 0.0109722764796005
"laveB" 0.122600740915892
"agg" 0.249881205214636
"ave" 0.00770656309786796
"laveB" 0.0786316125461418
"agg" 0.368620766611046
"ave" 0.0221190465480104
"laveB" 0.135540398102209
"agg" 0.322310437138896
"ave" 0.020187395379936
"laveB" 0.160775487072315
"agg" 0.507102107767657
"ave" 0.0301208773626136
"laveB" 0.228141194114605
"agg" 0.419845793681239
"ave" 0.0269319063516004
"laveB" 0.188593565738916
"agg" 0.299909213668373
"ave" 0.010374165550961
"laveB" 0.0995391258297315
"agg" 0.358540869972607
"ave" 0.015743267298038
"laveB" 0.145397814021151
"agg" 0.541429126527082
"ave" 0.0346013095220661
"laveB" 0.22933261787859
"agg" 0.422412825229528
"ave" 0.0243535640046078
"laveB" 0.135140498637207
"agg" 0.535517231564421
"ave" 0.0176259319162747
"laveB" 0.137208257189307
"agg" 0.542389285072539
"ave" 0.01826201576555
"laveB" 0.12630596405613
"agg" 0.320876017125957
"ave" 0.0163517918989616
"laveB" 0.121312471891609
"agg" 0.332821292530628
"ave" 0.0160994562282856
"laveB" 0.154097771389573
"agg" 0.55992538591467
"ave" 0.0184832175520837
"laveB" 0.197257220365167
"agg" 0.54465306839465
"ave" 0.0160721625894801
"laveB" 0.182337550484256
"agg" 0.528118576895518
"ave" 0.0186313462406677
"laveB" 0.201632888351262
"agg" 0.545098320932357
"ave" 0.0174975082755702
"laveB" 0.184844898383647
"agg" 0.63980976965724
"ave" 0.0202375252075569
"laveB" 0.205989390580076
"agg" 0.696928446259769
"ave" 0.0549369516552871
"laveB" 0.30976137066655
"agg" 0.248980784467459
"ave" 0.0179881486402892
"laveB" 0.126698387572617
"agg" 0.313967609609531
"ave" 0.0244972070454592
"laveB" 0.138498843518479
"agg" 0.57611916074081
"ave" 0.0633667069576083
"laveB" 0.299432881831811
"agg" 0.750265219944726
"ave" 0.0788517104488769
"laveB" 0.354738473670921
"agg" 0.523670924284143
"ave" 0.0355725696362368
"laveB" 0.225858458494309
"agg" 0.475930610182128
"ave" 0.0267590210615995
"laveB" 0.174215622992016
"agg" 0.351608665011367
"ave" 0.0228387111201676
"laveB" 0.18102584909587
"agg" 0.252387002023935
"ave" 0.0115179673323719
"laveB" 0.116758575359025
"agg" 0.615685100245748
"ave" 0.0250824280449954
"laveB" 0.232774673666844
"agg" 0.512000289612927
"ave" 0.0202984570721686
"laveB" 0.192110553017893
"agg" 0.379401365426644
"ave" 0.0130552823022915
"laveB" 0.144895194200778
"agg" 0.338223344097516
"ave" 0.0147790957012627
"laveB" 0.143260929913644
"agg" 0.0738277812043632
"ave" 0.00510878886479085
"laveB" 0.0254787938735401
"agg" 0.122997761469702
"ave" 0.00691465484918618
"laveB" 0.0483344112573476
"agg" 0.506857658496552
"ave" 0.0205082104418484
"laveB" 0.188013759884714
"agg" 0.54610271466192
"ave" 0.0222714925928412
"laveB" 0.203641883223058
"agg" 0.277334429522301
"ave" 0.016749041544569
"laveB" 0.105780239111576
"agg" 0.344352505994951
"ave" 0.0227435459809691
"laveB" 0.173426159570999
"agg" 0.192652180119672
"ave" 0.0106660432307395
"laveB" 0.0916305716047287
"agg" 0.3325778824602
"ave" 0.0207780409589854
"laveB" 0.144432394679023
"agg" 0.133203668406898
"ave" 0.00425490822380985
"laveB" 0.0410719038224127
"agg" 0.239255507057028
"ave" 0.0104925073584373
"laveB" 0.0922975609841764
"agg" 0.292645768616916
"ave" 0.0190274236541724
"laveB" 0.135405829032487
"agg" 0.471451365858435
"ave" 0.0281918808237281
"laveB" 0.173016828906797
"agg" 0.577524477169489
"ave" 0.0224035123200815
"laveB" 0.192537120332115
"agg" 0.569975682743976
"ave" 0.0196265321356721
"laveB" 0.142951283646108
"agg" 0.584171624405547
"ave" 0.0374968067525732
"laveB" 0.255093178518621
"agg" 0.621160440007794
"ave" 0.0354211169836083
"laveB" 0.285336506857386
"agg" 0.450864220599677
"ave" 0.0168239770041363
"laveB" 0.150765935664947
"agg" 0.552381585654963
"ave" 0.0191788236169212
"laveB" 0.177801043683218
"agg" 0.538573693086912
"ave" 0.0196344113636728
"laveB" 0.179076788161817
"agg" 0.59854209898964
"ave" 0.0206624857979017
"laveB" 0.181381107412279
"agg" 0.56686103574678
"ave" 0.0189546694041137
"laveB" 0.187913165107114
"agg" 0.157724666993479
"ave" 0.0117118245385293
"laveB" 0.0785419559317346
"agg" 0.370708260600569
"ave" 0.0326151375611794
"laveB" 0.197109083481033
"agg" 0.317481201276979
"ave" 0.032348453195327
"laveB" 0.118483321799117
"agg" 0.796596541637295
"ave" 0.0835630453281925
"laveB" 0.400254833907793
"agg" 0.223840044376971
"ave" 0.0145673042018541
"laveB" 0.0739137782780378
"agg" 0.346980024536091
"ave" 0.0197450538092626
"laveB" 0.142466075441576
"agg" 0.194405475896479
"ave" 0.0122836960753674
"laveB" 0.0859141019124043
"agg" 0.216277586229664
"ave" 0.0102722450842649
"laveB" 0.101288744550267
"agg" 0.567686432570033
"ave" 0.0228531718202216
"laveB" 0.207980511741588
"agg" 0.627244264696202
"ave" 0.0250908837639779
"laveB" 0.242653212752327
"agg" 0.455468018544161
"ave" 0.0156372413965801
"laveB" 0.178458816161902
"agg" 0.474288213884171
"ave" 0.0212036682107674
"laveB" 0.203915805897333
"agg" 0.0779031833191601
"ave" 0.00663286096116365
"laveB" 0.0203691304000097
"agg" 0.139486426427883
"ave" 0.0078238616376829
"laveB" 0.0605981356039994
"agg" 0.412385260837162
"ave" 0.0155245441703176
"laveB" 0.149474913352034
"agg" 0.603413685797669
"ave" 0.0247709310654167
"laveB" 0.242932890250824
"agg" 0.186405465979996
"ave" 0.011529687821725
"laveB" 0.0716931024312992
"agg" 0.193161642114551
"ave" 0.0131665426689616
"laveB" 0.0900161952420218
"agg" 0.0633164275195585
"ave" 0.00296047730774011
"laveB" 0.020393700744428
"agg" 0.170914907636181
"ave" 0.00997013051167164
"laveB" 0.0540735411686702
"agg" 0.0739255859425498
"ave" 0.00251957859249407
"laveB" 0.0170259345259013
"agg" 0.0587175161750998
"ave" 0.00211393426205323
"laveB" 0.0182334613864998
"agg" 0.0833964676961816
"ave" 0.0061764552439311
"laveB" 0.0508964081575055
"agg" 0.386389412479529
"ave" 0.0219306177546121
"laveB" 0.131386738195398
"agg" 0.324148174531556
"ave" 0.0125126142607147
"laveB" 0.0881776239160881
"agg" 0.615882970970682
"ave" 0.0212089714972933
"laveB" 0.173376502670892
"agg" 0.625542188472194
"ave" 0.0392311961408869
"laveB" 0.305557769819061
"agg" 0.46792207973422
"ave" 0.0254744808668428
"laveB" 0.215730835579859
"agg" 0.356762574320216
"ave" 0.012521121484838
"laveB" 0.124087716985923
"agg" 0.445423686741613
"ave" 0.014892436244853
"laveB" 0.165535797871153
"agg" 0.487719306391103
"ave" 0.0174577175978499
"laveB" 0.174652631689178
"agg" 0.397617366864094
"ave" 0.0129361977186057
"laveB" 0.12311221967181
"agg" 0.462876231909367
"ave" 0.0155867452935437
"laveB" 0.160311184757531
"agg" 0.908492926842986
"ave" 0.0638934281187487
"laveB" 0.469522175982823
"agg" 0.177342523760747
"ave" 0.015109212555698
"laveB" 0.107353239325998
"agg" 0.0262325479831517
"ave" 0.00605364029767324
"laveB" 0.0398683823484747
"agg" 0.341908312236821
"ave" 0.0210834049745574
"laveB" 0.177775340624803
"agg" 0.260305345580995
"ave" 0.0152469516336621
"laveB" 0.133171505934431
"agg" 0.691753413628012
"ave" 0.0380800156830811
"laveB" 0.353629945466973
"agg" 0.57885917855617
"ave" 0.0258550966444932
"laveB" 0.247439698343209
"agg" 0.431606823740768
"ave" 0.0155859374305345
"laveB" 0.175355116876589
"agg" 0.396956147817169
"ave" 0.014682229280207
"laveB" 0.173166597741485
"agg" 0.593319702332791
"ave" 0.0185462433151233
"laveB" 0.247672106618262
"agg" 0.558606313165686
"ave" 0.022551761729347
"laveB" 0.251729594989822
"agg" 0.185139121128413
"ave" 0.00967501944230494
"laveB" 0.0850870405260187
"agg" 0.275556851454124
"ave" 0.0140725867724153
"laveB" 0.130580085304377
"agg" 0.378478986869137
"ave" 0.0142330415568526
"laveB" 0.169204648226105
"agg" 0.406230279164973
"ave" 0.0147519414650659
"laveB" 0.188489562508147
"agg" 0.7522462790374
"ave" 0.0407498136555435
"laveB" 0.350385839767979
"agg" 0.762914692090081
"ave" 0.0436429967127358
"laveB" 0.377042094077859
"agg" 0.796815430839766
"ave" 0.0398104184637377
"laveB" 0.370521088592482
"agg" 0.783896639718669
"ave" 0.0456667346890587
"laveB" 0.363898053906366
"agg" 0.509946156507304
"ave" 0.0146443691767209
"laveB" 0.157321722151476
"agg" 0.466620034270664
"ave" 0.018125024032283
"laveB" 0.195855602032912
"agg" 0.660462360542716
"ave" 0.0374824609517705
"laveB" 0.285443083264485
"agg" 0.503939698058498
"ave" 0.0284289723834499
"laveB" 0.221656937297665
"agg" 0.496604886465555
"ave" 0.0151501623608782
"laveB" 0.141950744983146
"agg" 0.468928365723871
"ave" 0.015147623673502
"laveB" 0.129076751993387
"agg" 0.0957381681095433
"ave" 0.00561386179821371
"laveB" 0.052932453727856
"agg" 0.183459924781616
"ave" 0.00953056833841325
"laveB" 0.0815502564179328
"agg" 0.356610323812274
"ave" 0.0116764598266219
"laveB" 0.14560383304647
"agg" 0.5736689621288
"ave" 0.0166193135964996
"laveB" 0.213102590211537
"agg" 0.449603604775404
"ave" 0.016135724474628
"laveB" 0.196687414315211
"agg" 0.569377337790946
"ave" 0.0179215127701507
"laveB" 0.222342558487406
"agg" 0.612991533644817
"ave" 0.0174157149544735
"laveB" 0.212653776591352
"agg" 0.111824532214595
"ave" 0.0074502835967127
"laveB" 0.0408833589358254
"agg" 0.171428549987391
"ave" 0.022690051682992
"laveB" 0.120355947079118
"agg" 0.306900750635745
"ave" 0.0205169703469839
"laveB" 0.166427714800205
"agg" 0.314088724388789
"ave" 0.0208415624924978
"laveB" 0.157569260776167
"agg" 0.639695693568226
"ave" 0.0401480797117009
"laveB" 0.301178335800235
"agg" 0.555016944538793
"ave" 0.0284271438486553
"laveB" 0.22581821857495
"agg" 0.498010881330231
"ave" 0.0205927247343679
"laveB" 0.187230349150714
"agg" 0.494097639487782
"ave" 0.0216442935945468
"laveB" 0.201844173484955
"agg" 0.583728134814223
"ave" 0.0210412273634663
"laveB" 0.232448500576852
"agg" 0.619374804957008
"ave" 0.0292055800423185
"laveB" 0.271467412233271
"agg" 0.183546048518011
"ave" 0.0118781420717902
"laveB" 0.0700814913408668
"agg" 0.304030538648465
"ave" 0.0179910682038073
"laveB" 0.12838597780966
"agg" 0.418324674896028
"ave" 0.0175444584894389
"laveB" 0.17225482344072
"agg" 0.536401999070108
"ave" 0.0230295911910052
"laveB" 0.235602936008264
"agg" 0.709267085086881
"ave" 0.0432710798469459
"laveB" 0.310693839174168
"agg" 0.721792875073997
"ave" 0.0471675631730885
"laveB" 0.34462284322073
"agg" 0.692858058571404
"ave" 0.0387803972471917
"laveB" 0.310154788981976
"agg" 0.723395777898235
"ave" 0.0483709660406474
"laveB" 0.325741715370452
"agg" 0.475298542955468
"ave" 0.0154564849010404
"laveB" 0.139586186673673
"agg" 0.337591812968815
"ave" 0.0143911974719322
"laveB" 0.12172789164699
"agg" 0.53308499887679
"ave" 0.0341751725252429
"laveB" 0.223203171685501
"agg" 0.497744299785109
"ave" 0.0318608546069881
"laveB" 0.20229585583589
"agg" 0.439930210437751
"ave" 0.0148485045594639
"laveB" 0.10620549753504
"agg" 0.578118023968034
"ave" 0.022084587364554
"laveB" 0.146527098875992
"agg" 0.190102351637844
"ave" 0.0126674563766364
"laveB" 0.11070815457505
"agg" 0.222756605540575
"ave" 0.0123014348737917
"laveB" 0.0997894691459678
"agg" 0.375091069023866
"ave" 0.0136494964124955
"laveB" 0.142008084909103
"agg" 0.580597116101424
"ave" 0.0190155058227262
"laveB" 0.214612612954143
"agg" 0.501359611780746
"ave" 0.0204221308404033
"laveB" 0.229387846780227
"agg" 0.553149828759666
"ave" 0.0191453164880979
"laveB" 0.199685177529838
"agg" 0.620386624350464
"ave" 0.0198783327352561
"laveB" 0.208991363594322
"agg" 0.656928140148793
"ave" 0.096405777781109
"laveB" 0.405666392395537
"agg" 0.714770996676909
"ave" 0.0593989229210418
"laveB" 0.353255903785468
"agg" 0.547855571755338
"ave" 0.0394871489584752
"laveB" 0.238933372652429
"agg" 0.291935378212231
"ave" 0.0247542938607904
"laveB" 0.197497945021683
"agg" 0.22713508038791
"ave" 0.0141776317180671
"laveB" 0.126897584002185
"agg" 0.454360417037934
"ave" 0.0241246364931546
"laveB" 0.203839732656429
"agg" 0.404563318263751
"ave" 0.0213530650239889
"laveB" 0.181485063462769
"agg" 0.283330799513783
"ave" 0.0127104608999289
"laveB" 0.133186483768875
"agg" 0.230418391492775
"ave" 0.0123785558465886
"laveB" 0.115148925676535
"agg" 0.149732991426897
"ave" 0.0159952889622688
"laveB" 0.0972961768584818
"agg" -0.0546761630915702
"ave" -0.00273308240608357
"laveB" -0.0345200527266344
"agg" 0.469330956022297
"ave" 0.0242444009091812
"laveB" 0.229746962973769
"agg" 0.316036370729435
"ave" 0.0171166259259604
"laveB" 0.143776637286408
"agg" 0.240766936392003
"ave" 0.0187718290864099
"laveB" 0.114077265397351
"agg" 0.276161248130675
"ave" 0.02431535807576
"laveB" 0.164278270983193
"agg" 0.218746244359252
"ave" 0.0156710680167827
"laveB" 0.131573224217599
"agg" 0.391567191052684
"ave" 0.0333905099763042
"laveB" 0.222472676754658
"agg" 0.308486454773095
"ave" 0.0140798774567699
"laveB" 0.130602372003064
"agg" 0.583664212554398
"ave" 0.0334425997372505
"laveB" 0.295218710517405
"agg" 0.581168346230109
"ave" 0.0466698260315306
"laveB" 0.332501239606185
"agg" 0.708606159101982
"ave" 0.0574120255112321
"laveB" 0.33677047833712
"agg" 0.721518451488668
"ave" 0.0332644877604955
"laveB" 0.274352499606388
"agg" 0.456237015051606
"ave" 0.0187563596305839
"laveB" 0.154549798921939
"agg" 0.439644419068763
"ave" 0.0357416222561263
"laveB" 0.243013098466903
"agg" 0.61229230105018
"ave" 0.0453304936233334
"laveB" 0.348821753100595
"agg" 0.357254583352968
"ave" 0.0153496756162237
"laveB" 0.154736708104328
"agg" 0.469575751804578
"ave" 0.020400225842004
"laveB" 0.202623137791896
"agg" 0.388312263414713
"ave" 0.0164786653672192
"laveB" 0.14912606462237
"agg" 0.537707787805807
"ave" 0.0233311054829787
"laveB" 0.210249262098434
"agg" 0.52688624475447
"ave" 0.0224542125143013
"laveB" 0.2289508992537
"agg" 0.517109505245738
"ave" 0.0459265394948662
"laveB" 0.249278003328515
"agg" 0.595470921906382
"ave" 0.0449728494736469
"laveB" 0.268643729255156
"agg" 0.162726286095626
"ave" 0.0163400538739081
"laveB" 0.0908613730738005
"agg" 0.138596548250488
"ave" 0.0103956481983914
"laveB" 0.0788508155546725
"agg" 0.555598267694052
"ave" 0.0308121779060892
"laveB" 0.256301825131335
"agg" 0.576499377821786
"ave" 0.0310682441576871
"laveB" 0.255598194145868
"agg" 0.351837430806479
"ave" 0.017004687932683
"laveB" 0.152969797213972
"agg" 0.370731339122582
"ave" 0.0227007978696221
"laveB" 0.186954911513196
"agg" 0.142195857180593
"ave" 0.0176752150505549
"laveB" 0.0785687917567857
"agg" 0.0181594327794887
"ave" 0.0015794377214345
"laveB" 0.0119205822935018
"agg" 0.454614345730716
"ave" 0.0238413230635155
"laveB" 0.200630373962908
"agg" 0.589812938344954
"ave" 0.0330870014274175
"laveB" 0.270452819865684
"agg" 0.159537009384546
"ave" 0.0154126559686933
"laveB" 0.0673769322298668
"agg" 0.17480534003248
"ave" 0.0177171387926007
"laveB" 0.101773034433256
"agg" -0.0252826937784518
"ave" -0.00139384594703891
"laveB" -0.0173696682396995
"agg" 0.201905167684771
"ave" 0.0192878492243085
"laveB" 0.0951954888176656
"agg" 0.130979115454777
"ave" 0.00730947492497858
"laveB" 0.047674024338413
"agg" 0.275421844955741
"ave" 0.0179939752520758
"laveB" 0.13886743930365
"agg" 0.169662700918796
"ave" 0.0176964796325631
"laveB" 0.108886657895548
"agg" 0.601729320168701
"ave" 0.051155248843938
"laveB" 0.266548437492742
"agg" 0.453901383974237
"ave" 0.0236147470913455
"laveB" 0.158383727344909
"agg" 0.57356779762844
"ave" 0.0264207859526941
"laveB" 0.187030572107281
"agg" 0.61226220505647
"ave" 0.051582891034051
"laveB" 0.334918247178942
"agg" 0.555398518694721
"ave" 0.0417539164163594
"laveB" 0.306799372435393
"agg" 0.305381367127665
"ave" 0.0147515700309684
"laveB" 0.123522655600307
"agg" 0.431424901330007
"ave" 0.0201078271783269
"laveB" 0.181784736945295
"agg" 0.462873150048565
"ave" 0.0215741517212522
"laveB" 0.17720867383687
"agg" 0.441797364398167
"ave" 0.0198336965767936
"laveB" 0.150243701717247
"agg" 0.486930197631331
"ave" 0.0225358523696827
"laveB" 0.186308088644089
"agg" 0.869018411120925
"ave" 0.0381961776139886
"laveB" 0.299904628484997
"agg" 0.380489161514283
"ave" 0.0221515104638361
"laveB" 0.187247235818805
"agg" 0.257723779253847
"ave" 0.0115693661452675
"laveB" 0.115943905635568
"agg" 0.507879968221999
"ave" 0.0172320235961635
"laveB" 0.178747451454989
"agg" 0.335515881304792
"ave" 0.0116411612514735
"laveB" 0.133258642753495
"agg" 0.339000511070854
"ave" 0.0100210064430073
"laveB" 0.131197882414116
"agg" 0.238336135865837
"ave" 0.00919930067511656
"laveB" 0.108157659095896
"agg" 0.136115887824771
"ave" 0.00861521453168755
"laveB" 0.0793113576900591
"agg" 0.0172152610168135
"ave" 0.00236059948629373
"laveB" 0.0138861901393024
"agg" 0.565412645618354
"ave" 0.0182919343939239
"laveB" 0.216834482073569
"agg" 0.384569862316885
"ave" 0.0134768424759471
"laveB" 0.158284405647829
"agg" 0.298031015938707
"ave" 0.0158923760376537
"laveB" 0.120698075011411
"agg" 0.298116000609637
"ave" 0.0169581321824486
"laveB" 0.153076439286171
"agg" 0.290223036241726
"ave" 0.0142884675654903
"laveB" 0.149731830169931
"agg" 0.388766028685214
"ave" 0.0215185844879929
"laveB" 0.181921708220123
"agg" 0.322891675649749
"ave" 0.00987384501691414
"laveB" 0.0994719013402342
"agg" 0.511418873928795
"ave" 0.0173545412896101
"laveB" 0.179430853368006
"agg" 0.568136212487666
"ave" 0.029012549404251
"laveB" 0.220530282562942
"agg" 0.684307252446728
"ave" 0.0335015500422558
"laveB" 0.246527731265939
"agg" 0.70789875627095
"ave" 0.0207751281314944
"laveB" 0.183871135007294
"agg" 0.431533484895006
"ave" 0.0130663829840108
"laveB" 0.11154825828364
"agg" 0.443357790848546
"ave" 0.0237232927060249
"laveB" 0.205834389221463
"agg" 0.55479717521161
"ave" 0.0261982948999809
"laveB" 0.249206643036906
"agg" 0.548733271477169
"ave" 0.0162618970192332
"laveB" 0.193263789041022
"agg" 0.569984433091599
"ave" 0.0161400116381113
"laveB" 0.209368448250395
"agg" 0.583547569765381
"ave" 0.0177828778827648
"laveB" 0.194656413561724
"agg" 0.691220576482034
"ave" 0.019873734013193
"laveB" 0.217297771662602
"agg" 0.69217365091221
"ave" 0.0195458893469099
"laveB" 0.237679809076295
"agg" 0.245968033829475
"ave" 0.0126822727835877
"laveB" 0.114725193817563
"agg" 0.158864031427659
"ave" 0.00585942468912649
"laveB" 0.0723834595483668
"agg" 0.540835543573493
"ave" 0.0159198573089818
"laveB" 0.19490407786317
"agg" 0.408130898894702
"ave" 0.0121253795102749
"laveB" 0.160043967017791
"agg" 0.337872040444028
"ave" 0.00892255972341867
"laveB" 0.13791402124212
"agg" 0.316445268934889
"ave" 0.0108027750223481
"laveB" 0.133269099466189
"agg" 0.101860982133634
"ave" 0.00648223331931495
"laveB" 0.0512264910680819
"agg" 0.109904784794843
"ave" 0.00591290507412419
"laveB" 0.0515635340846904
"agg" 0.568294068005164
"ave" 0.0160654634311148
"laveB" 0.193957720407093
"agg" 0.501501193436671
"ave" 0.0150371443426052
"laveB" 0.18177661817324
"agg" 0.215135611258695
"ave" 0.0107267784896172
"laveB" 0.0839683654312615
"agg" 0.199870672915018
"ave" 0.0109004292382764
"laveB" 0.0904635645065189
"agg" 0.124751621121353
"ave" 0.00590264778606458
"laveB" 0.0700212321137738
"agg" 0.27964252887842
"ave" 0.0138280392170417
"laveB" 0.118266082432243
"agg" 0.232346440336112
"ave" 0.00666164481216263
"laveB" 0.0844538078964981
"agg" 0.413918898746417
"ave" 0.0120157172407027
"laveB" 0.131557660296646
"agg" 0.375428289158801
"ave" 0.0173205310578563
"laveB" 0.132627669192226
"agg" 0.657181132707896
"ave" 0.0273913771173998
"laveB" 0.198549879117551
"agg" 0.570205014018587
"ave" 0.0148384076601933
"laveB" 0.145549460056259
"agg" 0.419942702293962
"ave" 0.0107900891218827
"laveB" 0.115804639529389
"agg" 0.479430942407745
"ave" 0.0210494649184348
"laveB" 0.191666310433057
"agg" 0.466360825403487
"ave" 0.0176870238744841
"laveB" 0.183313424335985
"agg" 0.464584357668636
"ave" 0.0120267458280517
"laveB" 0.149832395837782
"agg" 0.510876520215888
"ave" 0.0121776885679666
"laveB" 0.15970985271167
"agg" 0.592060591125593
"ave" 0.0151180756952823
"laveB" 0.181350246941895
"agg" 0.598215451431599
"ave" 0.0145016232712744
"laveB" 0.166358421854869
"agg" 0.648547134751898
"ave" 0.0161176381233916
"laveB" 0.20769762140481
"agg" 0.834343483419505
"ave" 0.0373141719005893
"laveB" 0.386570739550297
"agg" 0.432763664820504
"ave" 0.0145629638129998
"laveB" 0.163072885175628
"agg" 0.414072487699496
"ave" 0.014029506990336
"laveB" 0.175416394764119
"agg" 0.508231018814541
"ave" 0.0145248889720648
"laveB" 0.196890351327441
"agg" 0.430453750430859
"ave" 0.0156931366189875
"laveB" 0.186559313475797
"agg" 0.322111820941349
"ave" 0.0175991951087015
"laveB" 0.154343260473189
"agg" 0.169596561414721
"ave" 0.00848606532373651
"laveB" 0.0787785823911149
"agg" 0.257111815344743
"ave" 0.00883152966921691
"laveB" 0.0969639734997491
"agg" 0.363207992587124
"ave" 0.0122549583132973
"laveB" 0.150579064845949
"agg" 0.646298364940805
"ave" 0.0327763236154792
"laveB" 0.293661621755383
"agg" 0.691306694445039
"ave" 0.03697805661855
"laveB" 0.333007511680515
"agg" 0.762578609075008
"ave" 0.0372168070173694
"laveB" 0.376929797980898
"agg" 0.760754631266959
"ave" 0.0426999451382276
"laveB" 0.367208352901784
"agg" 0.528243712355443
"ave" 0.0134859771150773
"laveB" 0.147828545256997
"agg" 0.470859029796634
"ave" 0.0175884216132601
"laveB" 0.199130298442209
"agg" 0.61146436098675
"ave" 0.0322947255790354
"laveB" 0.262894489025077
"agg" 0.534058901805772
"ave" 0.0281243986914116
"laveB" 0.210969148514312
"agg" 0.496718519001683
"ave" 0.0135385511631475
"laveB" 0.152139986779039
"agg" 0.519253023040359
"ave" 0.0154391350621449
"laveB" 0.154488128795124
"agg" 0.19307516960004
"ave" 0.0103683244437075
"laveB" 0.0967164050243534
"agg" 0.319365441410357
"ave" 0.015768371899067
"laveB" 0.150508545943538
"agg" 0.361447459294059
"ave" 0.0108430454389424
"laveB" 0.148145172226054
"agg" 0.583363417544764
"ave" 0.015743232402407
"laveB" 0.209603170738154
"agg" 0.353313593192029
"ave" 0.0118832447893929
"laveB" 0.147723418188387
"agg" 0.500937048012477
"ave" 0.0151664897507292
"laveB" 0.168915531166206
"agg" 0.629245656370655
"ave" 0.0158719919029821
"laveB" 0.221264168804821
"agg" 0.338692916448897
"ave" 0.00871405464275486
"laveB" 0.124188938616207
"agg" 0.392216588995578
"ave" 0.0108241810166338
"laveB" 0.144317473261247
"agg" 0.450873785685249
"ave" 0.0103932039457623
"laveB" 0.158581807986063
"agg" 0.386054342623626
"ave" 0.0118909304037271
"laveB" 0.149727298846711
"agg" 0.36613776107358
"ave" 0.0176081780452551
"laveB" 0.156833525578649
"agg" 0.200342809100004
"ave" 0.00735887704671
"laveB" 0.0746461016937022
"agg" 0.194039740820106
"ave" 0.00472584698773773
"laveB" 0.0676864376694066
"agg" 0.278159098060193
"ave" 0.00759163635048934
"laveB" 0.0909164915879743
"agg" 0.591488506506215
"ave" 0.0250570017720839
"laveB" 0.232511891942534
"agg" 0.570667658817688
"ave" 0.0249792623587777
"laveB" 0.229969686208323
"agg" 0.711651916306812
"ave" 0.0291474614430776
"laveB" 0.296771234279508
"agg" 0.673914101835224
"ave" 0.0312311677948718
"laveB" 0.282894836432457
"agg" 0.520880922237214
"ave" 0.0116509270687012
"laveB" 0.128071327989551
"agg" 0.416017635034759
"ave" 0.0132684009277693
"laveB" 0.15643064756213
"agg" 0.591536534301761
"ave" 0.0260789189679045
"laveB" 0.23090931902152
"agg" 0.485718205035992
"ave" 0.0206533269856871
"laveB" 0.174947291808665
"agg" 0.4457957249629
"ave" 0.00934078625583601
"laveB" 0.0976602925360632
"agg" 0.463986756913651
"ave" 0.0111367685085629
"laveB" 0.110804682031171
"agg" 0.16211247954766
"ave" 0.00540406213738662
"laveB" 0.0804149049584248
"agg" 0.233024588785754
"ave" 0.00846776508329986
"laveB" 0.0985156961450799
"agg" 0.278629388936354
"ave" 0.00530243035921307
"laveB" 0.0905767461112969
"agg" 0.45244251224205
"ave" 0.0096300637966737
"laveB" 0.142610093844432
"agg" 0.296499814421438
"ave" 0.00721825711647056
"laveB" 0.117355705288429
"agg" 0.364200837047911
"ave" 0.00830982339605692
"laveB" 0.123528878799714
"agg" 0.544620443015751
"ave" 0.0108327093624387
"laveB" 0.167379493432189
"agg" 0.71733711590004
"ave" 0.0148938777158598
"laveB" 0.229378054893064
"agg" 0.675044629133685
"ave" 0.0119773707268839
"laveB" 0.217546126213123
"agg" 0.609255445496961
"ave" 0.0137407406338044
"laveB" 0.219018682075258
"agg" 0.119518131632616
"ave" 0.00454952376850132
"laveB" 0.0373787573767114
"agg" 0.283458733294133
"ave" 0.00813663755458518
"laveB" 0.103353834418765
"agg" 0.641525301809521
"ave" 0.0130000502346849
"laveB" 0.207567191002012
"agg" 0.648786451859491
"ave" 0.0135349490218814
"laveB" 0.21386203409451
"agg" 0.423876451715793
"ave" 0.0134765144492944
"laveB" 0.141735896277517
"agg" 0.428866945935434
"ave" 0.0145244968631067
"laveB" 0.171306653497553
"agg" 0.350042022479219
"ave" 0.0101771006393082
"laveB" 0.125655792436908
"agg" 0.465419833394675
"ave" 0.0155120223994333
"laveB" 0.166832590203896
"agg" 0.293935586381173
"ave" 0.00536579464776084
"laveB" 0.0790001626978503
"agg" 0.327965253013555
"ave" 0.00714492452979314
"laveB" 0.110294707417823
"agg" 0.394723563216011
"ave" 0.0129461102766334
"laveB" 0.141481655836003
"agg" 0.534237203800114
"ave" 0.0165013501649787
"laveB" 0.170551665151347
"agg" 0.514216280071521
"ave" 0.00934131467747436
"laveB" 0.13307898890877
"agg" 0.511943508538771
"ave" 0.00912951857233655
"laveB" 0.103606376364966
"agg" 0.601724257389312
"ave" 0.0200084194910356
"laveB" 0.24727377919357
"agg" 0.608049346517665
"ave" 0.0177655728157972
"laveB" 0.24394205238947
"agg" 0.537043162699658
"ave" 0.0101875647442745
"laveB" 0.158479487192084
"agg" 0.631257632811456
"ave" 0.0111755329310243
"laveB" 0.176486897634826
"agg" 0.608538017678007
"ave" 0.0115776155910127
"laveB" 0.186940250783185
"agg" 0.622228075298712
"ave" 0.0110834175598201
"laveB" 0.176940829168692
"agg" 0.694342505265668
"ave" 0.0117507897372618
"laveB" 0.205528350043168
"agg" 0.677508281534094
"ave" 0.0121299963799215
"laveB" 0.217067218307868
"agg" 0.709745106073675
"ave" 0.0162768016150585
"laveB" 0.258556802582993
"agg" 0.145461239878549
"ave" 0.00559228874093516
"laveB" 0.0471760160565366
"agg" 0.279778071706628
"ave" 0.00823142366582666
"laveB" 0.105770264686393
"agg" 0.43287837780169
"ave" 0.00838681070594842
"laveB" 0.136749037902963
"agg" 0.657175759516555
"ave" 0.013876551294259
"laveB" 0.206797226641006
"agg" 0.452349738411331
"ave" 0.0145632543991287
"laveB" 0.170674186896987
"agg" 0.461376317392286
"ave" 0.0157073110233307
"laveB" 0.191547990015705
"agg" 0.279916986479437
"ave" 0.00820673759055501
"laveB" 0.110214273780817
"agg" 0.431663282991665
"ave" 0.0145723544096582
"laveB" 0.178385815090476
"agg" 0.433545148186836
"ave" 0.0070897038858148
"laveB" 0.0995346437643113
"agg" 0.275305142811752
"ave" 0.0063631115894638
"laveB" 0.0937537091524652
"agg" 0.306633029916254
"ave" 0.0102490921571307
"laveB" 0.106458002543268
"agg" 0.498501949663924
"ave" 0.0154193381124217
"laveB" 0.16605618562839
"agg" 0.447722848979377
"ave" 0.00761542726872011
"laveB" 0.097267295163808
"agg" 0.520057632676641
"ave" 0.00924638843161796
"laveB" 0.107643402770576
"agg" 0.512611309675076
"ave" 0.017060366702946
"laveB" 0.217886156050814
"agg" 0.451069230312723
"ave" 0.0134503441143188
"laveB" 0.177122975382155
"agg" 0.329387617489175
"ave" 0.006316184556064
"laveB" 0.0935971992617909
"agg" 0.567815021523638
"ave" 0.0100902340421166
"laveB" 0.170398655498049
"agg" 0.466769037538326
"ave" 0.00897052036724664
"laveB" 0.134627400471544
"agg" 0.4382363482172
"ave" 0.00797284406817831
"laveB" 0.129130803016193
"agg" 0.610028055584673
"ave" 0.00992812079565069
"laveB" 0.175424419534402
"agg" 0.790792824884023
"ave" 0.0156650503502438
"laveB" 0.285536515784245
"agg" 0.280571099968714
"ave" 0.00882292272829016
"laveB" 0.111501797046486
"agg" 0.330129550138535
"ave" 0.00831249266057813
"laveB" 0.121949847765188
"agg" 0.436892294381283
"ave" 0.00725998564476253
"laveB" 0.134349937788041
"agg" 0.521293967062324
"ave" 0.00936602913880585
"laveB" 0.176274863650733
"agg" 0.492850129687526
"ave" 0.0138455535850608
"laveB" 0.188778851765314
"agg" 0.536960690562428
"ave" 0.0161477285125755
"laveB" 0.222676325803068
"agg" 0.434907792503006
"ave" 0.0110457105833662
"laveB" 0.165355522440364
"agg" 0.523293096812056
"ave" 0.0155044760806067
"laveB" 0.198639590540839
"agg" 0.413559282092522
"ave" 0.00608996582976438
"laveB" 0.0957928009041088
"agg" 0.329575726651244
"ave" 0.0063837427264845
"laveB" 0.112326756372285
"agg" 0.397054087421662
"ave" 0.0112397835209653
"laveB" 0.141197603401682
"agg" 0.453674071277994
"ave" 0.012215961632519
"laveB" 0.148739203824697
"agg" 0.428934657042913
"ave" 0.00623623416229732
"laveB" 0.090176219195212
"agg" 0.470726751108417
"ave" 0.00741878813250732
"laveB" 0.0981826758541006
"agg" 0.359718102796586
"ave" 0.00985611188939115
"laveB" 0.154295426032036
"agg" 0.351308683176662
"ave" 0.00887144514765982
"laveB" 0.132458739950335
"agg" 0.309622698203684
"ave" 0.00496377447918885
"laveB" 0.0918427643954672
"agg" 0.541912860962378
"ave" 0.00797691344471622
"laveB" 0.157990034917087
"agg" 0.44708618238121
"ave" 0.00733430829251101
"laveB" 0.146410445693315
"agg" 0.486260753895253
"ave" 0.00753343986976931
"laveB" 0.148994033471464
"agg" 0.60962597185787
"ave" 0.00844491690457271
"laveB" 0.174186938674987
"agg" 0.194590474763487
"ave" 0.00788928876902852
"laveB" 0.0623067380155098
"agg" 0.354467855987426
"ave" 0.0111276877114898
"laveB" 0.136669801385171
"agg" 0.308364594824475
"ave" 0.00631011500912181
"laveB" 0.09331064821834
"agg" 0.585814770148328
"ave" 0.0135773624739358
"laveB" 0.201320828328845
"agg" 0.485577851862849
"ave" 0.0173319919253124
"laveB" 0.194262295882973
"agg" 0.539171899722791
"ave" 0.0206478890293727
"laveB" 0.233499996714519
"agg" 0.345342882451866
"ave" 0.0110573566975499
"laveB" 0.148794816738653
"agg" 0.461228435304216
"ave" 0.0173873229189498
"laveB" 0.179896667855725
"agg" 0.4297169802967
"ave" 0.00772291239676259
"laveB" 0.0961042114790466
"agg" 0.257348057776563
"ave" 0.00646443578827751
"laveB" 0.0945685963620781
"agg" 0.292755020734844
"ave" 0.0105895351990707
"laveB" 0.118027646438235
"agg" 0.390645158364911
"ave" 0.0132338225579358
"laveB" 0.1429495172003
"agg" 0.366584769578376
"ave" 0.00689741777842437
"laveB" 0.0898008693735768
"agg" 0.552434946047954
"ave" 0.0109706580257306
"laveB" 0.119203694460079
"agg" 0.291703371454554
"ave" 0.010353740163633
"laveB" 0.144504836281531
"agg" 0.278641099567427
"ave" 0.00897815630951646
"laveB" 0.122959124770778
"agg" 0.160429005817041
"ave" 0.00316705362752281
"laveB" 0.0460143803656455
"agg" 0.468777139886769
"ave" 0.00893904386346949
"laveB" 0.147036925637282
"agg" 0.361913282921079
"ave" 0.00763608341731202
"laveB" 0.112984517347573
"agg" 0.369643796898692
"ave" 0.00727541811438842
"laveB" 0.121898449208133
"agg" 0.490314583731193
"ave" 0.00834512639089886
"laveB" 0.145260086813966
"agg" 0.0416811858936677
"ave" 0.00134319157423706
"laveB" 0.0347932779160882
"agg" 0.0369465168246345
"ave" 0.00146856014126578
"laveB" 0.00940118366846169
"agg" 0.0751373611993616
"ave" 0.00271430611017208
"laveB" 0.00791229962210045
"agg" 0.305618769369796
"ave" 0.0163992594083588
"laveB" 0.156852594473563
"agg" 0.254270695706519
"ave" 0.0130987792931692
"laveB" 0.109446165118461
"agg" 0.249694997809803
"ave" 0.0119004984512197
"laveB" 0.11356803131582
"agg" 0.276169406192592
"ave" 0.0157718684192712
"laveB" 0.125496907103935
"agg" 0.277525622181047
"ave" 0.00724082602457347
"laveB" 0.0748253296346889
"agg" 0.21777466327846
"ave" 0.0087356947079361
"laveB" 0.0942868261619874
"agg" 0.228064204873575
"ave" 0.0133594190336522
"laveB" 0.104493102310873
"agg" 0.278657355916911
"ave" 0.0165303968468965
"laveB" 0.115849020787321
"agg" 0.182646280151356
"ave" 0.00490943669595364
"laveB" 0.0483009302791601
"agg" 0.1801057690989
"ave" 0.00620992343413636
"laveB" 0.0514505917343393
"agg" -0.0337911728388158
"ave" -0.000942720714891094
"laveB" -0.033655351724061
"agg" -0.0113156400792647
"ave" 0.000405789239283497
"laveB" -0.0250427552961494
"agg" -0.0445558518634451
"ave" -0.00123582933417217
"laveB" -0.0157203157475631
"agg" 0.138411893722524
"ave" 0.00369979524036933
"laveB" 0.0399229022525547
"agg" -0.0257936607050969
"ave" -0.000354050684204213
"laveB" -0.0102083425165281
"agg" 0.00828335579588401
"ave" 0.0010482633460504
"laveB" 0.000517706518863356
"agg" 0.192647014960339
"ave" 0.00467182144354262
"laveB" 0.0611036236546836
"agg" 0.160291388221145
"ave" 0.00533450423462528
"laveB" 0.0482637860761057
"agg" 0.206274414181605
"ave" 0.00644714925215239
"laveB" 0.065033465242158
"agg" 0.224884248498831
"ave" 0.00999125473961508
"laveB" 0.0888528159955562
"agg" 0.151505579429084
"ave" 0.0076027787978528
"laveB" 0.0703401677184422
"agg" 0.18090242001271
"ave" 0.00806637607870791
"laveB" 0.0732007764797251
"agg" 0.222486243362465
"ave" 0.01092473101348
"laveB" 0.0880736927085371
"agg" 0.0734253510518965
"ave" 0.00192364549091655
"laveB" 0.00920220425725606
"agg" 0.0417991063907986
"ave" 0.00155266175790342
"laveB" 0.012978106379551
"agg" 0.108102101003579
"ave" 0.00562948337112425
"laveB" 0.0421636071583004
"agg" 0.117293806253177
"ave" 0.00635955553474479
"laveB" 0.0542557402120491
"agg" 0.0902419894234079
"ave" 0.00260330254306218
"laveB" 0.0245790300687372
"agg" 0.212613552755488
"ave" 0.00542978041843168
"laveB" 0.0575274379556095
"agg" 0.157957077903372
"ave" 0.00770622359931689
"laveB" 0.084217643742605
"agg" 0.120506834188327
"ave" 0.00581083371985495
"laveB" 0.061212780597103
"agg" 0.10369160987471
"ave" 0.00345173436160954
"laveB" 0.0420954297949058
"agg" 0.185804955621216
"ave" 0.00524380884886366
"laveB" 0.0677628341853558
"agg" 0.21047882595057
"ave" 0.00635876917826337
"laveB" 0.0775293132811648
"agg" 0.163383060478431
"ave" 0.00456472881629027
"laveB" 0.0537264523849693
"agg" 0.21246012180211
"ave" 0.00549018833064901
"laveB" 0.0679031288687573
"agg" 0.510794288401986
"ave" 0.0104195813455574
"laveB" 0.16829099033902
"agg" 0.288560685260419
"ave" 0.00911787127537086
"laveB" 0.0898434072536365
"agg" 0.273317136794623
"ave" 0.00946208969216131
"laveB" 0.118663360528981
"agg" 0.243071853972859
"ave" 0.0073621884241891
"laveB" 0.0786370508069116
"agg" 0.295330331715745
"ave" 0.00959708756616505
"laveB" 0.116782879391446
"agg" 0.00706565616105899
"ave" 0.000947071031548086
"laveB" 0.0331335823612657
"agg" 0.299642668517288
"ave" 0.00662570656090715
"laveB" 0.101538206629302
"agg" 0.37922454820706
"ave" 0.0131993735271602
"laveB" 0.148435143550252
"agg" 0.454378528844225
"ave" 0.0140777598448228
"laveB" 0.15527353890513
"agg" 0.511633704780749
"ave" 0.00976709409879413
"laveB" 0.13404781256288
"agg" 0.351895233533703
"ave" 0.00636554677024609
"laveB" 0.0732525762889328
"agg" 0.565983520133891
"ave" 0.0183070657015052
"laveB" 0.23149823494681
"agg" 0.573905447071376
"ave" 0.0163567484979996
"laveB" 0.229432781183857
"agg" 0.57801161809397
"ave" 0.01096515739085
"laveB" 0.186734708012189
"agg" 0.575335111350996
"ave" 0.00996107686299857
"laveB" 0.163791698926189
"agg" 0.649294367700828
"ave" 0.0124312617106049
"laveB" 0.204801542074215
"agg" 0.676395416728342
"ave" 0.0119499729403252
"laveB" 0.199282795117982
"agg" 0.564947205755294
"ave" 0.010144079174858
"laveB" 0.1754842032749
"agg" 0.459195720999453
"ave" 0.0150556416197286
"laveB" 0.187866220866065
"agg" 0.453819937222001
"ave" 0.0152823864381445
"laveB" 0.167723013198193
"agg" 0.196139061857902
"ave" 0.00533603898727201
"laveB" 0.0643578705422877
"agg" 0.368550912044103
"ave" 0.0128194308919486
"laveB" 0.137255448596475
"agg" 0.26879771609371
"ave" 0.00429850180087766
"laveB" 0.0641104919350188
"agg" 0.248238313870315
"ave" 0.005706936842642
"laveB" 0.079005558756877
"agg" 0.215597046766981
"ave" 0.00782136515385153
"laveB" 0.0834418476578547
"agg" 0.485744312787227
"ave" 0.0155406360908079
"laveB" 0.165703525127965
"agg" 0.429914072537454
"ave" 0.00809068515416134
"laveB" 0.108706265069774
"agg" 0.610380059711836
"ave" 0.0114561111173928
"laveB" 0.159818381410646
"agg" 0.467254433817823
"ave" 0.015759784670272
"laveB" 0.186993139158823
"agg" 0.442648301112045
"ave" 0.0131988677202716
"laveB" 0.169096816979177
"agg" 0.345920556606739
"ave" 0.00673368685612815
"laveB" 0.10608385299833
"agg" 0.591811692510062
"ave" 0.0103498375235867
"laveB" 0.183214424999438
"agg" 0.544772646537336
"ave" 0.0105834301954865
"laveB" 0.170465543961485
"agg" 0.486713787788494
"ave" 0.00864460158260881
"laveB" 0.12029900240974
"agg" 0.582185653296094
"ave" 0.00963838181583582
"laveB" 0.171592583313218
"agg" 0.808983193094242
"ave" 0.0415141258019078
"laveB" 0.369590500014962
"agg" 0.768009721966821
"ave" 0.0349084461296352
"laveB" 0.325337934771073
"agg" 0.79478324875613
"ave" 0.0419335141566438
"laveB" 0.319679434068932
"agg" 0.555923211110223
"ave" 0.0141706278656775
"laveB" 0.148969664779136
"agg" 0.505395605891369
"ave" 0.0178333553317359
"laveB" 0.172455621004114
"agg" 0.592500812377331
"ave" 0.0303519763067101
"laveB" 0.212525040158576
"agg" 0.507433387827672
"ave" 0.0250965326296255
"laveB" 0.161151881744992
"agg" 0.505045430965993
"ave" 0.0131768633102654
"laveB" 0.11273329525785
"agg" 0.447014880156171
"ave" 0.0123584117176712
"laveB" 0.108660334488871
"agg" 0.0397546789963219
"ave" 0.00175072531856383
"laveB" -0.0161976467563687
"agg" 0.12495231310277
"ave" 0.0056493372209434
"laveB" 0.00964373221473114
"agg" 0.264593670529493
"ave" 0.00738306089152732
"laveB" 0.0689233479989692
"agg" 0.508297779586587
"ave" 0.0131691811636786
"laveB" 0.169831034319839
"agg" 0.363279026772193
"ave" 0.0113510090718062
"laveB" 0.122721226440479
"agg" 0.436028540147882
"ave" 0.0122835816232248
"laveB" 0.141087475231667
"agg" 0.575918038447199
"ave" 0.0142108337457937
"laveB" 0.164519159052705
"agg" 0.741773405302585
"ave" 0.0360454190373965
"laveB" 0.345344457475596
"agg" 0.833338703889208
"ave" 0.0479688609398601
"laveB" 0.394214733603667
"agg" 0.549913180288856
"ave" 0.0142041684841761
"laveB" 0.153908491978648
"agg" 0.469091804873029
"ave" 0.0180095918231905
"laveB" 0.187063819496326
"agg" 0.532974626897311
"ave" 0.0287849559405738
"laveB" 0.215915460608388
"agg" 0.4608822842232
"ave" 0.0241861737959551
"laveB" 0.169220636729988
"agg" 0.47379653305024
"ave" 0.0130661965819882
"laveB" 0.116391987940101
"agg" 0.425843985769325
"ave" 0.0126243726315625
"laveB" 0.118470364036173
"agg" 0.00241819188679567
"ave" 0.00010162656101438
"laveB" 0.0183722408067774
"agg" 0.110583218578908
"ave" 0.00573178173744951
"laveB" 0.0510984862250766
"agg" 0.160926634457352
"ave" 0.00478190055563152
"laveB" 0.0714535309646234
"agg" 0.464654738258328
"ave" 0.0126253467898104
"laveB" 0.167891569980055
"agg" 0.289199120098765
"ave" 0.0101214988606734
"laveB" 0.134391330591437
"agg" 0.408958898466309
"ave" 0.0125584851389437
"laveB" 0.165996912948564
"agg" 0.559626860229054
"ave" 0.0145472680339383
"laveB" 0.195140729598223
"agg" 0.885207006284073
"ave" 0.0450855987841347
"laveB" 0.407519653931103
"agg" 0.550818385225599
"ave" 0.0140121758135554
"laveB" 0.192898771120245
"agg" 0.593788356059526
"ave" 0.0200803878888589
"laveB" 0.225233854409673
"agg" 0.782240268083441
"ave" 0.0383929470028092
"laveB" 0.322143211539182
"agg" 0.490296925596231
"ave" 0.0234328443695674
"laveB" 0.196001537875816
"agg" 0.502346553617174
"ave" 0.0121621836429222
"laveB" 0.127161301731879
"agg" 0.359114479477746
"ave" 0.00955672892979039
"laveB" 0.0834602395031949
"agg" 0.0535750232093414
"ave" 0.0023978175094554
"laveB" 0.0177415734283996
"agg" 0.163724619918563
"ave" 0.00729962335246948
"laveB" 0.0664595085772184
"agg" 0.35438644187933
"ave" 0.00947787227797311
"laveB" 0.134682845204804
"agg" 0.487085305925431
"ave" 0.011755321217131
"laveB" 0.169375255065192
"agg" 0.347707686832236
"ave" 0.0105863008079866
"laveB" 0.147748814807894
"agg" 0.482383425807307
"ave" 0.0128852816725747
"laveB" 0.171849072973876
"agg" 0.575057940054962
"ave" 0.0137399299184961
"laveB" 0.188890523911137
"agg" 0.599195272034848
"ave" 0.016817952277792
"laveB" 0.166184641309146
"agg" 0.68448455595969
"ave" 0.025811440640779
"laveB" 0.255279996262706
"agg" 0.762818922407291
"ave" 0.0413652175209413
"laveB" 0.306682281228168
"agg" 0.692561119563034
"ave" 0.0371908046275458
"laveB" 0.247753549176779
"agg" 0.577738477729248
"ave" 0.0154524839614906
"laveB" 0.153494279695123
"agg" 0.483353757415746
"ave" 0.0142338919886252
"laveB" 0.114600206959479
"agg" 0.125228442541426
"ave" 0.00547974144228421
"laveB" 0.057714418652867
"agg" 0.252446851811225
"ave" 0.0120285308009197
"laveB" 0.112344471590069
"agg" 0.2995480185484
"ave" 0.00849386809704536
"laveB" 0.10523881235067
"agg" 0.53223356678003
"ave" 0.0143829178922749
"laveB" 0.174468118333195
"agg" 0.399161149242325
"ave" 0.0129959310028514
"laveB" 0.158220914229614
"agg" 0.529016585960017
"ave" 0.015561239780768
"laveB" 0.183468080852856
"agg" 0.648413619393833
"ave" 0.0165242767389513
"laveB" 0.2072434023177
"agg" 0.579114874683738
"ave" 0.0112586358194152
"laveB" 0.168813608441753
"agg" 0.603033650591285
"ave" 0.0167592850951531
"laveB" 0.174763575321916
"agg" 0.490430905394169
"ave" 0.013131022596491
"laveB" 0.120321650605586
"agg" 0.491696070616266
"ave" 0.00650750971505265
"laveB" 0.0788949190054066
"agg" 0.341677969438026
"ave" 0.00469890106588844
"laveB" 0.044845563543547
"agg" -0.0859905975819124
"ave" -0.00134866906864456
"laveB" -0.0231746196255247
"agg" 0.0431664643905361
"ave" 0.0018728393692615
"laveB" 0.0102058237054552
"agg" 0.0651849834826147
"ave" 0.00159027264521147
"laveB" 0.0312145649714311
"agg" 0.332984192566182
"ave" 0.00466078476522085
"laveB" 0.075257169407849
"agg" 0.105539822488074
"ave" 0.00259478984919978
"laveB" 0.0445287691541658
"agg" 0.212421942244058
"ave" 0.00398929492589035
"laveB" 0.0621852707481993
"agg" 0.50223066677244
"ave" 0.00717380412691876
"laveB" 0.117169632242414
"agg" 0.802058181896354
"ave" 0.028235288779795
"laveB" 0.286564390526243
"agg" 0.789606237101982
"ave" 0.0272784404722332
"laveB" 0.261157654529235
"agg" 0.683371869295291
"ave" 0.0124781684517277
"laveB" 0.167789084076477
"agg" 0.444549491772708
"ave" 0.00821614588058495
"laveB" 0.0950966882746609
"agg" 0.155902527057114
"ave" 0.00536078074263536
"laveB" 0.0423563886559473
"agg" 0.281119827416691
"ave" 0.00895496057466906
"laveB" 0.100106425831923
"agg" 0.273211803424267
"ave" 0.00499086271423448
"laveB" 0.0787195765614352
"agg" 0.432000004879114
"ave" 0.00795090767140036
"laveB" 0.1386355161212
"agg" 0.379361130186031
"ave" 0.00798620555982855
"laveB" 0.120143971852677
"agg" 0.479558509777856
"ave" 0.00919530926263218
"laveB" 0.132027220866834
"agg" 0.570671321231988
"ave" 0.0103508742241423
"laveB" 0.171875947704161
"agg" 0.72568903566539
"ave" 0.0367121376020685
"laveB" 0.265973224410896
"agg" 0.778365407969898
"ave" 0.021461667521141
"laveB" 0.193220285092791
"agg" 0.446159375270587
"ave" 0.0132243645647885
"laveB" 0.0995684249797316
"agg" 0.196849950962344
"ave" 0.0108948237758246
"laveB" 0.0932775686033027
"agg" 0.368910723269725
"ave" 0.017579384627347
"laveB" 0.159350074361953
"agg" 0.448882792871745
"ave" 0.0130272690427615
"laveB" 0.157578772311046
"agg" 0.536728334456651
"ave" 0.0150745420786817
"laveB" 0.180510354884686
"agg" 0.450444159014801
"ave" 0.0149122700352778
"laveB" 0.174829848994234
"agg" 0.613251488654065
"ave" 0.0176965546612077
"laveB" 0.197840842270592
"agg" 0.675693193994993
"ave" 0.0181656717546615
"laveB" 0.219692289996542
"agg" 0.693724352905598
"ave" 0.0183607083698755
"laveB" 0.165149570400532
"agg" 0.666443715068756
"ave" 0.0178562116235217
"laveB" 0.156956729481433
"agg" 0.422127049702338
"ave" 0.0203168282294878
"laveB" 0.189340794036365
"agg" 0.498029549741804
"ave" 0.0219600209398176
"laveB" 0.204381930942309
"agg" 0.422649511725471
"ave" 0.0117304805757446
"laveB" 0.129314930142771
"agg" 0.584081850259312
"ave" 0.0149370646623382
"laveB" 0.174882512700611
"agg" 0.557121284990364
"ave" 0.0160448460309499
"laveB" 0.181217050408427
"agg" 0.622695560124166
"ave" 0.0166332739323719
"laveB" 0.168569684654051
"agg" 0.719675455751427
"ave" 0.0179617490594118
"laveB" 0.195642365696023
"agg" 0.622059597343853
"ave" 0.0105966454976848
"laveB" 0.105815068208444
"agg" 0.456028202860549
"ave" 0.0141643923599806
"laveB" 0.149482296081386
"agg" 0.587992204028129
"ave" 0.0155995422968088
"laveB" 0.187448182262279
"agg" 0.575198823279231
"ave" 0.00956005511558365
"laveB" 0.13143195122207
"agg" 0.679381303724631
"ave" 0.0103062035027165
"laveB" 0.143049509751237
"agg" 0.629186459949538
"ave" 0.0111984535901272
"laveB" 0.147552306189494
"agg" 0.729219926488868
"ave" 0.0116964793726264
"laveB" 0.167537078917723
"agg" 0.74187294949036
"ave" 0.0111538241223564
"laveB" 0.172512744597112
"agg" 0.549602777883736
"ave" 0.0160423474128212
"laveB" 0.182432803859956
"agg" 0.581934814631206
"ave" 0.0150875397794364
"laveB" 0.170963316589975
"agg" 0.446078283497234
"ave" 0.00771574483293527
"laveB" 0.0788248521220866
"agg" 0.64865003236325
"ave" 0.010064220715257
"laveB" 0.138390159676324
"agg" 0.60208469193283
"ave" 0.0109553643181924
"laveB" 0.128114460043732
"agg" 0.586988663034429
"ave" 0.00967488182001347
"laveB" 0.119335011194033
"agg" 0.622996909337283
"ave" 0.00895733456023753
"laveB" 0.123919958552239
"agg" 0.895997199802903
"ave" 0.0421466172203894
"laveB" 0.466018157902628
"agg" 0.766424343664018
"ave" 0.0232461987256356
"laveB" 0.297614094286836
"agg" 0.720565800466103
"ave" 0.0204649450098319
"laveB" 0.260184592586014
"agg" 0.779413769966644
"ave" 0.0235358304876929
"laveB" 0.291099923591688
"agg" 0.670636961177778
"ave" 0.0191942527161765
"laveB" 0.225611965607882
"agg" 0.539175447829135
"ave" 0.0144228928420383
"laveB" 0.199548993070215
"agg" 0.751591257384065
"ave" 0.0197795604235265
"laveB" 0.288420209657386
"agg" 0.768984089954787
"ave" 0.0194132188512238
"laveB" 0.266117364068216
"agg" 0.748454063225684
"ave" 0.0199933483159606
"laveB" 0.262993103713973
"agg" 0.767282191393204
"ave" 0.0196152241151294
"laveB" 0.265840119561472
"agg" 0.580874344916664
"ave" 0.0134949825233262
"laveB" 0.20611345384088
"agg" 0.79210760860288
"ave" 0.0126750141197739
"laveB" 0.222417470344088
"agg" 0.789910686162517
"ave" 0.0140775787830492
"laveB" 0.239064556632655
"agg" 0.762817504351718
"ave" 0.0126445493651397
"laveB" 0.199627505092918
"agg" 0.637899546107929
"ave" 0.0103033600177092
"laveB" 0.181131641066604
"agg" 0.8252518462417
"ave" 0.0136347712259273
"laveB" 0.230391511639187
"agg" 0.837414472678923
"ave" 0.0128838091069894
"laveB" 0.218393495263602
"agg" 0.794324919418352
"ave" 0.0109518264100799
"laveB" 0.197706660999047
"agg" 0.880932793395504
"ave" 0.014593839753826
"laveB" 0.229564206540656
"agg" 0.752464166229284
"ave" 0.0121805422554818
"laveB" 0.202305141305868
"agg" 0.794246333298585
"ave" 0.011596680012805
"laveB" 0.216419869912904
