"EST" "CORR"
"agg" 0.866113252863436
"ave" 0.0241506318854219
"laveB" 0.31307637189715
"agg" 0.829248214147851
"ave" 0.0448387193844584
"laveB" 0.40414508947857
"agg" 0.782250696005718
"ave" 0.0419515403442951
"laveB" 0.39821199422279
"agg" 0.872706712666241
"ave" 0.0204567811529085
"laveB" 0.269699912575548
"agg" 0.867065516328009
"ave" 0.0197188995223372
"laveB" 0.256228007794211
"agg" 0.740289328765471
"ave" 0.0301019971294668
"laveB" 0.34481897258115
"agg" 0.766064949241338
"ave" 0.0330032614872365
"laveB" 0.358794975929748
"agg" 0.784703153094277
"ave" 0.0329814188374314
"laveB" 0.384977050540011
"agg" 0.814043775356871
"ave" 0.033934779407638
"laveB" 0.390154758479005
"agg" 0.581017222953409
"ave" 0.0255604358006366
"laveB" 0.252317201002348
"agg" 0.583014314536192
"ave" 0.0260576712028206
"laveB" 0.280133286100474
"agg" 0.565588099453736
"ave" 0.0271092644088971
"laveB" 0.304639997344532
"agg" 0.53666472704947
"ave" 0.0207037232139857
"laveB" 0.243734266351242
"agg" 0.704088553433119
"ave" 0.0341574326391662
"laveB" 0.355252004177364
"agg" 0.74039006251189
"ave" 0.0356830460113648
"laveB" 0.38029856158639
"agg" 0.805118009764205
"ave" 0.0247480026631906
"laveB" 0.331660634234142
"agg" 0.758696627078186
"ave" 0.0180151536375963
"laveB" 0.254740800442744
"agg" 0.564662761103632
"ave" 0.0188319111220061
"laveB" 0.252466265770406
"agg" 0.547616409182829
"ave" 0.0177303994833156
"laveB" 0.242167849904572
"agg" 0.528442926120001
"ave" 0.0148055501323115
"laveB" 0.216566552076933
"agg" 0.404052421669648
"ave" 0.0120524641955416
"laveB" 0.160502449606774
"agg" 0.129569198891501
"ave" 0.00285828383536333
"laveB" 0.0619176692105194
"agg" 0.235829770574448
"ave" 0.00510014915668192
"laveB" 0.0935090895069673
"agg" -0.0949655045181689
"ave" -0.00302339225247492
"laveB" -0.0353885521509943
"agg" -0.0169506642520478
"ave" -0.000187207043774472
"laveB" -0.000333306218282972
"agg" 0.352050613404482
"ave" 0.00799504697148557
"laveB" 0.120292839930353
"agg" 0.427998059023318
"ave" 0.00873678958590087
"laveB" 0.149761812740248
"agg" 0.480939117056247
"ave" 0.0138124241660676
"laveB" 0.209737450240004
"agg" 0.437905172702544
"ave" 0.0136214724258384
"laveB" 0.163179584763823
"agg" 0.707809501670614
"ave" 0.0203006448481663
"laveB" 0.304460653952036
"agg" 0.742488230241288
"ave" 0.0243381068721655
"laveB" 0.330261897791486
"agg" 0.350377555974119
"ave" 0.00596775878538714
"laveB" 0.079916128389117
"agg" 0.655665433928709
"ave" 0.0112019253527546
"laveB" 0.172046650197185
"agg" 0.786015427144965
"ave" 0.0292010073505228
"laveB" 0.344920538422231
"agg" 0.801410532695849
"ave" 0.0275685203789882
"laveB" 0.323408811016726
"agg" 0.728495195430065
"ave" 0.0142440365215221
"laveB" 0.181187531537752
"agg" 0.767201997214266
"ave" 0.0191442482184873
"laveB" 0.247994432823297
"agg" 0.57676564492414
"ave" 0.0165531004573119
"laveB" 0.22236844800773
"agg" 0.581673111539482
"ave" 0.0164702780850577
"laveB" 0.240914718028488
"agg" 0.75114459107035
"ave" 0.0125150917045621
"laveB" 0.217626680025602
"agg" 0.689499609232683
"ave" 0.0136867482227678
"laveB" 0.20751732741702
"agg" 0.729559523272284
"ave" 0.0126404673267449
"laveB" 0.198629597476643
"agg" 0.661374359495419
"ave" 0.014305674346611
"laveB" 0.234827902716652
"agg" 0.623535750628133
"ave" 0.0111498602588014
"laveB" 0.161570335710456
"agg" 0.831210760070963
"ave" 0.0432894724127712
"laveB" 0.39252718541596
"agg" 0.806885735663339
"ave" 0.0418575829250078
"laveB" 0.367897614122639
"agg" 0.789185276708199
"ave" 0.018262266329292
"laveB" 0.240708492161937
"agg" 0.897477152793559
"ave" 0.0201471847858221
"laveB" 0.259150849436593
"agg" 0.675940163994638
"ave" 0.0273054123935286
"laveB" 0.282159252033316
"agg" 0.636573274472099
"ave" 0.0269333323608004
"laveB" 0.285150660311055
"agg" 0.801200649692798
"ave" 0.0324658324361576
"laveB" 0.349886488866445
"agg" 0.783122436014642
"ave" 0.0319692863226698
"laveB" 0.353984025352998
"agg" 0.552731173884979
"ave" 0.023790686855686
"laveB" 0.247926459725284
"agg" 0.580499185180529
"ave" 0.0253219112143803
"laveB" 0.2501947141357
"agg" 0.458083673017386
"ave" 0.0218140824460943
"laveB" 0.228616407587294
"agg" 0.49504539397294
"ave" 0.018759139622039
"laveB" 0.21577275948619
"agg" 0.58072438123624
"ave" 0.027819932919853
"laveB" 0.275927907334652
"agg" 0.697257754442176
"ave" 0.0335039886944139
"laveB" 0.331809363746783
"agg" 0.766295062902143
"ave" 0.0231624251642098
"laveB" 0.290640458598936
"agg" 0.730026822791055
"ave" 0.0171071583355316
"laveB" 0.225611360679532
"agg" 0.52802868272799
"ave" 0.0174229051845049
"laveB" 0.213183408127939
"agg" 0.510390909205174
"ave" 0.0162181080468908
"laveB" 0.1994502978684
"agg" 0.611265391697542
"ave" 0.0165055224207783
"laveB" 0.235673264409224
"agg" 0.382516061503564
"ave" 0.0110112069724336
"laveB" 0.152401720087516
"agg" 0.0485196293057718
"ave" 0.00100006957234387
"laveB" 0.0149826468142826
"agg" 0.251134502804314
"ave" 0.00542550771763721
"laveB" 0.0884252144335321
"agg" -0.132488198763208
"ave" -0.00409934569357051
"laveB" -0.0307544481940848
"agg" 0.0625853477260645
"ave" 0.00185416935125551
"laveB" 0.0311427772732352
"agg" 0.231647761404564
"ave" 0.00488638388268135
"laveB" 0.0783577896086975
"agg" 0.418744306631498
"ave" 0.00848648971879109
"laveB" 0.132987540800358
"agg" 0.312610508802392
"ave" 0.00971154984314298
"laveB" 0.128980207543003
"agg" 0.333696167883803
"ave" 0.0102025991677921
"laveB" 0.105737455259848
"agg" 0.576498643309101
"ave" 0.0165279137847066
"laveB" 0.24003887640955
"agg" 0.661148707599551
"ave" 0.0216073025634666
"laveB" 0.253259938393634
"agg" 0.244942757458162
"ave" 0.00405423083187375
"laveB" 0.0578092765204158
"agg" 0.638048640921757
"ave" 0.0100152576239768
"laveB" 0.161354448314477
"agg" 0.639498343718069
"ave" 0.0234907932959687
"laveB" 0.268118465214109
"agg" 0.764550459387565
"ave" 0.0254340645498583
"laveB" 0.268459555100251
"agg" 0.633605755141755
"ave" 0.0119719205523695
"laveB" 0.145193952864664
"agg" 0.769469012303173
"ave" 0.0180566714454606
"laveB" 0.238413717039493
"agg" 0.568916562371931
"ave" 0.0154520612640088
"laveB" 0.20983826869317
"agg" 0.625541698449356
"ave" 0.0167981598520369
"laveB" 0.241978284633563
"agg" 0.719831613380813
"ave" 0.0117409421618744
"laveB" 0.194936162631978
"agg" 0.783240633368764
"ave" 0.0151329103234923
"laveB" 0.231723610347474
"agg" 0.736333435936366
"ave" 0.0124749995610327
"laveB" 0.21113136989863
"agg" 0.709128285470766
"ave" 0.0148601918503644
"laveB" 0.241692218316355
"agg" 0.710009093145974
"ave" 0.0121531756847673
"laveB" 0.176703707939471
"agg" 0.966497924956048
"ave" 0.0916317525037468
"laveB" 0.577928247917834
"agg" 0.799868760781398
"ave" 0.0365519021337325
"laveB" 0.325832792311291
"agg" 0.815985192146278
"ave" 0.0346621458855718
"laveB" 0.329352934739856
"agg" 0.664838513749179
"ave" 0.0534367924885761
"laveB" 0.396605190745364
"agg" 0.599877598551889
"ave" 0.0497382909210695
"laveB" 0.364398013766816
"agg" 0.862458354939744
"ave" 0.0663054512609428
"laveB" 0.510687718296885
"agg" 0.840359875564075
"ave" 0.0643346138555396
"laveB" 0.51613575840083
"agg" 0.568561359910832
"ave" 0.0488552871671935
"laveB" 0.318385041028109
"agg" 0.507796130842426
"ave" 0.0425825784446572
"laveB" 0.308109382777877
"agg" 0.38349127487308
"ave" 0.0394163170850515
"laveB" 0.271668248924017
"agg" 0.310770862669277
"ave" 0.0235171191820379
"laveB" 0.177885293720233
"agg" 0.590816014400159
"ave" 0.0563405479288169
"laveB" 0.403135616823202
"agg" 0.708079407771615
"ave" 0.0644908471747541
"laveB" 0.457482047786384
"agg" 0.831202307236645
"ave" 0.0479757289413803
"laveB" 0.42682135581346
"agg" 0.687854037863844
"ave" 0.0307455169991072
"laveB" 0.298693545213372
"agg" 0.430729825924751
"ave" 0.0286565549858223
"laveB" 0.243875632052678
"agg" 0.371581918252371
"ave" 0.0241563014454212
"laveB" 0.190265811736054
"agg" 0.598310453469796
"ave" 0.0311363642059353
"laveB" 0.30501558495266
"agg" 0.254073301445446
"ave" 0.0146371278206364
"laveB" 0.156212836499937
"agg" -0.102031675584996
"ave" -0.00312007290459193
"laveB" -0.0355642991447218
"agg" 0.121926959925662
"ave" 0.00648068875061994
"laveB" 0.0549106248257204
"agg" -0.242706459152311
"ave" -0.0141392724993292
"laveB" -0.108497669539434
"agg" -0.0137483400110353
"ave" -9.23197846705594e-05
"laveB" 0.00180444911923135
"agg" 0.298832043867204
"ave" 0.0123655832756701
"laveB" 0.147199372348701
"agg" 0.370297127504207
"ave" 0.0143022783763669
"laveB" 0.158447989453558
"agg" 0.25983516641999
"ave" 0.0162257525777135
"laveB" 0.153691004448834
"agg" 0.234703351355563
"ave" 0.0134494382085033
"laveB" 0.0950304888748001
"agg" 0.438567853162931
"ave" 0.0269487856513086
"laveB" 0.269645069330792
"agg" 0.484144258660338
"ave" 0.0305152165619647
"laveB" 0.272216548720727
"agg" 0.073624667397365
"ave" 0.00344879686945038
"laveB" 0.0275261399206796
"agg" 0.483513007853274
"ave" 0.0147194555835795
"laveB" 0.155319071221359
"agg" 0.587196281307112
"ave" 0.0435876837005051
"laveB" 0.334945611084694
"agg" 0.700730580340312
"ave" 0.0448075010588457
"laveB" 0.355885759915618
"agg" 0.70612834906508
"ave" 0.0261922456448523
"laveB" 0.244898197553885
"agg" 0.805906913397578
"ave" 0.0360471883757819
"laveB" 0.312677661431955
"agg" 0.823062759626155
"ave" 0.0416991802139823
"laveB" 0.401364667261021
"agg" 0.831234945802597
"ave" 0.0419499044981752
"laveB" 0.426331168598866
"agg" 0.77099940521025
"ave" 0.0246703795112295
"laveB" 0.27236288328919
"agg" 0.782313874686458
"ave" 0.0292950541400339
"laveB" 0.315150799028114
"agg" 0.83996651451432
"ave" 0.0270972920817068
"laveB" 0.302231370467463
"agg" 0.836672028881642
"ave" 0.0336791935943301
"laveB" 0.369531994898172
"agg" 0.688970025440622
"ave" 0.0230518235579499
"laveB" 0.243513392904011
"agg" 0.741456470239022
"ave" 0.0332355736343264
"laveB" 0.287746567218267
"agg" 0.795532181567685
"ave" 0.0338051790140937
"laveB" 0.29904223685302
"agg" 0.590905629457482
"ave" 0.0459923285766556
"laveB" 0.344715650619208
"agg" 0.548590043501208
"ave" 0.0452100698311039
"laveB" 0.341934819582688
"agg" 0.793643926186894
"ave" 0.0598289529594046
"laveB" 0.470977416068617
"agg" 0.808669686137248
"ave" 0.061433106580179
"laveB" 0.496788032137444
"agg" 0.461346215584886
"ave" 0.037906450682554
"laveB" 0.252073459056484
"agg" 0.458893110359069
"ave" 0.038490691893357
"laveB" 0.257682755323934
"agg" 0.283892231282316
"ave" 0.0279119958136124
"laveB" 0.192034125360684
"agg" 0.250899512116063
"ave" 0.0192149620060647
"laveB" 0.146943629897437
"agg" 0.519873352275913
"ave" 0.047020768605037
"laveB" 0.340394105331496
"agg" 0.678464423475135
"ave" 0.061957341699078
"laveB" 0.433898854901113
"agg" 0.775867895444321
"ave" 0.0438507217672197
"laveB" 0.385356813066907
"agg" 0.631213134637434
"ave" 0.0278845481788399
"laveB" 0.26268366375201
"agg" 0.393233828849962
"ave" 0.0260897409456062
"laveB" 0.20741198797837
"agg" 0.311599727155233
"ave" 0.0197734146074715
"laveB" 0.158268489406938
"agg" 0.557128750921516
"ave" 0.0285813147815027
"laveB" 0.299408817550287
"agg" 0.280884319941939
"ave" 0.0167988560696687
"laveB" 0.161076193718492
"agg" -0.116048042032483
"ave" -0.0035812282031699
"laveB" -0.0453866354315511
"agg" 0.0638731197458941
"ave" 0.00361792687853663
"laveB" 0.0320553416918257
"agg" -0.258138495697496
"ave" -0.014657378740851
"laveB" -0.107542559869669
"agg" -0.0543501828770355
"ave" -0.00274380100954649
"laveB" -0.00958570223156972
"agg" 0.32046509871197
"ave" 0.0136296854016002
"laveB" 0.154232175946216
"agg" 0.406521765653739
"ave" 0.0154861319393401
"laveB" 0.175762274329042
"agg" 0.202073737201587
"ave" 0.0127992913359793
"laveB" 0.129581924606988
"agg" 0.22274831754845
"ave" 0.0127461990330205
"laveB" 0.09355537302718
"agg" 0.366883307728166
"ave" 0.0219966343954084
"laveB" 0.221251627877508
"agg" 0.432902372468981
"ave" 0.0276939900565501
"laveB" 0.242347866389929
"agg" 0.0977647496259338
"ave" 0.00424469783820963
"laveB" 0.0309504954987053
"agg" 0.440671269665062
"ave" 0.0136101518250489
"laveB" 0.155486028234756
"agg" 0.528240519489586
"ave" 0.0379169674726761
"laveB" 0.284375735211239
"agg" 0.662328264845096
"ave" 0.0423107487812909
"laveB" 0.294388162940521
"agg" 0.633397039922371
"ave" 0.0224914464709592
"laveB" 0.193490843968713
"agg" 0.782320347189959
"ave" 0.0348725136620488
"laveB" 0.306616898511389
"agg" 0.79419658776574
"ave" 0.0387989272369647
"laveB" 0.384843165944364
"agg" 0.779437932797033
"ave" 0.0386276496299667
"laveB" 0.377589406888189
"agg" 0.732441689284105
"ave" 0.0232614127973019
"laveB" 0.267976377109767
"agg" 0.744866851929014
"ave" 0.027638623883446
"laveB" 0.285026469066556
"agg" 0.79197889906752
"ave" 0.0250437294800033
"laveB" 0.262783134416696
"agg" 0.780485653212119
"ave" 0.0308658194712878
"laveB" 0.336770887996553
"agg" 0.676267463260105
"ave" 0.0223661949112127
"laveB" 0.223086204082188
"agg" 0.833557293002494
"ave" 0.0158680891714769
"laveB" 0.185227239350287
"agg" 0.762364196578998
"ave" 0.0262611686214676
"laveB" 0.285758450855759
"agg" 0.723332712246823
"ave" 0.0253701183524152
"laveB" 0.257714546233966
"agg" 0.798322999870449
"ave" 0.0278576132617143
"laveB" 0.293328980100055
"agg" 0.813978907057994
"ave" 0.0281358416172799
"laveB" 0.309172125968597
"agg" 0.64632930290143
"ave" 0.0239233253243152
"laveB" 0.222763807235973
"agg" 0.615544016983452
"ave" 0.0221942497396186
"laveB" 0.23350192786552
"agg" 0.625445738224576
"ave" 0.0253960806972757
"laveB" 0.245258972050234
"agg" 0.553632219828579
"ave" 0.0175348094790551
"laveB" 0.185923414138638
"agg" 0.701884879656096
"ave" 0.0286894411614433
"laveB" 0.302182648201851
"agg" 0.720056024654504
"ave" 0.028142105133332
"laveB" 0.282294806546027
"agg" 0.792941653878943
"ave" 0.0201820718921691
"laveB" 0.23863309049759
"agg" 0.706440185665355
"ave" 0.0137100613023787
"laveB" 0.170592538623598
"agg" 0.47083640145459
"ave" 0.0126330819208493
"laveB" 0.1431372110818
"agg" 0.471588719404874
"ave" 0.0124473976823461
"laveB" 0.139466204820248
"agg" 0.527725240625731
"ave" 0.0126426095969493
"laveB" 0.187459285915238
"agg" 0.373762736152789
"ave" 0.00888493176131945
"laveB" 0.118500338940193
"agg" 0.0896375738409037
"ave" 0.00144614886375858
"laveB" 0.0231073289629284
"agg" 0.25057917294696
"ave" 0.00492184483629145
"laveB" 0.0717496314010212
"agg" -0.104996768903881
"ave" -0.00304543270531731
"laveB" -0.0414912840821941
"agg" -0.00574190930179849
"ave" 0.000317051956236701
"laveB" 0.0217363200328703
"agg" 0.275922314802064
"ave" 0.00479611783813993
"laveB" 0.0919894199330785
"agg" 0.328333403060519
"ave" 0.00535397910905305
"laveB" 0.0800707731983186
"agg" 0.394247084155431
"ave" 0.00965957869836751
"laveB" 0.137159349163508
"agg" 0.391374918971009
"ave" 0.00885799410535753
"laveB" 0.0987170844700763
"agg" 0.680060234125861
"ave" 0.0165670172404101
"laveB" 0.233049915961255
"agg" 0.693816982037131
"ave" 0.0183043716015096
"laveB" 0.227173342099395
"agg" 0.296445583395188
"ave" 0.00361287079889938
"laveB" 0.0570231722497178
"agg" 0.611742430050383
"ave" 0.00826731514138449
"laveB" 0.120448924407626
"agg" 0.777576394095844
"ave" 0.0239173943120108
"laveB" 0.262272283218007
"agg" 0.794170489249369
"ave" 0.0222752931108767
"laveB" 0.238786094922601
"agg" 0.773983797923651
"ave" 0.012663066612432
"laveB" 0.163435461600243
"agg" 0.780486154279013
"ave" 0.0160109193764309
"laveB" 0.200611580875165
"agg" 0.592220558597122
"ave" 0.0146760826560771
"laveB" 0.206637225831815
"agg" 0.641029441416208
"ave" 0.0154661319694748
"laveB" 0.224289262913055
"agg" 0.710574579494731
"ave" 0.00991701805000659
"laveB" 0.168045687286598
"agg" 0.708700898958296
"ave" 0.011917479656657
"laveB" 0.181330456102573
"agg" 0.808821448361655
"ave" 0.0117153607663113
"laveB" 0.18998885791035
"agg" 0.724569691244213
"ave" 0.013306043628613
"laveB" 0.217232332821865
"agg" 0.598018794766511
"ave" 0.00906861599191221
"laveB" 0.139969906639121
"agg" 0.722630952387948
"ave" 0.024093283008642
"laveB" 0.275701790991028
"agg" 0.686079447357677
"ave" 0.0239657662316992
"laveB" 0.245457412609192
"agg" 0.804000063112754
"ave" 0.0268653790076496
"laveB" 0.294384466569744
"agg" 0.81762408184425
"ave" 0.0275485343589073
"laveB" 0.313923256302603
"agg" 0.586091785142508
"ave" 0.0210312349770257
"laveB" 0.216807720138452
"agg" 0.652763229251387
"ave" 0.0237015829677825
"laveB" 0.250636094739676
"agg" 0.520812345901223
"ave" 0.0206459482201366
"laveB" 0.220064486528997
"agg" 0.57179870396245
"ave" 0.0186784224663362
"laveB" 0.228640720331342
"agg" 0.58740532161602
"ave" 0.0231351524431837
"laveB" 0.238488746010731
"agg" 0.706033777329355
"ave" 0.0279463521837971
"laveB" 0.286297473716778
"agg" 0.735870959969002
"ave" 0.018407125871536
"laveB" 0.227276410173011
"agg" 0.672433330046173
"ave" 0.0133598065813704
"laveB" 0.180757092648121
"agg" 0.531614039239923
"ave" 0.0143358345694453
"laveB" 0.180889911886234
"agg" 0.551700046253425
"ave" 0.0144424847653574
"laveB" 0.186530957121794
"agg" 0.593114895336493
"ave" 0.0130966497904057
"laveB" 0.190356423366659
"agg" 0.357778417180703
"ave" 0.00917085655756933
"laveB" 0.124488448553871
"agg" 0.0456873140427131
"ave" 0.0012240358334716
"laveB" 0.025063130705033
"agg" 0.295744886712876
"ave" 0.00531423929820095
"laveB" 0.0919418294646186
"agg" -0.127807557674433
"ave" -0.00282365243995321
"laveB" -0.023265725690014
"agg" 0.0680144024552967
"ave" 0.0016560620618172
"laveB" 0.0321108786411661
"agg" 0.156812494337381
"ave" 0.00279589169772331
"laveB" 0.0289013325882396
"agg" 0.364879226679668
"ave" 0.00620665129082146
"laveB" 0.104649523380806
"agg" 0.35107410763298
"ave" 0.00892792691030245
"laveB" 0.131409118813784
"agg" 0.349129411932125
"ave" 0.00908189235583057
"laveB" 0.100239354676429
"agg" 0.628945595353295
"ave" 0.0153106991591166
"laveB" 0.220445142639008
"agg" 0.702180463740475
"ave" 0.0192517527487943
"laveB" 0.241601289709145
"agg" 0.294649254787165
"ave" 0.00433739236801008
"laveB" 0.0533304950840462
"agg" 0.63991945973417
"ave" 0.00842491713084733
"laveB" 0.147597291125892
"agg" 0.685138147378113
"ave" 0.0208710226607014
"laveB" 0.247147741986594
"agg" 0.816389033675714
"ave" 0.0223694144134888
"laveB" 0.25909008874098
"agg" 0.648510492472432
"ave" 0.0103023927307984
"laveB" 0.137989161024611
"agg" 0.812778020738247
"ave" 0.0157254630450559
"laveB" 0.210276753903171
"agg" 0.525635462121384
"ave" 0.0113744271052035
"laveB" 0.149877030119247
"agg" 0.584883655954662
"ave" 0.012668459065796
"laveB" 0.17504057765836
"agg" 0.694141892973803
"ave" 0.00931335201127931
"laveB" 0.144996214324483
"agg" 0.772143004160584
"ave" 0.0122717860159992
"laveB" 0.184776616946594
"agg" 0.727906605468502
"ave" 0.0100509861779427
"laveB" 0.168921852251473
"agg" 0.689513299072658
"ave" 0.0116672744300306
"laveB" 0.182660311785787
"agg" 0.680191776219408
"ave" 0.0094962221223311
"laveB" 0.137984216583895
"agg" 0.860333138212124
"ave" 0.0549027366696399
"laveB" 0.454705564901268
"agg" 0.793642494256658
"ave" 0.0511967907632143
"laveB" 0.437792957518458
"agg" 0.735634469058619
"ave" 0.0463972115690287
"laveB" 0.418789861523172
"agg" 0.708628819356967
"ave" 0.0487091519642007
"laveB" 0.374529729326372
"agg" 0.585171348562809
"ave" 0.0389045680561052
"laveB" 0.296508047744699
"agg" 0.754330665379574
"ave" 0.0571835524410128
"laveB" 0.434194608893379
"agg" 0.673846323016021
"ave" 0.0388017510463706
"laveB" 0.33974864101899
"agg" 0.700376451136466
"ave" 0.052742319274453
"laveB" 0.405637308465696
"agg" 0.628669265679176
"ave" 0.0447261065231656
"laveB" 0.355622658740736
"agg" 0.688064829811428
"ave" 0.0322786259144937
"laveB" 0.341403600676456
"agg" 0.584312143494064
"ave" 0.0209202228012222
"laveB" 0.220636496393984
"agg" 0.657092907581867
"ave" 0.0331758813062444
"laveB" 0.319248817585883
"agg" 0.659291150159964
"ave" 0.0328388623759318
"laveB" 0.29418940920396
"agg" 0.484802522320218
"ave" 0.02031619270637
"laveB" 0.218416769310552
"agg" 0.180688095399668
"ave" 0.00687821266274873
"laveB" 0.0905645830584313
"agg" 0.0115350730187842
"ave" 0.000203277797128036
"laveB" 0.012853857056967
"agg" 0.349479511511829
"ave" 0.0121596834295616
"laveB" 0.13806859072486
"agg" -0.0398188817907874
"ave" -0.0024387735374913
"laveB" -0.0299549924721663
"agg" 0.179226448309013
"ave" 0.00926439460228622
"laveB" 0.0901590234902291
"agg" 0.0714195902707756
"ave" 0.00176893720505262
"laveB" 0.0306102881800439
"agg" 0.174080600852359
"ave" 0.00514754785624777
"laveB" 0.0838353516575228
"agg" 0.418027470285172
"ave" 0.0185749990385318
"laveB" 0.207880648987799
"agg" 0.331228103452565
"ave" 0.0127538304153887
"laveB" 0.101569118025378
"agg" 0.703901697362397
"ave" 0.0329205210077297
"laveB" 0.336458839965467
"agg" 0.74050666977494
"ave" 0.0360531936183534
"laveB" 0.342368650857805
"agg" 0.221088451631782
"ave" 0.00549513791715713
"laveB" 0.0678782645518303
"agg" 0.626388068932841
"ave" 0.0142805690418005
"laveB" 0.161061154299417
"agg" 0.750644814466686
"ave" 0.0437619231189694
"laveB" 0.349457401995382
"agg" 0.777157219948997
"ave" 0.0385285194962694
"laveB" 0.334893834870526
"agg" 0.710634158665351
"ave" 0.0216773018651308
"laveB" 0.215737953445868
"agg" 0.696993803166639
"ave" 0.0246951236068876
"laveB" 0.246805597783683
"agg" 0.446825004759561
"ave" 0.0200883729122509
"laveB" 0.230958019486933
"agg" 0.517217742325781
"ave" 0.0215885005995457
"laveB" 0.259044828183553
"agg" 0.58935324067582
"ave" 0.0144469440468174
"laveB" 0.177908506350384
"agg" 0.605571726638683
"ave" 0.0178285097181107
"laveB" 0.215894313939538
"agg" 0.63954813654183
"ave" 0.0167413456557467
"laveB" 0.22418878603268
"agg" 0.64104945297112
"ave" 0.0208558314556863
"laveB" 0.267769047651612
"agg" 0.474006194760587
"ave" 0.0123614809937765
"laveB" 0.145428439931832
"agg" 0.705214792188221
"ave" 0.04669937492497
"laveB" 0.399360464573548
"agg" 0.754740211488021
"ave" 0.0503531845311887
"laveB" 0.440292016419175
"agg" 0.547910400391846
"ave" 0.0369712685431256
"laveB" 0.279965298993459
"agg" 0.536571136510226
"ave" 0.0387763339508171
"laveB" 0.306545296427923
"agg" 0.632576404278197
"ave" 0.0472153295061871
"laveB" 0.363972968241868
"agg" 0.66473978977863
"ave" 0.0425512509756874
"laveB" 0.35227265235017
"agg" 0.698110432120294
"ave" 0.0528237671496253
"laveB" 0.411995306527057
"agg" 0.645299719201795
"ave" 0.0485068588563028
"laveB" 0.382872248977316
"agg" 0.668956250314095
"ave" 0.0322685888561186
"laveB" 0.32420780174283
"agg" 0.621263523252872
"ave" 0.0238989668037734
"laveB" 0.262177957499751
"agg" 0.731778082970186
"ave" 0.038985785398396
"laveB" 0.350498509957657
"agg" 0.711184677102378
"ave" 0.0375338811840299
"laveB" 0.354434069095543
"agg" 0.396630550381929
"ave" 0.016670114380627
"laveB" 0.191003356323468
"agg" 0.388357779760038
"ave" 0.0189538620642571
"laveB" 0.184178440472157
"agg" 0.193094751449769
"ave" 0.007825037970936
"laveB" 0.0941026810539084
"agg" 0.274547031299769
"ave" 0.00966486945683628
"laveB" 0.112693864337541
"agg" 0.050680355963456
"ave" 0.00333734433002681
"laveB" 0.0124153488816097
"agg" 0.0415052387343691
"ave" 0.00239814324901132
"laveB" 0.0146939851269806
"agg" 0.282476957256232
"ave" 0.0111546506266856
"laveB" 0.125594013160971
"agg" 0.293882200531602
"ave" 0.00889095288354307
"laveB" 0.1238483376257
"agg" 0.584524207736826
"ave" 0.0272662741873936
"laveB" 0.296180125630581
"agg" 0.534848692853847
"ave" 0.0271133853648188
"laveB" 0.217415419022674
"agg" 0.803495065289868
"ave" 0.0369717573136937
"laveB" 0.375457637250215
"agg" 0.868026172032312
"ave" 0.047537207515533
"laveB" 0.457258012940201
"agg" 0.447633395657045
"ave" 0.0126139428101188
"laveB" 0.145781303976511
"agg" 0.666401206437013
"ave" 0.0200503158582397
"laveB" 0.227868995267929
"agg" 0.82471643612824
"ave" 0.0485881044692073
"laveB" 0.411950280395567
"agg" 0.773211432276596
"ave" 0.0426287906789169
"laveB" 0.345802434933379
"agg" 0.663146999962346
"ave" 0.0207317562472582
"laveB" 0.203779826144933
"agg" 0.613546195582185
"ave" 0.024864899849097
"laveB" 0.232374136981462
"agg" 0.326151017168717
"ave" 0.0141934140879615
"laveB" 0.168136129967794
"agg" 0.373183127107828
"ave" 0.0156245212386596
"laveB" 0.197355718905396
"agg" 0.604271962672902
"ave" 0.0151617844542245
"laveB" 0.201754824118921
"agg" 0.502243534184311
"ave" 0.0150156045553016
"laveB" 0.18742858869643
"agg" 0.529158319249689
"ave" 0.0138214240829257
"laveB" 0.193044861732299
"agg" 0.501659201327238
"ave" 0.0158069283033828
"laveB" 0.206320322681168
"agg" 0.37956271884409
"ave" 0.0100433173239555
"laveB" 0.113786976887245
"agg" 0.897517769516876
"ave" 0.0547957135987495
"laveB" 0.505997102292758
"agg" 0.80091898246335
"ave" 0.053687455673681
"laveB" 0.424522488384388
"agg" 0.692334777960591
"ave" 0.0455046545143093
"laveB" 0.38100951207694
"agg" 0.606819374562171
"ave" 0.0472644620217524
"laveB" 0.369790623227544
"agg" 0.564651583433824
"ave" 0.0342590118472195
"laveB" 0.306814319491705
"agg" 0.677862909631478
"ave" 0.0506959590906208
"laveB" 0.405962767663891
"agg" 0.778008808089037
"ave" 0.0552760405559947
"laveB" 0.462303265788464
"agg" 0.83728897934006
"ave" 0.0382023600645876
"laveB" 0.402113509384745
"agg" 0.729260966470437
"ave" 0.025878870610772
"laveB" 0.30169707817838
"agg" 0.557510533973576
"ave" 0.0292744673073958
"laveB" 0.274526736851579
"agg" 0.52044109006673
"ave" 0.0271827275204488
"laveB" 0.268001746821124
"agg" 0.663282779068605
"ave" 0.0270884065929804
"laveB" 0.316789622771998
"agg" 0.255594324395016
"ave" 0.0111630118052014
"laveB" 0.132412838991882
"agg" 0.0142367722438911
"ave" 0.00104884762098229
"laveB" 0.0305541686350477
"agg" 0.256235103460814
"ave" 0.00946475512143231
"laveB" 0.103103640311342
"agg" -0.160792383821634
"ave" -0.00696864969944762
"laveB" -0.0659725659075949
"agg" 0.154710837185512
"ave" 0.00749678635865912
"laveB" 0.0814344146829528
"agg" 0.210979695911004
"ave" 0.00600222567166088
"laveB" 0.0961831924897851
"agg" 0.321229156168032
"ave" 0.0095928174547177
"laveB" 0.141806835122418
"agg" 0.311199653426876
"ave" 0.0146575858152934
"laveB" 0.168653462805577
"agg" 0.293541288158759
"ave" 0.0133558998953053
"laveB" 0.123070658401787
"agg" 0.570217635980088
"ave" 0.0275764608356853
"laveB" 0.289302953289558
"agg" 0.642506531892328
"ave" 0.0322872964241419
"laveB" 0.327577844399299
"agg" 0.124501878426887
"ave" 0.00388106335243858
"laveB" 0.0564420710408598
"agg" 0.580568380187361
"ave" 0.0133871951182423
"laveB" 0.177873028068518
"agg" 0.705038340491938
"ave" 0.0413524698716475
"laveB" 0.34241382156532
"agg" 0.81828251968075
"ave" 0.0409998497028068
"laveB" 0.369966663751351
"agg" 0.7668947725241
"ave" 0.0228509627859833
"laveB" 0.22248349359822
"agg" 0.829940415629717
"ave" 0.0288493626210403
"laveB" 0.304970906909657
"agg" 0.654782244168849
"ave" 0.0264683869164165
"laveB" 0.312836372441787
"agg" 0.735227166666282
"ave" 0.0287748094703687
"laveB" 0.343659927229407
"agg" 0.720686203143965
"ave" 0.017647989127902
"laveB" 0.24340119568369
"agg" 0.731950935718696
"ave" 0.0211290060719118
"laveB" 0.278715506393917
"agg" 0.775309814116988
"ave" 0.0196879347382057
"laveB" 0.258428363866201
"agg" 0.80532361393046
"ave" 0.0254940185371485
"laveB" 0.333983288958888
"agg" 0.632137549065566
"ave" 0.0160380946055693
"laveB" 0.191137476512642
"agg" 0.706166015686623
"ave" 0.0476300948167358
"laveB" 0.382174979777243
"agg" 0.754884435791237
"ave" 0.0515640706543751
"laveB" 0.426263870398651
"agg" 0.583478483845558
"ave" 0.0449590202159867
"laveB" 0.371902732272461
"agg" 0.615138076668161
"ave" 0.0400121164472072
"laveB" 0.346805231241461
"agg" 0.701928627990512
"ave" 0.0519165790152643
"laveB" 0.440822078910881
"agg" 0.851134136814341
"ave" 0.0613031352187117
"laveB" 0.515412490004344
"agg" 0.849080422957154
"ave" 0.0384367551158551
"laveB" 0.417308506030632
"agg" 0.783020518368726
"ave" 0.0283919641182155
"laveB" 0.320880778848826
"agg" 0.516278924057216
"ave" 0.0262314089177097
"laveB" 0.242847369285028
"agg" 0.502134140031528
"ave" 0.0253901991979356
"laveB" 0.235291537958979
"agg" 0.639953948369258
"ave" 0.0258162772626762
"laveB" 0.318979368302069
"agg" 0.406033933278311
"ave" 0.0181404806842461
"laveB" 0.201827572720756
"agg" 0.090610926870964
"ave" 0.00370415966445587
"laveB" 0.0505718853096484
"agg" 0.248542710381291
"ave" 0.00888119675002821
"laveB" 0.0933783310878342
"agg" -0.156657653692504
"ave" -0.00644192643995656
"laveB" -0.0666066408977796
"agg" 0.0525426583735598
"ave" 0.00280394645945143
"laveB" 0.0356135761048678
"agg" 0.355572839850835
"ave" 0.0115758675114354
"laveB" 0.156982762031738
"agg" 0.390434718989595
"ave" 0.0116707052532403
"laveB" 0.168354994101203
"agg" 0.378755900949923
"ave" 0.0183299363713603
"laveB" 0.219517712939861
"agg" 0.367059200552701
"ave" 0.0179971273239893
"laveB" 0.169507271687823
"agg" 0.649778586894422
"ave" 0.0298476308664988
"laveB" 0.337227536595188
"agg" 0.732127489216826
"ave" 0.0377958874378305
"laveB" 0.376171568130384
"agg" 0.283349894567012
"ave" 0.00793960350343369
"laveB" 0.0916150799396667
"agg" 0.613346741150459
"ave" 0.0157880510644348
"laveB" 0.194598884335166
"agg" 0.754967449426002
"ave" 0.0429073810909267
"laveB" 0.387599352916863
"agg" 0.850074258702735
"ave" 0.0436014956198396
"laveB" 0.389898656465592
"agg" 0.763038701662198
"ave" 0.022548293395029
"laveB" 0.249863254856361
"agg" 0.811743388350686
"ave" 0.0291100017380237
"laveB" 0.312841018828838
"agg" 0.625213906855763
"ave" 0.0246437007328157
"laveB" 0.305918165810386
"agg" 0.677842971108887
"ave" 0.0264530998668871
"laveB" 0.343399907780728
"agg" 0.767352568469751
"ave" 0.0188485646878109
"laveB" 0.25737938021322
"agg" 0.737431756587861
"ave" 0.0214893885106801
"laveB" 0.278427176257852
"agg" 0.765392394276298
"ave" 0.019345344961473
"laveB" 0.268543305502137
"agg" 0.752936690598354
"ave" 0.0232025196165519
"laveB" 0.320313943826596
"agg" 0.618435216354051
"ave" 0.015765070358885
"laveB" 0.199690780133453
"agg" 0.761244183730307
"ave" 0.0565538759900383
"laveB" 0.413924127963471
"agg" 0.802283133285589
"ave" 0.0675100437136214
"laveB" 0.430873627782264
"agg" 0.640651269713565
"ave" 0.0423604656845364
"laveB" 0.328787822674667
"agg" 0.778891998859498
"ave" 0.0655605401975724
"laveB" 0.459026226558403
"agg" 0.698403753069155
"ave" 0.0548668577417226
"laveB" 0.383575822246154
"agg" 0.732535848688109
"ave" 0.0364814939984219
"laveB" 0.327410061048307
"agg" 0.684300898582445
"ave" 0.0265697334335245
"laveB" 0.273478044651163
"agg" 0.486444290385757
"ave" 0.0252080662892519
"laveB" 0.228207531155127
"agg" 0.49725076271893
"ave" 0.0263017260355841
"laveB" 0.229634724833449
"agg" 0.559923647055816
"ave" 0.0243288367856311
"laveB" 0.25575694842379
"agg" 0.136961997054241
"ave" 0.00531932208764509
"laveB" 0.0776843186948924
"agg" 0.0630050510876167
"ave" 0.00222256239004284
"laveB" 0.0299485896126364
"agg" 0.334873817314159
"ave" 0.0118688365473163
"laveB" 0.123403022996043
"agg" -0.0755302969430518
"ave" -0.00346063106799715
"laveB" -0.0248896241528712
"agg" 0.247987076701635
"ave" 0.0117339816408998
"laveB" 0.111209981972196
"agg" 0.105599120971739
"ave" 0.00297913198068793
"laveB" 0.0456597019397897
"agg" 0.174161869114366
"ave" 0.00607133491644261
"laveB" 0.0800140055263219
"agg" 0.29264651958996
"ave" 0.0146072254672979
"laveB" 0.156315117029401
"agg" 0.226080752894879
"ave" 0.0103964885112234
"laveB" 0.0881493295721404
"agg" 0.547369285309617
"ave" 0.0288265796732476
"laveB" 0.270310074801502
"agg" 0.553396450314305
"ave" 0.0286374735401028
"laveB" 0.257156628584002
"agg" 0.119787847801483
"ave" 0.00330701099184889
"laveB" 0.0494511572106167
"agg" 0.565308638031083
"ave" 0.0126399406219766
"laveB" 0.151531237790518
"agg" 0.695143873144046
"ave" 0.0445449984921125
"laveB" 0.341580277723518
"agg" 0.715308237875145
"ave" 0.0376951909224636
"laveB" 0.298659478340004
"agg" 0.781187135374591
"ave" 0.0263033901282745
"laveB" 0.237555771776414
"agg" 0.677431919857236
"ave" 0.0247725569779216
"laveB" 0.241335213344309
"agg" 0.451229395717454
"ave" 0.0215525488886909
"laveB" 0.227185741857398
"agg" 0.515489526907558
"ave" 0.0223317569420218
"laveB" 0.240138832003182
"agg" 0.564180868623527
"ave" 0.0149823011479389
"laveB" 0.181688181520828
"agg" 0.56440806933491
"ave" 0.0175511043226013
"laveB" 0.205679726188295
"agg" 0.604275303592214
"ave" 0.0173173385434554
"laveB" 0.200761079293178
"agg" 0.599074007794254
"ave" 0.0209078925570484
"laveB" 0.245971422404234
"agg" 0.530059232388717
"ave" 0.0141599998666466
"laveB" 0.15241452784116
"agg" 0.68365933073416
"ave" 0.0543191484655048
"laveB" 0.410500000329484
"agg" 0.749726639958607
"ave" 0.0515425307921012
"laveB" 0.419738046706071
"agg" 0.613533401927298
"ave" 0.0517472949895509
"laveB" 0.400251409635326
"agg" 0.777435416334309
"ave" 0.0644238236931255
"laveB" 0.474470737268381
"agg" 0.634522321365445
"ave" 0.0317007840470281
"laveB" 0.310007694590353
"agg" 0.621552147578529
"ave" 0.0256789099255523
"laveB" 0.271927525700116
"agg" 0.447518999474377
"ave" 0.0238517307270107
"laveB" 0.23472059334094
"agg" 0.498060333360597
"ave" 0.0271900314634918
"laveB" 0.243372909954762
"agg" 0.56932446725556
"ave" 0.0248027305830931
"laveB" 0.269181000669041
"agg" 0.339727561947035
"ave" 0.0169417862882465
"laveB" 0.187306404256137
"agg" 0.199306096657805
"ave" 0.00825330906001775
"laveB" 0.106352812210686
"agg" 0.406488148727866
"ave" 0.0146759409424639
"laveB" 0.165995133997047
"agg" 0.00468836468821813
"ave" 0.00135205663195538
"laveB" 0.00570535546419616
"agg" 0.233964968502152
"ave" 0.00998975771127595
"laveB" 0.109082874189416
"agg" 0.192959362816119
"ave" 0.00767649849356897
"laveB" 0.123132491624576
"agg" 0.25141153654901
"ave" 0.0090068309025781
"laveB" 0.120394301810587
"agg" 0.214942247774196
"ave" 0.0122875111369649
"laveB" 0.131397131306213
"agg" 0.179023495393536
"ave" 0.00991423444498436
"laveB" 0.0899176948256513
"agg" 0.587358582088065
"ave" 0.0297373372257484
"laveB" 0.320218928952954
"agg" 0.670365150035627
"ave" 0.0375955189859938
"laveB" 0.356721959200748
"agg" 0.276704711862817
"ave" 0.00825738577831757
"laveB" 0.0920386376022354
"agg" 0.57142416882803
"ave" 0.0149644164773044
"laveB" 0.170536557779074
"agg" 0.667327299933895
"ave" 0.0421262662596364
"laveB" 0.351284798493538
"agg" 0.795839913242575
"ave" 0.0438080426011038
"laveB" 0.36042003937246
"agg" 0.641793688172043
"ave" 0.0213303218937902
"laveB" 0.200497406740872
"agg" 0.723195930379785
"ave" 0.0269805885689225
"laveB" 0.26681588420814
"agg" 0.373660453953367
"ave" 0.0162355170713049
"laveB" 0.197000038275399
"agg" 0.444107614567828
"ave" 0.018298386493803
"laveB" 0.229204212686144
"agg" 0.538760880887047
"ave" 0.0142461542710198
"laveB" 0.195133417706627
"agg" 0.592307061991213
"ave" 0.0183199273056072
"laveB" 0.209724043444192
"agg" 0.578398256107226
"ave" 0.0156206897130485
"laveB" 0.207620216401129
"agg" 0.547905418695244
"ave" 0.0177352644359508
"laveB" 0.221014485507006
"agg" 0.562330752790621
"ave" 0.0149893225484045
"laveB" 0.169974544034774
"agg" 0.802518569187233
"ave" 0.0584755866804375
"laveB" 0.454157564088496
"agg" 0.705564892407372
"ave" 0.0656340354837506
"laveB" 0.453915662658607
"agg" 0.546651924508929
"ave" 0.0461584491739056
"laveB" 0.350386113942579
"agg" 0.576780776230647
"ave" 0.0330984552085545
"laveB" 0.3164187744646
"agg" 0.552479696686188
"ave" 0.0250852429128429
"laveB" 0.259650511623009
"agg" 0.508471144115249
"ave" 0.0274973230319453
"laveB" 0.262382867308208
"agg" 0.635233185430439
"ave" 0.0354998207149759
"laveB" 0.324524828439959
"agg" 0.412678435942469
"ave" 0.0196503010057017
"laveB" 0.199871445747229
"agg" 0.135262455756492
"ave" 0.0053623414906453
"laveB" 0.0761747889529934
"agg" 0.143495475026312
"ave" 0.00531480445005162
"laveB" 0.0660452713942421
"agg" 0.400702718208787
"ave" 0.0151756057704434
"laveB" 0.158835937940798
"agg" 0.0468739757422737
"ave" 0.00317183011547063
"laveB" 0.0150762909193298
"agg" 0.284783727169132
"ave" 0.0154108642911363
"laveB" 0.141068515600442
"agg" 0.0602363584663996
"ave" 0.00226866503372506
"laveB" 0.0332402719847684
"agg" 0.101695060156673
"ave" 0.00447880724520992
"laveB" 0.0454617299011505
"agg" 0.365979917694033
"ave" 0.0195808558373216
"laveB" 0.185397903958478
"agg" 0.210903377878189
"ave" 0.0101971867190295
"laveB" 0.0715420671780633
"agg" 0.704359461932525
"ave" 0.0403638577309982
"laveB" 0.397725515029685
"agg" 0.680189113817743
"ave" 0.0387012070862542
"laveB" 0.360481375410708
"agg" 0.281399953940997
"ave" 0.00775037316547077
"laveB" 0.103386655356041
"agg" 0.649208427391123
"ave" 0.0164921036967718
"laveB" 0.192078659220042
"agg" 0.770121423585881
"ave" 0.0538120803679971
"laveB" 0.418116180356204
"agg" 0.691391579338729
"ave" 0.0399382109375874
"laveB" 0.347141783634269
"agg" 0.712438240842128
"ave" 0.0264440615118476
"laveB" 0.240511124904511
"agg" 0.591617855296576
"ave" 0.0240397391979804
"laveB" 0.247532049595352
"agg" 0.249503139736279
"ave" 0.0152207385412565
"laveB" 0.169611480457249
"agg" 0.312655793197503
"ave" 0.0159727296258451
"laveB" 0.189200529887375
"agg" 0.494328433075966
"ave" 0.0144409939635749
"laveB" 0.181922458087668
"agg" 0.4360865878774
"ave" 0.014852197006781
"laveB" 0.171673253095211
"agg" 0.486632581848269
"ave" 0.0161162385340728
"laveB" 0.197012649183572
"agg" 0.467872334641365
"ave" 0.0184144295214418
"laveB" 0.220092822070141
"agg" 0.363237472756035
"ave" 0.0107919124372248
"laveB" 0.125911787980436
"agg" 0.510570494783169
"ave" 0.037867652175689
"laveB" 0.302447076287159
"agg" 0.520684424344082
"ave" 0.0380049901784849
"laveB" 0.312194345220329
"agg" 0.488676986352965
"ave" 0.0227582749586647
"laveB" 0.23155832235664
"agg" 0.544725405563423
"ave" 0.0213552401071812
"laveB" 0.22928709427614
"agg" 0.481539486889351
"ave" 0.0221552679635285
"laveB" 0.209111579857093
"agg" 0.578809138906009
"ave" 0.0276427716839415
"laveB" 0.261539317291141
"agg" 0.388962111357671
"ave" 0.0150203967621663
"laveB" 0.184533040013913
"agg" 0.325180747762115
"ave" 0.0155462845199183
"laveB" 0.154847345681642
"agg" 0.245613425901946
"ave" 0.00958005394000916
"laveB" 0.118808835359943
"agg" 0.402131940613411
"ave" 0.0129993767147062
"laveB" 0.152833282182865
"agg" 0.106724451046288
"ave" 0.00675305871530246
"laveB" 0.052248696299577
"agg" 0.215831382755537
"ave" 0.00897492737407078
"laveB" 0.0919356846940807
"agg" 0.0727394621122246
"ave" 0.00326006063891581
"laveB" 0.0414634092212525
"agg" 0.162643781087549
"ave" 0.00488651053027403
"laveB" 0.0715605002184372
"agg" 0.435790518765128
"ave" 0.0198392513577408
"laveB" 0.214143250898364
"agg" 0.30628323822043
"ave" 0.0151720319746246
"laveB" 0.122897632354338
"agg" 0.751778486582355
"ave" 0.033656558691229
"laveB" 0.369430406999889
"agg" 0.79643423145406
"ave" 0.0419885590672121
"laveB" 0.3874495822436
"agg" 0.363015303888343
"ave" 0.00993788527058636
"laveB" 0.112858249879049
"agg" 0.557929030195458
"ave" 0.0146206529575193
"laveB" 0.153839921550009
"agg" 0.646931269194724
"ave" 0.036796626280094
"laveB" 0.315077340055986
"agg" 0.695407031609946
"ave" 0.0353674410491507
"laveB" 0.30227712488625
"agg" 0.497942942015603
"ave" 0.0149841431021967
"laveB" 0.144239371972081
"agg" 0.501033263842454
"ave" 0.0172392939340971
"laveB" 0.208893347669634
"agg" 0.0628485564636784
"ave" 0.00200154523995965
"laveB" 0.0480516556049587
"agg" 0.168846055300526
"ave" 0.00559217358858748
"laveB" 0.0939450849291667
"agg" 0.430087946216268
"ave" 0.00983504327969334
"laveB" 0.140907883039216
"agg" 0.405224050111475
"ave" 0.0107790097065387
"laveB" 0.142134268124426
"agg" 0.397138235699687
"ave" 0.00968132057194485
"laveB" 0.141159995603775
"agg" 0.356315348558675
"ave" 0.00975224285803366
"laveB" 0.146492032012741
"agg" 0.351135013069188
"ave" 0.00792875456534715
"laveB" 0.112669301045892
"agg" 0.796945289457164
"ave" 0.0681953946405014
"laveB" 0.521831429338818
"agg" 0.838664497317496
"ave" 0.0453434591219644
"laveB" 0.451908677692103
"agg" 0.785323550750452
"ave" 0.0329947539853532
"laveB" 0.350652434106682
"agg" 0.605277519607249
"ave" 0.0345336464948428
"laveB" 0.319143674818165
"agg" 0.576963848450161
"ave" 0.0339333600479017
"laveB" 0.299182656939004
"agg" 0.501277260572124
"ave" 0.0244038492258407
"laveB" 0.262020073827301
"agg" 0.306236722948747
"ave" 0.0149235627727791
"laveB" 0.18066806715553
"agg" 0.134499086902492
"ave" 0.00534771176935779
"laveB" 0.0765655131918113
"agg" 0.316148929492956
"ave" 0.0131753008903462
"laveB" 0.137908282264462
"agg" -0.0465625799589408
"ave" -0.00173280818049383
"laveB" -0.0267011247906444
"agg" 0.126747508098766
"ave" 0.00810792024241643
"laveB" 0.0821236901352984
"agg" 0.328365829285532
"ave" 0.0125211112224056
"laveB" 0.162111463832371
"agg" 0.290987382417073
"ave" 0.0100704040461593
"laveB" 0.140486036958973
"agg" 0.410006020986301
"ave" 0.0215728740141182
"laveB" 0.232669421547595
"agg" 0.422098208705476
"ave" 0.0220532476917519
"laveB" 0.207371948948259
"agg" 0.671431874617638
"ave" 0.0363060794912273
"laveB" 0.37114731299202
"agg" 0.682042525715216
"ave" 0.0389074344087414
"laveB" 0.375711460841323
"agg" 0.348145427883646
"ave" 0.00979791937386793
"laveB" 0.123932320509117
"agg" 0.72365215692017
"ave" 0.0208725299785928
"laveB" 0.250286463092409
"agg" 0.853446768885455
"ave" 0.0578168043491192
"laveB" 0.457570045144144
"agg" 0.768862206830193
"ave" 0.0461858962880778
"laveB" 0.392248135403558
"agg" 0.796355384179968
"ave" 0.0291493066094534
"laveB" 0.251414068795304
"agg" 0.647655149497164
"ave" 0.028103356060433
"laveB" 0.286633747305936
"agg" 0.499144230294144
"ave" 0.0262629917842657
"laveB" 0.289317765960716
"agg" 0.506823588544575
"ave" 0.0248423526161291
"laveB" 0.291905846822339
"agg" 0.645783566067041
"ave" 0.0187722714301022
"laveB" 0.233790101442673
"agg" 0.586129507712445
"ave" 0.0205789307404443
"laveB" 0.240967710468824
"agg" 0.615289159144039
"ave" 0.0189254218817621
"laveB" 0.226251890233365
"agg" 0.575551263440809
"ave" 0.0217223299084034
"laveB" 0.246632202956244
"agg" 0.552259199925451
"ave" 0.0170925920364214
"laveB" 0.195156494080278
"agg" 0.872047294389611
"ave" 0.0454100069131409
"laveB" 0.441386371294364
"agg" 0.829508209283261
"ave" 0.0345223565643347
"laveB" 0.368424076546151
"agg" 0.532590325211972
"ave" 0.0302949386489996
"laveB" 0.284281057761452
"agg" 0.481828583720285
"ave" 0.0275947991561387
"laveB" 0.24999023404435
"agg" 0.620938616615186
"ave" 0.0299177745466451
"laveB" 0.331898716895399
"agg" 0.421705762742966
"ave" 0.0224873862355882
"laveB" 0.232313956743501
"agg" 0.132559450040023
"ave" 0.00547586393369297
"laveB" 0.0852320284977222
"agg" 0.285779022736018
"ave" 0.0113580264940786
"laveB" 0.119446799168864
"agg" -0.0894250439072575
"ave" -0.00430217247164591
"laveB" -0.0445710769201219
"agg" 0.109157339506229
"ave" 0.00549573147593002
"laveB" 0.0677920813262638
"agg" 0.396531504323947
"ave" 0.0155009511275288
"laveB" 0.205511619163502
"agg" 0.371380827150267
"ave" 0.0131845761274054
"laveB" 0.168027914477866
"agg" 0.318474780176859
"ave" 0.0168971603958277
"laveB" 0.181448681635553
"agg" 0.284970930007987
"ave" 0.0149459643908192
"laveB" 0.125812108614285
"agg" 0.600714304568124
"ave" 0.030649959391594
"laveB" 0.323277072932292
"agg" 0.680564401629041
"ave" 0.0393396229869438
"laveB" 0.375067838986512
"agg" 0.295162140815814
"ave" 0.00870672671814164
"laveB" 0.105499843176486
"agg" 0.656131118833563
"ave" 0.0188133772370547
"laveB" 0.230006020361153
"agg" 0.759768884594152
"ave" 0.0489758211091616
"laveB" 0.415929516342545
"agg" 0.87283240297349
"ave" 0.0522629514823963
"laveB" 0.413961206908178
"agg" 0.747287839645911
"ave" 0.0257407491762423
"laveB" 0.244677648671507
"agg" 0.802891262802602
"ave" 0.0340232170212759
"laveB" 0.323382810916443
"agg" 0.614105261228679
"ave" 0.0292957560072673
"laveB" 0.333738535050028
"agg" 0.638807672694498
"ave" 0.0301693961230235
"laveB" 0.345298883605012
"agg" 0.712432037117578
"ave" 0.0206807550027283
"laveB" 0.261883858748772
"agg" 0.71019368428965
"ave" 0.0246400821419748
"laveB" 0.28144876471508
"agg" 0.725739475177147
"ave" 0.0211526903441453
"laveB" 0.255038447824827
"agg" 0.705321819422238
"ave" 0.0257843544912514
"laveB" 0.311832740467486
"agg" 0.662912629551078
"ave" 0.0201360234598694
"laveB" 0.228637254481241
"agg" 0.908302914978811
"ave" 0.0232240540299109
"laveB" 0.31743364302171
"agg" 0.536834618445223
"ave" 0.0202650719810089
"laveB" 0.243986188314087
"agg" 0.489535885654783
"ave" 0.0184434600055732
"laveB" 0.213506883746221
"agg" 0.619797446000251
"ave" 0.0184415176050148
"laveB" 0.247155525064513
"agg" 0.380934893219642
"ave" 0.0125887896995604
"laveB" 0.169244153554522
"agg" 0.0486352243716809
"ave" 0.00142704373926263
"laveB" 0.0410895330646404
"agg" 0.229714975954076
"ave" 0.005950436127546
"laveB" 0.0810717027635144
"agg" -0.163580596786264
"ave" -0.00493284186056433
"laveB" -0.0568411451896356
"agg" 0.0871273577156278
"ave" 0.00323278399192463
"laveB" 0.0515646770628226
"agg" 0.384536270007514
"ave" 0.00926154704906271
"laveB" 0.149880171167834
"agg" 0.433601731746427
"ave" 0.00964761581139146
"laveB" 0.150204406092618
"agg" 0.374123295360204
"ave" 0.0126920431866431
"laveB" 0.181365038426264
"agg" 0.312526558164805
"ave" 0.0110181503384296
"laveB" 0.11886918944386
"agg" 0.611370905731534
"ave" 0.020732387005145
"laveB" 0.277897610066144
"agg" 0.632083421817275
"ave" 0.0229471532927333
"laveB" 0.286725281077929
"agg" 0.262741733874534
"ave" 0.00515649764442313
"laveB" 0.0879688028317275
"agg" 0.663941811300089
"ave" 0.0118885533666594
"laveB" 0.174956693589059
"agg" 0.757729505233979
"ave" 0.0314559377218317
"laveB" 0.335189475370933
"agg" 0.807204552198918
"ave" 0.0297738708812862
"laveB" 0.306764709423606
"agg" 0.788153517963689
"ave" 0.0171897424382688
"laveB" 0.222109782175703
"agg" 0.777313855197124
"ave" 0.0203923520040422
"laveB" 0.26066133283205
"agg" 0.725801073445685
"ave" 0.021869485642254
"laveB" 0.310701150913518
"agg" 0.735732024865217
"ave" 0.0217112192140626
"laveB" 0.307947558917918
"agg" 0.799695415111812
"ave" 0.014690475262315
"laveB" 0.230766928650301
"agg" 0.770562874807117
"ave" 0.0168122551565286
"laveB" 0.246722407169613
"agg" 0.80743457190819
"ave" 0.0152374790651733
"laveB" 0.23900676041283
"agg" 0.778943160506794
"ave" 0.0181186650763279
"laveB" 0.270526470328438
"agg" 0.750388909082112
"ave" 0.0139558492046704
"laveB" 0.207474262560031
"agg" 0.518237662532091
"ave" 0.0151548810806002
"laveB" 0.201070847151246
"agg" 0.470446802818418
"ave" 0.0141708294971902
"laveB" 0.170438079297086
"agg" 0.569593718504143
"ave" 0.0130342034688845
"laveB" 0.215096232734922
"agg" 0.481760899355931
"ave" 0.0121567464743406
"laveB" 0.185097898916009
"agg" 0.167482956664198
"ave" 0.00351463146099012
"laveB" 0.0699346879535255
"agg" 0.225191955307992
"ave" 0.00461002888146441
"laveB" 0.0619700335521649
"agg" -0.101593510975087
"ave" -0.00189600856758479
"laveB" -0.0166431927905574
"agg" 0.0592820120149123
"ave" 0.00220319557226829
"laveB" 0.0298227844647129
"agg" 0.443078639581068
"ave" 0.00819087734269965
"laveB" 0.144553773094288
"agg" 0.458017338466781
"ave" 0.00767181993087706
"laveB" 0.136602143051976
"agg" 0.448357647744013
"ave" 0.0115210505399959
"laveB" 0.165430242848538
"agg" 0.442203846166757
"ave" 0.012313615121299
"laveB" 0.146007296493729
"agg" 0.67069141470851
"ave" 0.0174004920632592
"laveB" 0.253384478331476
"agg" 0.664970562557652
"ave" 0.0201417405485986
"laveB" 0.260997439160044
"agg" 0.35662795126197
"ave" 0.00548031404702894
"laveB" 0.0895327451105621
"agg" 0.655093173083461
"ave" 0.0100017531430785
"laveB" 0.155317715057831
"agg" 0.71165428688821
"ave" 0.0230064424545871
"laveB" 0.244172095225343
"agg" 0.737743211754505
"ave" 0.0222524332152042
"laveB" 0.237264897912611
"agg" 0.70433477574288
"ave" 0.0119656994736382
"laveB" 0.153050675562433
"agg" 0.650528504411618
"ave" 0.0138891225113363
"laveB" 0.178253230279887
"agg" 0.559509912914786
"ave" 0.0126803568964146
"laveB" 0.183864711637973
"agg" 0.554420648819189
"ave" 0.0124385199770407
"laveB" 0.197743472186042
"agg" 0.761204640894716
"ave" 0.0107209382197977
"laveB" 0.199184143132507
"agg" 0.686656701377892
"ave" 0.0114955372791648
"laveB" 0.173007328034972
"agg" 0.698201912773632
"ave" 0.0101140448310663
"laveB" 0.177040835865238
"agg" 0.625771617704647
"ave" 0.0111250157406454
"laveB" 0.183653926845193
"agg" 0.711213371154037
"ave" 0.0100627379310396
"laveB" 0.149916449671099
"agg" 0.807640762782481
"ave" 0.031112816608605
"laveB" 0.341812477026786
"agg" 0.40884320862629
"ave" 0.0129765776019446
"laveB" 0.165100284167678
"agg" 0.247380526357035
"ave" 0.00861304353146815
"laveB" 0.105405425264668
"agg" 0.176706280476169
"ave" 0.00433444185018517
"laveB" 0.0710814464187043
"agg" 0.308534618569391
"ave" 0.00735633895068167
"laveB" 0.101907428810634
"agg" 0.0726987445401885
"ave" 0.00265363944946587
"laveB" 0.0205561030100868
"agg" 0.214074423298007
"ave" 0.00632109840058369
"laveB" 0.0814471102890407
"agg" 0.264517398659763
"ave" 0.00733016109698132
"laveB" 0.0974695017674796
"agg" 0.288002777723524
"ave" 0.00683025813320035
"laveB" 0.112383556454859
"agg" 0.345287033443782
"ave" 0.0132163375494672
"laveB" 0.159022693074811
"agg" 0.381825128975126
"ave" 0.0145565823740507
"laveB" 0.156712674690095
"agg" 0.602533617329461
"ave" 0.021060195485108
"laveB" 0.269830030195082
"agg" 0.686379141577309
"ave" 0.0277497456488031
"laveB" 0.296434858060524
"agg" 0.330082056900386
"ave" 0.00624808831846621
"laveB" 0.0949822057384349
"agg" 0.599196888700709
"ave" 0.0122489337270096
"laveB" 0.172478043836421
"agg" 0.642679421042275
"ave" 0.0285869882277552
"laveB" 0.2833042898127
"agg" 0.61787126616534
"ave" 0.0252536165381175
"laveB" 0.255351664592235
"agg" 0.538807002712246
"ave" 0.0128432188562636
"laveB" 0.151902513953367
"agg" 0.474489779997933
"ave" 0.0142390223944728
"laveB" 0.171436164709678
"agg" 0.263031788307364
"ave" 0.00955292333251125
"laveB" 0.103216298229663
"agg" 0.276436321368988
"ave" 0.00925170387571048
"laveB" 0.135165439816496
"agg" 0.495870455702454
"ave" 0.009427445938904
"laveB" 0.140032639704372
"agg" 0.404009111795715
"ave" 0.00920472122442671
"laveB" 0.133216083036344
"agg" 0.388781833510953
"ave" 0.00812944207198456
"laveB" 0.124655681040183
"agg" 0.376380085435574
"ave" 0.0095833755556932
"laveB" 0.135387871768811
"agg" 0.386240869865778
"ave" 0.00747383232660581
"laveB" 0.101999252255274
"agg" 0.410827764699376
"ave" 0.0125012331437734
"laveB" 0.169841477191033
"agg" 0.174505971725714
"ave" 0.00629459747072682
"laveB" 0.0810973756203798
"agg" 0.0930592006016458
"ave" 0.00294000536202688
"laveB" 0.0412850990052836
"agg" 0.364849687924789
"ave" 0.00880845551005672
"laveB" 0.117549809418323
"agg" 0.0307779646818568
"ave" 0.00210636237733877
"laveB" 0.0122620920143656
"agg" 0.217802341513782
"ave" 0.00715448657678977
"laveB" 0.0828128059529127
"agg" 0.0463698996994491
"ave" 0.0018521466623419
"laveB" 0.0183081827527306
"agg" 0.104177213373439
"ave" 0.00327369436305734
"laveB" 0.0640367291336138
"agg" 0.362620068545968
"ave" 0.0135505574382112
"laveB" 0.164804611755374
"agg" 0.351185921914344
"ave" 0.014370364046094
"laveB" 0.135171852352367
"agg" 0.612852341689477
"ave" 0.0227256811837837
"laveB" 0.287778554918391
"agg" 0.718951381699105
"ave" 0.0290726226736067
"laveB" 0.320975059326621
"agg" 0.345738552469508
"ave" 0.00727053570017768
"laveB" 0.100005607659567
"agg" 0.705252184209955
"ave" 0.0134062931759826
"laveB" 0.18542234150169
"agg" 0.666936479111291
"ave" 0.0300629666890282
"laveB" 0.280031917015502
"agg" 0.666189017779901
"ave" 0.0259871720457263
"laveB" 0.275233365445822
"agg" 0.52635585783544
"ave" 0.0124605171982687
"laveB" 0.146820327417234
"agg" 0.51420763182845
"ave" 0.0141644890238776
"laveB" 0.163541812163306
"agg" 0.134334063451766
"ave" 0.00487357010826954
"laveB" 0.053975209451604
"agg" 0.214626064530361
"ave" 0.0065083787123722
"laveB" 0.101537918627885
"agg" 0.412698928675887
"ave" 0.00776001713790806
"laveB" 0.121202446918322
"agg" 0.358265948243267
"ave" 0.00765577907093664
"laveB" 0.0954630333668895
"agg" 0.314285506472313
"ave" 0.00633069893388645
"laveB" 0.0947328671694012
"agg" 0.350214188140605
"ave" 0.00812748867571165
"laveB" 0.114777635588891
"agg" 0.351873506327292
"ave" 0.00639890443337844
"laveB" 0.0895879573226813
"agg" 0.337867964645436
"ave" 0.00951789878328829
"laveB" 0.159861514905034
"agg" 0.134028540120558
"ave" 0.00261014271860429
"laveB" 0.0767501468861934
"agg" 0.589125390326187
"ave" 0.0118803431916234
"laveB" 0.191633637502737
"agg" -0.175404549929236
"ave" -0.005594948300628
"laveB" -0.054623078639178
"agg" 0.324657574455952
"ave" 0.00836545778866432
"laveB" 0.133922172946789
"agg" 0.105508283777871
"ave" 0.00204817316628544
"laveB" 0.0256518038220244
"agg" 0.231002011932966
"ave" 0.00493058594652143
"laveB" 0.0930657161556308
"agg" 0.109839430818446
"ave" 0.00453247191923793
"laveB" 0.0661712144835268
"agg" -0.000909098919216751
"ave" -0.000460619407582455
"laveB" -0.0184879577877909
"agg" 0.311500846206105
"ave" 0.0100901192737684
"laveB" 0.157783598594256
"agg" 0.418097538856477
"ave" 0.0128058774599157
"laveB" 0.174608375188493
"agg" -0.00518972195008862
"ave" -0.000110269059187618
"laveB" 0.0163632195891932
"agg" 0.490707856802501
"ave" 0.00624099758620175
"laveB" 0.106432149886606
"agg" 0.447911893111529
"ave" 0.0170099946961554
"laveB" 0.194319700429121
"agg" 0.678338849949023
"ave" 0.0214146754332884
"laveB" 0.259939827734231
"agg" 0.55788083870985
"ave" 0.010711731110116
"laveB" 0.146682285257251
"agg" 0.649071125812752
"ave" 0.0144937159598142
"laveB" 0.214865326336398
"agg" 0.540974012517386
"ave" 0.0151463278718168
"laveB" 0.23822848211572
"agg" 0.656826369323939
"ave" 0.0175839567931942
"laveB" 0.287494891699425
"agg" 0.590913564911553
"ave" 0.00987577472298633
"laveB" 0.173573541158289
"agg" 0.667458370366743
"ave" 0.0129684533160424
"laveB" 0.210728319171335
"agg" 0.626248064432695
"ave" 0.0108180030369645
"laveB" 0.169983162455991
"agg" 0.716713967042306
"ave" 0.0150572383151066
"laveB" 0.238231085161763
"agg" 0.585776603342496
"ave" 0.00981354662337335
"laveB" 0.164388122829245
"agg" 0.669129708446138
"ave" 0.0167523156314596
"laveB" 0.249604403972299
"agg" 0.316562001300149
"ave" 0.00733038635884562
"laveB" 0.12124517325697
"agg" 0.190395697778717
"ave" 0.00751273582269244
"laveB" 0.0606352205688982
"agg" -0.121103723412092
"ave" -0.00372939758407071
"laveB" -0.0215183269969895
"agg" 0.493794820290325
"ave" 0.012621754360988
"laveB" 0.166344777026965
"agg" 0.449905604520449
"ave" 0.00878864075425929
"laveB" 0.147756370441282
"agg" 0.402556889551232
"ave" 0.0121512910711936
"laveB" 0.171796776168711
"agg" 0.46289911667125
"ave" 0.0165215159032208
"laveB" 0.184377533480672
"agg" 0.549113350288415
"ave" 0.0147577859205455
"laveB" 0.22147356433665
"agg" 0.45364304772265
"ave" 0.0176654558102424
"laveB" 0.210597136236454
"agg" 0.630948304852281
"ave" 0.0117038664881968
"laveB" 0.147630484642293
"agg" 0.304384096962598
"ave" 0.00870935781365956
"laveB" 0.133169235931297
"agg" 0.446580128920039
"ave" 0.0161674863503125
"laveB" 0.19242167801463
"agg" 0.373084857970546
"ave" 0.0152660992781959
"laveB" 0.162711414782841
"agg" 0.274913117259083
"ave" 0.00558105786381166
"laveB" 0.0801593019944037
"agg" 0.235130686492132
"ave" 0.00770800500755747
"laveB" 0.095428735354324
"agg" 0.178397109533583
"ave" 0.00479689936947092
"laveB" 0.0977708965970605
"agg" 0.133501264218865
"ave" 0.00405585465786229
"laveB" 0.0658486650471332
"agg" 0.410770753224022
"ave" 0.00715496198008975
"laveB" 0.119207264373383
"agg" 0.3219552184529
"ave" 0.00666038605830165
"laveB" 0.109901984353771
"agg" 0.267942324937247
"ave" 0.00492199470555102
"laveB" 0.0980351374953381
"agg" 0.183391493005836
"ave" 0.00350756618283493
"laveB" 0.0623889888935683
"agg" 0.349933047418118
"ave" 0.00627510698087687
"laveB" 0.0852652053127954
"agg" 0.471390247438355
"ave" 0.00788822835893146
"laveB" 0.184080871379566
"agg" 0.400221617235839
"ave" 0.0114242407025593
"laveB" 0.146657177994618
"agg" 0.0748604598393102
"ave" 0.001496481328017
"laveB" 0.0427260175643109
"agg" 0.406871265733699
"ave" 0.00786782785701374
"laveB" 0.154009345158207
"agg" 0.32997326541456
"ave" 0.004579243427691
"laveB" 0.104852632577788
"agg" 0.405393313008926
"ave" 0.0089855137857712
"laveB" 0.161506255194462
"agg" 0.312978290901408
"ave" 0.00896811036498135
"laveB" 0.120219567050811
"agg" 0.406976722044067
"ave" 0.00814314824928629
"laveB" 0.152453933752683
"agg" 0.288278696129058
"ave" 0.00892901049851975
"laveB" 0.127535798198606
"agg" 0.47380229790471
"ave" 0.00655866266300971
"laveB" 0.124040357428395
"agg" 0.177233765238354
"ave" 0.00454474021868217
"laveB" 0.0880945812923215
"agg" 0.266427707711313
"ave" 0.00744759971631384
"laveB" 0.108785055762615
"agg" 0.12571132071176
"ave" 0.00477526935242727
"laveB" 0.0866616406841334
"agg" 0.0574773680537042
"ave" 0.00129679045946013
"laveB" 0.0102860058679566
"agg" -0.058680628809704
"ave" 0.00027263340017094
"laveB" 0.0128547776401788
"agg" -0.122375202500671
"ave" -0.00266757599822337
"laveB" -0.0203482030421356
"agg" -0.153733249848957
"ave" -0.00327034410316993
"laveB" -0.0451761281330074
"agg" 0.137082406160854
"ave" 0.00172170345595436
"laveB" 0.0482328697106271
"agg" -0.0139967098596834
"ave" -0.000328614199986778
"laveB" 0.00884478765823307
"agg" -0.0446503033714611
"ave" -0.000444343376408947
"laveB" 0.0148677925632162
"agg" -0.101268280455221
"ave" -0.00203698264070152
"laveB" -0.0337388990183812
"agg" 0.0163013993479334
"ave" -3.29414302987583e-05
"laveB" 0.00834442410995645
"agg" 0.0202721954173086
"ave" 0.00107288949657485
"laveB" 0.0134364372733703
"agg" 0.450967745519013
"ave" 0.00902333255542405
"laveB" 0.149917747574325
"agg" -0.062975843416643
"ave" -0.000894652071775486
"laveB" -0.0234836203562709
"agg" 0.0682393638234792
"ave" 0.00130221356398174
"laveB" 0.0195522820490169
"agg" 0.207648770804673
"ave" 0.00547823775595503
"laveB" 0.0886789119574108
"agg" -0.0238243800828426
"ave" -0.000540703406992232
"laveB" -0.0369781825443934
"agg" 0.340380170916193
"ave" 0.00862853371470775
"laveB" 0.143049489692726
"agg" 0.332291140254554
"ave" 0.00869721214953009
"laveB" 0.127515016317252
"agg" 0.113070586042502
"ave" 0.00153496201309895
"laveB" 0.024330737433263
"agg" 0.388759777565012
"ave" 0.00424210490781342
"laveB" 0.0835253318070318
"agg" 0.309000639347285
"ave" 0.0100362998944827
"laveB" 0.116017736767711
"agg" 0.405631330365688
"ave" 0.0102862994215901
"laveB" 0.127321246441248
"agg" 0.260876880883549
"ave" 0.00450122288824064
"laveB" 0.0673775372966495
"agg" 0.221772864906486
"ave" 0.00403483870884387
"laveB" 0.0586882633407207
"agg" 0.101966235161609
"ave" 0.00290989533143536
"laveB" 0.0290877799798612
"agg" 0.180086582385308
"ave" 0.00388888040718712
"laveB" 0.0634375536688727
"agg" 0.246729997950547
"ave" 0.00327354600876737
"laveB" 0.052436930539967
"agg" 0.319666524829512
"ave" 0.00482986150486182
"laveB" 0.076941465478614
"agg" 0.204970152128902
"ave" 0.00304481886055162
"laveB" 0.0508798022980714
"agg" 0.241570793486473
"ave" 0.00378350175446285
"laveB" 0.0632112764500342
"agg" 0.22684522599765
"ave" 0.00293817045492486
"laveB" 0.0545188010648817
"agg" -0.0617823213230274
"ave" -0.00184796035763253
"laveB" -0.0181868346900813
"agg" 0.193827006470906
"ave" 0.00576818245260443
"laveB" 0.0715237828996871
"agg" -0.00108108208600334
"ave" -0.000796846239504575
"laveB" -0.00372044249238333
"agg" 0.19806940321655
"ave" 0.00598253734500248
"laveB" 0.0746860907998772
"agg" 0.20944071006508
"ave" 0.00874572769843261
"laveB" 0.079137948703497
"agg" 0.154220054232732
"ave" 0.00424398818715171
"laveB" 0.0466468076649806
"agg" 0.0948562386772945
"ave" 0.00554197474827047
"laveB" 0.0457319045841939
"agg" 0.239506079400482
"ave" 0.00478518494682241
"laveB" 0.0504179501142751
"agg" -0.0326897944354163
"ave" 0.000880765380909951
"laveB" 0.00168600759338648
"agg" 0.0439475262856456
"ave" 0.00216845489275729
"laveB" 0.0136490374397677
"agg" -0.0992730275636889
"ave" -0.00294120398524109
"laveB" -0.0246483887548305
"agg" -0.161025393787056
"ave" -0.00283767919662327
"laveB" -0.028056811556907
"agg" -0.172520078489368
"ave" -0.00410706138277745
"laveB" -0.0424783640358736
"agg" -0.243109833533432
"ave" -0.00779621499327632
"laveB" -0.0910340445730831
"agg" -0.259093001194426
"ave" -0.00850042870023822
"laveB" -0.0986699694269011
"agg" -0.116977408570314
"ave" -0.0023756090880171
"laveB" -0.0306058128779739
"agg" -0.134928181070882
"ave" -0.00332559814600633
"laveB" -0.028028489979803
"agg" -0.179809049838234
"ave" -0.0036280005682022
"laveB" -0.0414854533862139
"agg" -0.173305359361517
"ave" -0.00461091643738614
"laveB" -0.059761236598396
"agg" -0.0856771511876435
"ave" -0.00232960699294877
"laveB" -0.0287801555516446
"agg" -0.158292394923231
"ave" -0.00383020593002586
"laveB" -0.055875543899203
"agg" 0.00948827054771121
"ave" 0.000781629465208608
"laveB" 0.00655456105526442
"agg" -0.106140596738961
"ave" -0.00107355271617099
"laveB" -0.0442136454252775
"agg" -0.15965878608985
"ave" -0.0049873338584031
"laveB" -0.0840463856487906
"agg" 0.0135896738422685
"ave" 0.00318586827428555
"laveB" 0.0305366505791822
"agg" 0.0919288102952934
"ave" 0.00301758582792487
"laveB" 0.0282438924967864
"agg" -0.181542439518186
"ave" -0.00299236485898221
"laveB" -0.0365845872803143
"agg" 0.242690138569424
"ave" 0.00191967498467614
"laveB" 0.0240380231951149
"agg" 0.0460181999168658
"ave" 0.00319040998629804
"laveB" 0.0424042782748042
"agg" 0.19465325748746
"ave" 0.005626097148944
"laveB" 0.0761545782201708
"agg" 0.140595119720269
"ave" 0.0029563340507098
"laveB" 0.0527165433885117
"agg" 0.133608607474781
"ave" 0.00212815458910446
"laveB" 0.0503075691775686
"agg" 0.0351042145988508
"ave" 0.0014300756021417
"laveB" 0.0276973408702497
"agg" 0.108084295464836
"ave" 0.00278202023945612
"laveB" 0.0590350996294967
"agg" 0.107276918992041
"ave" 0.00183325964753975
"laveB" 0.0349945439627038
"agg" 0.127037199038892
"ave" 0.00247425348051572
"laveB" 0.0372333280147442
"agg" 0.0986541856102488
"ave" 0.00215051782565417
"laveB" 0.0292079451303283
"agg" 0.147802974739726
"ave" 0.00305768451939572
"laveB" 0.0582475850024222
"agg" 0.0898925693152849
"ave" 0.00124092605541289
"laveB" 0.0262256773100538
"agg" 0.48157374571326
"ave" 0.00692622857438536
"laveB" 0.136528631867888
"agg" 0.355311096068905
"ave" 0.00785430789913928
"laveB" 0.142701854411969
"agg" 0.390956146878911
"ave" 0.0115052623828722
"laveB" 0.170300385016141
"agg" 0.322936327759987
"ave" 0.00622934969019608
"laveB" 0.119411454358858
"agg" 0.241437676529471
"ave" 0.00730835984021702
"laveB" 0.103099695933809
"agg" 0.383155224745236
"ave" 0.0052117030943287
"laveB" 0.0868978510019027
"agg" 0.188064508862622
"ave" 0.00467726896304639
"laveB" 0.0749421796254818
"agg" 0.328804405580133
"ave" 0.0089846502915913
"laveB" 0.12210302343181
"agg" 0.159357924206912
"ave" 0.00611148469504807
"laveB" 0.0879761041124522
"agg" 0.280205556881521
"ave" 0.00448789102595118
"laveB" 0.0804884515834813
"agg" 0.147390249135994
"ave" 0.00452380777028314
"laveB" 0.072531639337802
"agg" 0.368720069144667
"ave" 0.00781959530778144
"laveB" 0.13576476284933
"agg" 0.254624742509205
"ave" 0.00574701979878829
"laveB" 0.109579605284569
"agg" 0.516522229474039
"ave" 0.00693798489255384
"laveB" 0.138122821132202
"agg" 0.263865042720994
"ave" 0.00416477570948955
"laveB" 0.0838309933159898
"agg" 0.302717127065193
"ave" 0.00396550327713871
"laveB" 0.0696589993123976
"agg" 0.214981507167334
"ave" 0.00361410712708207
"laveB" 0.0776638137103415
"agg" 0.305020120457238
"ave" 0.00405903869132143
"laveB" 0.0798081866470301
"agg" 0.347660743550284
"ave" 0.00652120262933472
"laveB" 0.122766166804563
"agg" 0.342790541076321
"ave" 0.0069803383679238
"laveB" 0.123091741574038
"agg" 0.379326572450272
"ave" 0.00645153440286643
"laveB" 0.125558961673188
"agg" 0.28148542741181
"ave" 0.00679231117667322
"laveB" 0.114280486496112
"agg" 0.34230956000498
"ave" 0.00371639654513022
"laveB" 0.0842554549963907
"agg" 0.239698270321527
"ave" 0.00370382370542448
"laveB" 0.0760135052333817
"agg" 0.296690701377698
"ave" 0.00742014617027745
"laveB" 0.101918889348422
"agg" 0.287884948713372
"ave" 0.00803943339145653
"laveB" 0.112909239594189
"agg" 0.232251914281737
"ave" 0.00368568285004848
"laveB" 0.0600127137589386
"agg" 0.228973297993231
"ave" 0.00533376259149067
"laveB" 0.0801975677220772
"agg" 0.281877914841079
"ave" 0.00564870822551497
"laveB" 0.0689342715662837
"agg" 0.183543273683969
"ave" 0.00411867986313368
"laveB" 0.0647306087816248
"agg" 0.444684211379762
"ave" 0.00522010278826695
"laveB" 0.106510392832262
"agg" 0.337305232268136
"ave" 0.00495494579080153
"laveB" 0.0875610543480271
"agg" 0.364259533647499
"ave" 0.00461660847606721
"laveB" 0.0836668317611104
"agg" 0.232880927236571
"ave" 0.00357184578878833
"laveB" 0.0611563310213943
"agg" 0.459310594073431
"ave" 0.0055282245361233
"laveB" 0.101774415986352
"agg" 0.591830833124891
"ave" 0.0187305366687368
"laveB" 0.256882832440216
"agg" 0.676589789328001
"ave" 0.0188071190542164
"laveB" 0.289669951680966
"agg" 0.54935273886359
"ave" 0.020737063780629
"laveB" 0.258753514531531
"agg" 0.413157429711547
"ave" 0.0074832108620288
"laveB" 0.134373342453939
"agg" 0.372536141972781
"ave" 0.00878730902847301
"laveB" 0.134075425628052
"agg" 0.537728680458983
"ave" 0.0202622902533734
"laveB" 0.222147135988579
"agg" 0.345143300107627
"ave" 0.0147897018967465
"laveB" 0.188226790386908
"agg" 0.338869102440677
"ave" 0.00760656645866122
"laveB" 0.0984005786460769
"agg" 0.166998531303422
"ave" 0.00657566149150953
"laveB" 0.0935862473491362
"agg" 0.0789393607302342
"ave" 0.00294682779249613
"laveB" 0.0538546387130129
"agg" 0.0710920800480632
"ave" 0.00291646105782823
"laveB" 0.0511784639223884
"agg" 0.417014170684423
"ave" 0.00697049139400197
"laveB" 0.119647354634164
"agg" 0.209358720105062
"ave" 0.00503637023298561
"laveB" 0.0869889349766278
"agg" 0.250240275607926
"ave" 0.00481675720913544
"laveB" 0.0942410089659588
"agg" 0.159754178688723
"ave" 0.00406658905471036
"laveB" 0.0680874095387506
"agg" 0.202890404957658
"ave" 0.00399699524348394
"laveB" 0.0560081756009451
"agg" 0.576713540752926
"ave" 0.0169384679266942
"laveB" 0.206821802105847
"agg" 0.554083781946374
"ave" 0.0229659671712593
"laveB" 0.255689084665681
"agg" 0.537190695804434
"ave" 0.010801420999405
"laveB" 0.162320126288259
"agg" 0.367833065553386
"ave" 0.0102649732950311
"laveB" 0.122416057148636
"agg" 0.491344237037691
"ave" 0.0188760716171321
"laveB" 0.182221397148607
"agg" 0.2857173630365
"ave" 0.0127929791260497
"laveB" 0.131370161632286
"agg" 0.316034786110012
"ave" 0.00661923759091165
"laveB" 0.0723681719085787
"agg" 0.15436404775305
"ave" 0.00567659445507513
"laveB" 0.0554149542395091
"agg" 0.00809939398802207
"ave" -0.000984015318617241
"laveB" -0.0186141531392571
"agg" -0.0381728633878459
"ave" -0.00190286188076316
"laveB" -0.0352613389747942
"agg" 0.308576744886999
"ave" 0.00546251423604841
"laveB" 0.0741371319304653
"agg" 0.15338388803566
"ave" 0.00287986620484854
"laveB" 0.0296892413983934
"agg" 0.170032766220302
"ave" 0.00268165277921908
"laveB" 0.047998483394131
"agg" 0.0429915985352678
"ave" -0.000159937071437142
"laveB" -0.00939312884263174
"agg" 0.145214111450378
"ave" 0.00260936532182773
"laveB" 0.0339669145357451
"agg" 0.890633968424569
"ave" 0.0316183638352892
"laveB" 0.407230830742263
"agg" 0.629217978563407
"ave" 0.0101265905650108
"laveB" 0.156257561600393
"agg" 0.611404471504887
"ave" 0.0124439716871262
"laveB" 0.201880120959152
"agg" 0.831085283677061
"ave" 0.0336791252448422
"laveB" 0.367840094124325
"agg" 0.695056072612955
"ave" 0.026524969438003
"laveB" 0.305775126110036
"agg" 0.604320002488839
"ave" 0.0141156395985629
"laveB" 0.184079967207814
"agg" 0.488830070054872
"ave" 0.0145039886318938
"laveB" 0.186852521421167
"agg" 0.194477879810709
"ave" 0.00762362628406315
"laveB" 0.110928525767377
"agg" 0.221951315893296
"ave" 0.00796616299525586
"laveB" 0.134252204886082
"agg" 0.56728451542855
"ave" 0.0098234337706019
"laveB" 0.178115114013743
"agg" 0.451333568831655
"ave" 0.00965303978658515
"laveB" 0.151498533828828
"agg" 0.479404675304794
"ave" 0.00933084065328218
"laveB" 0.167128928514227
"agg" 0.371782043782987
"ave" 0.00915340040002822
"laveB" 0.150638609967157
"agg" 0.429295348335898
"ave" 0.00761044727396104
"laveB" 0.117533210586698
"agg" 0.528620917691181
"ave" 0.011396294441886
"laveB" 0.161311592594985
"agg" 0.709054975134564
"ave" 0.0161831022961882
"laveB" 0.226910741410658
"agg" 0.837113990009804
"ave" 0.0373099120935637
"laveB" 0.365145532212436
"agg" 0.814626156268542
"ave" 0.0343841572574294
"laveB" 0.357271901526044
"agg" 0.618176205908586
"ave" 0.0143569899712338
"laveB" 0.157614535282085
"agg" 0.594713177002033
"ave" 0.0176572887605387
"laveB" 0.229135260381524
"agg" 0.176866713564968
"ave" 0.00481333602201844
"laveB" 0.077033011889541
"agg" 0.258235871315706
"ave" 0.00729187624879749
"laveB" 0.129758276553712
"agg" 0.559493206484981
"ave" 0.0104180519595396
"laveB" 0.161501366443866
"agg" 0.486037738152389
"ave" 0.0107861393801114
"laveB" 0.162062174550514
"agg" 0.474503307190703
"ave" 0.00904196876752624
"laveB" 0.159783793290668
"agg" 0.423293554513921
"ave" 0.00950024080932171
"laveB" 0.166404059369094
"agg" 0.396728561140742
"ave" 0.00766324327548334
"laveB" 0.103672707574203
"agg" 0.445514210740172
"ave" 0.00574979038679165
"laveB" 0.099239122617716
"agg" 0.554490930151971
"ave" 0.0119475284337198
"laveB" 0.141579536772811
"agg" 0.327903600206888
"ave" 0.00748002006036279
"laveB" 0.0938211191772177
"agg" 0.275396141523183
"ave" 0.00350961649977715
"laveB" 0.0513016864173451
"agg" 0.175839512153163
"ave" 0.00325571503399109
"laveB" 0.0423635022177583
"agg" -0.058831467015033
"ave" -0.000898816936749186
"laveB" -0.0323830070108901
"agg" -0.143068302486731
"ave" -0.00203578100065881
"laveB" -0.0284870660442818
"agg" 0.220599240019941
"ave" 0.00218557964262449
"laveB" 0.0361317935250368
"agg" 0.137527913952509
"ave" 0.00129206666777087
"laveB" 0.0156473493995681
"agg" 0.124885136877843
"ave" 0.00126264630847598
"laveB" 0.0295481642078612
"agg" -0.0132473133780835
"ave" -0.000511666708167331
"laveB" -0.00951984789781299
"agg" 0.147500120625987
"ave" 0.00132883769638285
"laveB" 0.0258478191758123
"agg" 0.766128723039361
"ave" 0.017586908576969
"laveB" 0.212061786933804
"agg" 0.779771047740938
"ave" 0.0158141684164052
"laveB" 0.198535446942286
"agg" 0.635108673750854
"ave" 0.00721334180234573
"laveB" 0.107599450825568
"agg" 0.6675839304733
"ave" 0.00903660354631737
"laveB" 0.140087667241385
"agg" 0.341687320377954
"ave" 0.0046936979760284
"laveB" 0.081653154577132
"agg" 0.388932375549955
"ave" 0.00486146453875889
"laveB" 0.0838148199860955
"agg" 0.590401318331794
"ave" 0.00585720445665397
"laveB" 0.117657986497444
"agg" 0.577008857076444
"ave" 0.00570104033640329
"laveB" 0.103338248891225
"agg" 0.54311729426288
"ave" 0.00495585997701459
"laveB" 0.103579047601323
"agg" 0.49590485945568
"ave" 0.00458649942583844
"laveB" 0.0952014689026196
"agg" 0.463793045532746
"ave" 0.00406796181683837
"laveB" 0.0708292970677237
"agg" 0.843553154036357
"ave" 0.039318842364343
"laveB" 0.352446131354728
"agg" 0.839096541394047
"ave" 0.0231480359819074
"laveB" 0.232696157073298
"agg" 0.716141249997667
"ave" 0.0241953524001112
"laveB" 0.245254378757962
"agg" 0.393144149514953
"ave" 0.0159363656843754
"laveB" 0.19146330939578
"agg" 0.421261053103021
"ave" 0.0162430017864982
"laveB" 0.197335390476737
"agg" 0.655014704872762
"ave" 0.0142096634155373
"laveB" 0.202840107501426
"agg" 0.538148659525249
"ave" 0.0142639547618611
"laveB" 0.185902757020707
"agg" 0.592401267672095
"ave" 0.0141302970106075
"laveB" 0.193349775978285
"agg" 0.534688729930828
"ave" 0.0158280617468191
"laveB" 0.204366123435652
"agg" 0.479601082283423
"ave" 0.0111744502516856
"laveB" 0.137584360267149
"agg" 0.758117794679933
"ave" 0.0182830013950733
"laveB" 0.185483226058912
"agg" 0.881222108227531
"ave" 0.0251600761669049
"laveB" 0.251711491561767
"agg" 0.479637302971829
"ave" 0.0158338823205803
"laveB" 0.180484404546018
"agg" 0.574969863209309
"ave" 0.018211526363865
"laveB" 0.223385180145814
"agg" 0.646441667530663
"ave" 0.0133487457718153
"laveB" 0.155111620918983
"agg" 0.686137204144793
"ave" 0.0160878611952322
"laveB" 0.202346276206979
"agg" 0.698424515393054
"ave" 0.0142135980286297
"laveB" 0.181128528514221
"agg" 0.69666069856504
"ave" 0.0169738466658903
"laveB" 0.216945790430833
"agg" 0.620865609427322
"ave" 0.0126738223692245
"laveB" 0.148606523906493
"agg" 0.787413938388207
"ave" 0.0131316431889067
"laveB" 0.161205228202549
"agg" 0.60596527482505
"ave" 0.0121963443667398
"laveB" 0.173562529616568
"agg" 0.613687959562698
"ave" 0.0118965865750257
"laveB" 0.162683828896892
"agg" 0.715147315189168
"ave" 0.00844287674818975
"laveB" 0.133292070555838
"agg" 0.608823245525514
"ave" 0.00855374984742162
"laveB" 0.120430646276089
"agg" 0.715273950754545
"ave" 0.00893902953264931
"laveB" 0.130800756014206
"agg" 0.653762571385652
"ave" 0.010131062816763
"laveB" 0.136331585623293
"agg" 0.511956181865822
"ave" 0.00651555687484602
"laveB" 0.0789794179868141
"agg" 0.674363062548067
"ave" 0.0156334869369857
"laveB" 0.214568295023366
"agg" 0.72325454969605
"ave" 0.0163890048204432
"laveB" 0.24125772683662
"agg" 0.677799687715632
"ave" 0.0102696314615528
"laveB" 0.169315815681362
"agg" 0.766170393767399
"ave" 0.0125752480077612
"laveB" 0.196907929489305
"agg" 0.778755163594965
"ave" 0.0112819845566738
"laveB" 0.169429039521126
"agg" 0.781440426043072
"ave" 0.0137758194831438
"laveB" 0.21281618041344
"agg" 0.643721704318791
"ave" 0.00939408975456722
"laveB" 0.150126530152734
"agg" 0.919728972884796
"ave" 0.0249045992994946
"laveB" 0.384020742419038
"agg" 0.741888382287105
"ave" 0.0128070098520601
"laveB" 0.217078836770108
"agg" 0.765709757813458
"ave" 0.015106290821
"laveB" 0.245890823411988
"agg" 0.83627271067523
"ave" 0.0145257612021991
"laveB" 0.235961225900604
"agg" 0.82866095895874
"ave" 0.0181265661994724
"laveB" 0.308693884280937
"agg" 0.649337180358477
"ave" 0.0112841624308553
"laveB" 0.186367656542606
"agg" 0.714685633517258
"ave" 0.0121158137018411
"laveB" 0.218287282122599
"agg" 0.798861889739702
"ave" 0.01562443351514
"laveB" 0.261290513231567
"agg" 0.855879487097288
"ave" 0.0144877484424931
"laveB" 0.238952346171029
"agg" 0.912567783111579
"ave" 0.0194239503251539
"laveB" 0.336344127555081
"agg" 0.648742506630482
"ave" 0.0113192660608901
"laveB" 0.197197428059482
"agg" 0.816143482977934
"ave" 0.00977171282416469
"laveB" 0.180164049447912
"agg" 0.815156418347456
"ave" 0.0085954082828766
"laveB" 0.187998260686206
"agg" 0.726840017538959
"ave" 0.00954663329695259
"laveB" 0.188708656804875
"agg" 0.710843182056199
"ave" 0.00726676613940127
"laveB" 0.141110628852107
"agg" 0.868440842602757
"ave" 0.0105564651650432
"laveB" 0.1913547226045
"agg" 0.846996470456532
"ave" 0.0128498511598161
"laveB" 0.214061832149657
"agg" 0.792442548968851
"ave" 0.00952393766821363
"laveB" 0.163414600231065
"agg" 0.896047373991137
"ave" 0.0120057008246924
"laveB" 0.218608188548167
"agg" 0.733789103598751
"ave" 0.00790956667317181
"laveB" 0.137017553500946
"agg" 0.696492161655352
"ave" 0.00931397512886544
"laveB" 0.178996483097888
