"EST" "CORR"
"agg" 0.967643062977573
"ave" 0.108097119206409
"laveB" 0.558076848518546
"agg" 0.913961548346964
"ave" 0.141296810278035
"laveB" 0.600452007552763
"agg" 0.897906137312341
"ave" 0.133278811733016
"laveB" 0.581129907580833
"agg" 0.943166033380462
"ave" 0.0818540437272152
"laveB" 0.514822464281924
"agg" 0.899610875974994
"ave" 0.0668961626891743
"laveB" 0.454023216474285
"agg" 0.630653237899123
"ave" 0.0761859494584246
"laveB" 0.400105425557376
"agg" 0.680405249613282
"ave" 0.0775433632643012
"laveB" 0.441186682810464
"agg" 0.781206248911655
"ave" 0.0872138682385822
"laveB" 0.469126616561599
"agg" 0.794597695539633
"ave" 0.0934575191826707
"laveB" 0.505390209709785
"agg" 0.671556801896524
"ave" 0.0684780227824693
"laveB" 0.35641193330827
"agg" 0.596819479500809
"ave" 0.0627874072590359
"laveB" 0.337362099606951
"agg" 0.550751458142265
"ave" 0.0453864079003955
"laveB" 0.262432802268683
"agg" 0.518511954754032
"ave" 0.0524278255764978
"laveB" 0.287555716791549
"agg" 0.467443737392615
"ave" 0.071286055796991
"laveB" 0.312272303644555
"agg" 0.601400413373013
"ave" 0.076103554559882
"laveB" 0.368616668304688
"agg" 0.64920961096992
"ave" 0.0686193426657892
"laveB" 0.386653495612878
"agg" 0.701237919422195
"ave" 0.0701489164140049
"laveB" 0.390093237012368
"agg" 0.354090463261243
"ave" 0.0224245691398794
"laveB" 0.140297732066286
"agg" 0.654914906620532
"ave" 0.0443328479781648
"laveB" 0.320424307736735
"agg" 0.513281479089864
"ave" 0.0267564568417415
"laveB" 0.242878552358319
"agg" 0.535186042136602
"ave" 0.0316672163076512
"laveB" 0.283835864249093
"agg" 0.429804936702702
"ave" 0.0207084617391862
"laveB" 0.20795766258818
"agg" 0.478209835224937
"ave" 0.0279701306610333
"laveB" 0.264706630084285
"agg" 0.103180784379664
"ave" 0.0132407421034718
"laveB" 0.0335767415961097
"agg" 0.59657596272809
"ave" 0.0468648039705191
"laveB" 0.337112521647888
"agg" 0.404583190942111
"ave" 0.0284920199608682
"laveB" 0.293731100962077
"agg" 0.456080761182974
"ave" 0.0258369076661071
"laveB" 0.21262228751293
"agg" 0.707336748480635
"ave" 0.0771537643273908
"laveB" 0.487155631527784
"agg" 0.708994225560158
"ave" 0.0655558009016856
"laveB" 0.44357249213804
"agg" 0.777894400912956
"ave" 0.0761174290277573
"laveB" 0.498492295727573
"agg" 0.759087775479077
"ave" 0.0720861189314705
"laveB" 0.486435017914142
"agg" 0.698597962693197
"ave" 0.0429867610113902
"laveB" 0.350185991861735
"agg" 0.722603138708535
"ave" 0.0454201889882854
"laveB" 0.363302905228965
"agg" 0.710373556243401
"ave" 0.059639077191698
"laveB" 0.380196268344865
"agg" 0.790693695160678
"ave" 0.0749156309026531
"laveB" 0.422307428039707
"agg" 0.771903202319888
"ave" 0.0485341702149012
"laveB" 0.332709728427882
"agg" 0.845283268267234
"ave" 0.0646404395395655
"laveB" 0.433537118960564
"agg" 0.375637273753267
"ave" 0.0341446951013951
"laveB" 0.229260618829271
"agg" 0.274855870652282
"ave" 0.0222764676956289
"laveB" 0.139106539756771
"agg" 0.576799641449372
"ave" 0.035519937970776
"laveB" 0.287222752536569
"agg" 0.0100936242971528
"ave" -0.00091834138398361
"laveB" 0.0162085031381271
"agg" 0.603775122664468
"ave" 0.0431147200140278
"laveB" 0.365423474217142
"agg" 0.57680955679041
"ave" 0.0331405452531137
"laveB" 0.294467308393098
"agg" 0.420034101299839
"ave" 0.0243024235744639
"laveB" 0.193256263043012
"agg" 0.892285397912286
"ave" 0.119590255998969
"laveB" 0.518794279827933
"agg" 0.889179638887304
"ave" 0.114640720529875
"laveB" 0.523933771462228
"agg" 0.899700163685665
"ave" 0.0672209016223615
"laveB" 0.419848114252737
"agg" 0.891730357694941
"ave" 0.0565685934791407
"laveB" 0.402625324173863
"agg" 0.586863165803708
"ave" 0.060289254544255
"laveB" 0.339161329747347
"agg" 0.646360369269519
"ave" 0.0625286366409528
"laveB" 0.379814366958147
"agg" 0.75141599653105
"ave" 0.0720300595711186
"laveB" 0.418976966842072
"agg" 0.747666283937196
"ave" 0.0753905234323667
"laveB" 0.412264073873024
"agg" 0.648907360567411
"ave" 0.0579870946190948
"laveB" 0.301735288255556
"agg" 0.58009996927349
"ave" 0.0531702904774191
"laveB" 0.304870772442224
"agg" 0.535884249547909
"ave" 0.03910883956776
"laveB" 0.229355542870339
"agg" 0.497808828144762
"ave" 0.0435562473443822
"laveB" 0.25188263916409
"agg" 0.49739806233577
"ave" 0.0676143085983754
"laveB" 0.310051030964303
"agg" 0.594900138247287
"ave" 0.0662375501967583
"laveB" 0.327134981808863
"agg" 0.66565921301334
"ave" 0.0614273456729755
"laveB" 0.348883684015957
"agg" 0.710762813819278
"ave" 0.0613276378120025
"laveB" 0.353348106461778
"agg" 0.323043444442932
"ave" 0.0176315413259408
"laveB" 0.11045321689335
"agg" 0.640293301272906
"ave" 0.0369427054434575
"laveB" 0.284008383064307
"agg" 0.503355754179007
"ave" 0.0236454128395651
"laveB" 0.211365114346422
"agg" 0.493115502788098
"ave" 0.0262946516069601
"laveB" 0.229100853655622
"agg" 0.390378465143734
"ave" 0.0172114827269228
"laveB" 0.170017547953609
"agg" 0.443751583304223
"ave" 0.0233139189173713
"laveB" 0.221548154624871
"agg" 0.0885256935456061
"ave" 0.00988660581822216
"laveB" 0.0269547288781812
"agg" 0.593522362862724
"ave" 0.0408783400950484
"laveB" 0.300195878924527
"agg" 0.391167928444907
"ave" 0.0246815299636213
"laveB" 0.237718485725353
"agg" 0.462471152078233
"ave" 0.0232789344578225
"laveB" 0.223388058625169
"agg" 0.669403315444753
"ave" 0.0627610860112071
"laveB" 0.407671459916368
"agg" 0.681342812656271
"ave" 0.0543586769956845
"laveB" 0.375838793957516
"agg" 0.735498721195309
"ave" 0.061284722014119
"laveB" 0.412298764526285
"agg" 0.725939961202517
"ave" 0.0593211441620265
"laveB" 0.40404605778182
"agg" 0.658549407645915
"ave" 0.035107874177726
"laveB" 0.309132318222247
"agg" 0.687106144641213
"ave" 0.0377778562563082
"laveB" 0.327381415006349
"agg" 0.697900851983527
"ave" 0.0508479106000662
"laveB" 0.329363903678405
"agg" 0.772946215876116
"ave" 0.0638489437901524
"laveB" 0.370405722775624
"agg" 0.748795747804114
"ave" 0.0411996463187528
"laveB" 0.266167938197053
"agg" 0.812385818819888
"ave" 0.054404853535717
"laveB" 0.359375004031739
"agg" 0.420401741326871
"ave" 0.0345505209866188
"laveB" 0.237491948522921
"agg" 0.331610651647856
"ave" 0.0246334381128751
"laveB" 0.179698562251097
"agg" 0.607242953059609
"ave" 0.0329327704072842
"laveB" 0.270705982880055
"agg" 0.0785094554232048
"ave" 0.00356984791756467
"laveB" 0.0446991342191743
"agg" 0.620729207470464
"ave" 0.0388684439620879
"laveB" 0.328370325832974
"agg" 0.609301905819979
"ave" 0.0306543658990018
"laveB" 0.276503511816893
"agg" 0.483186242510104
"ave" 0.0245754371911528
"laveB" 0.212438095653807
"agg" 0.971206596521334
"ave" 0.165627899720279
"laveB" 0.602578508251195
"agg" 0.880046720732557
"ave" 0.0913832916260713
"laveB" 0.460629325360818
"agg" 0.810222817888253
"ave" 0.0732522153671163
"laveB" 0.382243501288069
"agg" 0.457936285811867
"ave" 0.0701001208548289
"laveB" 0.295594189781112
"agg" 0.517224138364332
"ave" 0.0744614630158422
"laveB" 0.329945233932646
"agg" 0.859604564330105
"ave" 0.110928328297754
"laveB" 0.501879563857574
"agg" 0.849677045137779
"ave" 0.11631066646108
"laveB" 0.518087127412001
"agg" 0.669513779198636
"ave" 0.0811982086639247
"laveB" 0.351384308472261
"agg" 0.621077740069506
"ave" 0.0745321942412688
"laveB" 0.339394765449113
"agg" 0.46075502454171
"ave" 0.0494165344271312
"laveB" 0.219714061045267
"agg" 0.461763958733079
"ave" 0.0573920605995153
"laveB" 0.24958950249096
"agg" 0.472074434037889
"ave" 0.0849668642879598
"laveB" 0.309251852934392
"agg" 0.639614104106348
"ave" 0.0943972928790806
"laveB" 0.37999606758009
"agg" 0.769993033492152
"ave" 0.0926351265536151
"laveB" 0.417412395914261
"agg" 0.773569971518914
"ave" 0.0893311612815308
"laveB" 0.435502708075426
"agg" 0.297532417033392
"ave" 0.0221606135659983
"laveB" 0.134658352205531
"agg" 0.620156477193623
"ave" 0.0477234345177784
"laveB" 0.29220118632217
"agg" 0.595605913035286
"ave" 0.0352667062917894
"laveB" 0.283462738171706
"agg" 0.592043460056966
"ave" 0.0392501714682017
"laveB" 0.295997537412951
"agg" 0.461295366793533
"ave" 0.025463087834878
"laveB" 0.22006807631039
"agg" 0.492763914376428
"ave" 0.0325071823408529
"laveB" 0.253621128315704
"agg" 0.117476613407059
"ave" 0.0169613168580436
"laveB" 0.0429160616987745
"agg" 0.591448653593757
"ave" 0.0550846873154616
"laveB" 0.314843511595718
"agg" 0.487927611436911
"ave" 0.0372494019881514
"laveB" 0.297890248101467
"agg" 0.519943826774032
"ave" 0.0332727964510538
"laveB" 0.255402244227112
"agg" 0.543322915447337
"ave" 0.073872727222216
"laveB" 0.368609440739759
"agg" 0.577627642859125
"ave" 0.0647840683486609
"laveB" 0.348018771119408
"agg" 0.634481412585544
"ave" 0.075349277287947
"laveB" 0.407218397427452
"agg" 0.599696278870357
"ave" 0.0711675322855389
"laveB" 0.381986945563563
"agg" 0.642584720365345
"ave" 0.0474334194347641
"laveB" 0.311424397942321
"agg" 0.643727547649377
"ave" 0.0485826150586684
"laveB" 0.32229712900341
"agg" 0.66032326942859
"ave" 0.0679446225210282
"laveB" 0.3594962028215
"agg" 0.749729907485393
"ave" 0.0855511155108378
"laveB" 0.390365295983961
"agg" 0.796703160872452
"ave" 0.0591337907841931
"laveB" 0.325319462720768
"agg" 0.874972587835833
"ave" 0.0777889015110632
"laveB" 0.419924883538867
"agg" 0.594995414392693
"ave" 0.0581806586675344
"laveB" 0.344799132676338
"agg" 0.510158709047921
"ave" 0.0444883258629887
"laveB" 0.266331559607418
"agg" 0.687093460564025
"ave" 0.0472379644114787
"laveB" 0.307005464820875
"agg" 0.0959619725154594
"ave" 0.00749183377475725
"laveB" 0.0499490060527794
"agg" 0.711765997741116
"ave" 0.0561971056961367
"laveB" 0.386241651356154
"agg" 0.692979067798606
"ave" 0.0450994731529176
"laveB" 0.321980631582822
"agg" 0.541992069505442
"ave" 0.0358155664695478
"laveB" 0.262416935759431
"agg" 0.888575387426003
"ave" 0.0875842460031572
"laveB" 0.45473128068167
"agg" 0.843688328293825
"ave" 0.0719198474118913
"laveB" 0.388350023865579
"agg" 0.449829019809193
"ave" 0.06354751639649
"laveB" 0.276086642922282
"agg" 0.530048772872966
"ave" 0.0712108621095164
"laveB" 0.328926286011129
"agg" 0.823124134396434
"ave" 0.102694664382249
"laveB" 0.467180520799085
"agg" 0.834816769827431
"ave" 0.109669178317766
"laveB" 0.505415604254808
"agg" 0.651173871000044
"ave" 0.0757604644233145
"laveB" 0.328595902955738
"agg" 0.620700446487937
"ave" 0.0730941359505558
"laveB" 0.338661694945539
"agg" 0.466086657038605
"ave" 0.0469383854537368
"laveB" 0.223193575909181
"agg" 0.475128949393179
"ave" 0.0580718877719966
"laveB" 0.255921873483226
"agg" 0.440646780251632
"ave" 0.0757888549261022
"laveB" 0.291220583287798
"agg" 0.640274642076567
"ave" 0.0923474200446547
"laveB" 0.370316605789386
"agg" 0.741800790382684
"ave" 0.086994181181653
"laveB" 0.388199237660112
"agg" 0.762482183345445
"ave" 0.085401048696705
"laveB" 0.41498079892232
"agg" 0.287441616642394
"ave" 0.0203316897926394
"laveB" 0.110423698066464
"agg" 0.585721219965122
"ave" 0.0431432509708281
"laveB" 0.256215574592378
"agg" 0.572900782302314
"ave" 0.0336071275231782
"laveB" 0.245060038728965
"agg" 0.568229408261929
"ave" 0.0373947514627793
"laveB" 0.274387684424922
"agg" 0.459136849248072
"ave" 0.0254962427451506
"laveB" 0.209061265656536
"agg" 0.503342774718908
"ave" 0.0331755125048188
"laveB" 0.257308225990551
"agg" 0.118769791281532
"ave" 0.0172551887107509
"laveB" 0.0505926666137423
"agg" 0.625440407752241
"ave" 0.0565850437090032
"laveB" 0.318636226408998
"agg" 0.462315532930564
"ave" 0.0351952523998586
"laveB" 0.270858041170007
"agg" 0.52383979022507
"ave" 0.0333866429917592
"laveB" 0.263315868806704
"agg" 0.552132305750383
"ave" 0.0704941999608242
"laveB" 0.36814981054384
"agg" 0.582447533166878
"ave" 0.0620837610038561
"laveB" 0.342353253494838
"agg" 0.62204344854826
"ave" 0.068613287370453
"laveB" 0.382171857789143
"agg" 0.615521772461615
"ave" 0.0688102460322691
"laveB" 0.373889233060084
"agg" 0.63781504612379
"ave" 0.0442603862086144
"laveB" 0.28967632441334
"agg" 0.649548913303849
"ave" 0.046697490124512
"laveB" 0.320147835719489
"agg" 0.63992795392754
"ave" 0.0618026477833897
"laveB" 0.335534258870081
"agg" 0.755248724504729
"ave" 0.0824671150621731
"laveB" 0.398676694974263
"agg" 0.78670948685768
"ave" 0.0563346697508399
"laveB" 0.296738390502425
"agg" 0.889312083602667
"ave" 0.0769543684457185
"laveB" 0.410467915300942
"agg" 0.56831187438524
"ave" 0.0560161503519978
"laveB" 0.30470836138361
"agg" 0.482298306454429
"ave" 0.0427076639163341
"laveB" 0.234425038232225
"agg" 0.681509750084327
"ave" 0.0461324830175879
"laveB" 0.294978473510284
"agg" 0.12515870633941
"ave" 0.00951328713170983
"laveB" 0.0605093073498498
"agg" 0.693328852661151
"ave" 0.054241493550882
"laveB" 0.380321104842344
"agg" 0.684359809324192
"ave" 0.0438784996493268
"laveB" 0.32996112007822
"agg" 0.545444705907595
"ave" 0.0353981999330868
"laveB" 0.227231892621772
"agg" 0.92006136121617
"ave" 0.046834680122599
"laveB" 0.367324935480348
"agg" 0.606536826844773
"ave" 0.0506276007920634
"laveB" 0.316959815550324
"agg" 0.65530984612071
"ave" 0.0513338291945358
"laveB" 0.337768148278456
"agg" 0.735143020625094
"ave" 0.05536122720865
"laveB" 0.344951489619326
"agg" 0.76957386071576
"ave" 0.0610328262336683
"laveB" 0.380314107760697
"agg" 0.652876951864261
"ave" 0.0447635074391456
"laveB" 0.267913939890105
"agg" 0.59142576824251
"ave" 0.0414253377989365
"laveB" 0.280874107314616
"agg" 0.558316932015811
"ave" 0.0317139864023912
"laveB" 0.208028045135942
"agg" 0.4952864738298
"ave" 0.0339717129589208
"laveB" 0.21001348881039
"agg" 0.470083549889054
"ave" 0.0478718357490375
"laveB" 0.269400158378253
"agg" 0.616311850733282
"ave" 0.0518162589969844
"laveB" 0.305614914055832
"agg" 0.618100097355702
"ave" 0.0430898278939948
"laveB" 0.287102052638921
"agg" 0.688740587125411
"ave" 0.045734101519691
"laveB" 0.312915967775702
"agg" 0.33325091509355
"ave" 0.0142601244336652
"laveB" 0.10275389123682
"agg" 0.590685429707937
"ave" 0.0270639883636283
"laveB" 0.22852579911477
"agg" 0.521700539144977
"ave" 0.0178901995158254
"laveB" 0.201882040496054
"agg" 0.56493048715545
"ave" 0.022125613785629
"laveB" 0.248800879314168
"agg" 0.434232635542278
"ave" 0.0135950881448893
"laveB" 0.174894435694554
"agg" 0.500795307877086
"ave" 0.0191391767961113
"laveB" 0.209101395871952
"agg" 0.0680350164851097
"ave" 0.00715172905882892
"laveB" -0.00348751563385972
"agg" 0.6385760340514
"ave" 0.0331007782263781
"laveB" 0.278395518877872
"agg" 0.375130234285315
"ave" 0.0172780055618846
"laveB" 0.189867910387936
"agg" 0.436161453543178
"ave" 0.0161175330692618
"laveB" 0.183251062662566
"agg" 0.733359474762759
"ave" 0.0546615369582095
"laveB" 0.428790787009514
"agg" 0.729915335515858
"ave" 0.0456535252976585
"laveB" 0.362517252672158
"agg" 0.806843406306024
"ave" 0.0543477275454814
"laveB" 0.411587607722572
"agg" 0.794707974689492
"ave" 0.0515382002093044
"laveB" 0.377195749535284
"agg" 0.780732578928243
"ave" 0.0325945301789983
"laveB" 0.311225517010148
"agg" 0.796270367279396
"ave" 0.0336703816016529
"laveB" 0.355591338153801
"agg" 0.741658141934961
"ave" 0.0422537882160051
"laveB" 0.33066435037108
"agg" 0.828806726284986
"ave" 0.0526982801261488
"laveB" 0.330902542703431
"agg" 0.776432459862137
"ave" 0.0323116861909744
"laveB" 0.228914544727416
"agg" 0.878435704637017
"ave" 0.0446312852456807
"laveB" 0.368618734143491
"agg" 0.333539661367247
"ave" 0.0195342497156269
"laveB" 0.158080006908378
"agg" 0.222518380267799
"ave" 0.0111779937891911
"laveB" 0.0727535576140495
"agg" 0.546732521160464
"ave" 0.0222923733107292
"laveB" 0.209566861897628
"agg" -0.0456353785493438
"ave" -0.00343976150904865
"laveB" -0.025334605463592
"agg" 0.579348757757682
"ave" 0.0272583098551698
"laveB" 0.267789143353369
"agg" 0.536675875977484
"ave" 0.0203530191955803
"laveB" 0.212521266915981
"agg" 0.378559190439714
"ave" 0.0141566290558837
"laveB" 0.109042736831316
"agg" 0.60079461799162
"ave" 0.0431727108134369
"laveB" 0.294495171035075
"agg" 0.682017308802467
"ave" 0.0466662076180383
"laveB" 0.328270549623662
"agg" 0.658691831192755
"ave" 0.0426395941715588
"laveB" 0.296528805391681
"agg" 0.699388492208781
"ave" 0.0475430890395579
"laveB" 0.34310549083074
"agg" 0.573557347702457
"ave" 0.0334534839707655
"laveB" 0.220361956451802
"agg" 0.493949402309791
"ave" 0.0293415155946393
"laveB" 0.209568398447462
"agg" 0.521834567545805
"ave" 0.0249954893568701
"laveB" 0.189945898449325
"agg" 0.433129649583647
"ave" 0.0236111491898113
"laveB" 0.159567878788298
"agg" 0.425456592360628
"ave" 0.0380583780451898
"laveB" 0.221866687051956
"agg" 0.534528908687156
"ave" 0.0389058524467852
"laveB" 0.244928858746365
"agg" 0.519975915857089
"ave" 0.0309003825936994
"laveB" 0.216614938965475
"agg" 0.598444159486697
"ave" 0.0334201000945776
"laveB" 0.234899909012919
"agg" 0.322237013402438
"ave" 0.0128855353178589
"laveB" 0.11098792749135
"agg" 0.546376473949328
"ave" 0.0230555485944269
"laveB" 0.20568362816573
"agg" 0.356953551218097
"ave" 0.0100846623344895
"laveB" 0.137752759151169
"agg" 0.345104509831562
"ave" 0.0110031615083748
"laveB" 0.136972500500674
"agg" 0.241138985646498
"ave" 0.00563506349617782
"laveB" 0.0793481677225777
"agg" 0.315226631431191
"ave" 0.00985541968732845
"laveB" 0.123276700965857
"agg" 0.0503522742085593
"ave" 0.00454894755522117
"laveB" -0.009020176327396
"agg" 0.534305015163227
"ave" 0.0239200520809489
"laveB" 0.235428257251432
"agg" 0.194896291766466
"ave" 0.0074281221509194
"laveB" 0.110148855128712
"agg" 0.311189111570119
"ave" 0.00961033279443819
"laveB" 0.107442923023459
"agg" 0.66904331758632
"ave" 0.0428825748784544
"laveB" 0.341979219972627
"agg" 0.632295144229067
"ave" 0.0338725716793326
"laveB" 0.309840109462034
"agg" 0.766834225781599
"ave" 0.045036877939694
"laveB" 0.39120183854242
"agg" 0.786741135969335
"ave" 0.0446918724488726
"laveB" 0.375083265345584
"agg" 0.699044838486373
"ave" 0.0258958632283478
"laveB" 0.298125436046958
"agg" 0.695337884724629
"ave" 0.0256924784918743
"laveB" 0.30818322089355
"agg" 0.708861543383308
"ave" 0.0352293070701439
"laveB" 0.29893153286231
"agg" 0.778498765869889
"ave" 0.0435705761006473
"laveB" 0.319029943367517
"agg" 0.64951817367822
"ave" 0.0228317429694521
"laveB" 0.194763997380542
"agg" 0.734033698479955
"ave" 0.0329048505056051
"laveB" 0.284026356496369
"agg" 0.237266108279345
"ave" 0.0113095281532894
"laveB" 0.099888414174483
"agg" 0.15389587912871
"ave" 0.00605924008801048
"laveB" 0.0270737782966654
"agg" 0.483675836547086
"ave" 0.016926415877939
"laveB" 0.196720122953146
"agg" 0.145002879514889
"ave" 0.00606471101718064
"laveB" 0.0587664259763317
"agg" 0.426237987907398
"ave" 0.0165530257268515
"laveB" 0.202981861736476
"agg" 0.459467408957671
"ave" 0.0148436568769459
"laveB" 0.171271348763171
"agg" 0.39929155571873
"ave" 0.012682697054306
"laveB" 0.134535063383803
"agg" 0.956104441341486
"ave" 0.104496967973602
"laveB" 0.556578119699452
"agg" 0.571442357386489
"ave" 0.0616621101763725
"laveB" 0.338014124515447
"agg" 0.557325698823588
"ave" 0.0636651774395323
"laveB" 0.336121036586857
"agg" 0.638836308393734
"ave" 0.0646598314238644
"laveB" 0.309147452894086
"agg" 0.368714228673848
"ave" 0.0368173863271093
"laveB" 0.201869498770461
"agg" 0.646558332276408
"ave" 0.0522693146422294
"laveB" 0.266822731680705
"agg" 0.436968596083747
"ave" 0.039989508096734
"laveB" 0.234374517231861
"agg" 0.453615016655685
"ave" 0.0682312568668619
"laveB" 0.280037942295258
"agg" 0.426208477415316
"ave" 0.0503333887518101
"laveB" 0.240662434792245
"agg" 0.380799906508504
"ave" 0.037830259451921
"laveB" 0.205602286651766
"agg" 0.398915881212997
"ave" 0.0379160821624556
"laveB" 0.192078781039879
"agg" 0.633773838011574
"ave" 0.0431608523002466
"laveB" 0.274125642667043
"agg" 0.700810002995926
"ave" 0.0524397937286723
"laveB" 0.371853920267922
"agg" 0.34217656783138
"ave" 0.0170145292748019
"laveB" 0.15352942811025
"agg" 0.26037905506283
"ave" 0.0148593009848063
"laveB" 0.13079114201786
"agg" 0.260490736106829
"ave" 0.013029639030914
"laveB" 0.127770348833229
"agg" 0.2565720486861
"ave" 0.0151649965029504
"laveB" 0.149581090474622
"agg" 0.211469939180315
"ave" 0.0203179598845193
"laveB" 0.103794763059367
"agg" 0.294444078798323
"ave" 0.0220602211968491
"laveB" 0.166565129024001
"agg" 0.115470156152344
"ave" 0.00850002951481708
"laveB" 0.115196442357118
"agg" 0.196883067469772
"ave" 0.0096319942109288
"laveB" 0.0929728682525141
"agg" 0.800487582686496
"ave" 0.0852387635725662
"laveB" 0.488169513562581
"agg" 0.723269065851171
"ave" 0.0627253769739636
"laveB" 0.403054297020887
"agg" 0.809560976825521
"ave" 0.0815584221279839
"laveB" 0.480409546202522
"agg" 0.799748604577037
"ave" 0.074442816903313
"laveB" 0.457805416237624
"agg" 0.579737493255175
"ave" 0.0367119826067552
"laveB" 0.293578845089696
"agg" 0.572943744287267
"ave" 0.035791766827859
"laveB" 0.29107186939335
"agg" 0.704967175155314
"ave" 0.0579048295757416
"laveB" 0.350271740690654
"agg" 0.646887406837353
"ave" 0.0584956518913559
"laveB" 0.338991609759928
"agg" 0.581363579873581
"ave" 0.0346620059260356
"laveB" 0.233788975455081
"agg" 0.490287899795271
"ave" 0.0356198572767264
"laveB" 0.239493023459928
"agg" 0.0447878629100986
"ave" 0.00248561431385888
"laveB" 0.0162192398221043
"agg" 0.0217942048829017
"ave" -0.000706478918132614
"laveB" 7.47611275133106e-05
"agg" 0.27566535175603
"ave" 0.0160974713914544
"laveB" 0.145853427602725
"agg" 0.0413785639216786
"ave" -0.000588211478982709
"laveB" 0.0223153515326662
"agg" 0.212959667523705
"ave" 0.0157238444825115
"laveB" 0.139958243275196
"agg" 0.229421304880321
"ave" 0.0127334168932865
"laveB" 0.124483207306007
"agg" 0.158641695781711
"ave" 0.00645375330381149
"laveB" 0.0541321046468636
"agg" 0.624085632858381
"ave" 0.0638389444825341
"laveB" 0.37250631665068
"agg" 0.635219678765721
"ave" 0.0689035928901224
"laveB" 0.391297808142479
"agg" 0.657499263306399
"ave" 0.0614018454750609
"laveB" 0.325877728521393
"agg" 0.422304543505508
"ave" 0.0392911421374176
"laveB" 0.218392518804452
"agg" 0.635676582334951
"ave" 0.0472347099537165
"laveB" 0.275871609601827
"agg" 0.47929613602385
"ave" 0.0428960556686864
"laveB" 0.240779320534234
"agg" 0.462505538532994
"ave" 0.0636674594695598
"laveB" 0.29024566877533
"agg" 0.480247830241404
"ave" 0.0533793157568705
"laveB" 0.267548531558693
"agg" 0.413373826534906
"ave" 0.0388507597132147
"laveB" 0.242037632138998
"agg" 0.441474093691905
"ave" 0.0395600995144654
"laveB" 0.25217186749163
"agg" 0.645259335716104
"ave" 0.0412476283283161
"laveB" 0.281774920819366
"agg" 0.733558660819969
"ave" 0.0517874226602236
"laveB" 0.393578602700485
"agg" 0.331205657762968
"ave" 0.0152342568366713
"laveB" 0.164973444443333
"agg" 0.235389476464433
"ave" 0.0117117455552158
"laveB" 0.112914615554098
"agg" 0.20643522573726
"ave" 0.00906407664098153
"laveB" 0.107653044879472
"agg" 0.216561758468178
"ave" 0.011533958434462
"laveB" 0.116042427913072
"agg" 0.247215203294882
"ave" 0.0230824583544101
"laveB" 0.139551528789351
"agg" 0.340223979564126
"ave" 0.024196912380726
"laveB" 0.181773582564085
"agg" 0.107163326745807
"ave" 0.00737815710733888
"laveB" 0.107454979009128
"agg" 0.195051484295276
"ave" 0.00924585121034534
"laveB" 0.0968306667478347
"agg" 0.782812005991438
"ave" 0.0773117721193008
"laveB" 0.483941770621288
"agg" 0.71326020708658
"ave" 0.0576862612313109
"laveB" 0.408075153913419
"agg" 0.816047630058123
"ave" 0.0760968702987854
"laveB" 0.496966146622668
"agg" 0.843333513897639
"ave" 0.0733616003832813
"laveB" 0.491104173441809
"agg" 0.587661721041067
"ave" 0.0343883100780125
"laveB" 0.294065420069607
"agg" 0.601448538315132
"ave" 0.0350196810792567
"laveB" 0.30634119380252
"agg" 0.734037991077712
"ave" 0.0561788164261025
"laveB" 0.376802102389593
"agg" 0.702820247157082
"ave" 0.0599767845936604
"laveB" 0.345893467120763
"agg" 0.605904998421921
"ave" 0.0339586396157861
"laveB" 0.259855532779932
"agg" 0.536308062773924
"ave" 0.0373208914785371
"laveB" 0.280015151982201
"agg" 0.0732856568328301
"ave" 0.00458699539051035
"laveB" 0.0513678048518958
"agg" 0.0698541635437076
"ave" 0.00362174918496183
"laveB" 0.0455641789349912
"agg" 0.30747709560369
"ave" 0.0170235969150427
"laveB" 0.165821721278822
"agg" 0.107199758297778
"ave" 0.00563452981126578
"laveB" 0.0613935368552577
"agg" 0.210825856219426
"ave" 0.0141915478732305
"laveB" 0.124498696479909
"agg" 0.261136485363547
"ave" 0.0141513012261279
"laveB" 0.158277451911827
"agg" 0.191286545872532
"ave" 0.00822444183981275
"laveB" 0.0817275045880362
"agg" 0.934198735882398
"ave" 0.0943998692865519
"laveB" 0.536867388740211
"agg" 0.828264185516262
"ave" 0.0717375183990132
"laveB" 0.408125044474689
"agg" 0.652915976991555
"ave" 0.0550451527736475
"laveB" 0.338172156560673
"agg" 0.598022613860956
"ave" 0.0457746371338193
"laveB" 0.260779816654417
"agg" 0.561556111332513
"ave" 0.0527234845956327
"laveB" 0.282124574283658
"agg" 0.50388653852457
"ave" 0.0595161936898435
"laveB" 0.313850041030379
"agg" 0.666605545401307
"ave" 0.067396120509924
"laveB" 0.357060021927572
"agg" 0.824702423137746
"ave" 0.0724369620022019
"laveB" 0.444397358182763
"agg" 0.77518298027504
"ave" 0.0656702890041255
"laveB" 0.393884178342651
"agg" 0.438229897462717
"ave" 0.0245342550093143
"laveB" 0.166159313983286
"agg" 0.720118335250477
"ave" 0.0410712910141323
"laveB" 0.327339809358167
"agg" 0.635445267961981
"ave" 0.027558017614749
"laveB" 0.280098816486466
"agg" 0.555001766782754
"ave" 0.0267050891255587
"laveB" 0.260399871347951
"agg" 0.486982560122573
"ave" 0.0203278501572577
"laveB" 0.22300143863817
"agg" 0.464708199641704
"ave" 0.0229572007389212
"laveB" 0.225421845810247
"agg" 0.278188073057745
"ave" 0.0245018151613368
"laveB" 0.151870028815812
"agg" 0.537220021110885
"ave" 0.0358248928644205
"laveB" 0.259401038199565
"agg" 0.546858416238459
"ave" 0.0306895127400701
"laveB" 0.30058020296336
"agg" 0.561147793396081
"ave" 0.0264514575711048
"laveB" 0.250670815203531
"agg" 0.570592217689528
"ave" 0.0559239043316626
"laveB" 0.3609307307358
"agg" 0.550248668257559
"ave" 0.0436604589271542
"laveB" 0.29262525693152
"agg" 0.617976719809848
"ave" 0.053620567390198
"laveB" 0.35965876773411
"agg" 0.583684004042788
"ave" 0.0492909319367387
"laveB" 0.32394053118559
"agg" 0.5397388142773
"ave" 0.0289003617809477
"laveB" 0.2415940366537
"agg" 0.539758547388675
"ave" 0.0292295170935326
"laveB" 0.248409765721092
"agg" 0.715593176866777
"ave" 0.0518838217858547
"laveB" 0.350508860407413
"agg" 0.710637964198318
"ave" 0.057094758282025
"laveB" 0.355564564878416
"agg" 0.84461470367657
"ave" 0.0456039455690936
"laveB" 0.338427089345536
"agg" 0.802649337571329
"ave" 0.0519396649910466
"laveB" 0.361280466576517
"agg" 0.634465596087857
"ave" 0.0454185072816521
"laveB" 0.349382562461469
"agg" 0.595920638037675
"ave" 0.0382076240187885
"laveB" 0.304326069748515
"agg" 0.705050699913422
"ave" 0.0352974927080769
"laveB" 0.307222406586274
"agg" 0.177295415997872
"ave" 0.0104546263011854
"laveB" 0.0954071199476789
"agg" 0.716345101873294
"ave" 0.0417955004505103
"laveB" 0.366743083449235
"agg" 0.756155235208683
"ave" 0.0369750365524552
"laveB" 0.353372005461392
"agg" 0.533735517238874
"ave" 0.0249152923783689
"laveB" 0.231699414914967
"agg" 0.729833913139388
"ave" 0.0666310541618751
"laveB" 0.35495867608487
"agg" 0.60534008036357
"ave" 0.0548920733111261
"laveB" 0.321190807988118
"agg" 0.546561488198032
"ave" 0.0413408313084301
"laveB" 0.243557715488768
"agg" 0.541248556579362
"ave" 0.0503538680185858
"laveB" 0.263738721303626
"agg" 0.392510594318643
"ave" 0.0536885872355464
"laveB" 0.255026390009953
"agg" 0.588153029259972
"ave" 0.0643886838182053
"laveB" 0.331848840259542
"agg" 0.727775928522553
"ave" 0.0681272316963484
"laveB" 0.366463201872523
"agg" 0.731188022608145
"ave" 0.0654284141276873
"laveB" 0.387809590893353
"agg" 0.43120609993243
"ave" 0.0246640005286148
"laveB" 0.168599216338542
"agg" 0.691729813296415
"ave" 0.0419216660026102
"laveB" 0.323274220643182
"agg" 0.55535749737208
"ave" 0.0252363369451677
"laveB" 0.243505253633283
"agg" 0.501702310641787
"ave" 0.0258871002819881
"laveB" 0.252748048822879
"agg" 0.4096917199607
"ave" 0.0178701594681428
"laveB" 0.180972850138421
"agg" 0.412080693406609
"ave" 0.0216544802716239
"laveB" 0.213556274671906
"agg" 0.213086946184633
"ave" 0.0206699307050436
"laveB" 0.103026176570732
"agg" 0.528561426475259
"ave" 0.0370365489084006
"laveB" 0.264337846649331
"agg" 0.472922104705377
"ave" 0.0279873238804243
"laveB" 0.278062401967935
"agg" 0.485411599416692
"ave" 0.0229637666315185
"laveB" 0.224188656247679
"agg" 0.553369614625484
"ave" 0.0563665015563771
"laveB" 0.359363497144375
"agg" 0.530785654294959
"ave" 0.0446235731027818
"laveB" 0.304582859882046
"agg" 0.628060729980945
"ave" 0.0576098820164167
"laveB" 0.380484551444945
"agg" 0.612977906746842
"ave" 0.0550446144825866
"laveB" 0.366068777004222
"agg" 0.57453340605043
"ave" 0.0328755621727058
"laveB" 0.263352884026436
"agg" 0.587030606053766
"ave" 0.0351765266031909
"laveB" 0.304474019877933
"agg" 0.673489682713516
"ave" 0.0515896964409586
"laveB" 0.336855610342241
"agg" 0.695674675078042
"ave" 0.0606240372678851
"laveB" 0.357534205050529
"agg" 0.777082487376859
"ave" 0.0435901149990062
"laveB" 0.307162329282381
"agg" 0.806837535618247
"ave" 0.0557012359398788
"laveB" 0.375737426731836
"agg" 0.512050141496318
"ave" 0.0378200114007664
"laveB" 0.274853489148643
"agg" 0.457945699658707
"ave" 0.030911650330506
"laveB" 0.237406661978297
"agg" 0.628532226963891
"ave" 0.0317434355020175
"laveB" 0.267812668830026
"agg" 0.119600163635313
"ave" 0.00351184915789144
"laveB" 0.0521589642064345
"agg" 0.643120926353563
"ave" 0.0393743986334406
"laveB" 0.342233223556043
"agg" 0.676240097719918
"ave" 0.0337716110470134
"laveB" 0.31115300164532
"agg" 0.458589151296631
"ave" 0.0209124682086462
"laveB" 0.185557709224775
"agg" 0.771086610666427
"ave" 0.0654206859183011
"laveB" 0.371637553402586
"agg" 0.748039301786223
"ave" 0.0558313022020411
"laveB" 0.295799066588868
"agg" 0.59405908744864
"ave" 0.0553171096098862
"laveB" 0.286558986571208
"agg" 0.699282618235855
"ave" 0.0887452626655767
"laveB" 0.35292288507337
"agg" 0.784481843862476
"ave" 0.0818058615458691
"laveB" 0.396791536133493
"agg" 0.754025381293272
"ave" 0.0618467067490909
"laveB" 0.337555451414903
"agg" 0.715442162033013
"ave" 0.0568298545544071
"laveB" 0.320491974713352
"agg" 0.427685306581351
"ave" 0.0225134433639819
"laveB" 0.154696287824256
"agg" 0.661860992007312
"ave" 0.0360442574440769
"laveB" 0.270110435704461
"agg" 0.622803688343948
"ave" 0.0264127621814888
"laveB" 0.23889955696684
"agg" 0.516865110057414
"ave" 0.0246055989912111
"laveB" 0.20734600462112
"agg" 0.532721868650199
"ave" 0.0225113174379753
"laveB" 0.217818733639099
"agg" 0.47094160820454
"ave" 0.0232126026848224
"laveB" 0.216558593579502
"agg" 0.285532858262698
"ave" 0.0237914310836553
"laveB" 0.125936752880723
"agg" 0.580509838087441
"ave" 0.0370655678609275
"laveB" 0.267949712106576
"agg" 0.438990050365886
"ave" 0.0239707956461367
"laveB" 0.220927821133878
"agg" 0.469926223543003
"ave" 0.021058827305286
"laveB" 0.194322245619954
"agg" 0.593208141137509
"ave" 0.0536378915328588
"laveB" 0.324307489131334
"agg" 0.559131792761352
"ave" 0.0417340596368828
"laveB" 0.263330603738961
"agg" 0.605117929180312
"ave" 0.049447255960398
"laveB" 0.294185231617227
"agg" 0.639223084099797
"ave" 0.0507747381941673
"laveB" 0.300675051273668
"agg" 0.559803623125385
"ave" 0.028046576151064
"laveB" 0.216608728533321
"agg" 0.583670956602016
"ave" 0.0296442252740758
"laveB" 0.224603630533495
"agg" 0.797626681157168
"ave" 0.0554481727890152
"laveB" 0.33738726238203
"agg" 0.791918050777627
"ave" 0.0608118546224989
"laveB" 0.328684546826024
"agg" 0.863898036961612
"ave" 0.0454293842726296
"laveB" 0.303922209360602
"agg" 0.736983283115631
"ave" 0.0447711573702156
"laveB" 0.297257046987046
"agg" 0.533487008351822
"ave" 0.0380174979516123
"laveB" 0.257901473706417
"agg" 0.479421750905446
"ave" 0.0309781915829019
"laveB" 0.209122726578013
"agg" 0.581544404373081
"ave" 0.0277224301743491
"laveB" 0.224312141212542
"agg" 0.10996529529965
"ave" 0.0054757252901394
"laveB" 0.0654981390271522
"agg" 0.608273451555708
"ave" 0.0340590515563063
"laveB" 0.283282005826956
"agg" 0.619353488423064
"ave" 0.0282189849733318
"laveB" 0.258352849866216
"agg" 0.415983698597074
"ave" 0.017940511232308
"laveB" 0.15574714845839
"agg" 0.504684919576273
"ave" 0.0384263469571472
"laveB" 0.230889171806396
"agg" 0.628061961210715
"ave" 0.0649980235928421
"laveB" 0.310963886427974
"agg" 0.485463789310715
"ave" 0.0584386431988467
"laveB" 0.26441946936741
"agg" 0.871277611909717
"ave" 0.0906031923745902
"laveB" 0.451369111882015
"agg" 0.641042813993873
"ave" 0.049887313371769
"laveB" 0.292523404196171
"agg" 0.731246582923649
"ave" 0.0557946814154777
"laveB" 0.349895833857799
"agg" 0.232938249000702
"ave" 0.010175718107196
"laveB" 0.0755578012446999
"agg" 0.486053759418465
"ave" 0.0234537100592624
"laveB" 0.19735164003385
"agg" 0.638285834059694
"ave" 0.026686092928709
"laveB" 0.25698683605404
"agg" 0.585176705117888
"ave" 0.0285473347839814
"laveB" 0.257925328227014
"agg" 0.488474977601999
"ave" 0.0204054004695027
"laveB" 0.214214284943928
"agg" 0.554335852140747
"ave" 0.0279348888119274
"laveB" 0.256014160430023
"agg" 0.170041474715678
"ave" 0.0133423762228015
"laveB" 0.0572723891150224
"agg" 0.648910808497125
"ave" 0.0424653660617343
"laveB" 0.313520032225592
"agg" 0.495045094200076
"ave" 0.0266113730834587
"laveB" 0.252888623275116
"agg" 0.595430125307025
"ave" 0.0264833931738685
"laveB" 0.24932149028173
"agg" 0.494721329058278
"ave" 0.0454476669015686
"laveB" 0.307362933231068
"agg" 0.512240815226168
"ave" 0.0388225720246944
"laveB" 0.255672510191956
"agg" 0.464829563328229
"ave" 0.0354877132776709
"laveB" 0.241042587471806
"agg" 0.502158788522588
"ave" 0.0414015116697724
"laveB" 0.269620505103726
"agg" 0.372286613588515
"ave" 0.0184899254757345
"laveB" 0.151318653196454
"agg" 0.459041120683041
"ave" 0.0243165495816283
"laveB" 0.216035392773576
"agg" 0.532800840573543
"ave" 0.0356763565033108
"laveB" 0.242244065502159
"agg" 0.726157062039492
"ave" 0.0564319024283002
"laveB" 0.34250549676782
"agg" 0.731150025068953
"ave" 0.0372432029068185
"laveB" 0.269679790524425
"agg" 0.720724976933787
"ave" 0.0445939048317558
"laveB" 0.31929136308182
"agg" 0.613373763687777
"ave" 0.0414201267430754
"laveB" 0.303663080623714
"agg" 0.467561059409091
"ave" 0.0277164487892537
"laveB" 0.196216264620999
"agg" 0.631420822723935
"ave" 0.0289197888864017
"laveB" 0.25569710970677
"agg" 0.108923107005853
"ave" 0.00197028739673061
"laveB" 0.0348258172355141
"agg" 0.649569913965612
"ave" 0.0358789766552821
"laveB" 0.317849264826337
"agg" 0.586757240825525
"ave" 0.0252788400491431
"laveB" 0.243900333817097
"agg" 0.459106551655217
"ave" 0.018588459269486
"laveB" 0.167391338270253
"agg" 0.770878674200954
"ave" 0.064414666932314
"laveB" 0.307948299245962
"agg" 0.454833196903028
"ave" 0.0487940970247217
"laveB" 0.226890513488763
"agg" 0.476427246280069
"ave" 0.0424971976277126
"laveB" 0.217491260975243
"agg" 0.543124991771681
"ave" 0.040329539989192
"laveB" 0.239974266001319
"agg" 0.541575250764812
"ave" 0.0391679442647416
"laveB" 0.23546024280668
"agg" 0.447100886394012
"ave" 0.0188560384377038
"laveB" 0.131904190526693
"agg" 0.63877793603175
"ave" 0.0308919076880393
"laveB" 0.23632401115648
"agg" 0.490888628135957
"ave" 0.0184954826134373
"laveB" 0.166065836270809
"agg" 0.382239657475576
"ave" 0.0159271499080163
"laveB" 0.140699898678343
"agg" 0.466952075925806
"ave" 0.0175902665295668
"laveB" 0.175404153678906
"agg" 0.409594876794903
"ave" 0.0175910405338331
"laveB" 0.173278325547687
"agg" 0.205220311848305
"ave" 0.015794761710134
"laveB" 0.0635115007706439
"agg" 0.472734663642272
"ave" 0.0263117963555249
"laveB" 0.196038446217171
"agg" 0.398924985057738
"ave" 0.0206913095887833
"laveB" 0.198785883557332
"agg" 0.402006213739918
"ave" 0.0175768269976641
"laveB" 0.171126588289253
"agg" 0.653277631090394
"ave" 0.0480361106540869
"laveB" 0.319325237130218
"agg" 0.540899237577222
"ave" 0.0315556723946682
"laveB" 0.236960232306744
"agg" 0.65197958840654
"ave" 0.0429174039464258
"laveB" 0.292043665136479
"agg" 0.619015499592924
"ave" 0.0391416573046854
"laveB" 0.277334858492516
"agg" 0.548574785857654
"ave" 0.0232208194146412
"laveB" 0.193903269304192
"agg" 0.491640423746001
"ave" 0.019156472233469
"laveB" 0.175456652124461
"agg" 0.735500014443147
"ave" 0.0441453459269326
"laveB" 0.310134138861385
"agg" 0.600239811948496
"ave" 0.038082631647213
"laveB" 0.24106348304901
"agg" 0.685357333846904
"ave" 0.0310096863874008
"laveB" 0.222235410715635
"agg" 0.543040556881264
"ave" 0.0278866847114257
"laveB" 0.203693068198489
"agg" 0.275351314706642
"ave" 0.0200098799255521
"laveB" 0.156972790103373
"agg" 0.167952359898907
"ave" 0.0101550171043612
"laveB" 0.0897336695250282
"agg" 0.502596309881613
"ave" 0.0233450119139736
"laveB" 0.203312210107146
"agg" 0.186323875607216
"ave" 0.0116148973354044
"laveB" 0.0964667769029209
"agg" 0.454625437852049
"ave" 0.0242874088162027
"laveB" 0.195459984434529
"agg" 0.466827233234833
"ave" 0.0197019129546193
"laveB" 0.185866853236907
"agg" 0.42634510938531
"ave" 0.0183331442182903
"laveB" 0.147816965834629
"agg" 0.1181194968655
"ave" 0.0121470636088451
"laveB" 0.0514701472883431
"agg" 0.413869235498406
"ave" 0.0488760263449704
"laveB" 0.224316795212159
"agg" 0.417874436600596
"ave" 0.0375519804894628
"laveB" 0.197832228716375
"agg" 0.484381363763916
"ave" 0.0436592715104016
"laveB" 0.254691208912355
"agg" 0.306283899706493
"ave" 0.0152711332497399
"laveB" 0.0971191724065264
"agg" 0.557432873769409
"ave" 0.0304419003059539
"laveB" 0.234812582049613
"agg" 0.480589402388418
"ave" 0.0228715793822707
"laveB" 0.185019999056326
"agg" 0.443247797216885
"ave" 0.0238383670632412
"laveB" 0.184751651581409
"agg" 0.420705523398447
"ave" 0.0203077427980317
"laveB" 0.175140653003273
"agg" 0.489014642356409
"ave" 0.027830082766135
"laveB" 0.243121304873144
"agg" 0.216820656751729
"ave" 0.019475528142321
"laveB" 0.0797672215708084
"agg" 0.499591320531364
"ave" 0.0361447661433158
"laveB" 0.233181692009668
"agg" 0.513807698230395
"ave" 0.0312310420159943
"laveB" 0.256606227769364
"agg" 0.574689883089617
"ave" 0.0297454569177511
"laveB" 0.239391037955705
"agg" 0.551716937053349
"ave" 0.0476891112296923
"laveB" 0.307659490518005
"agg" 0.510818177061276
"ave" 0.0355277078313919
"laveB" 0.230766298652842
"agg" 0.498926692144786
"ave" 0.0338620584237193
"laveB" 0.234872209270504
"agg" 0.457743205993762
"ave" 0.0361474447227797
"laveB" 0.230003866011869
"agg" 0.279937118609812
"ave" 0.0129211218785396
"laveB" 0.105138629355444
"agg" 0.294138187852959
"ave" 0.0139503090581474
"laveB" 0.128806588793585
"agg" 0.430232043464771
"ave" 0.0300491536954427
"laveB" 0.20097437975922
"agg" 0.434017102628304
"ave" 0.035559466777608
"laveB" 0.191365721249434
"agg" 0.603236218156271
"ave" 0.0331521342433183
"laveB" 0.204474231814547
"agg" 0.552412466258005
"ave" 0.0369106714538429
"laveB" 0.245037888792653
"agg" 0.336631962363234
"ave" 0.0273385636409448
"laveB" 0.17861282859147
"agg" 0.185485029694732
"ave" 0.0117379132271153
"laveB" 0.0693387525360564
"agg" 0.576148429077584
"ave" 0.0310000381304789
"laveB" 0.236283390001757
"agg" 0.217340419149488
"ave" 0.011993279882862
"laveB" 0.0961473915503995
"agg" 0.523016183135209
"ave" 0.0338274339344567
"laveB" 0.263884576660883
"agg" 0.51645231915211
"ave" 0.0253122291900097
"laveB" 0.222299624230034
"agg" 0.46136520604043
"ave" 0.0221249075847178
"laveB" 0.174672503071902
"agg" 0.724637753275035
"ave" 0.110129713422343
"laveB" 0.467235837492052
"agg" 0.688452450281215
"ave" 0.0762275090211563
"laveB" 0.390057707584218
"agg" 0.55748305096161
"ave" 0.0607443451660556
"laveB" 0.306808283816611
"agg" 0.283993798308173
"ave" 0.0204965924195249
"laveB" 0.131444067734179
"agg" 0.413882814373077
"ave" 0.031649724814483
"laveB" 0.19555791516898
"agg" 0.443990450840969
"ave" 0.0273052944718273
"laveB" 0.222924324582844
"agg" 0.327381908306345
"ave" 0.0224913463807473
"laveB" 0.169648103501716
"agg" 0.32061753011394
"ave" 0.019454276392166
"laveB" 0.162338745565745
"agg" 0.224737264071807
"ave" 0.0161075655921689
"laveB" 0.138876075626788
"agg" 0.120134914349589
"ave" 0.0139158154262643
"laveB" 0.0649534216980503
"agg" 0.37377637020977
"ave" 0.0359100721957024
"laveB" 0.215403662379422
"agg" 0.243649571913069
"ave" 0.0192856999525955
"laveB" 0.16218112551669
"agg" 0.220902664068421
"ave" 0.013755320475833
"laveB" 0.108525914234669
"agg" 0.378419305249316
"ave" 0.0518946070544578
"laveB" 0.276354591286827
"agg" 0.383259645572642
"ave" 0.0439798912336222
"laveB" 0.247995870621462
"agg" 0.425160440764405
"ave" 0.0543409040101211
"laveB" 0.289815038184082
"agg" 0.499114722754333
"ave" 0.0577152570850958
"laveB" 0.313167690334141
"agg" 0.538606713707694
"ave" 0.0402070602331974
"laveB" 0.279132757144083
"agg" 0.573245762090215
"ave" 0.043649218871632
"laveB" 0.301939360813061
"agg" 0.787337640731863
"ave" 0.077956028624959
"laveB" 0.43059816941951
"agg" 0.731625961794931
"ave" 0.0813856546683858
"laveB" 0.414593584126185
"agg" 0.616247877807834
"ave" 0.0466509829942435
"laveB" 0.263064825796476
"agg" 0.507716040095502
"ave" 0.0447274480550004
"laveB" 0.262015533390196
"agg" 0.401333334898988
"ave" 0.0415293023336422
"laveB" 0.246558128391134
"agg" 0.423604734311225
"ave" 0.0403907158482861
"laveB" 0.250465696390802
"agg" 0.370046477600149
"ave" 0.0249824575277282
"laveB" 0.182906779432217
"agg" 0.0615457092643954
"ave" 0.00369579131458894
"laveB" 0.0409754842777105
"agg" 0.349498586432556
"ave" 0.0271266593789445
"laveB" 0.200110813831713
"agg" 0.336011578396592
"ave" 0.0210107807689125
"laveB" 0.159363814625721
"agg" 0.313205799665483
"ave" 0.0192683988085643
"laveB" 0.151320515022353
"agg" 0.766252370794343
"ave" 0.0732575315634296
"laveB" 0.381901503423149
"agg" 0.82120503912269
"ave" 0.0753092560756811
"laveB" 0.42764096863579
"agg" 0.286295369838126
"ave" 0.0170413230281796
"laveB" 0.104602347386698
"agg" 0.504233293629377
"ave" 0.0303004386564395
"laveB" 0.213956555430469
"agg" 0.638061059700801
"ave" 0.0330616432432622
"laveB" 0.301061268753999
"agg" 0.536596384966098
"ave" 0.0313561909456871
"laveB" 0.261647784600247
"agg" 0.492319136155009
"ave" 0.0245432189321313
"laveB" 0.236222981924909
"agg" 0.485292676470118
"ave" 0.029491957922494
"laveB" 0.255591241964597
"agg" 0.174348137566281
"ave" 0.0176523466301778
"laveB" 0.0815368292417647
"agg" 0.593977731672751
"ave" 0.0479734089385612
"laveB" 0.319414480916974
"agg" 0.441979229180129
"ave" 0.0291339646977437
"laveB" 0.250635298067522
"agg" 0.521926178730182
"ave" 0.0290173557192029
"laveB" 0.249262444098475
"agg" 0.515602738706157
"ave" 0.0565380341060274
"laveB" 0.338073776255852
"agg" 0.549784211052442
"ave" 0.050141266157934
"laveB" 0.323067002985874
"agg" 0.50600711710037
"ave" 0.0473283798678635
"laveB" 0.30392932248012
"agg" 0.572627869631634
"ave" 0.0553468177347073
"laveB" 0.319473061638344
"agg" 0.456991387027013
"ave" 0.0270466031374826
"laveB" 0.197950382995812
"agg" 0.54880785968773
"ave" 0.0341583718894621
"laveB" 0.260495927125778
"agg" 0.673933068763687
"ave" 0.0550791960005997
"laveB" 0.328674614103982
"agg" 0.841924943851604
"ave" 0.0796367394595785
"laveB" 0.433712257537024
"agg" 0.771554787055482
"ave" 0.0483225024699554
"laveB" 0.29371987720273
"agg" 0.716396121392229
"ave" 0.0533848668004012
"laveB" 0.346145124248356
"agg" 0.616107880032267
"ave" 0.0539057374840709
"laveB" 0.352247244296531
"agg" 0.527440296679146
"ave" 0.0423832498790293
"laveB" 0.294360853141515
"agg" 0.599223567316221
"ave" 0.0347206198137753
"laveB" 0.284502832874251
"agg" 0.152511696454872
"ave" 0.00994867638602818
"laveB" 0.0764741057809186
"agg" 0.60779333328002
"ave" 0.0401209639776684
"laveB" 0.322828567639267
"agg" 0.574345626811307
"ave" 0.0306231187390424
"laveB" 0.257399576763747
"agg" 0.4768638165763
"ave" 0.0254414697574546
"laveB" 0.188038825904308
"agg" 0.921987376583321
"ave" 0.0691971865185241
"laveB" 0.431982152217833
"agg" 0.302346541348241
"ave" 0.0141503881869501
"laveB" 0.111990969445123
"agg" 0.634060344477779
"ave" 0.0317121911922532
"laveB" 0.261486374194198
"agg" 0.684789724955772
"ave" 0.0279375370399493
"laveB" 0.272207225040941
"agg" 0.598548497108785
"ave" 0.0276235553079923
"laveB" 0.244355132370927
"agg" 0.545077221348637
"ave" 0.02162449609378
"laveB" 0.224878987520916
"agg" 0.481574076398581
"ave" 0.0223646758509175
"laveB" 0.21287580221248
"agg" 0.232336382198861
"ave" 0.0190781963458874
"laveB" 0.106853290496254
"agg" 0.577043929256894
"ave" 0.0359043136033376
"laveB" 0.26575516241799
"agg" 0.611369186587877
"ave" 0.0319302955457943
"laveB" 0.293558235691065
"agg" 0.633034484898689
"ave" 0.0284799860737388
"laveB" 0.250148379980532
"agg" 0.454687377535562
"ave" 0.0409561482461103
"laveB" 0.265641721350991
"agg" 0.474272627010343
"ave" 0.0349472718910412
"laveB" 0.243707907360222
"agg" 0.481319684346152
"ave" 0.0375594482228464
"laveB" 0.260719202966486
"agg" 0.448125986162583
"ave" 0.0346699086817998
"laveB" 0.229258661224946
"agg" 0.49328829176686
"ave" 0.0240346746780252
"laveB" 0.213568517818202
"agg" 0.499798337208031
"ave" 0.0244419600610159
"laveB" 0.218787025129011
"agg" 0.691314645699281
"ave" 0.0457555726668818
"laveB" 0.307704980395544
"agg" 0.68431391437005
"ave" 0.0506876736455062
"laveB" 0.307007501107372
"agg" 0.801844995614828
"ave" 0.0409491809902363
"laveB" 0.287868436020613
"agg" 0.73706708215478
"ave" 0.0440564038433265
"laveB" 0.309137232707672
"agg" 0.758292671253944
"ave" 0.0529527484083078
"laveB" 0.382242632640966
"agg" 0.699387567311646
"ave" 0.0447435548381286
"laveB" 0.324846696455506
"agg" 0.763932172885021
"ave" 0.0359212110143602
"laveB" 0.29779248777348
"agg" 0.244047864065425
"ave" 0.0140725994600954
"laveB" 0.125044049025586
"agg" 0.765385704398882
"ave" 0.0416143674550037
"laveB" 0.36187388237623
"agg" 0.771083173620759
"ave" 0.0350335194433329
"laveB" 0.319953559198553
"agg" 0.677319459969873
"ave" 0.0300213580033385
"laveB" 0.240827063021466
"agg" 0.254802546825064
"ave" 0.0109061699390006
"laveB" 0.0835408475134243
"agg" 0.61835980266921
"ave" 0.029549536947329
"laveB" 0.253855340125872
"agg" 0.662539342178345
"ave" 0.0257183513775272
"laveB" 0.263867202774834
"agg" 0.608374842125036
"ave" 0.0272377273073959
"laveB" 0.266852798637582
"agg" 0.543106566548732
"ave" 0.0205581495870467
"laveB" 0.247465365168555
"agg" 0.51200341389843
"ave" 0.023008061497457
"laveB" 0.229346740793187
"agg" 0.166055310052762
"ave" 0.0139219773349499
"laveB" 0.0656433152481993
"agg" 0.639024283254079
"ave" 0.0380425091100231
"laveB" 0.293207304578319
"agg" 0.56577271570513
"ave" 0.0288758466021072
"laveB" 0.2856063076348
"agg" 0.659896031669906
"ave" 0.0280716609313911
"laveB" 0.285100878332903
"agg" 0.539756070844906
"ave" 0.0453580358030724
"laveB" 0.31400950397931
"agg" 0.559573289005554
"ave" 0.0387831910054659
"laveB" 0.313732170933778
"agg" 0.563794812160058
"ave" 0.0416272723952883
"laveB" 0.308557768154082
"agg" 0.541806450526265
"ave" 0.0405595129344188
"laveB" 0.285126946426018
"agg" 0.508640918712125
"ave" 0.0242861996139952
"laveB" 0.222854855341599
"agg" 0.534853707566757
"ave" 0.0258970788324019
"laveB" 0.254785287864213
"agg" 0.648600678235773
"ave" 0.0416929525658531
"laveB" 0.27925992956832
"agg" 0.731488622293775
"ave" 0.0520018769362981
"laveB" 0.338806003064896
"agg" 0.794029569442311
"ave" 0.0381458757681956
"laveB" 0.277604481141993
"agg" 0.765107173884545
"ave" 0.0442542497416538
"laveB" 0.332485145800467
"agg" 0.69202592988822
"ave" 0.0451304374288129
"laveB" 0.365333226407191
"agg" 0.571657247524355
"ave" 0.0334572111897145
"laveB" 0.260407499565675
"agg" 0.741472875159364
"ave" 0.0326497835143148
"laveB" 0.289283418181088
"agg" 0.195477281415259
"ave" 0.00793067787482904
"laveB" 0.088131793571014
"agg" 0.774629098294621
"ave" 0.0401316318253863
"laveB" 0.376785465084206
"agg" 0.753336340507958
"ave" 0.0317830207867138
"laveB" 0.311067785607316
"agg" 0.640120567186063
"ave" 0.025922591237813
"laveB" 0.235087426391521
"agg" 0.723139275996914
"ave" 0.0316794454435505
"laveB" 0.310023818736285
"agg" 0.327256811234509
"ave" 0.00850572495602509
"laveB" 0.100182036648487
"agg" 0.192318461453827
"ave" 0.00473651460354987
"laveB" 0.0438287993695435
"agg" 0.226497928818559
"ave" 0.00552927959307147
"laveB" 0.0842249570142279
"agg" 0.193483398673657
"ave" 0.00549022544079445
"laveB" 0.0727514105926122
"agg" 0.194167052292318
"ave" 0.010307385471946
"laveB" 0.0758336537142428
"agg" 0.172063222717739
"ave" 0.00617378554630523
"laveB" 0.0531086946784477
"agg" 0.0962152646032296
"ave" 0.00215671270777624
"laveB" 0.0177770125188532
"agg" 0.194168857943796
"ave" 0.00565661502518714
"laveB" 0.0685052599966435
"agg" 0.516012038095763
"ave" 0.0316019066487528
"laveB" 0.226704220817887
"agg" 0.449829952630611
"ave" 0.0219885400586916
"laveB" 0.17084281167238
"agg" 0.51089901969618
"ave" 0.0285593670396526
"laveB" 0.22784722827811
"agg" 0.490446183840087
"ave" 0.0250822604304159
"laveB" 0.200612782184564
"agg" 0.330227765819192
"ave" 0.010547903356679
"laveB" 0.100416730505123
"agg" 0.370793023846584
"ave" 0.0112774589318293
"laveB" 0.120937934900289
"agg" 0.508247356395891
"ave" 0.0221727904876342
"laveB" 0.183057723610409
"agg" 0.406783420335055
"ave" 0.0193412526936547
"laveB" 0.149017477837696
"agg" 0.446794821912944
"ave" 0.0142868692837032
"laveB" 0.118536062034978
"agg" 0.337041244691656
"ave" 0.0120215630162874
"laveB" 0.0992718640327222
"agg" 0.112865906596844
"ave" 0.00319084185910807
"laveB" 0.026287031167862
"agg" 0.156024062593853
"ave" 0.00531242484899756
"laveB" 0.0448168169639173
"agg" 0.249497702640737
"ave" 0.00783483052820049
"laveB" 0.0859399682543294
"agg" 0.204574708499054
"ave" 0.0102537395256583
"laveB" 0.098832223922575
"agg" 0.12533904009188
"ave" 0.00340549811342794
"laveB" 0.0230420626684614
"agg" 0.183636298920998
"ave" 0.0050502086774569
"laveB" 0.0742923574777732
"agg" 0.189309809273229
"ave" 0.00523288529015738
"laveB" 0.0587800644748769
"agg" 0.52716132348755
"ave" 0.0132597491664969
"laveB" 0.177117694342875
"agg" 0.439769154550998
"ave" 0.0110954383038405
"laveB" 0.163667661600346
"agg" 0.323327768646937
"ave" 0.00661430268124164
"laveB" 0.10506077812797
"agg" 0.324124484098988
"ave" 0.00789818849169653
"laveB" 0.129230792623387
"agg" 0.260001389315061
"ave" 0.0146420358288687
"laveB" 0.12735412295704
"agg" 0.360289855882899
"ave" 0.0131112343566778
"laveB" 0.136800561744981
"agg" 0.334508272728646
"ave" 0.00813793514813566
"laveB" 0.138580456951033
"agg" 0.434289819538711
"ave" 0.0113619869583148
"laveB" 0.153966888462135
"agg" 0.653416244733535
"ave" 0.0415969631712538
"laveB" 0.347325676521633
"agg" 0.625944655497282
"ave" 0.0312541908407534
"laveB" 0.297347630769026
"agg" 0.712970163580994
"ave" 0.0424927277484859
"laveB" 0.374756369426873
"agg" 0.663999992994926
"ave" 0.0376611320949811
"laveB" 0.328566965681469
"agg" 0.474403950087761
"ave" 0.017089038061097
"laveB" 0.19602500260361
"agg" 0.509943867109334
"ave" 0.017295727810807
"laveB" 0.211766938566216
"agg" 0.679043538228376
"ave" 0.0319816088541498
"laveB" 0.273508531516439
"agg" 0.615433759633012
"ave" 0.0312744622477575
"laveB" 0.254088514878653
"agg" 0.722192800920393
"ave" 0.0232848107750515
"laveB" 0.228206417733809
"agg" 0.613937553238812
"ave" 0.0225673207932963
"laveB" 0.230222505281436
"agg" 0.40848826435279
"ave" 0.0137859490658479
"laveB" 0.143237105043682
"agg" 0.404706107146486
"ave" 0.0129686654528141
"laveB" 0.13737579102111
"agg" 0.548319564496443
"ave" 0.0158414192198714
"laveB" 0.18102289161796
"agg" 0.251685731932516
"ave" 0.0122844589105901
"laveB" 0.112414552202238
"agg" 0.480753298864675
"ave" 0.0140900674850529
"laveB" 0.153962206111485
"agg" 0.543697084882726
"ave" 0.0146732991627158
"laveB" 0.184938067198736
"agg" 0.44184225503242
"ave" 0.011777255408919
"laveB" 0.13665648294319
"agg" 0.85650865084504
"ave" 0.0201997284241021
"laveB" 0.321702337762892
"agg" 0.712940148995754
"ave" 0.0147645453518774
"laveB" 0.263719306374588
"agg" 0.730473593742059
"ave" 0.0176453214186437
"laveB" 0.299820114008779
"agg" 0.292920934540247
"ave" 0.0123210824124846
"laveB" 0.113829708016903
"agg" 0.60039726974596
"ave" 0.0192363266009792
"laveB" 0.245176331385279
"agg" 0.672925669595034
"ave" 0.0181935292338522
"laveB" 0.272517233900462
"agg" 0.653384967132024
"ave" 0.0150588437305724
"laveB" 0.218623050229898
"agg" 0.509659326190629
"ave" 0.0232029440289354
"laveB" 0.279414846840215
"agg" 0.529257979663601
"ave" 0.0195441309500707
"laveB" 0.246403503052198
"agg" 0.480461735640599
"ave" 0.0176542790498955
"laveB" 0.224233607052241
"agg" 0.443137512186358
"ave" 0.0169623709435837
"laveB" 0.203281047383851
"agg" 0.393201271899508
"ave" 0.00914345907538618
"laveB" 0.141203030577409
"agg" 0.459328082337638
"ave" 0.0112207150975252
"laveB" 0.1731011490958
"agg" 0.538419493362695
"ave" 0.0183048978626864
"laveB" 0.206909093927472
"agg" 0.596406227508167
"ave" 0.0228738844600395
"laveB" 0.240412146782942
"agg" 0.739326401150744
"ave" 0.0191973112831441
"laveB" 0.223764902334132
"agg" 0.689438439128502
"ave" 0.0205759873142344
"laveB" 0.251823265351502
"agg" 0.690364631481829
"ave" 0.0254646663249666
"laveB" 0.294517641930015
"agg" 0.604629414393339
"ave" 0.0205970185102861
"laveB" 0.249917412878394
"agg" 0.723975399085866
"ave" 0.0180493997472823
"laveB" 0.24378522394248
"agg" 0.121344281302682
"ave" 0.00432574375342343
"laveB" 0.0703992537038779
"agg" 0.752866139818528
"ave" 0.0212138393785154
"laveB" 0.313801782337692
"agg" 0.714171276756988
"ave" 0.0167228877386566
"laveB" 0.257239732906526
"agg" 0.512438876623328
"ave" 0.0123496605289376
"laveB" 0.166791322391478
"agg" 0.760031655582295
"ave" 0.017475330094869
"laveB" 0.305397084271894
"agg" 0.788907335239183
"ave" 0.0215173844491128
"laveB" 0.343583305687628
"agg" 0.180263618549478
"ave" 0.00778678878825747
"laveB" 0.060456508594309
"agg" 0.612150903613938
"ave" 0.0224114922752811
"laveB" 0.270882835054852
"agg" 0.698566453909695
"ave" 0.0209035381231542
"laveB" 0.305125059816902
"agg" 0.637625503098128
"ave" 0.0160635475499992
"laveB" 0.221066092104307
"agg" 0.46564529782762
"ave" 0.0236720921175481
"laveB" 0.28639570446573
"agg" 0.516924729473368
"ave" 0.0220727269504356
"laveB" 0.27464099576053
"agg" 0.447656233256987
"ave" 0.018527265966808
"laveB" 0.235626326014457
"agg" 0.402510065733431
"ave" 0.0173324697058652
"laveB" 0.218328755285379
"agg" 0.420276581573902
"ave" 0.0114434703658907
"laveB" 0.164411646471504
"agg" 0.502550824362158
"ave" 0.0145726292700035
"laveB" 0.2233154791634
"agg" 0.412805449615424
"ave" 0.0152765184661519
"laveB" 0.161899633391081
"agg" 0.523353327201636
"ave" 0.0223161201992947
"laveB" 0.226749828904035
"agg" 0.651108026257538
"ave" 0.0186476133126082
"laveB" 0.215558071247567
"agg" 0.72103197412477
"ave" 0.0241566526671482
"laveB" 0.284604542425704
"agg" 0.602745202609411
"ave" 0.0244319641297459
"laveB" 0.257467256654489
"agg" 0.477979672511054
"ave" 0.0175580593813055
"laveB" 0.185573264250097
"agg" 0.630646716084262
"ave" 0.0170719047235557
"laveB" 0.225072067147646
"agg" -0.120952937659965
"ave" -0.00551028255479697
"laveB" -0.0672704460316758
"agg" 0.754302295172883
"ave" 0.0241921790778353
"laveB" 0.33256130568367
"agg" 0.61027370181879
"ave" 0.0156284742033038
"laveB" 0.218756655350047
"agg" 0.368081442114645
"ave" 0.00966595213588184
"laveB" 0.130163185688224
"agg" 0.83352264844505
"ave" 0.0195615705755326
"laveB" 0.351261895231373
"agg" 0.189413085730828
"ave" 0.0082049366526192
"laveB" 0.0864999636310384
"agg" 0.589401231533327
"ave" 0.0180419926820101
"laveB" 0.24775253765101
"agg" 0.694160014542725
"ave" 0.0181127748614282
"laveB" 0.283872778667149
"agg" 0.583100894926486
"ave" 0.0126883058500967
"laveB" 0.210553678031195
"agg" 0.47479548932198
"ave" 0.0204838910008365
"laveB" 0.271636362750356
"agg" 0.47394961589773
"ave" 0.0164668857903616
"laveB" 0.221641189761571
"agg" 0.374355053000973
"ave" 0.0129245169828809
"laveB" 0.163408800794874
"agg" 0.31832311664306
"ave" 0.0117263162015913
"laveB" 0.140704162414464
"agg" 0.30397593881749
"ave" 0.00637220810950145
"laveB" 0.0762879378753498
"agg" 0.365329583481121
"ave" 0.00843502678096215
"laveB" 0.138998576087173
"agg" 0.362359175823758
"ave" 0.0121213803217489
"laveB" 0.14382067888898
"agg" 0.418285428162512
"ave" 0.0150812014681275
"laveB" 0.160396864260255
"agg" 0.6100983078396
"ave" 0.0156942018761205
"laveB" 0.201379425223146
"agg" 0.600444022675396
"ave" 0.0169879872437646
"laveB" 0.221292121042178
"agg" 0.509377616978031
"ave" 0.0181601343412062
"laveB" 0.220071080746785
"agg" 0.381433562477594
"ave" 0.012415357919743
"laveB" 0.161466913075211
"agg" 0.525400683405258
"ave" 0.0126267398839313
"laveB" 0.18306224702846
"agg" -0.0778042774400023
"ave" -0.00218573426375012
"laveB" -0.0337285466059016
"agg" 0.686897427625798
"ave" 0.0188524627709321
"laveB" 0.289509849988269
"agg" 0.535291527728494
"ave" 0.0117503093458605
"laveB" 0.185541043692811
"agg" 0.353237431884857
"ave" 0.00824608014491296
"laveB" 0.105284566534713
"agg" 0.155162644217455
"ave" 0.00859565004183029
"laveB" 0.0577569439618144
"agg" 0.664719074827658
"ave" 0.0241631157131929
"laveB" 0.305919078742429
"agg" 0.687705791066632
"ave" 0.0211469664339667
"laveB" 0.314357066184879
"agg" 0.635637478268981
"ave" 0.0164971027082406
"laveB" 0.24412092612944
"agg" 0.496895286046925
"ave" 0.0254345152026689
"laveB" 0.306625199382035
"agg" 0.548869868876771
"ave" 0.0228245286319288
"laveB" 0.283022026267294
"agg" 0.367298202508339
"ave" 0.0143907706502404
"laveB" 0.18128787409111
"agg" 0.336789028296338
"ave" 0.014953966006172
"laveB" 0.166591371207201
"agg" 0.30576160781755
"ave" 0.00741847889406915
"laveB" 0.116483563976116
"agg" 0.382487174175663
"ave" 0.0105462393678465
"laveB" 0.167735539111799
"agg" 0.288546751393732
"ave" 0.0110984893107864
"laveB" 0.115891379782689
"agg" 0.433373970864059
"ave" 0.0190414869625027
"laveB" 0.200109975853706
"agg" 0.558256405106419
"ave" 0.0165244504589789
"laveB" 0.192845545776291
"agg" 0.642544525984992
"ave" 0.0217141193867109
"laveB" 0.263367160799612
"agg" 0.454772405254247
"ave" 0.0187550711731147
"laveB" 0.213843538319868
"agg" 0.33051412030005
"ave" 0.0124277760500477
"laveB" 0.141791833139767
"agg" 0.510746150100644
"ave" 0.0144537576123086
"laveB" 0.199533430285928
"agg" -0.145590613780586
"ave" -0.00542699394454438
"laveB" -0.0558464975626463
"agg" 0.645695444670906
"ave" 0.0209516652199408
"laveB" 0.308800644416626
"agg" 0.500228342820749
"ave" 0.0129888241885396
"laveB" 0.205054356615812
"agg" 0.329463866302447
"ave" 0.00894093028458139
"laveB" 0.15005653075302
"agg" 0.0499841764404036
"ave" 0.00434142983901396
"laveB" -0.0102736354511455
"agg" 0.227210009155433
"ave" 0.0123328783270484
"laveB" 0.105757771821131
"agg" 0.261890562080134
"ave" 0.0125399068414772
"laveB" 0.122159136530059
"agg" 0.208088912313826
"ave" 0.0191081845824333
"laveB" 0.0912053435615539
"agg" 0.17322252778461
"ave" 0.0126898461640742
"laveB" 0.0542037228923117
"agg" 0.169669411039565
"ave" 0.0137851772625171
"laveB" 0.06321538187951
"agg" 0.173080016040785
"ave" 0.0144034183653392
"laveB" 0.0663534037477064
"agg" -0.0716354045483544
"ave" -0.00191383632933943
"laveB" -0.0557828252273139
"agg" -0.0397898225909614
"ave" -0.00126238838906743
"laveB" -0.055930505696376
"agg" 0.161857561643334
"ave" 0.0125142441983339
"laveB" 0.0706138841691835
"agg" 0.120161387228119
"ave" 0.010774969116988
"laveB" 0.0344062921668297
"agg" 0.230888045208662
"ave" 0.0129414904225353
"laveB" 0.0585288682995449
"agg" 0.111497654702856
"ave" 0.00858144640190165
"laveB" 0.0268481285314286
"agg" 0.165323706070118
"ave" 0.0110650389791035
"laveB" 0.0772272136814066
"agg" 0.232233271439616
"ave" 0.014376713707841
"laveB" 0.142780817081143
"agg" 0.167084403639355
"ave" 0.00830372354969569
"laveB" 0.0703390685721853
"agg" 0.181327556270851
"ave" 0.0108003151442214
"laveB" 0.114932447431649
"agg" 0.114548109978702
"ave" 0.00728740943473952
"laveB" 0.0466852470691061
"agg" 0.190947879625328
"ave" 0.00953368636966563
"laveB" 0.0913413326415822
"agg" 0.147798335320799
"ave" 0.00656001444120075
"laveB" 0.0560824297144928
"agg" 0.507897976669883
"ave" 0.0211362683931858
"laveB" 0.25259065584246
"agg" 0.558945169772382
"ave" 0.0199812001980889
"laveB" 0.217761784595115
"agg" 0.513083629745207
"ave" 0.0346579691734203
"laveB" 0.316699757529305
"agg" 0.529957586178173
"ave" 0.0300109313091023
"laveB" 0.293570766818142
"agg" 0.478678355243235
"ave" 0.0273419639251183
"laveB" 0.26302862772847
"agg" 0.465051399775946
"ave" 0.02708988888288
"laveB" 0.246849116672711
"agg" 0.495396501110116
"ave" 0.017895881120452
"laveB" 0.201654074773352
"agg" 0.51206555679973
"ave" 0.0190492575678999
"laveB" 0.231193764251524
"agg" 0.482262216709257
"ave" 0.0250640578005864
"laveB" 0.215929968294437
"agg" 0.575878010989207
"ave" 0.0337556708344774
"laveB" 0.270139220687334
"agg" 0.625130070779459
"ave" 0.0243589044823291
"laveB" 0.214145233983809
"agg" 0.680656747054598
"ave" 0.0316645865276887
"laveB" 0.280599935366855
"agg" 0.470300012723288
"ave" 0.027196297098963
"laveB" 0.234821229016876
"agg" 0.347632578991488
"ave" 0.0184591922764999
"laveB" 0.137375261681058
"agg" 0.603501166555513
"ave" 0.0233828302882974
"laveB" 0.23194464844112
"agg" 0.0393062734114953
"ave" 0.00291952732371564
"laveB" 0.0107998117633734
"agg" 0.613174245485453
"ave" 0.0263630752342309
"laveB" 0.30056673002711
"agg" 0.549649317906152
"ave" 0.0192888090233616
"laveB" 0.223027614319941
"agg" 0.442781494994983
"ave" 0.0163897438316352
"laveB" 0.163563738869238
"agg" 0.813443050892823
"ave" 0.0238997025213634
"laveB" 0.353434902826122
"agg" 0.374777184061259
"ave" 0.02253495851034
"laveB" 0.270691960886503
"agg" 0.428232337619378
"ave" 0.0206340432132238
"laveB" 0.27725289653727
"agg" 0.259637671077618
"ave" 0.0111990313307615
"laveB" 0.178667889083549
"agg" 0.142837483722928
"ave" 0.00808940448891999
"laveB" 0.123590252126736
"agg" 0.191501180389701
"ave" 0.00610228055070851
"laveB" 0.106029658642656
"agg" 0.217710455353944
"ave" 0.00711540380600806
"laveB" 0.113236397504831
"agg" 0.293611857123758
"ave" 0.014056088053048
"laveB" 0.177676441298114
"agg" 0.313837383958466
"ave" 0.01645802135745
"laveB" 0.172526363431694
"agg" 0.570191934201427
"ave" 0.0197904147971094
"laveB" 0.206691897149103
"agg" 0.549925045498887
"ave" 0.0212902661208281
"laveB" 0.244032646065579
"agg" 0.659613062693489
"ave" 0.0299742639041439
"laveB" 0.323778484699736
"agg" 0.539038262144822
"ave" 0.0222158531703034
"laveB" 0.237139505982859
"agg" 0.694529791983687
"ave" 0.0217019808765262
"laveB" 0.285901330781591
"agg" 0.114414535107771
"ave" 0.00427278276742804
"laveB" 0.0349585309438733
"agg" 0.780423631330155
"ave" 0.0278860153595794
"laveB" 0.373507376722691
"agg" 0.692328768356397
"ave" 0.0200249163676252
"laveB" 0.284813633279007
"agg" 0.569602539165241
"ave" 0.0169243281592391
"laveB" 0.23079097407143
"agg" 0.449994495670516
"ave" 0.0215302779541899
"laveB" 0.237254181097496
"agg" 0.506511456811003
"ave" 0.0195981379649675
"laveB" 0.241351321333259
"agg" 0.337582906670975
"ave" 0.0112596114436502
"laveB" 0.167096000132046
"agg" 0.234635547350083
"ave" 0.00950655207967838
"laveB" 0.12496622140984
"agg" 0.175937737483581
"ave" 0.00372939536867358
"laveB" 0.0402848529887959
"agg" 0.209816109118958
"ave" 0.00412221357506135
"laveB" 0.077005889108414
"agg" 0.321183543848621
"ave" 0.0123882964272285
"laveB" 0.134042663878128
"agg" 0.395640564325635
"ave" 0.0166431914183865
"laveB" 0.170877678478823
"agg" 0.608043098987126
"ave" 0.0177211560365788
"laveB" 0.190757040671466
"agg" 0.567612634767825
"ave" 0.0182689186687556
"laveB" 0.205384932608251
"agg" 0.649449441712781
"ave" 0.0262377342964003
"laveB" 0.292044388125117
"agg" 0.512539739742901
"ave" 0.0187790702008017
"laveB" 0.218112128500511
"agg" 0.747706442873193
"ave" 0.0208621003398682
"laveB" 0.279477631271409
"agg" 0.28657950355985
"ave" 0.0120670029498645
"laveB" 0.142055236273443
"agg" 0.748346221075579
"ave" 0.0227858252401852
"laveB" 0.301800983287807
"agg" 0.709180377940882
"ave" 0.0180522879535391
"laveB" 0.259407799406402
"agg" 0.643108773598682
"ave" 0.0173220041117362
"laveB" 0.247840464597531
"agg" 0.908287190261786
"ave" 0.0712796633744564
"laveB" 0.605516830127485
"agg" 0.903158571306399
"ave" 0.077610061590055
"laveB" 0.576953530514528
"agg" 0.797357003724762
"ave" 0.0655282941749964
"laveB" 0.485561306139284
"agg" 0.605160827795013
"ave" 0.0333983065945443
"laveB" 0.333164152929377
"agg" 0.598891758434839
"ave" 0.0321233350432816
"laveB" 0.328508766302749
"agg" 0.662568400758773
"ave" 0.0492029945906813
"laveB" 0.353899516861139
"agg" 0.645138429246337
"ave" 0.052581870563876
"laveB" 0.360510784307175
"agg" 0.66052327658592
"ave" 0.0354515735914158
"laveB" 0.302569474381604
"agg" 0.597743718966566
"ave" 0.0385304049901858
"laveB" 0.338564133425048
"agg" 0.17089133146079
"ave" 0.0136364023951099
"laveB" 0.138045266881316
"agg" 0.0595439839492148
"ave" 0.00284931362317508
"laveB" 0.0230490045182846
"agg" 0.48609061109201
"ave" 0.027085619520458
"laveB" 0.269068476468481
"agg" 0.0919960024443197
"ave" 0.00541594104943716
"laveB" 0.0495068206188491
"agg" 0.435860069878217
"ave" 0.0274819598324652
"laveB" 0.284424584778161
"agg" 0.417431919941087
"ave" 0.0207216906186861
"laveB" 0.249013046334742
"agg" 0.359162584730344
"ave" 0.0174733459025611
"laveB" 0.172789974928792
"agg" 0.839736105678615
"ave" 0.0583201961166519
"laveB" 0.498765047028231
"agg" 0.760300588231182
"ave" 0.0516900998835422
"laveB" 0.414008079526834
"agg" 0.561162911139618
"ave" 0.0259472735699057
"laveB" 0.265951442857055
"agg" 0.602697429253953
"ave" 0.0275888070478436
"laveB" 0.294337861045939
"agg" 0.608797317672014
"ave" 0.0371688043021298
"laveB" 0.305349289094652
"agg" 0.650621679989699
"ave" 0.0447769268737464
"laveB" 0.33247224976164
"agg" 0.673365033520953
"ave" 0.0301817160238191
"laveB" 0.270949698938671
"agg" 0.634872404716348
"ave" 0.0342538838092683
"laveB" 0.30188239636084
"agg" 0.247361771557709
"ave" 0.0151694162817162
"laveB" 0.140783672456578
"agg" 0.138150901869065
"ave" 0.00631959087448719
"laveB" 0.0431255425090535
"agg" 0.506932429738596
"ave" 0.0220640819117965
"laveB" 0.253453210194073
"agg" 0.0462123677019605
"ave" -6.3308470412729e-05
"laveB" 0.0323168444286639
"agg" 0.489086836945805
"ave" 0.0248141981225286
"laveB" 0.289737536090064
"agg" 0.465048252363172
"ave" 0.0186979037016093
"laveB" 0.220932332212615
"agg" 0.362565066583525
"ave" 0.0134816149204202
"laveB" 0.183183778128817
"agg" 0.918930246798023
"ave" 0.0706131434818621
"laveB" 0.540754134021693
"agg" 0.726966704258238
"ave" 0.0383452937040771
"laveB" 0.373134420982846
"agg" 0.728270482003094
"ave" 0.0374588313600837
"laveB" 0.365093954437651
"agg" 0.772604800388469
"ave" 0.0531104753123386
"laveB" 0.407582673488757
"agg" 0.725776955120097
"ave" 0.0536065598119436
"laveB" 0.388864523059612
"agg" 0.688620897561561
"ave" 0.0318582190397449
"laveB" 0.276351089672654
"agg" 0.643285259747233
"ave" 0.0364707692920363
"laveB" 0.31064186373022
"agg" 0.170275747499358
"ave" 0.00751447986748683
"laveB" 0.0999719058793622
"agg" 0.0719924291088627
"ave" -6.28037094921445e-05
"laveB" 0.025277301842619
"agg" 0.466530810587567
"ave" 0.0197109512844117
"laveB" 0.216649453748966
"agg" 0.0812480233156536
"ave" 0.000528223206849228
"laveB" 0.0321389903773162
"agg" 0.423597760804675
"ave" 0.0210778885894581
"laveB" 0.247968663086662
"agg" 0.417005940954959
"ave" 0.0161140859404397
"laveB" 0.211824971246696
"agg" 0.330087909117278
"ave" 0.0107844580519314
"laveB" 0.132169955489536
"agg" 0.73064339494703
"ave" 0.0344734193415503
"laveB" 0.349004010600284
"agg" 0.813949547000586
"ave" 0.0390580591127508
"laveB" 0.408750376855865
"agg" 0.799293294402069
"ave" 0.0501049973764617
"laveB" 0.403508361984084
"agg" 0.832462550939638
"ave" 0.0596760035512675
"laveB" 0.415935381691261
"agg" 0.662678903606613
"ave" 0.0302368158466632
"laveB" 0.271446842597805
"agg" 0.67526398957451
"ave" 0.0385991349085333
"laveB" 0.331713209911627
"agg" 0.119872179374305
"ave" 0.00737948938236727
"laveB" 0.0686937184931783
"agg" 0.0593353754452206
"ave" 0.00237372029484275
"laveB" 0.0206700861831389
"agg" 0.337697089813842
"ave" 0.0151431723181721
"laveB" 0.154670102848665
"agg" -0.0233809912484528
"ave" -0.00362237811407501
"laveB" -0.0136866445880732
"agg" 0.332123990605286
"ave" 0.0180776275363232
"laveB" 0.174791723500716
"agg" 0.325386891081341
"ave" 0.0137395718312553
"laveB" 0.167930875092021
"agg" 0.182796469138377
"ave" 0.00627356016004463
"laveB" 0.0666568955299934
"agg" 0.893516059900378
"ave" 0.0277747872326702
"laveB" 0.358487679919356
"agg" 0.786162372886484
"ave" 0.0324090390408866
"laveB" 0.317151308686475
"agg" 0.706071177029056
"ave" 0.0312586839588625
"laveB" 0.284084647287713
"agg" 0.625527108097104
"ave" 0.0181393972721007
"laveB" 0.196901005094174
"agg" 0.682352629497783
"ave" 0.0237575202944809
"laveB" 0.236692845748991
"agg" 0.145410320292668
"ave" 0.00531472841634091
"laveB" 0.0410605298368788
"agg" 0.0704666545361564
"ave" 0.00107183886816976
"laveB" -0.00957354085497191
"agg" 0.327057241370536
"ave" 0.00911342095878012
"laveB" 0.113040402738692
"agg" -0.197419345525745
"ave" -0.00797992348489413
"laveB" -0.080692443974894
"agg" 0.373775770861423
"ave" 0.0123828185419418
"laveB" 0.182006863789106
"agg" 0.308232764170855
"ave" 0.00798837596403754
"laveB" 0.114021858250682
"agg" 0.167412967875605
"ave" 0.00390331613521765
"laveB" 0.046084526412577
"agg" 0.759862249324988
"ave" 0.0306041120576954
"laveB" 0.306180863960648
"agg" 0.804413492224433
"ave" 0.0370228378324982
"laveB" 0.329892521254078
"agg" 0.652322519051661
"ave" 0.0189416281218681
"laveB" 0.185326704657975
"agg" 0.76835662808991
"ave" 0.0281323871294324
"laveB" 0.29333165329206
"agg" 0.207061809542035
"ave" 0.00855948521949058
"laveB" 0.102506613564095
"agg" 0.125615259052707
"ave" 0.00448130887568747
"laveB" 0.031436208484514
"agg" 0.311382682201118
"ave" 0.00796031427464942
"laveB" 0.108641474355612
"agg" -0.272914190425356
"ave" -0.0136671877703406
"laveB" -0.142276109190551
"agg" 0.42168753386536
"ave" 0.0144775420180442
"laveB" 0.195999936110743
"agg" 0.335425500007559
"ave" 0.00863549429273296
"laveB" 0.131968349176492
"agg" 0.123116867142224
"ave" 0.00175283602940782
"laveB" 0.0413439030650896
"agg" 0.866918842751494
"ave" 0.0529965574170837
"laveB" 0.383364336853993
"agg" 0.814548686646312
"ave" 0.0342288283293105
"laveB" 0.284309354548553
"agg" 0.696268330913718
"ave" 0.034132210301545
"laveB" 0.280318370963562
"agg" 0.361713600159997
"ave" 0.0218885072697808
"laveB" 0.181212622886395
"agg" 0.325274597933905
"ave" 0.0170486302767565
"laveB" 0.145770215308625
"agg" 0.514081229796649
"ave" 0.0211619838429555
"laveB" 0.211662474363419
"agg" 0.144190394933523
"ave" 0.00821943213661632
"laveB" 0.0761335978136044
"agg" 0.45581595912149
"ave" 0.0212858059227764
"laveB" 0.206989509849724
"agg" 0.488989520553601
"ave" 0.0188526817815669
"laveB" 0.205947206367468
"agg" 0.386082101644852
"ave" 0.0146351443904423
"laveB" 0.132337091954312
"agg" 0.822274159843941
"ave" 0.0383007628358382
"laveB" 0.278713327222873
"agg" 0.831623813433444
"ave" 0.046604686233097
"laveB" 0.335684215980972
"agg" 0.438565430507838
"ave" 0.0293321634178602
"laveB" 0.214751168878882
"agg" 0.372765123568613
"ave" 0.0232277076070802
"laveB" 0.170255820552072
"agg" 0.517331145050528
"ave" 0.0233038100775623
"laveB" 0.212498176186678
"agg" 0.0424553714053262
"ave" 0.00219852260746628
"laveB" 0.0422452092696781
"agg" 0.527910719104621
"ave" 0.0271367864527064
"laveB" 0.250464657056182
"agg" 0.506210181704062
"ave" 0.0216431792420601
"laveB" 0.229425761336155
"agg" 0.361999413279598
"ave" 0.0148710042082607
"laveB" 0.146483410508829
"agg" 0.855502864247342
"ave" 0.0316775568473426
"laveB" 0.270670193429476
"agg" 0.646423293898804
"ave" 0.0295520415623524
"laveB" 0.249435347673352
"agg" 0.564998550367402
"ave" 0.0239574368007369
"laveB" 0.201305655024432
"agg" 0.739855008058984
"ave" 0.0225872821336631
"laveB" 0.228123790309336
"agg" 0.175324261731157
"ave" 0.00760504659077381
"laveB" 0.0573187670340684
"agg" 0.757847677198399
"ave" 0.0264592650748425
"laveB" 0.28420397250203
"agg" 0.76745832905508
"ave" 0.0222014826438336
"laveB" 0.244801233705017
"agg" 0.562791855239283
"ave" 0.0165036782522021
"laveB" 0.161387902407903
"agg" 0.584400989255879
"ave" 0.0299923889301955
"laveB" 0.257413675497709
"agg" 0.472904962275068
"ave" 0.0222940999986625
"laveB" 0.191621411412319
"agg" 0.641459038456594
"ave" 0.0224523178388576
"laveB" 0.234160695801749
"agg" -0.0911621910230007
"ave" -0.00380592134947908
"laveB" -0.0282129928787624
"agg" 0.767412166587238
"ave" 0.0307945829195507
"laveB" 0.335580594267214
"agg" 0.680109851614307
"ave" 0.0225776869057914
"laveB" 0.223435935731008
"agg" 0.425965784388179
"ave" 0.0145834262545593
"laveB" 0.147147062461348
"agg" 0.91030853546582
"ave" 0.0530816181197453
"laveB" 0.495606793166315
"agg" 0.832008533812531
"ave" 0.0346976432416816
"laveB" 0.346759943613972
"agg" 0.360971495201851
"ave" 0.0210433758532186
"laveB" 0.196801868303681
"agg" 0.845668842030047
"ave" 0.0394590774888617
"laveB" 0.428650523459888
"agg" 0.833959624305583
"ave" 0.0331893181428875
"laveB" 0.38586067327183
"agg" 0.728108757730703
"ave" 0.0303654740258903
"laveB" 0.322707531415312
"agg" 0.705993107418621
"ave" 0.0262912059341163
"laveB" 0.268337391804789
"agg" 0.390958585960882
"ave" 0.0206022534670482
"laveB" 0.198294306594731
"agg" 0.691895891368472
"ave" 0.0290375343946647
"laveB" 0.320916222560405
"agg" 0.760084249661643
"ave" 0.0282284740160536
"laveB" 0.328868523274518
"agg" 0.643045051641479
"ave" 0.0242905209481146
"laveB" 0.259097342217851
"agg" 0.518416947710206
"ave" 0.0212809912062056
"laveB" 0.225961719952411
"agg" 0.859269803006135
"ave" 0.0274451680577381
"laveB" 0.344721112249027
"agg" 0.881152290265665
"ave" 0.0237318176323022
"laveB" 0.308084285350271
"agg" 0.871926815222003
"ave" 0.0249173073401537
"laveB" 0.301544566012319
"agg" 0.134518373060192
"ave" 0.0043950459745773
"laveB" 0.0577752266228774
"agg" 0.392395211440434
"ave" 0.0143762313485687
"laveB" 0.187574472816973
"agg" 0.713583272334786
"ave" 0.0269961233947852
"laveB" 0.267676429065364
"agg" 0.902852231524399
"ave" 0.0271346410492354
"laveB" 0.382594313206719
"agg" 0.669615073200948
"ave" 0.0202606594962306
"laveB" 0.267967686957186
"agg" 0.784238317135729
"ave" 0.0202353577127036
"laveB" 0.267496187701026
