"EST" "CORR"
"agg" 0.964867535516735
"ave" 0.149016777949249
"laveB" 0.577675727154254
"agg" 0.847216842955535
"ave" 0.126880146783663
"laveB" 0.461736078920033
"agg" 0.824549117620205
"ave" 0.138279482906543
"laveB" 0.474745629642132
"agg" 0.800978227521433
"ave" 0.0596737019291661
"laveB" 0.310706601368093
"agg" 0.809252900211209
"ave" 0.059551043986305
"laveB" 0.331303041105585
"agg" 0.738028498152157
"ave" 0.0983359464756215
"laveB" 0.427435414643457
"agg" 0.703064869178602
"ave" 0.0750514164288395
"laveB" 0.316523671368174
"agg" 0.7157811441803
"ave" 0.0901284387313763
"laveB" 0.397989761102469
"agg" 0.577362728043864
"ave" 0.071855199899756
"laveB" 0.285202899655981
"agg" 0.477932930456541
"ave" 0.0430488073094381
"laveB" 0.225792222572443
"agg" -0.00613979557843792
"ave" -0.00807361429187978
"laveB" -0.0172603911973985
"agg" 0.571971246620506
"ave" 0.0625894424412837
"laveB" 0.291797630002076
"agg" 0.243422430339658
"ave" 0.0257187733195143
"laveB" 0.121748535343805
"agg" 0.286396857927116
"ave" 0.0349062038843326
"laveB" 0.154110390173298
"agg" 0.338541151734315
"ave" 0.039198117044345
"laveB" 0.180239830657962
"agg" 0.748561420687362
"ave" 0.0908152634110073
"laveB" 0.381566249253501
"agg" 0.684972805004816
"ave" 0.0639401636246065
"laveB" 0.279781513017448
"agg" 0.803245741774997
"ave" 0.121102110807661
"laveB" 0.553410975720248
"agg" 0.799656598249602
"ave" 0.106365452852034
"laveB" 0.505351931229895
"agg" 0.267161733731316
"ave" 0.0157581903831319
"laveB" 0.10374822442866
"agg" 0.181168395643632
"ave" 0.0119143385459048
"laveB" 0.0740353643426148
"agg" -0.148835097758291
"ave" -0.00718337800320395
"laveB" -0.073109123415347
"agg" -0.0214009383920365
"ave" -0.00032274683129241
"laveB" -0.0187254118863879
"agg" 0.0658552790482113
"ave" 0.0061845834566108
"laveB" 0.0600448989737948
"agg" 0.163778008582344
"ave" 0.0132841299052638
"laveB" 0.086647398832941
"agg" 0.151986767976725
"ave" 0.00881558221761553
"laveB" 0.0587692653322461
"agg" 0.358884841562828
"ave" 0.0308866277466952
"laveB" 0.182033631009724
"agg" 0.550168620524724
"ave" 0.0701195177470951
"laveB" 0.343559874921902
"agg" 0.594917478859074
"ave" 0.0675951167356923
"laveB" 0.367428753114293
"agg" 0.518428830843739
"ave" 0.0487978234289974
"laveB" 0.267309527009887
"agg" 0.427017388186098
"ave" 0.0383343874270949
"laveB" 0.218666145322048
"agg" 0.407577612793527
"ave" 0.0175592696664399
"laveB" 0.112940414714694
"agg" 0.438542219386335
"ave" 0.0266227387047685
"laveB" 0.199560964718482
"agg" 0.429009193793408
"ave" 0.0385549755061595
"laveB" 0.202402393139307
"agg" 0.431955592010937
"ave" 0.0315889410290939
"laveB" 0.153143165679946
"agg" 0.570327513152657
"ave" 0.0258487784412798
"laveB" 0.15016436811563
"agg" 0.427990022651122
"ave" 0.0150189521883629
"laveB" 0.1106764120215
"agg" 0.115056008474345
"ave" 0.00188804429582567
"laveB" 0.00423608712600093
"agg" 0.107214666313297
"ave" 0.00821137730649492
"laveB" 0.0506802153750469
"agg" 0.264137731392093
"ave" 0.0104091440803417
"laveB" 0.0526403918245386
"agg" 0.165211056751785
"ave" 0.00581764436931244
"laveB" 0.0302607597519711
"agg" 0.430575047854751
"ave" 0.0244357989284687
"laveB" 0.168268654016736
"agg" 0.481698047731632
"ave" 0.0316884235770675
"laveB" 0.213847486953687
"agg" 0.35018394290994
"ave" 0.0167725673847554
"laveB" 0.0892970202457178
"agg" 0.847881023657066
"ave" 0.121568365043046
"laveB" 0.426961259851875
"agg" 0.83754196196419
"ave" 0.134124080080699
"laveB" 0.445658952190368
"agg" 0.810010126228879
"ave" 0.0569253432349706
"laveB" 0.310157974414186
"agg" 0.821337225659089
"ave" 0.0566350039899916
"laveB" 0.304898121039917
"agg" 0.702439884059067
"ave" 0.0890801049142435
"laveB" 0.370359360582519
"agg" 0.663919804183692
"ave" 0.0672879078719369
"laveB" 0.289559340448274
"agg" 0.710258912513806
"ave" 0.0848783291830089
"laveB" 0.369036219135686
"agg" 0.574589310447186
"ave" 0.0680090124906388
"laveB" 0.279919232910655
"agg" 0.424152312915514
"ave" 0.0367373381528178
"laveB" 0.162217198345896
"agg" -0.0108232649209531
"ave" -0.00715493839309785
"laveB" -0.00815458756787647
"agg" 0.492735663034923
"ave" 0.0512094507555797
"laveB" 0.246654458303126
"agg" 0.199588626617768
"ave" 0.0202377905578901
"laveB" 0.0976297162411633
"agg" 0.233719972761411
"ave" 0.0272622103166451
"laveB" 0.128949733745668
"agg" 0.308179956555442
"ave" 0.0340733422357849
"laveB" 0.155849682616933
"agg" 0.734483099693244
"ave" 0.085704881100083
"laveB" 0.386407372012829
"agg" 0.673684401391311
"ave" 0.0599089839289537
"laveB" 0.269092606478294
"agg" 0.79019517946868
"ave" 0.114153236601122
"laveB" 0.507544080054584
"agg" 0.821294731687134
"ave" 0.104552769838036
"laveB" 0.469946228249841
"agg" 0.264752373119499
"ave" 0.0151613936014406
"laveB" 0.104124142597542
"agg" 0.154967241178621
"ave" 0.00982781667358184
"laveB" 0.0509613103671696
"agg" -0.195866716040667
"ave" -0.00855412876110873
"laveB" -0.086998348015401
"agg" -0.0263235900722885
"ave" -0.000267102424459912
"laveB" -0.0286265027809211
"agg" 0.0616981129431221
"ave" 0.00685042749688031
"laveB" 0.0570769829260561
"agg" 0.146269269053337
"ave" 0.0112955049531627
"laveB" 0.0647841902563296
"agg" 0.132127122031984
"ave" 0.00758563158905272
"laveB" 0.0331420410098402
"agg" 0.354924645566548
"ave" 0.0292796780461881
"laveB" 0.167823650235081
"agg" 0.486355118248633
"ave" 0.0589535821178369
"laveB" 0.283960458673763
"agg" 0.539875470418585
"ave" 0.0580796476095136
"laveB" 0.31543800521528
"agg" 0.456509957398075
"ave" 0.0412017842300941
"laveB" 0.211844256376547
"agg" 0.364836601465504
"ave" 0.0310195201020562
"laveB" 0.169764266973169
"agg" 0.363183234771365
"ave" 0.0149701146329945
"laveB" 0.0976090964107472
"agg" 0.371851869295191
"ave" 0.0213755283440087
"laveB" 0.150581561591536
"agg" 0.38132653496801
"ave" 0.0329583405199496
"laveB" 0.173827494942654
"agg" 0.391377391549251
"ave" 0.0274255539925352
"laveB" 0.122368012068267
"agg" 0.543735669433532
"ave" 0.0236714679167249
"laveB" 0.140534361056974
"agg" 0.386721825536952
"ave" 0.0130458868387869
"laveB" 0.105455081003041
"agg" 0.127820187610054
"ave" 0.00367744545923244
"laveB" 0.0174660051536969
"agg" 0.120183624234441
"ave" 0.00958695928921325
"laveB" 0.0458186197395564
"agg" 0.253789162846247
"ave" 0.00896350229490364
"laveB" 0.0600498040788093
"agg" 0.163368691087166
"ave" 0.00503110520402246
"laveB" 0.030916560939872
"agg" 0.408267265140294
"ave" 0.0219205169666245
"laveB" 0.150285779178341
"agg" 0.447625006500983
"ave" 0.0281730908959435
"laveB" 0.184359958320824
"agg" 0.311991503486334
"ave" 0.0138905986930431
"laveB" 0.0751056738152513
"agg" 0.951438507112777
"ave" 0.149374678258178
"laveB" 0.48037616547442
"agg" 0.84403717740797
"ave" 0.0590206249739813
"laveB" 0.302698374652698
"agg" 0.792754170501155
"ave" 0.0550693747458575
"laveB" 0.290008807393749
"agg" 0.689243608779225
"ave" 0.0863570470244994
"laveB" 0.354486199913738
"agg" 0.649165355004896
"ave" 0.0655638617646938
"laveB" 0.29058481129579
"agg" 0.815175152866099
"ave" 0.0957242983264105
"laveB" 0.422345191372182
"agg" 0.690531889361704
"ave" 0.0809147897925941
"laveB" 0.330136936437363
"agg" 0.547876626755704
"ave" 0.0486625067972844
"laveB" 0.233819359770201
"agg" 0.0470346991987415
"ave" 0.00104912456496338
"laveB" 0.0385643799234196
"agg" 0.53839168782046
"ave" 0.0578606179836552
"laveB" 0.244326770777142
"agg" 0.16098713791321
"ave" 0.0156799556067606
"laveB" 0.0832296043294082
"agg" 0.366817815536579
"ave" 0.0438870704947014
"laveB" 0.19820951139237
"agg" 0.44139166624761
"ave" 0.0498153038256661
"laveB" 0.230647899769674
"agg" 0.777274786240101
"ave" 0.0900381256109781
"laveB" 0.376021506089247
"agg" 0.66936127538362
"ave" 0.0603547968497106
"laveB" 0.269441873203449
"agg" 0.734894580263508
"ave" 0.103405350553723
"laveB" 0.436733302756394
"agg" 0.769235446991672
"ave" 0.0955646175820565
"laveB" 0.407187633495726
"agg" 0.343831787951136
"ave" 0.0196477999036877
"laveB" 0.130670284735412
"agg" 0.191740961826788
"ave" 0.0122355715458422
"laveB" 0.0691121553599869
"agg" -0.104952159144193
"ave" -0.00450967900205928
"laveB" -0.0496682926213013
"agg" -0.00862574932369095
"ave" 0.000533111172233897
"laveB" -0.0213373828901712
"agg" 0.0393639060052476
"ave" 0.00417837090801811
"laveB" 0.0500121582758955
"agg" 0.147941028419524
"ave" 0.0121894993702915
"laveB" 0.0585226441947577
"agg" 0.199740624763259
"ave" 0.0133326594798673
"laveB" 0.0905531064424926
"agg" 0.37136762499581
"ave" 0.0305485461588865
"laveB" 0.1674846739467
"agg" 0.391645540389453
"ave" 0.0469033187545669
"laveB" 0.221860139029707
"agg" 0.437620806360996
"ave" 0.0461677852077147
"laveB" 0.232309605729943
"agg" 0.435972883441887
"ave" 0.0392606640576231
"laveB" 0.215586820988148
"agg" 0.431361650640107
"ave" 0.0367714287608372
"laveB" 0.204511037360398
"agg" 0.383546457851322
"ave" 0.0159075170229984
"laveB" 0.103213871614205
"agg" 0.474817705699561
"ave" 0.0273781350125755
"laveB" 0.187979833913641
"agg" 0.504553086211968
"ave" 0.0427305135673164
"laveB" 0.215322822375408
"agg" 0.548427928930306
"ave" 0.0391634702561478
"laveB" 0.187793175304645
"agg" 0.70687434209731
"ave" 0.0301412590375398
"laveB" 0.176623638097913
"agg" 0.491958721001117
"ave" 0.0172373785899662
"laveB" 0.109578923403685
"agg" 0.234999600016204
"ave" 0.0130768356553758
"laveB" 0.0692569508658437
"agg" 0.264853327278297
"ave" 0.0215712346479776
"laveB" 0.129392700154935
"agg" 0.2602629619427
"ave" 0.0109780301707554
"laveB" 0.0580119333506616
"agg" 0.233989421325049
"ave" 0.00970474017457766
"laveB" 0.0725687710774228
"agg" 0.427124092138518
"ave" 0.0238983586999416
"laveB" 0.16435429437955
"agg" 0.519973813735624
"ave" 0.0336465809125319
"laveB" 0.226216943687358
"agg" 0.34908463824552
"ave" 0.0158718199514546
"laveB" 0.0763331095254923
"agg" 0.800886613450338
"ave" 0.0621791476664104
"laveB" 0.296982570000314
"agg" 0.810288491288996
"ave" 0.0631686525769663
"laveB" 0.316960337712441
"agg" 0.659739820190912
"ave" 0.0916959123798876
"laveB" 0.349571626846221
"agg" 0.676657712439747
"ave" 0.0769304218553409
"laveB" 0.30463929960255
"agg" 0.795191365735845
"ave" 0.10523552312993
"laveB" 0.415471047559608
"agg" 0.732852580202623
"ave" 0.0983307610332261
"laveB" 0.361079146520414
"agg" 0.467232141985976
"ave" 0.0459740723832852
"laveB" 0.203632616263836
"agg" 0.0149199849294255
"ave" -0.00245659847653719
"laveB" 0.0204253022422601
"agg" 0.4898966655662
"ave" 0.0565301651425668
"laveB" 0.240258905520763
"agg" 0.201883826893118
"ave" 0.0237210546587264
"laveB" 0.0891237686106961
"agg" 0.2509421434575
"ave" 0.0330718544025701
"laveB" 0.127291023130338
"agg" 0.333231033733483
"ave" 0.04286171143247
"laveB" 0.18665908233345
"agg" 0.725305382468126
"ave" 0.0944012754269653
"laveB" 0.377533762228779
"agg" 0.642514158542254
"ave" 0.0647296737199547
"laveB" 0.259653514469572
"agg" 0.716286332171268
"ave" 0.11393891735577
"laveB" 0.455725784440121
"agg" 0.746495923316302
"ave" 0.105025447729674
"laveB" 0.431302846609733
"agg" 0.344462064349482
"ave" 0.0219641586846348
"laveB" 0.140151865826488
"agg" 0.230561941184481
"ave" 0.016579146948671
"laveB" 0.0884584925357531
"agg" -0.156113729158268
"ave" -0.00728621426040842
"laveB" -0.0742128827974499
"agg" -0.0214980665771392
"ave" 0.000447015246118114
"laveB" -0.0124360698755991
"agg" 0.072278512144072
"ave" 0.00843626421824668
"laveB" 0.0660079806612154
"agg" 0.126204998735812
"ave" 0.0117917016351579
"laveB" 0.0654577735434854
"agg" 0.203521712496372
"ave" 0.0147433086196782
"laveB" 0.0934572491573426
"agg" 0.410715395199423
"ave" 0.0381290723465358
"laveB" 0.206481470953691
"agg" 0.390107328041302
"ave" 0.0509746734252685
"laveB" 0.223952701196773
"agg" 0.44910719895695
"ave" 0.0519949241246777
"laveB" 0.254397573345376
"agg" 0.41651301665888
"ave" 0.040793502823802
"laveB" 0.201671015450862
"agg" 0.354903591031534
"ave" 0.0332348152155182
"laveB" 0.167040594881012
"agg" 0.334829458727309
"ave" 0.0152683719634363
"laveB" 0.0990524024920087
"agg" 0.38145420379383
"ave" 0.0243525677382518
"laveB" 0.152686647386918
"agg" 0.404516055099636
"ave" 0.0385565160742211
"laveB" 0.186382184463512
"agg" 0.458622332825733
"ave" 0.0367515714811247
"laveB" 0.157840556219786
"agg" 0.653687426763345
"ave" 0.030810072762621
"laveB" 0.1598886943651
"agg" 0.538319578357498
"ave" 0.021531363695701
"laveB" 0.137002262800472
"agg" 0.233529622386755
"ave" 0.0147163579085954
"laveB" 0.0753555606684464
"agg" 0.250042457647657
"ave" 0.0231405404633574
"laveB" 0.128036410576842
"agg" 0.293170336072429
"ave" 0.0139736749106466
"laveB" 0.0735942819899919
"agg" 0.263106920059541
"ave" 0.01189981592258
"laveB" 0.0879034729107047
"agg" 0.467793161026558
"ave" 0.0294796756134482
"laveB" 0.177142223644573
"agg" 0.537576517362335
"ave" 0.0386451167899885
"laveB" 0.222039365417496
"agg" 0.376572225879501
"ave" 0.0191626308387996
"laveB" 0.0988219442642413
"agg" 0.892812340510853
"ave" 0.0307440346042296
"laveB" 0.227505512688365
"agg" 0.676003002734269
"ave" 0.0420384920807529
"laveB" 0.242296594434325
"agg" 0.655326959851822
"ave" 0.0323149914683874
"laveB" 0.189649332571935
"agg" 0.747267141788011
"ave" 0.0432349693555641
"laveB" 0.256613030544326
"agg" 0.644434546125191
"ave" 0.0368233434872995
"laveB" 0.19395582580432
"agg" 0.531021833739477
"ave" 0.0232961813150201
"laveB" 0.156486473662701
"agg" 0.0868816501635776
"ave" 0.00247796265632974
"laveB" 0.0396330059831389
"agg" 0.543846506635754
"ave" 0.0277239602782713
"laveB" 0.175031689909704
"agg" 0.239928502298931
"ave" 0.0118856329682127
"laveB" 0.0607819037266428
"agg" 0.295257493603892
"ave" 0.0169312201136401
"laveB" 0.0906500736861517
"agg" 0.428904336122569
"ave" 0.0234396634152965
"laveB" 0.146536252978015
"agg" 0.691763168487749
"ave" 0.0391076687831408
"laveB" 0.241058177452842
"agg" 0.65438545522169
"ave" 0.0287859626682806
"laveB" 0.182745919131338
"agg" 0.672123176353587
"ave" 0.0470888631159538
"laveB" 0.276427414602491
"agg" 0.640337201063887
"ave" 0.0385548190787764
"laveB" 0.235181966671515
"agg" 0.325506341603806
"ave" 0.00902528122967686
"laveB" 0.0918817623819195
"agg" 0.297173029850969
"ave" 0.00958779350650013
"laveB" 0.0687378157292459
"agg" -0.107715618404313
"ave" -0.00264527988225799
"laveB" -0.0395558765179993
"agg" 0.0504850545862887
"ave" 0.00169839458233596
"laveB" 0.00439505670824996
"agg" 0.0445268286806036
"ave" 0.00247996614765308
"laveB" 0.0536116187253806
"agg" 0.161437843954898
"ave" 0.00613123515378855
"laveB" 0.0448862355798766
"agg" 0.307367549647493
"ave" 0.0106400764650018
"laveB" 0.0970302014890325
"agg" 0.464875076649913
"ave" 0.0196856870476477
"laveB" 0.163909744402039
"agg" 0.483987428884756
"ave" 0.0288430437407229
"laveB" 0.188459714177944
"agg" 0.547209108435898
"ave" 0.0291579426452677
"laveB" 0.220591959240381
"agg" 0.491491900797431
"ave" 0.0214214355337358
"laveB" 0.163846903631248
"agg" 0.43744606515884
"ave" 0.0176552465460524
"laveB" 0.127184986751994
"agg" 0.433729206874049
"ave" 0.00895647495551413
"laveB" 0.0826644390675952
"agg" 0.473816801647013
"ave" 0.0133029195269876
"laveB" 0.121465457250238
"agg" 0.461191996184644
"ave" 0.0198807173887423
"laveB" 0.133280468184275
"agg" 0.522701973046283
"ave" 0.0183584902454
"laveB" 0.131054830617575
"agg" 0.771254825305096
"ave" 0.0168484460249825
"laveB" 0.135497067370779
"agg" 0.612057705028538
"ave" 0.010839827486069
"laveB" 0.111236721718721
"agg" 0.245361976225355
"ave" 0.00765596700957418
"laveB" 0.0582898641812996
"agg" 0.230549777334807
"ave" 0.00971899877284688
"laveB" 0.0918446849143634
"agg" 0.401242386803709
"ave" 0.00967772574375666
"laveB" 0.0879812946115982
"agg" 0.29711678701786
"ave" 0.0069138771702409
"laveB" 0.0698555390901202
"agg" 0.531304569847798
"ave" 0.015308866163274
"laveB" 0.143724183481566
"agg" 0.587410237261781
"ave" 0.0193642182897895
"laveB" 0.16155220297543
"agg" 0.417033820109214
"ave" 0.00966041515339956
"laveB" 0.0788511305760143
"agg" 0.672365041267546
"ave" 0.0407139257407162
"laveB" 0.267603533680939
"agg" 0.669163239335871
"ave" 0.0329054306662722
"laveB" 0.214380399665583
"agg" 0.723305148763976
"ave" 0.0415202509277545
"laveB" 0.271354115745141
"agg" 0.648703162268737
"ave" 0.0378808036705407
"laveB" 0.216489196617182
"agg" 0.441513219254223
"ave" 0.0189881698376008
"laveB" 0.144102631465294
"agg" 0.0158205176905054
"ave" -0.00158895252079341
"laveB" 0.0123123616271818
"agg" 0.516982127482222
"ave" 0.0263737853863742
"laveB" 0.192694657705809
"agg" 0.291665452165777
"ave" 0.0157292268795028
"laveB" 0.104597810259288
"agg" 0.1717875856296
"ave" 0.00900717773155092
"laveB" 0.0798251810065923
"agg" 0.339959572201543
"ave" 0.0186151641862794
"laveB" 0.119116568437717
"agg" 0.633631336780757
"ave" 0.0352151870490516
"laveB" 0.235027445029544
"agg" 0.613053679218562
"ave" 0.0264245923003833
"laveB" 0.192413622965892
"agg" 0.710595973776125
"ave" 0.0488733219535251
"laveB" 0.31121906429335
"agg" 0.697652938760756
"ave" 0.0421576015144484
"laveB" 0.277808320917285
"agg" 0.315017196837829
"ave" 0.00873921918254105
"laveB" 0.0913077646893548
"agg" 0.338179753819855
"ave" 0.0109712215247515
"laveB" 0.104087990490995
"agg" -0.0435563315908041
"ave" -0.000885847394440975
"laveB" -0.023449197535138
"agg" 0.141847035756289
"ave" 0.00462790602983749
"laveB" 0.0321591113110267
"agg" 0.0878036592046548
"ave" 0.00502717476005505
"laveB" 0.0750483883935693
"agg" 0.21107480683015
"ave" 0.00822179043597281
"laveB" 0.0762017407499407
"agg" 0.145135928035218
"ave" 0.00459463769794466
"laveB" 0.0549353985754662
"agg" 0.331927323345863
"ave" 0.0135009228930244
"laveB" 0.132550741527352
"agg" 0.482654598612092
"ave" 0.0286091036077011
"laveB" 0.203095111893451
"agg" 0.541264860491156
"ave" 0.0285449383195703
"laveB" 0.241521839700201
"agg" 0.511274220542444
"ave" 0.0225495928963784
"laveB" 0.187915749484626
"agg" 0.447401669228399
"ave" 0.0183302935991213
"laveB" 0.141908143271941
"agg" 0.400029209958448
"ave" 0.00788111056851791
"laveB" 0.0789897217360877
"agg" 0.460339822548031
"ave" 0.0126300089097701
"laveB" 0.128508132358517
"agg" 0.391033084909769
"ave" 0.016417252895576
"laveB" 0.125827379586949
"agg" 0.457703683907543
"ave" 0.0154635507702062
"laveB" 0.110512243197565
"agg" 0.600880497816579
"ave" 0.0128032187385366
"laveB" 0.107740531193768
"agg" 0.557443254270508
"ave" 0.00978187108626008
"laveB" 0.118636022247804
"agg" 0.103972753049142
"ave" 0.00192221104082802
"laveB" 0.0333415276891246
"agg" 0.0816357830262493
"ave" 0.00345322276345898
"laveB" 0.0466985636244307
"agg" 0.277730000020091
"ave" 0.0063815455661668
"laveB" 0.0754468580992845
"agg" 0.190843271815301
"ave" 0.00449447139258346
"laveB" 0.0510550817038413
"agg" 0.457430708686018
"ave" 0.0127263098138197
"laveB" 0.142970155770173
"agg" 0.484591472209716
"ave" 0.015216022696526
"laveB" 0.155604994631542
"agg" 0.275997192954218
"ave" 0.00688131473269994
"laveB" 0.0655384732637022
"agg" 0.831304407613118
"ave" 0.0733002919718275
"laveB" 0.3389596532625
"agg" 0.622800833081516
"ave" 0.0665573359644992
"laveB" 0.339548066947309
"agg" 0.436015935983535
"ave" 0.0455993081401822
"laveB" 0.214877131914384
"agg" 0.395393055946975
"ave" 0.0316028882500229
"laveB" 0.151527743037867
"agg" -0.0547391545382635
"ave" -0.0100737963570653
"laveB" -0.028164596539217
"agg" 0.750171813085096
"ave" 0.0707193238119055
"laveB" 0.368340640551477
"agg" 0.38939226377772
"ave" 0.0369665667753959
"laveB" 0.164160479661687
"agg" 0.157200781509968
"ave" 0.016598422823095
"laveB" 0.0957591062142772
"agg" 0.190295471912651
"ave" 0.0180683864828716
"laveB" 0.106954023964848
"agg" 0.56893675758294
"ave" 0.0588472541159709
"laveB" 0.294698410195539
"agg" 0.481108834782903
"ave" 0.03729964507948
"laveB" 0.184204873325515
"agg" 0.81518400618299
"ave" 0.101280868568218
"laveB" 0.488089991906507
"agg" 0.662993924868971
"ave" 0.0723130773879158
"laveB" 0.369973877896288
"agg" 0.128676784672673
"ave" 0.0063637899978798
"laveB" 0.0493928916823403
"agg" 0.187647269182211
"ave" 0.00960262258497412
"laveB" 0.0593929638768302
"agg" -0.0301128349758003
"ave" -0.000966693255841446
"laveB" -0.0164142875728509
"agg" 0.0506555983801922
"ave" 0.0030425907419167
"laveB" 0.00922813129274806
"agg" 0.0684764970333335
"ave" 0.00735500994301213
"laveB" 0.0631123762872241
"agg" 0.197753069604591
"ave" 0.0129128556910709
"laveB" 0.0758353835074078
"agg" 0.169795414937433
"ave" 0.0102087428432567
"laveB" 0.0733154323451845
"agg" 0.26960748977779
"ave" 0.0196873354575119
"laveB" 0.134211114373107
"agg" 0.643643888257986
"ave" 0.0706771972985125
"laveB" 0.35420326534053
"agg" 0.724908653598361
"ave" 0.0685452096875702
"laveB" 0.399297498165049
"agg" 0.733597925209831
"ave" 0.0587777566961419
"laveB" 0.357017621947254
"agg" 0.676563098699845
"ave" 0.0507492149329498
"laveB" 0.324964239375421
"agg" 0.62273664869609
"ave" 0.0226632946958003
"laveB" 0.18335790187652
"agg" 0.619355580770519
"ave" 0.0312809543852143
"laveB" 0.238738993138207
"agg" 0.530289849389383
"ave" 0.0390393321304907
"laveB" 0.229162898342597
"agg" 0.506051423744131
"ave" 0.0299972718885426
"laveB" 0.156952615264692
"agg" 0.551988225929281
"ave" 0.0203867000444281
"laveB" 0.139186425239957
"agg" 0.450868956186017
"ave" 0.0130377797651198
"laveB" 0.113101260857836
"agg" -0.00285840149372632
"ave" -0.00516297037516823
"laveB" -0.0276342861157454
"agg" 0.0278028762872557
"ave" 0.00217082688428921
"laveB" 0.0108342061674184
"agg" 0.199472257460422
"ave" 0.00793214837381369
"laveB" 0.060255460685356
"agg" 0.196275155874773
"ave" 0.00832169332760135
"laveB" 0.0602477841386475
"agg" 0.343915576955583
"ave" 0.0169868812848814
"laveB" 0.125694806925695
"agg" 0.464401834723114
"ave" 0.0264971707171948
"laveB" 0.19774484621224
"agg" 0.217308309038551
"ave" 0.0109272483403375
"laveB" 0.062942899692532
"agg" 0.651169321563908
"ave" 0.0559003605782853
"laveB" 0.301358237679644
"agg" 0.657653033717326
"ave" 0.05744731594014
"laveB" 0.289071889050753
"agg" 0.548222157792541
"ave" 0.0375833161102443
"laveB" 0.218770422883274
"agg" 0.163195396339432
"ave" 0.00923475174657078
"laveB" 0.0753183673386709
"agg" 0.724862638985987
"ave" 0.0557742469008953
"laveB" 0.283751024740519
"agg" 0.500171409911498
"ave" 0.0379397261030671
"laveB" 0.181513087811276
"agg" 0.178456561349637
"ave" 0.0143761954825592
"laveB" 0.0687430489977144
"agg" 0.274176178456763
"ave" 0.0219745909144734
"laveB" 0.123900241013756
"agg" 0.565518612901193
"ave" 0.0463471145337231
"laveB" 0.230893981574162
"agg" 0.552500895137249
"ave" 0.0350134619711591
"laveB" 0.168448286641721
"agg" 0.719781903172818
"ave" 0.0715134212503633
"laveB" 0.358512227252391
"agg" 0.590903686019945
"ave" 0.0520805266584489
"laveB" 0.264360606508965
"agg" 0.26873458707048
"ave" 0.0108850857244412
"laveB" 0.0974356577196827
"agg" 0.319086175550341
"ave" 0.0145318449199847
"laveB" 0.0984388787046864
"agg" -0.0717498592133392
"ave" -0.0025778266103091
"laveB" -0.0329981119931419
"agg" 0.0829460994462987
"ave" 0.00360872971954415
"laveB" 0.000953013292161931
"agg" 0.107746911036789
"ave" 0.00829604806473119
"laveB" 0.0738013568870951
"agg" 0.313260513217383
"ave" 0.017398394134846
"laveB" 0.0910920375006212
"agg" 0.268671848830231
"ave" 0.012443935560912
"laveB" 0.0992278832227502
"agg" 0.388806465679948
"ave" 0.0223847248594085
"laveB" 0.149623719082898
"agg" 0.577735837711167
"ave" 0.049812114086323
"laveB" 0.252697023213525
"agg" 0.686527542041263
"ave" 0.0522804919549151
"laveB" 0.320736335557148
"agg" 0.629697215039174
"ave" 0.0392322668329682
"laveB" 0.235591704988563
"agg" 0.548285606048982
"ave" 0.0309124952111621
"laveB" 0.195042021448534
"agg" 0.507821162517259
"ave" 0.0143207942486896
"laveB" 0.107654235319783
"agg" 0.478052167172858
"ave" 0.0188606616365345
"laveB" 0.127833307936353
"agg" 0.456898915636054
"ave" 0.0267187741893733
"laveB" 0.156885300835254
"agg" 0.477823042849641
"ave" 0.0217946734040016
"laveB" 0.0987355657750107
"agg" 0.582789097216779
"ave" 0.0172217432961182
"laveB" 0.112525000377305
"agg" 0.657567172428271
"ave" 0.0170879076197415
"laveB" 0.140038608783552
"agg" 0.199266943870485
"ave" 0.00775914126267252
"laveB" 0.0703708621776342
"agg" 0.161976549695847
"ave" 0.0088178968066223
"laveB" 0.0673851631798177
"agg" 0.36443405278323
"ave" 0.0129431668678694
"laveB" 0.0940237049176307
"agg" 0.337143917521026
"ave" 0.0118450548045607
"laveB" 0.0966830691815237
"agg" 0.548980886252124
"ave" 0.0224619592060865
"laveB" 0.202216601822776
"agg" 0.604420239233365
"ave" 0.0279393654580767
"laveB" 0.204015177156024
"agg" 0.301014823307133
"ave" 0.0114581531559868
"laveB" 0.0794467039432343
"agg" 0.837911003437437
"ave" 0.0807064200875962
"laveB" 0.392689570172427
"agg" 0.671572368509708
"ave" 0.0486179783371548
"laveB" 0.281404250475256
"agg" 0.0755395722221772
"ave" -0.000794319947272094
"laveB" 0.046345834191324
"agg" 0.431469006848965
"ave" 0.039181956939346
"laveB" 0.210464185227484
"agg" 0.0829979304949587
"ave" 0.00615189593267659
"laveB" 0.0467337333417595
"agg" 0.344590313796384
"ave" 0.0316554315510051
"laveB" 0.171515958699254
"agg" 0.479760879691968
"ave" 0.0417200373937758
"laveB" 0.241169345055201
"agg" 0.786121756878085
"ave" 0.0752467079534504
"laveB" 0.392203521678766
"agg" 0.66727313544675
"ave" 0.0499464061215227
"laveB" 0.256429042562459
"agg" 0.670786620727037
"ave" 0.0785252954676031
"laveB" 0.409533771197557
"agg" 0.6974676424108
"ave" 0.0729698689208503
"laveB" 0.38912658144314
"agg" 0.307201256174816
"ave" 0.0136401119133739
"laveB" 0.118774522596811
"agg" 0.23990456703737
"ave" 0.0122090887910907
"laveB" 0.0825377452569389
"agg" 0.00240131670297495
"ave" 0.000322758034858678
"laveB" -0.0127553594743707
"agg" 0.0877048646650254
"ave" 0.00428373702114731
"laveB" 0.0151672317040118
"agg" 0.0547763864172631
"ave" 0.00524422970179065
"laveB" 0.0650084779029069
"agg" 0.161072455860918
"ave" 0.00990719113825804
"laveB" 0.067573396227352
"agg" 0.139775804850122
"ave" 0.0065970164861632
"laveB" 0.0672647409621781
"agg" 0.33365785362462
"ave" 0.0217525646841142
"laveB" 0.159351895664796
"agg" 0.281112084586315
"ave" 0.028706946824379
"laveB" 0.148872798686007
"agg" 0.363476592686164
"ave" 0.0327159397895736
"laveB" 0.201127822692052
"agg" 0.347240451753848
"ave" 0.0267025409465437
"laveB" 0.162623907434758
"agg" 0.327688154627171
"ave" 0.0234083752522301
"laveB" 0.157492262702301
"agg" 0.317173234749489
"ave" 0.0112164682043962
"laveB" 0.0886067603743761
"agg" 0.429034069941839
"ave" 0.0212945354467357
"laveB" 0.171543823021355
"agg" 0.409909536756374
"ave" 0.0286046547660074
"laveB" 0.178383281060466
"agg" 0.415771494713947
"ave" 0.0236852612726936
"laveB" 0.129915708612657
"agg" 0.650271309004711
"ave" 0.022789581905404
"laveB" 0.147214919617228
"agg" 0.499332692202136
"ave" 0.0149962711297186
"laveB" 0.128702464422424
"agg" 0.169899260202564
"ave" 0.00489654218474884
"laveB" 0.050783841771501
"agg" 0.179042571723842
"ave" 0.0102146467053492
"laveB" 0.0923506096615008
"agg" 0.208494743465698
"ave" 0.00602651874788109
"laveB" 0.0513723852225215
"agg" 0.239656679247315
"ave" 0.00769440622289489
"laveB" 0.0886651049216836
"agg" 0.405951517988857
"ave" 0.0177597054563103
"laveB" 0.156970060770266
"agg" 0.524767338799698
"ave" 0.0266952479300906
"laveB" 0.211595061985419
"agg" 0.29434979209935
"ave" 0.0110078488789703
"laveB" 0.067380546184714
"agg" 0.614135623879745
"ave" 0.0449126634586299
"laveB" 0.228287263815719
"agg" 0.226593790906838
"ave" 0.0138410604325617
"laveB" 0.0869152441040145
"agg" 0.293689836510845
"ave" 0.0275844033484224
"laveB" 0.130500800275851
"agg" 0.0649207777527932
"ave" 0.00617595539683105
"laveB" 0.0218569403525501
"agg" 0.325087723285829
"ave" 0.0277098102098139
"laveB" 0.118866070214172
"agg" 0.537813568516427
"ave" 0.0468510067686402
"laveB" 0.239528544816011
"agg" 0.666725267057482
"ave" 0.0623931778395458
"laveB" 0.296462292872912
"agg" 0.63835432421956
"ave" 0.0471551457782337
"laveB" 0.226965492264337
"agg" 0.52532831314208
"ave" 0.0623973012894846
"laveB" 0.318508190497509
"agg" 0.585245310616934
"ave" 0.0624352604377378
"laveB" 0.292866956118631
"agg" 0.349021500089235
"ave" 0.0156537096520102
"laveB" 0.109507067997233
"agg" 0.292760787903947
"ave" 0.0156421535561469
"laveB" 0.0944241331726162
"agg" -0.0272638169021846
"ave" -0.000772760217527988
"laveB" -0.0144756228117635
"agg" 0.0922639690273772
"ave" 0.00494023238083916
"laveB" 0.0247767593683856
"agg" 0.0339256862139669
"ave" 0.00408849563711602
"laveB" 0.033308376412801
"agg" 0.22838501389816
"ave" 0.0145160448854022
"laveB" 0.0832506239760856
"agg" 0.162993482260309
"ave" 0.00709218064850981
"laveB" 0.0617005891561808
"agg" 0.330270825376642
"ave" 0.0202061573372889
"laveB" 0.137309446603508
"agg" 0.160436489317442
"ave" 0.0154465007335436
"laveB" 0.0874598548399729
"agg" 0.277207997471626
"ave" 0.0244597283844655
"laveB" 0.138645373334279
"agg" 0.202953417606354
"ave" 0.0149979155086866
"laveB" 0.0896533945555046
"agg" 0.164540131116591
"ave" 0.0108489113709082
"laveB" 0.0755636667549138
"agg" 0.165392973459411
"ave" 0.00582984317961523
"laveB" 0.0360795897294219
"agg" 0.229583534554181
"ave" 0.0117181109152933
"laveB" 0.0929232207423855
"agg" 0.314044572273611
"ave" 0.0213377919099465
"laveB" 0.115198095839555
"agg" 0.347117988701916
"ave" 0.0194478950793568
"laveB" 0.0971693203535008
"agg" 0.574220114200214
"ave" 0.0199087687282005
"laveB" 0.129453343412419
"agg" 0.603206183923211
"ave" 0.019113689356815
"laveB" 0.127554535855499
"agg" 0.318073084027811
"ave" 0.0148560195462982
"laveB" 0.0998971164378179
"agg" 0.263127368280088
"ave" 0.014537175699526
"laveB" 0.101339556003675
"agg" 0.287039991318513
"ave" 0.0089684249651256
"laveB" 0.052895638335659
"agg" 0.299659257349988
"ave" 0.00898342265846052
"laveB" 0.0727039982470991
"agg" 0.488607900924983
"ave" 0.0212511617437684
"laveB" 0.167992828044501
"agg" 0.52727135042082
"ave" 0.0263372417459722
"laveB" 0.203418439142792
"agg" 0.31390291639339
"ave" 0.010476882477166
"laveB" 0.0722958099540147
"agg" 0.566085174159377
"ave" 0.0465014066259866
"laveB" 0.252858361583016
"agg" 0.449165025695716
"ave" 0.0352459498173112
"laveB" 0.183715864811301
"agg" 0.202961774795103
"ave" 0.0156248263435495
"laveB" 0.0918188009530166
"agg" 0.68229027255929
"ave" 0.0575482755011164
"laveB" 0.291272605518482
"agg" 0.72798459522769
"ave" 0.0569303259509037
"laveB" 0.283941084998064
"agg" 0.713481753889481
"ave" 0.0516657998784173
"laveB" 0.286096749040507
"agg" 0.699048958638184
"ave" 0.0425626391797763
"laveB" 0.24104161156795
"agg" 0.460383949205015
"ave" 0.0400723707926965
"laveB" 0.229654926009203
"agg" 0.456340480615294
"ave" 0.033514819393111
"laveB" 0.197076686218304
"agg" 0.344621783964834
"ave" 0.0138059312328841
"laveB" 0.118746415353893
"agg" 0.268204352592315
"ave" 0.0132666692332189
"laveB" 0.0946168596908046
"agg" 0.02273172090918
"ave" 0.00149421699748479
"laveB" 3.91451422045659e-05
"agg" 0.0907130524188112
"ave" 0.00469747692056092
"laveB" 0.034054315106596
"agg" 0.0843373269917695
"ave" 0.00621205388727631
"laveB" 0.0584366253167688
"agg" 0.280454351939503
"ave" 0.0152071632737473
"laveB" 0.0912867878068773
"agg" 0.309301551864311
"ave" 0.014223853022318
"laveB" 0.108936343731659
"agg" 0.402416605105658
"ave" 0.0213655649564442
"laveB" 0.15931854755892
"agg" 0.289408425409374
"ave" 0.0224999808109413
"laveB" 0.129226097304722
"agg" 0.301837058729408
"ave" 0.020075669638153
"laveB" 0.148944005850561
"agg" 0.277815812525296
"ave" 0.0156359950567471
"laveB" 0.108853103460237
"agg" 0.316186152750222
"ave" 0.0167747375033441
"laveB" 0.105363032464464
"agg" 0.256546409533562
"ave" 0.00716177659154038
"laveB" 0.0571373227825271
"agg" 0.288728960549147
"ave" 0.0113395437243371
"laveB" 0.0953323202223107
"agg" 0.499020395292133
"ave" 0.0280518922708494
"laveB" 0.176267727852329
"agg" 0.541433657485898
"ave" 0.0278700824136174
"laveB" 0.17430213528972
"agg" 0.60082066215905
"ave" 0.0166804715307662
"laveB" 0.110656246886431
"agg" 0.520820002958686
"ave" 0.0136467879197974
"laveB" 0.113379363394536
"agg" 0.421083891043869
"ave" 0.0214674785835437
"laveB" 0.159750808744402
"agg" 0.380184306766548
"ave" 0.0201217360397057
"laveB" 0.145004416989748
"agg" 0.287252535229421
"ave" 0.00887018911795246
"laveB" 0.0810677179727863
"agg" 0.336644100819454
"ave" 0.0120444522245176
"laveB" 0.098198814138328
"agg" 0.524065200133243
"ave" 0.0202074788408013
"laveB" 0.170687859984186
"agg" 0.596457403819039
"ave" 0.0261933837214142
"laveB" 0.205455774771745
"agg" 0.364577664963153
"ave" 0.0105068162049572
"laveB" 0.0838218017310055
"agg" 0.0629604819318436
"ave" 0.0033736138369639
"laveB" 0.0199586442920046
"agg" 0.276010169289508
"ave" 0.0224064253719997
"laveB" 0.124313767881358
"agg" 0.490836430493338
"ave" 0.0556440773167683
"laveB" 0.27986567865732
"agg" 0.558400802707584
"ave" 0.0575795886341194
"laveB" 0.274171590141922
"agg" 0.225852773788177
"ave" 0.017859621710711
"laveB" 0.116499490605451
"agg" 0.421583299682839
"ave" 0.0328028399733353
"laveB" 0.19703982222758
"agg" 0.0562454518061825
"ave" 0.00238224742975709
"laveB" 0.0351278755449577
"agg" 0.0510499960836595
"ave" -0.000172073847978298
"laveB" 0.0250973577791003
"agg" 0.24352381907196
"ave" 0.011871940462066
"laveB" 0.0908410149121227
"agg" 0.214208603051065
"ave" 0.0125907781852161
"laveB" 0.0924091330285489
"agg" 0.0263115669656863
"ave" 0.00153687815078304
"laveB" 0.005783053018193
"agg" 0.144223676862375
"ave" 0.00750808762821821
"laveB" 0.0609764023699632
"agg" 0.0302243741465441
"ave" 0.00116980843183497
"laveB" 0.0305981867183771
"agg" 0.177954851836057
"ave" 0.0111883482001948
"laveB" 0.0763329118051344
"agg" 0.384458483596571
"ave" 0.0218210764885937
"laveB" 0.163011209498055
"agg" 0.33800973227154
"ave" 0.0210196674888631
"laveB" 0.163179564938953
"agg" 0.0552296513791015
"ave" 0.000844336978280685
"laveB" 0.0242784958513628
"agg" 0.0107477613186718
"ave" -0.00296103975690686
"laveB" 0.00187125224985021
"agg" -0.0115450697726555
"ave" -0.00403580657518423
"laveB" -0.00741993435424798
"agg" 0.0380081004516488
"ave" 0.000130534318563823
"laveB" 0.00926558065265943
"agg" 0.0110024557596572
"ave" 0.000327255704275383
"laveB" 0.00690907643712142
"agg" -0.112251189980582
"ave" -0.00578562658626469
"laveB" -0.0481900325138458
"agg" 0.194965161720855
"ave" 0.0139146100675101
"laveB" 0.100880386225543
"agg" 0.387373209257437
"ave" 0.0282191323633825
"laveB" 0.159532909152424
"agg" 0.205846032663013
"ave" 0.00630842669100879
"laveB" 0.0297586776828307
"agg" 0.299136382161034
"ave" 0.0105360877772201
"laveB" 0.102859803227586
"agg" 0.566531738009231
"ave" 0.0402971593473989
"laveB" 0.303674129865682
"agg" 0.447444159697763
"ave" 0.0310035157614709
"laveB" 0.223948530414702
"agg" 0.234247910758423
"ave" 0.00972265119378096
"laveB" 0.0890210930672584
"agg" 0.350149986561161
"ave" 0.0156290865895582
"laveB" 0.121753906257366
"agg" 0.446296767910572
"ave" 0.0209881355916965
"laveB" 0.176933019679887
"agg" 0.367343252613192
"ave" 0.0198050615854784
"laveB" 0.146147734104081
"agg" 0.256315540386834
"ave" 0.00808776819020225
"laveB" 0.0752240116421987
"agg" 0.693780946202848
"ave" 0.0600137199271399
"laveB" 0.293705755515076
"agg" 0.176985310052727
"ave" 0.0199047355102924
"laveB" 0.115635548830138
"agg" 0.183387807967282
"ave" 0.01810181114562
"laveB" 0.112680481446671
"agg" 0.442198065740173
"ave" 0.0381546871403637
"laveB" 0.200763126273674
"agg" 0.423255424673379
"ave" 0.0281342005404979
"laveB" 0.140134854869717
"agg" 0.612671297064461
"ave" 0.0632139790783288
"laveB" 0.340567663092711
"agg" 0.458936415999658
"ave" 0.0414240205499094
"laveB" 0.231262758690268
"agg" 0.298524892197153
"ave" 0.0141938800143073
"laveB" 0.116268991924965
"agg" 0.346343219934278
"ave" 0.0188096821165997
"laveB" 0.126540301316783
"agg" 0.115748724945249
"ave" 0.00551389716097181
"laveB" 0.0338248473392177
"agg" 0.190334717415157
"ave" 0.0108757793158445
"laveB" 0.0614527487220921
"agg" 0.108297597358635
"ave" 0.00923614991000449
"laveB" 0.0876564589022179
"agg" 0.317337200024873
"ave" 0.0209966345722652
"laveB" 0.118211499592181
"agg" 0.363922067548379
"ave" 0.0195099421439446
"laveB" 0.141359488817554
"agg" 0.274400370413575
"ave" 0.0146654353510461
"laveB" 0.114860110059984
"agg" 0.746968547042849
"ave" 0.0687876326308556
"laveB" 0.381160258241795
"agg" 0.725567520609377
"ave" 0.057530802661948
"laveB" 0.373619042879031
"agg" 0.803353305102442
"ave" 0.0549745786654906
"laveB" 0.362182966818584
"agg" 0.71125652263433
"ave" 0.0460916710917505
"laveB" 0.31077437270503
"agg" 0.67302248961269
"ave" 0.0209349392582949
"laveB" 0.185332279961266
"agg" 0.615950697844423
"ave" 0.0271208465245393
"laveB" 0.226699280873076
"agg" 0.567514326651698
"ave" 0.0388394328215871
"laveB" 0.244389185044911
"agg" 0.54158086975459
"ave" 0.029628410452817
"laveB" 0.195044160447671
"agg" 0.521361367064605
"ave" 0.0161425589815946
"laveB" 0.120185502658136
"agg" 0.562888946847534
"ave" 0.0142125210790355
"laveB" 0.126575737929515
"agg" 0.0787554897748857
"ave" 0.00251014789853493
"laveB" 0.0210840012151764
"agg" 0.061331702311371
"ave" 0.00428748234109091
"laveB" 0.0296594051034524
"agg" 0.264796496202271
"ave" 0.0105521427770512
"laveB" 0.0836371991865589
"agg" 0.228687972187959
"ave" 0.0103930675011401
"laveB" 0.0886662035283442
"agg" 0.450619473821597
"ave" 0.0198567433165919
"laveB" 0.182760469939744
"agg" 0.534150006077406
"ave" 0.0267238954849526
"laveB" 0.206743471773686
"agg" 0.298174977390226
"ave" 0.0128263506830112
"laveB" 0.0981163659249421
"agg" -0.131322741438114
"ave" -0.0154862685459108
"laveB" -0.0718555650203128
"agg" -0.0452294130880875
"ave" -0.00358107528280717
"laveB" -0.0293217444237813
"agg" 0.0985138899153154
"ave" 0.0061239572953487
"laveB" 0.0349910784000086
"agg" 0.23889244167041
"ave" 0.0154840157017671
"laveB" 0.0812522247561705
"agg" 0.318959293723283
"ave" 0.0333157319539179
"laveB" 0.174618499061497
"agg" 0.209045639458121
"ave" 0.0177267977616983
"laveB" 0.104576088927602
"agg" 0.195313240189208
"ave" 0.00791898528979905
"laveB" 0.0611303955311968
"agg" 0.358581282670831
"ave" 0.0181464479256028
"laveB" 0.134053714481095
"agg" 0.0623040938893302
"ave" 0.0023646452914477
"laveB" 0.0209971661203276
"agg" 0.28035660672735
"ave" 0.0139984448847034
"laveB" 0.0966328698209339
"agg" 0.160630591649944
"ave" 0.0138046071707141
"laveB" 0.0938070662153549
"agg" 0.231006840038702
"ave" 0.0135060654362679
"laveB" 0.0810054276616149
"agg" 0.3874039305743
"ave" 0.0210225990639451
"laveB" 0.157761804827253
"agg" 0.305884582228379
"ave" 0.0185394892673338
"laveB" 0.128472155003872
"agg" 0.572478143577177
"ave" 0.0543321290424568
"laveB" 0.282709196921736
"agg" 0.521920699640979
"ave" 0.0438349809647054
"laveB" 0.262099785745801
"agg" 0.561484257107051
"ave" 0.0395964522926281
"laveB" 0.254290182889086
"agg" 0.504444060875002
"ave" 0.0332066268305815
"laveB" 0.203466629854043
"agg" 0.422036292978857
"ave" 0.0130865103577319
"laveB" 0.0933394270977422
"agg" 0.289326056268603
"ave" 0.0119204432270976
"laveB" 0.0774197430030855
"agg" 0.197198743315674
"ave" 0.0121718288568977
"laveB" 0.0679836730174261
"agg" 0.418880895957549
"ave" 0.0233012966508873
"laveB" 0.117934797012721
"agg" 0.195595677787492
"ave" 0.0048695219196829
"laveB" 0.0447023215416872
"agg" 0.490827776166713
"ave" 0.0132933538417481
"laveB" 0.113521271635923
"agg" 0.154674786981094
"ave" 0.00810816121026905
"laveB" 0.0792166325829085
"agg" 0.0387980574955927
"ave" 0.00120013285054482
"laveB" -0.00180097245762428
"agg" 0.276436435632732
"ave" 0.0125688061623905
"laveB" 0.105715260034504
"agg" 0.24328462291556
"ave" 0.0122704943686056
"laveB" 0.103766881910482
"agg" 0.445954871993804
"ave" 0.020646678906739
"laveB" 0.168272639478051
"agg" 0.400652020663805
"ave" 0.0200034196897067
"laveB" 0.153355943767787
"agg" 0.212435522788861
"ave" 0.0100490118623117
"laveB" 0.0689948940818955
"agg" 0.718871972489015
"ave" 0.0762629037609518
"laveB" 0.35935968473127
"agg" 0.639154831535467
"ave" 0.0653512647110241
"laveB" 0.349500951133221
"agg" 0.561887863135971
"ave" 0.0484691225330145
"laveB" 0.25429441381804
"agg" 0.243267632043358
"ave" 0.0285808720946727
"laveB" 0.169589904114411
"agg" 0.294073311978479
"ave" 0.0291257368142941
"laveB" 0.1660391344214
"agg" 0.230405550437329
"ave" 0.0123255005779071
"laveB" 0.0822968307685273
"agg" 0.0699434364570147
"ave" 0.00550247371483636
"laveB" 0.0319889340928318
"agg" 0.045040973449836
"ave" 0.00282975679757831
"laveB" 0.0174848145707012
"agg" -0.00683809207119018
"ave" 0.000609588181966173
"laveB" -0.00396731321058976
"agg" 0.0428641354448003
"ave" 0.00307358605847672
"laveB" 0.0401137901052673
"agg" 0.235100989490486
"ave" 0.0167803379944997
"laveB" 0.114394463108442
"agg" 0.300628735687447
"ave" 0.0188701693419371
"laveB" 0.130449476527306
"agg" 0.329342321768225
"ave" 0.0240446392950818
"laveB" 0.169475004430222
"agg" 0.0498805961955258
"ave" 0.004304820060235
"laveB" 0.0257985129396486
"agg" 0.0667820136170124
"ave" 0.00380535772709675
"laveB" 0.0435904840606382
"agg" 0.0452481761364978
"ave" 0.00304468635036253
"laveB" 0.0309493985875806
"agg" 0.14933223779366
"ave" 0.0102252301494003
"laveB" 0.0842395888580592
"agg" 0.203769572152659
"ave" 0.00867226371171039
"laveB" 0.0732088610755895
"agg" 0.157237234195629
"ave" 0.00936385753543672
"laveB" 0.0738529450903945
"agg" 0.578324972641126
"ave" 0.0448269663315826
"laveB" 0.28554487647155
"agg" 0.484595775116712
"ave" 0.0361366682644442
"laveB" 0.217435023724017
"agg" 0.494296541596508
"ave" 0.0184097204865483
"laveB" 0.121379736916743
"agg" 0.255941103518249
"ave" 0.00875015440765013
"laveB" 0.0729090855003392
"agg" 0.480924071052568
"ave" 0.0358867307061968
"laveB" 0.241884937552533
"agg" 0.521344841268189
"ave" 0.0394304199973145
"laveB" 0.266439762971224
"agg" 0.247511116966397
"ave" 0.0097586753776943
"laveB" 0.0690908244324224
"agg" 0.234616509431308
"ave" 0.0102995037260082
"laveB" 0.057945652582208
"agg" 0.376379283983451
"ave" 0.0194026541587597
"laveB" 0.151206077541428
"agg" 0.401257255363064
"ave" 0.0242159613669944
"laveB" 0.175410727931101
"agg" 0.311065176884752
"ave" 0.0110702107704491
"laveB" 0.0930177871639022
"agg" 0.649833989168483
"ave" 0.0601597142056817
"laveB" 0.310486021717046
"agg" 0.714479704746926
"ave" 0.0564874107362645
"laveB" 0.306129570863276
"agg" 0.295705017727877
"ave" 0.0335346432721708
"laveB" 0.178904656611022
"agg" 0.394215931430346
"ave" 0.0380521452326817
"laveB" 0.218023216814188
"agg" 0.317503342218954
"ave" 0.0150422656409373
"laveB" 0.117850995735892
"agg" 0.171547013328443
"ave" 0.0106130433962757
"laveB" 0.060242014852762
"agg" 0.0357266318970956
"ave" 0.00177762872888222
"laveB" 0.00537030979438208
"agg" 0.0791735648749585
"ave" 0.00442518630585283
"laveB" 0.0202208108906145
"agg" -0.0184342115974378
"ave" -0.00201961911483907
"laveB" 0.00558066198074693
"agg" 0.212287197013711
"ave" 0.013540644882634
"laveB" 0.0932721104559516
"agg" 0.219120413177703
"ave" 0.0116655378424616
"laveB" 0.088546984281827
"agg" 0.323260416471617
"ave" 0.0210166331024181
"laveB" 0.157561468998849
"agg" 0.119210065414695
"ave" 0.0115020769300056
"laveB" 0.0558070857565692
"agg" 0.113114802180358
"ave" 0.00854222954935991
"laveB" 0.0662913020328786
"agg" 0.0995220566179245
"ave" 0.0069054226757727
"laveB" 0.0470845464098214
"agg" 0.242518627518979
"ave" 0.0161017375846319
"laveB" 0.106429754845652
"agg" 0.169431056828338
"ave" 0.00699249575881045
"laveB" 0.0605660028836096
"agg" 0.260162278752894
"ave" 0.0128263946411431
"laveB" 0.0821544124303917
"agg" 0.467226758771499
"ave" 0.033720223772379
"laveB" 0.209056592655329
"agg" 0.602030775670769
"ave" 0.0400971729133598
"laveB" 0.229946798482818
"agg" 0.472799342456728
"ave" 0.0163930213787022
"laveB" 0.110863595826232
"agg" 0.364636683260868
"ave" 0.0126876019324827
"laveB" 0.101332200190476
"agg" 0.440993307392177
"ave" 0.0291563557422394
"laveB" 0.199772681117884
"agg" 0.366608409915329
"ave" 0.0246948658303798
"laveB" 0.172530424542008
"agg" 0.212032130081158
"ave" 0.00732771307874097
"laveB" 0.0682625606546594
"agg" 0.228399133615785
"ave" 0.00851629955840471
"laveB" 0.0619894662551038
"agg" 0.396504539199236
"ave" 0.0180955091068026
"laveB" 0.147240858953948
"agg" 0.410975372698125
"ave" 0.0221252637733894
"laveB" 0.179465871380047
"agg" 0.314331463070397
"ave" 0.0104644146529947
"laveB" 0.0800145481385422
"agg" 0.888264996982105
"ave" 0.0690379492931116
"laveB" 0.357486447646785
"agg" 0.696519761282269
"ave" 0.0823000411905079
"laveB" 0.401391159518969
"agg" 0.784851115672413
"ave" 0.0815388294630495
"laveB" 0.430957672327768
"agg" 0.345716528896878
"ave" 0.0164416704282142
"laveB" 0.130395874379322
"agg" 0.166232937142051
"ave" 0.00894889632694634
"laveB" 0.0547192889205293
"agg" -0.0766184088066858
"ave" -0.00263374431814404
"laveB" -0.0329262499316388
"agg" 0.0510626097882381
"ave" 0.00337842180765615
"laveB" -0.00248724678252046
"agg" 0.0702658875971491
"ave" 0.00468986731929389
"laveB" 0.0477063089627161
"agg" 0.185398712533833
"ave" 0.011864004754415
"laveB" 0.0785835116229703
"agg" 0.320521012431102
"ave" 0.0177169748916504
"laveB" 0.131381077499835
"agg" 0.487846851514616
"ave" 0.0325837778003385
"laveB" 0.224302075443055
"agg" 0.352210668901089
"ave" 0.033723149810409
"laveB" 0.181727191867883
"agg" 0.393549515550383
"ave" 0.0331360675906203
"laveB" 0.195964544978995
"agg" 0.349659120334051
"ave" 0.0256530793313923
"laveB" 0.15283381772836
"agg" 0.318069700555612
"ave" 0.0216485629451275
"laveB" 0.130609336696563
"agg" 0.335686109251962
"ave" 0.0118714955692282
"laveB" 0.0873749687347954
"agg" 0.319849862671875
"ave" 0.0156051063507185
"laveB" 0.113803551885831
"agg" 0.492825376840261
"ave" 0.0354322780612843
"laveB" 0.211695668294763
"agg" 0.508441657811097
"ave" 0.0311376587699154
"laveB" 0.17875763843616
"agg" 0.690067468964407
"ave" 0.0242395745288007
"laveB" 0.159309707217728
"agg" 0.441055569157329
"ave" 0.0130577700438655
"laveB" 0.103843817074935
"agg" 0.421628543177863
"ave" 0.0245359315502343
"laveB" 0.166045874046326
"agg" 0.446766147138261
"ave" 0.0311203922335504
"laveB" 0.216133832760342
"agg" 0.36333164260449
"ave" 0.0122989702107846
"laveB" 0.0824208488250918
"agg" 0.324326751263627
"ave" 0.0110279066325141
"laveB" 0.0839059300813333
"agg" 0.55196755767947
"ave" 0.0254655737337393
"laveB" 0.205769892280185
"agg" 0.637437958209539
"ave" 0.0342419643804068
"laveB" 0.252174077277431
"agg" 0.45588581891787
"ave" 0.0146229018497781
"laveB" 0.0934537468982093
"agg" 0.622759157183557
"ave" 0.0572299266753655
"laveB" 0.298394490808592
"agg" 0.715585191383949
"ave" 0.0581470892736486
"laveB" 0.309303096082733
"agg" 0.411420158465319
"ave" 0.0158683410270056
"laveB" 0.126756341659763
"agg" 0.284588179470053
"ave" 0.0131081040174177
"laveB" 0.0896518860719347
"agg" -0.00326706375288555
"ave" 0.000742116949251515
"laveB" 0.00353465819039519
"agg" 0.155227556698183
"ave" 0.00752587425899321
"laveB" 0.0426608196641908
"agg" 0.0376824381268124
"ave" 0.00188238912388858
"laveB" 0.0386290206706899
"agg" 0.242281266293721
"ave" 0.0130486843300509
"laveB" 0.084927975045943
"agg" 0.360959524358345
"ave" 0.0162381731532994
"laveB" 0.134942588507077
"agg" 0.546435885496846
"ave" 0.0297258727738306
"laveB" 0.208729356062354
"agg" 0.391211848943459
"ave" 0.0287415305060235
"laveB" 0.163786017001807
"agg" 0.405393421440622
"ave" 0.0266657239710416
"laveB" 0.167382725102423
"agg" 0.315642257358574
"ave" 0.0170298024738143
"laveB" 0.105941037336161
"agg" 0.27660718902793
"ave" 0.0133516213644811
"laveB" 0.106449787974679
"agg" 0.245717031200847
"ave" 0.00665176760529335
"laveB" 0.0495571214035371
"agg" 0.202183102361759
"ave" 0.00734305684654115
"laveB" 0.0467676935610178
"agg" 0.41190008386897
"ave" 0.0240830376884127
"laveB" 0.146470995404212
"agg" 0.513257219387717
"ave" 0.0259910085864877
"laveB" 0.137442690030842
"agg" 0.604744946411089
"ave" 0.0170781195820494
"laveB" 0.11147660788177
"agg" 0.470096847459428
"ave" 0.011849318164461
"laveB" 0.103317891676635
"agg" 0.498681719140144
"ave" 0.025863581307276
"laveB" 0.210477122745653
"agg" 0.448077081638753
"ave" 0.0256265147714743
"laveB" 0.202542414381705
"agg" 0.43879423453827
"ave" 0.0132412960862215
"laveB" 0.110978266797099
"agg" 0.404780548563555
"ave" 0.0124346722261305
"laveB" 0.105085882233012
"agg" 0.642627511751384
"ave" 0.0244024990340454
"laveB" 0.203301194365671
"agg" 0.672437429011979
"ave" 0.0294447247544839
"laveB" 0.233170741367845
"agg" 0.520560558373033
"ave" 0.0144367797768979
"laveB" 0.118642957353306
"agg" 0.854481961896025
"ave" 0.107381329665925
"laveB" 0.579327247128974
"agg" 0.177821603981493
"ave" 0.0103843355506234
"laveB" 0.0756286440727214
"agg" 0.149423576826226
"ave" 0.00935563025286678
"laveB" 0.07152673230354
"agg" -0.0832698295391752
"ave" -0.00380671819772235
"laveB" -0.0447083892689296
"agg" 0.119343557941352
"ave" 0.00785200040558156
"laveB" 0.0394368587042319
"agg" 0.0545293762097092
"ave" 0.00526293264810412
"laveB" 0.0768242790307799
"agg" 0.22740526037029
"ave" 0.0177784996722224
"laveB" 0.108595226592142
"agg" 0.147768085664661
"ave" 0.00989329714589058
"laveB" 0.078667348750346
"agg" 0.26967529851145
"ave" 0.0221362648096292
"laveB" 0.145733844052489
"agg" 0.553650991946893
"ave" 0.0666898438944653
"laveB" 0.369872354354228
"agg" 0.636313647966248
"ave" 0.0679840309389691
"laveB" 0.413622510415646
"agg" 0.608451934041625
"ave" 0.0548583602843608
"laveB" 0.332315353362709
"agg" 0.541220783562054
"ave" 0.0458407735582396
"laveB" 0.30924505769281
"agg" 0.483948965261019
"ave" 0.0195324576365429
"laveB" 0.157058084075258
"agg" 0.470225811777117
"ave" 0.0262081343596874
"laveB" 0.216450309665288
"agg" 0.451352155653752
"ave" 0.0378734594174774
"laveB" 0.236932236568328
"agg" 0.467615362397336
"ave" 0.0323971592970092
"laveB" 0.192849299207563
"agg" 0.528497998147471
"ave" 0.0225939836261485
"laveB" 0.144660772208467
"agg" 0.390536621323619
"ave" 0.0135186308683711
"laveB" 0.117752725722479
"agg" 0.0920975340916318
"ave" 0.00267727540185812
"laveB" 0.00774465407114454
"agg" 0.130137395124534
"ave" 0.0118302245140571
"laveB" 0.080975804908541
"agg" 0.142318336254116
"ave" 0.00435165546320892
"laveB" 0.0324244708697839
"agg" 0.121262532075669
"ave" 0.00458059846680231
"laveB" 0.0596769835599293
"agg" 0.344409977216839
"ave" 0.0193136293900742
"laveB" 0.182995788709705
"agg" 0.439095947870548
"ave" 0.0285270106800174
"laveB" 0.222474005517672
"agg" 0.24633495881677
"ave" 0.0113878107676522
"laveB" 0.0558183199616167
"agg" 0.270643282353685
"ave" 0.0138536367007007
"laveB" 0.0997438414740538
"agg" 0.110060921381893
"ave" 0.00563032658646158
"laveB" 0.038177517876623
"agg" -0.0564138790385495
"ave" -0.00216110663464875
"laveB" -0.0358288836924405
"agg" 0.105083470984073
"ave" 0.00604473040314654
"laveB" 0.0415851932135943
"agg" 0.0544273590690724
"ave" 0.00393132787826029
"laveB" 0.0460879518909579
"agg" 0.201856268682075
"ave" 0.0136732725033386
"laveB" 0.0763400712144285
"agg" 0.0635842652558654
"ave" 0.00154480324323208
"laveB" 0.0239510865901968
"agg" 0.22703627304852
"ave" 0.013778773855154
"laveB" 0.103618538624837
"agg" 0.342572874697584
"ave" 0.034419304043177
"laveB" 0.189424573191913
"agg" 0.440021522161368
"ave" 0.040435438109384
"laveB" 0.261804285700711
"agg" 0.409817731128872
"ave" 0.0326141668890403
"laveB" 0.225480119297487
"agg" 0.410025230662321
"ave" 0.0309818839059996
"laveB" 0.222964838013989
"agg" 0.310570028451268
"ave" 0.0108698571509408
"laveB" 0.0845430565640172
"agg" 0.35672299994956
"ave" 0.0177514599054691
"laveB" 0.151894808328383
"agg" 0.405412523826536
"ave" 0.0299315667372621
"laveB" 0.18935274717666
"agg" 0.473919204198598
"ave" 0.0283853005002304
"laveB" 0.178410016289376
"agg" 0.454577693851932
"ave" 0.0163900441339762
"laveB" 0.104163357095042
"agg" 0.300220577586903
"ave" 0.00879979591613383
"laveB" 0.0813168230454513
"agg" 0.180214078122904
"ave" 0.00671368834722431
"laveB" 0.0403904234925556
"agg" 0.180649611523189
"ave" 0.0112792849650847
"laveB" 0.0977363379122969
"agg" 0.147963935071737
"ave" 0.00276857487413393
"laveB" 0.00991020130942185
"agg" 0.177031141584105
"ave" 0.00433018831570364
"laveB" 0.0475679419875381
"agg" 0.357117869424147
"ave" 0.0159475256204096
"laveB" 0.141699644091489
"agg" 0.399427497601801
"ave" 0.0206800180082902
"laveB" 0.166939863634834
"agg" 0.241125885391806
"ave" 0.00822039305707001
"laveB" 0.0548670267482618
"agg" 0.646317087942684
"ave" 0.0174622070108
"laveB" 0.188796228076126
"agg" 0.421268562316885
"ave" 0.00762679822934322
"laveB" 0.111318348059482
"agg" 0.428516177753081
"ave" 0.0102718459206224
"laveB" 0.109889504714136
"agg" 0.151225092831949
"ave" 0.00568636036307806
"laveB" 0.0626904889966422
"agg" 0.206484921427428
"ave" 0.00665853575540669
"laveB" 0.0680072675323456
"agg" 0.337831071912237
"ave" 0.00998087079153241
"laveB" 0.103284899590121
"agg" 0.207018481652462
"ave" 0.00725698870136221
"laveB" 0.0689787837610494
"agg" 0.11823114795741
"ave" 0.00527009176171668
"laveB" 0.0513533592420727
"agg" 0.126372853068785
"ave" 0.00489797970660641
"laveB" 0.0490853105471589
"agg" 0.188102327751398
"ave" 0.00707505064339325
"laveB" 0.0803480341060984
"agg" 0.17664257345877
"ave" 0.00559566001761188
"laveB" 0.0608246394920145
"agg" 0.144640780159731
"ave" 0.0027130848385322
"laveB" 0.03285008571615
"agg" 0.176778324993736
"ave" 0.00381925716058021
"laveB" 0.0446432590461538
"agg" 0.278975540493954
"ave" 0.00991498988157126
"laveB" 0.100505360863559
"agg" 0.308725137744857
"ave" 0.0097165899057542
"laveB" 0.0864888658687073
"agg" 0.303664234177882
"ave" 0.00536922140176157
"laveB" 0.0589340892365157
"agg" 0.426020787797274
"ave" 0.00632482846687524
"laveB" 0.0947017801141592
"agg" 0.39176117582612
"ave" 0.0140944816338721
"laveB" 0.145089137217548
"agg" 0.389130948237282
"ave" 0.0141573294754555
"laveB" 0.132727210187391
"agg" 0.217491434123353
"ave" 0.00507107639755797
"laveB" 0.0479629430311928
"agg" 0.276620954376953
"ave" 0.0064199559163233
"laveB" 0.0790456412606306
"agg" 0.473015023561258
"ave" 0.0115901725176573
"laveB" 0.13319312364121
"agg" 0.499114644181843
"ave" 0.0137321286293688
"laveB" 0.14284407393544
"agg" 0.271561085110165
"ave" 0.0053394424890519
"laveB" 0.0668674093304251
"agg" 0.339556754596373
"ave" 0.00745798273793817
"laveB" 0.080973232212013
"agg" 0.513634625280125
"ave" 0.0143587783064232
"laveB" 0.142706023257325
"agg" 0.0634244763656751
"ave" 0.00307065886976821
"laveB" 0.0498658535041151
"agg" 0.185070168893517
"ave" 0.00658705743896497
"laveB" 0.0627849364573992
"agg" 0.294320893945278
"ave" 0.00995551340896768
"laveB" 0.0961592167174001
"agg" 0.153452587039726
"ave" 0.0063035048224322
"laveB" 0.0459351716289731
"agg" 0.169324643570523
"ave" 0.00819293644185356
"laveB" 0.0883666729936631
"agg" 0.16897963603181
"ave" 0.00751394338711519
"laveB" 0.0693478021760845
"agg" 0.202636244365632
"ave" 0.00831205303438687
"laveB" 0.082961301537172
"agg" 0.222149850145663
"ave" 0.00724347317377844
"laveB" 0.0692866093408551
"agg" 0.177566516018812
"ave" 0.00338604573434637
"laveB" 0.0395092422833018
"agg" 0.195984798526226
"ave" 0.00443155103476489
"laveB" 0.0594508922123453
"agg" 0.305123927575766
"ave" 0.0123252697402124
"laveB" 0.0921871969658371
"agg" 0.264043804165118
"ave" 0.00907446309713799
"laveB" 0.0681072012824003
"agg" 0.254412257166936
"ave" 0.00518543342203806
"laveB" 0.0430627285227204
"agg" 0.445084469197445
"ave" 0.00762581705018507
"laveB" 0.0961964549725959
"agg" 0.246138866584172
"ave" 0.0108220076221715
"laveB" 0.0948290965762004
"agg" 0.247359958363674
"ave" 0.0106193906137806
"laveB" 0.0835002004774317
"agg" 0.256264138442475
"ave" 0.00765093773003157
"laveB" 0.0754967522516197
"agg" 0.299362454717417
"ave" 0.00862330350719552
"laveB" 0.0894222166466515
"agg" 0.440105962410676
"ave" 0.0127139582424561
"laveB" 0.134261640262624
"agg" 0.48921217476207
"ave" 0.0158124702035022
"laveB" 0.140206737709094
"agg" 0.193741793710888
"ave" 0.00536691776964073
"laveB" 0.0378889077648261
"agg" 0.611259506634847
"ave" 0.0115176630850319
"laveB" 0.150984257480987
"agg" 0.262781601746816
"ave" 0.00840725726096818
"laveB" 0.087307180705989
"agg" 0.301645494011608
"ave" 0.00718271023370949
"laveB" 0.0803000902029923
"agg" -0.0293808688070056
"ave" -0.000807821041478624
"laveB" -0.0210446065991376
"agg" -0.187513265057118
"ave" -0.00524066704956659
"laveB" -0.0738410356514678
"agg" -0.052470275784298
"ave" -0.0021845135595439
"laveB" -0.046077123459435
"agg" -0.0917532342108532
"ave" -0.00357698849735845
"laveB" -0.0452131205113192
"agg" 0.0262284265372639
"ave" 0.00127006485823975
"laveB" 0.0150403973958622
"agg" 0.073123254687315
"ave" 0.00215963246977311
"laveB" 0.0131008269452774
"agg" 0.0269436806213875
"ave" 0.000284112781141106
"laveB" 0.00244504505754485
"agg" 0.0617475794876886
"ave" 0.0011114994162831
"laveB" 0.0193784383185259
"agg" 0.0815825225899704
"ave" 0.00209638780819032
"laveB" 0.0184540069056993
"agg" 0.0268723868882482
"ave" 0.00109796496293823
"laveB" 0.00706782941644556
"agg" -0.106268490615158
"ave" -0.0014887474577622
"laveB" -0.0196258670574337
"agg" 0.0156205360732955
"ave" -1.04489951412508e-05
"laveB" -0.000865834952063575
"agg" 0.0154514690065425
"ave" 0.00162039951491681
"laveB" 0.0146622507999694
"agg" -0.0158399606859384
"ave" -0.000130826974812649
"laveB" 0.000993080257237507
"agg" -0.0700008255970456
"ave" -0.000477142987022755
"laveB" -0.0224601849542795
"agg" 0.000553824002124284
"ave" 0.00105292288481119
"laveB" 0.0104389097076427
"agg" 0.0351315161570803
"ave" 0.000707211210085071
"laveB" -0.00475909105461843
"agg" 0.0426094455525636
"ave" 0.000734611635393714
"laveB" 0.0118829621412975
"agg" -0.0544472444515463
"ave" -0.000104406053209643
"laveB" -0.00772224043461098
"agg" 0.21309376234066
"ave" 0.0088305998625668
"laveB" 0.0904134238354607
"agg" 0.349814506840019
"ave" 0.0112473973149796
"laveB" 0.108879217979598
"agg" 0.073930328031842
"ave" 0.00254240864623313
"laveB" 0.0297316311170374
"agg" 0.00372406424883783
"ave" 0.000534995825761491
"laveB" -0.00487339498772393
"agg" 0.0521440467704861
"ave" 0.00313680973771388
"laveB" 0.00912065569876787
"agg" -0.00394647081535394
"ave" 0.000171303630804117
"laveB" -0.0193658385758094
"agg" 0.0405108067670648
"ave" 0.00307211963326885
"laveB" 0.00754083790805027
"agg" 0.0596467536422532
"ave" 0.00231506252647679
"laveB" 0.0141070422851956
"agg" -0.0552882560772793
"ave" -0.000874131455225446
"laveB" -0.0293137208663009
"agg" -0.0115429548822257
"ave" -0.000221411564896562
"laveB" -0.00959722035179915
"agg" 0.0639932886006696
"ave" 0.00261250738334671
"laveB" 0.0153313020852737
"agg" 0.118627027595046
"ave" 0.00426652766309485
"laveB" 0.032125860829854
"agg" -0.0152345037454556
"ave" -0.000202147265585878
"laveB" -0.0157018117525205
"agg" 0.0843531741827383
"ave" 0.00133548606094429
"laveB" 0.018081925259728
"agg" 0.0970566770607167
"ave" 0.00449237466961174
"laveB" 0.0550251784641982
"agg" 0.110836899433932
"ave" 0.00418631963308105
"laveB" 0.0477196430947893
"agg" 0.0444977936841134
"ave" 0.00213815906061641
"laveB" 0.0123098721965042
"agg" 0.0500621147718492
"ave" 0.00249768490223704
"laveB" 0.027150400305117
"agg" 0.157340928471027
"ave" 0.00431189667889479
"laveB" 0.037922421678505
"agg" 0.181920576800896
"ave" 0.00536412728330366
"laveB" 0.0475493215064453
"agg" -0.0577202222145565
"ave" -0.000173198048621417
"laveB" -0.0144239927144248
"agg" 0.024840935104872
"ave" 0.00101264035239079
"laveB" 0.0241382423585446
"agg" 0.0626715522406722
"ave" 0.00303671445340134
"laveB" 0.025700514762163
"agg" 0.0463303195229916
"ave" 0.00268662284459229
"laveB" 0.0405986381165054
"agg" 0.182882541700206
"ave" 0.0161350255958243
"laveB" 0.15156152645392
"agg" 0.129289371059177
"ave" 0.00985836644900773
"laveB" 0.106795032286395
"agg" 0.0976492287345587
"ave" 0.00638236075024227
"laveB" 0.0598671634919967
"agg" -0.0707091486013599
"ave" -0.00508462956450067
"laveB" -0.022393973516137
"agg" 0.122313594275374
"ave" 0.00332831337165598
"laveB" 0.0436617596604289
"agg" -0.0345548866198037
"ave" -0.00169270657957349
"laveB" 0.00721980423517355
"agg" -0.010828336449958
"ave" -0.00147457379234772
"laveB" 0.00459276175523699
"agg" -0.0573303886304342
"ave" -0.00372765345542525
"laveB" -0.0191062030652496
"agg" 0.0984790287480992
"ave" 0.00299137642952593
"laveB" 0.0426388701681972
"agg" 0.234532353491999
"ave" 0.00597223191741068
"laveB" 0.0721848050414073
"agg" -0.0370032334833135
"ave" -0.00286640412221247
"laveB" -0.0257618322214434
"agg" -0.0745937744113485
"ave" -0.00423770432839922
"laveB" -0.0401525798818837
"agg" -0.039918724301973
"ave" -0.00111414069717642
"laveB" -0.0106439474314866
"agg" -0.000957664402259487
"ave" 0.000719107615453155
"laveB" 0.015449763465909
"agg" 0.0560365024175133
"ave" 0.00261415626183695
"laveB" 0.0278152002605708
"agg" 0.0136157491169519
"ave" 0.000447103852112303
"laveB" 0.0233179201439883
"agg" 0.0133195289570059
"ave" 0.000633687795721045
"laveB" 0.0111774854356868
"agg" 0.117041789779093
"ave" 0.00480027648552814
"laveB" 0.0446159959663201
"agg" 0.159287063320975
"ave" 0.00710373370553897
"laveB" 0.0600950560230473
"agg" 0.168955471777896
"ave" 0.0107834942156124
"laveB" 0.0637703366038603
"agg" 0.219029684736691
"ave" 0.0130326966681224
"laveB" 0.0968391834307457
"agg" 0.186915214850768
"ave" 0.00972513365585722
"laveB" 0.0672960643071601
"agg" 0.199160622325779
"ave" 0.0088384823469438
"laveB" 0.0721007138122803
"agg" 0.165651144109996
"ave" 0.00376141102545059
"laveB" 0.0448360342503554
"agg" 0.161050181789667
"ave" 0.00486033333826161
"laveB" 0.0454422968263559
"agg" 0.260932921953719
"ave" 0.0128325791355095
"laveB" 0.0946407081725442
"agg" 0.224719792507216
"ave" 0.00872068916706525
"laveB" 0.0609077531373372
"agg" 0.166076142050153
"ave" 0.0038646032941969
"laveB" 0.0280148503156502
"agg" 0.176256805647641
"ave" 0.00341459432733924
"laveB" 0.0305871362482069
"agg" 0.186498050355585
"ave" 0.00880527639504191
"laveB" 0.0919420018173807
"agg" 0.1527498856007
"ave" 0.00701862457502006
"laveB" 0.0684441350011501
"agg" 0.215209663935756
"ave" 0.00685299191313336
"laveB" 0.0685671085437208
"agg" 0.155570659141424
"ave" 0.00515800935297267
"laveB" 0.0389411855284456
"agg" 0.307295438761832
"ave" 0.00977878894555854
"laveB" 0.0998009509137032
"agg" 0.268082003547949
"ave" 0.00935075815369412
"laveB" 0.089389698862007
"agg" 0.132620884421369
"ave" 0.00489164607837636
"laveB" 0.0380079518641195
"agg" 0.744903854985948
"ave" 0.0324108037718913
"laveB" 0.315588407179971
"agg" 0.300017735241649
"ave" 0.0171964682079432
"laveB" 0.151191742158274
"agg" 0.305851902838477
"ave" 0.0156212717174038
"laveB" 0.135575838721378
"agg" 0.251512887383808
"ave" 0.0102112935203869
"laveB" 0.110089175547054
"agg" 0.188624112885548
"ave" 0.00658454362481975
"laveB" 0.0612236643701007
"agg" 0.257637742014471
"ave" 0.00556899272252816
"laveB" 0.0471092434240848
"agg" 0.0449145880256466
"ave" 0.000941742485178824
"laveB" 0.0155300385196505
"agg" 0.207165997070311
"ave" 0.00954081121624959
"laveB" 0.0872226274630641
"agg" 0.304727701099494
"ave" 0.0121073732380415
"laveB" 0.103895694691098
"agg" 0.470404449069061
"ave" 0.0100426216372414
"laveB" 0.101311841103446
"agg" 0.468609488679815
"ave" 0.00892564704303519
"laveB" 0.113566359181429
"agg" 0.65137307228649
"ave" 0.0277415170865836
"laveB" 0.268174821495621
"agg" 0.615600346935483
"ave" 0.0269635270731806
"laveB" 0.26865823465965
"agg" 0.60064838041838
"ave" 0.0167946909723512
"laveB" 0.199872745333338
"agg" 0.541053716737562
"ave" 0.0145318531435643
"laveB" 0.160535440593526
"agg" 0.707175446725088
"ave" 0.0222097145647074
"laveB" 0.257131156552401
"agg" 0.705714083662976
"ave" 0.0249791664212878
"laveB" 0.262608073189682
"agg" 0.565310440654173
"ave" 0.01245896349838
"laveB" 0.140255053455253
"agg" 0.3036930055793
"ave" 0.0209344650695606
"laveB" 0.160606811333748
"agg" 0.300018367314069
"ave" 0.0182269355643823
"laveB" 0.158135327920133
"agg" 0.181662967624901
"ave" 0.00790754443437369
"laveB" 0.0703495374246906
"agg" 0.0940972320577681
"ave" 0.00256919346302603
"laveB" 0.0325494204212975
"agg" 0.156215668944583
"ave" 0.00383257067337161
"laveB" 0.0272873855678419
"agg" 0.0284732752584271
"ave" 0.000870093702708527
"laveB" 0.0100222929002936
"agg" 0.157011855582232
"ave" 0.00868648638072072
"laveB" 0.0653105230899067
"agg" 0.361241077265364
"ave" 0.0166021423395331
"laveB" 0.123466974227764
"agg" 0.543055221460889
"ave" 0.0141423770520386
"laveB" 0.133559481649514
"agg" 0.456971760423348
"ave" 0.0105493463766366
"laveB" 0.119369879732306
"agg" 0.644372880431613
"ave" 0.0311885640307169
"laveB" 0.297306063766199
"agg" 0.582925217205951
"ave" 0.0302662113339689
"laveB" 0.276732755198206
"agg" 0.681015700241891
"ave" 0.0218647054205227
"laveB" 0.24854328093387
"agg" 0.555707049046951
"ave" 0.0168299814472883
"laveB" 0.183168080138819
"agg" 0.722122772239313
"ave" 0.0267036482522302
"laveB" 0.294063728999157
"agg" 0.731609662545834
"ave" 0.0305637339334531
"laveB" 0.288237503862861
"agg" 0.642483718438414
"ave" 0.0165322632942738
"laveB" 0.173557744061664
"agg" 0.823721509794524
"ave" 0.0776279595623093
"laveB" 0.510629084352498
"agg" 0.80251496886105
"ave" 0.0621877840738959
"laveB" 0.40856687038033
"agg" 0.534182898641943
"ave" 0.038808282982895
"laveB" 0.256944370453688
"agg" 0.60392878286808
"ave" 0.0208500778844983
"laveB" 0.186254655750565
"agg" 0.45572818983621
"ave" 0.0225171977006103
"laveB" 0.183338237085902
"agg" 0.265780410454844
"ave" 0.0195004300795284
"laveB" 0.119087261785707
"agg" 0.271432942691876
"ave" 0.0149639976462432
"laveB" 0.0981441931140321
"agg" 0.349114178174351
"ave" 0.0122774583655203
"laveB" 0.087907950883036
"agg" 0.474139405160701
"ave" 0.0137140036757901
"laveB" 0.142071524766553
"agg" -0.0647435650981338
"ave" -0.00823895804988261
"laveB" -0.0651835535527549
"agg" -0.105488363240276
"ave" -0.00667332932903464
"laveB" -0.057228333444526
"agg" 0.202930292071607
"ave" 0.00858968556029711
"laveB" 0.0752018375402268
"agg" 0.0855122473923865
"ave" 0.00472070057767981
"laveB" 0.0427775936834816
"agg" 0.32740583078011
"ave" 0.0157557111870963
"laveB" 0.147812700952314
"agg" 0.38718845308364
"ave" 0.0220403337927922
"laveB" 0.188035640163451
"agg" 0.357604207527828
"ave" 0.0160785712279974
"laveB" 0.138651232741301
"agg" 0.786228900920455
"ave" 0.0533364756238952
"laveB" 0.391423211638711
"agg" 0.597983987738519
"ave" 0.0379713092484812
"laveB" 0.290555937901869
"agg" 0.618357033420324
"ave" 0.0191314513642083
"laveB" 0.167651505054684
"agg" 0.473979918978389
"ave" 0.0203094352533337
"laveB" 0.194494882952851
"agg" 0.32389988718471
"ave" 0.0204239530311172
"laveB" 0.149487331097008
"agg" 0.301737899350131
"ave" 0.0138509655346519
"laveB" 0.10937424640641
"agg" 0.405374119535544
"ave" 0.0126527130093449
"laveB" 0.102698468560198
"agg" 0.486857297523582
"ave" 0.0124774356241552
"laveB" 0.127869479168194
"agg" 0.00445263816800492
"ave" -0.00338692958110358
"laveB" -0.0190918273401013
"agg" -0.0493291874264973
"ave" -0.00313947892267766
"laveB" -0.0234146855753219
"agg" 0.237679405610376
"ave" 0.00862954886515419
"laveB" 0.0867764994925666
"agg" 0.186728607697431
"ave" 0.0076060135381108
"laveB" 0.0790523597241313
"agg" 0.404611004873561
"ave" 0.0173725769363214
"laveB" 0.175731215450179
"agg" 0.442815939111477
"ave" 0.0217896869971956
"laveB" 0.198058380061286
"agg" 0.328747786333899
"ave" 0.0130466310394062
"laveB" 0.111748060498499
"agg" 0.817363131157015
"ave" 0.0448827063640724
"laveB" 0.352740333570457
"agg" 0.759562220739897
"ave" 0.0196480911985787
"laveB" 0.213555568341116
"agg" 0.635012818824583
"ave" 0.0230161167865503
"laveB" 0.235024985693939
"agg" 0.488152843235706
"ave" 0.0269268524482869
"laveB" 0.19262009422898
"agg" 0.421186715883997
"ave" 0.0178922002965735
"laveB" 0.136870331767486
"agg" 0.419631057592685
"ave" 0.010430903461439
"laveB" 0.0974906841189343
"agg" 0.525520601343286
"ave" 0.0105838135144392
"laveB" 0.124439159610451
"agg" -0.0328776229464399
"ave" -0.0038220492479817
"laveB" -0.0265503731589417
"agg" -0.0475771684016787
"ave" -0.00193090832957927
"laveB" -0.00475391048463705
"agg" 0.145417439758271
"ave" 0.00415571938875497
"laveB" 0.0317190410816706
"agg" 0.128415678012432
"ave" 0.00495526368162554
"laveB" 0.051113692362524
"agg" 0.328757496742263
"ave" 0.0115694698963817
"laveB" 0.115843838884913
"agg" 0.404815067270632
"ave" 0.0165417611813107
"laveB" 0.170004785247232
"agg" 0.27306620254126
"ave" 0.00933488087402238
"laveB" 0.0802105123382925
"agg" 0.709293851834721
"ave" 0.0175427898993575
"laveB" 0.204568668395979
"agg" 0.789175289502002
"ave" 0.0270164512319939
"laveB" 0.271136587839294
"agg" 0.679682747761786
"ave" 0.0335352301968065
"laveB" 0.25873125044496
"agg" 0.707782226572095
"ave" 0.0295878642342364
"laveB" 0.204591528497456
"agg" 0.389968403156145
"ave" 0.00859579049100978
"laveB" 0.0788524000229624
"agg" 0.443006048741299
"ave" 0.00776882448824621
"laveB" 0.102371858431602
"agg" 0.0244505257243676
"ave" -0.00120528024454626
"laveB" -0.000541695647156232
"agg" 0.00818399343364752
"ave" -0.000565755510238265
"laveB" -0.00469341080757673
"agg" 0.0820734915215054
"ave" 0.00189411582379762
"laveB" 0.0323025946958795
"agg" 0.093591491759422
"ave" 0.00348707931812995
"laveB" 0.0460270413107884
"agg" 0.250067168581962
"ave" 0.00735667987577395
"laveB" 0.0873808945351031
"agg" 0.311294281801678
"ave" 0.0108100561003559
"laveB" 0.112551882309161
"agg" 0.13140134259285
"ave" 0.00504078122711685
"laveB" 0.0642209904318809
"agg" 0.694690702202065
"ave" 0.0116825321876939
"laveB" 0.168549011918995
"agg" 0.592982787861882
"ave" 0.0147540946846964
"laveB" 0.1476620905779
"agg" 0.483456797201366
"ave" 0.0104104974726465
"laveB" 0.102558140870825
"agg" 0.444499874904824
"ave" 0.00526394688588992
"laveB" 0.0586156197428541
"agg" 0.476967207218492
"ave" 0.00478983877979272
"laveB" 0.0707728015782742
"agg" -0.0541607774656757
"ave" -0.00149961896790043
"laveB" -0.0399379947829058
"agg" -0.0098792711129631
"ave" 0.000648532897814579
"laveB" -0.0183255061477621
"agg" 0.0445061154972638
"ave" 0.00071720469515412
"laveB" -0.00819521693227469
"agg" -0.00513376196513256
"ave" 0.000635172464469509
"laveB" -0.00577785549125939
"agg" 0.226156359891172
"ave" 0.00401105031076665
"laveB" 0.0262854651211304
"agg" 0.291796898832384
"ave" 0.00604383852857025
"laveB" 0.0508778176253759
"agg" 0.132629275491308
"ave" 0.00255034933358616
"laveB" 0.0159719893240039
"agg" 0.586583471861137
"ave" 0.0197040924771151
"laveB" 0.191823371540944
"agg" 0.601099290423897
"ave" 0.0168853049591508
"laveB" 0.154389012939218
"agg" 0.407498140867788
"ave" 0.0068033434623129
"laveB" 0.0740041706319924
"agg" 0.416567883872193
"ave" 0.00527899388293891
"laveB" 0.074425124456557
"agg" -0.180308763727156
"ave" -0.0063401607976814
"laveB" -0.0728002719107363
"agg" -0.152517945351534
"ave" -0.00415708862339832
"laveB" -0.04452494809326
"agg" -0.0140519157907275
"ave" -9.49929190625022e-05
"laveB" -0.00339976366977069
"agg" -0.0488746385898889
"ave" -0.000262952016379805
"laveB" 0.00605459520835599
"agg" 0.127228081996829
"ave" 0.00272145730443194
"laveB" 0.0339208029122905
"agg" 0.207662594118553
"ave" 0.00538319264942438
"laveB" 0.0742641821850468
"agg" 0.0486389663079047
"ave" 0.00251803529440668
"laveB" 0.0158445349154907
"agg" 0.729462852419097
"ave" 0.0319324156323573
"laveB" 0.225384929266117
"agg" 0.589058706082138
"ave" 0.0149199607244412
"laveB" 0.13087987359213
"agg" 0.460268224451877
"ave" 0.00956002569068671
"laveB" 0.0969936985371553
"agg" 0.236671767067631
"ave" 0.0122610706581506
"laveB" 0.115222293168196
"agg" 0.277873878036852
"ave" 0.0155682383001573
"laveB" 0.138798161312824
"agg" 0.159385821784218
"ave" 0.00550089166997825
"laveB" 0.0491318092377273
"agg" 0.16791712484625
"ave" 0.00629094908466123
"laveB" 0.0566056581212306
"agg" 0.276125656750144
"ave" 0.0104052937197934
"laveB" 0.0965728408416771
"agg" 0.374800021079638
"ave" 0.0159574818445313
"laveB" 0.139663173202362
"agg" 0.19212148915277
"ave" 0.00657092377200142
"laveB" 0.046515882614264
"agg" 0.542908712026029
"ave" 0.0116041794549052
"laveB" 0.0838593593093095
"agg" 0.499379101343461
"ave" 0.009336768958188
"laveB" 0.109849648438474
"agg" 0.398119113578901
"ave" 0.0189339640052442
"laveB" 0.158973619499476
"agg" 0.362779948056561
"ave" 0.0180775545098797
"laveB" 0.136960203237534
"agg" 0.236393305510244
"ave" 0.00651310678367492
"laveB" 0.05508424515457
"agg" 0.246553455506149
"ave" 0.0074926232167431
"laveB" 0.0607688352809831
"agg" 0.441010813286777
"ave" 0.0138928792359594
"laveB" 0.12052816315956
"agg" 0.456527461162057
"ave" 0.0162947169541494
"laveB" 0.144430369486418
"agg" 0.270609863069781
"ave" 0.00716116123405564
"laveB" 0.0522563724083435
"agg" 0.679232535341995
"ave" 0.00741364966304667
"laveB" 0.088035697600985
"agg" 0.461466539501278
"ave" 0.0106992043915029
"laveB" 0.0809112173034543
"agg" 0.495998034898724
"ave" 0.0129376978495528
"laveB" 0.12261633014612
"agg" 0.493998027762758
"ave" 0.0077176238191679
"laveB" 0.0859986699765623
"agg" 0.425483216439158
"ave" 0.00627873847841787
"laveB" 0.0626559795155534
"agg" 0.597373741057565
"ave" 0.0109363289343535
"laveB" 0.109658852151039
"agg" 0.675353503315697
"ave" 0.0139717339871114
"laveB" 0.141261935235401
"agg" 0.436261049549343
"ave" 0.00602852095848359
"laveB" 0.0565749620338552
"agg" 0.335893728112168
"ave" 0.00789120496119849
"laveB" 0.100362481056337
"agg" 0.29661053299839
"ave" 0.00757849593388202
"laveB" 0.100362676389803
"agg" 0.38143687318844
"ave" 0.0053768176801361
"laveB" 0.0799396372956863
"agg" 0.32727796351109
"ave" 0.00478923962640087
"laveB" 0.064146831883735
"agg" 0.604286282263103
"ave" 0.00982059690215992
"laveB" 0.136647438734885
"agg" 0.644087899310279
"ave" 0.0116514686705385
"laveB" 0.1536400468214
"agg" 0.402631200907516
"ave" 0.00536094833097023
"laveB" 0.0721107797735733
"agg" 0.89711371353049
"ave" 0.0441001132198736
"laveB" 0.422687001044676
"agg" 0.684685089726155
"ave" 0.021472143681093
"laveB" 0.241928306111296
"agg" 0.700869711052027
"ave" 0.0207334350783223
"laveB" 0.223746018600952
"agg" 0.761693845319512
"ave" 0.0272470024997055
"laveB" 0.30048739739205
"agg" 0.690350868072597
"ave" 0.0273842527684442
"laveB" 0.283301737688825
"agg" 0.550209018423929
"ave" 0.0127643080355954
"laveB" 0.135308101745233
"agg" 0.617138780526972
"ave" 0.0193812392079724
"laveB" 0.219247579602844
"agg" 0.632608557403494
"ave" 0.0184243913308461
"laveB" 0.195121716755598
"agg" 0.646637087116494
"ave" 0.0239995474109399
"laveB" 0.251759631182973
"agg" 0.664811855801994
"ave" 0.0280787445268433
"laveB" 0.272477121030682
"agg" 0.51432917247966
"ave" 0.0123231353629061
"laveB" 0.129788501233727
"agg" 0.782039252091947
"ave" 0.0154546885368721
"laveB" 0.204156122272385
"agg" 0.754508210124687
"ave" 0.0176261865068629
"laveB" 0.227186559525369
"agg" 0.731433107888621
"ave" 0.0189275869250464
"laveB" 0.220361149508598
"agg" 0.70889066808176
"ave" 0.0119154709371819
"laveB" 0.149464614657606
"agg" 0.704399568916968
"ave" 0.0156243367602476
"laveB" 0.197092743066138
"agg" 0.715343287837175
"ave" 0.0177256443618208
"laveB" 0.198468226204414
"agg" 0.667007353646101
"ave" 0.0101943375298614
"laveB" 0.117780365762004
"agg" 0.895006690172685
"ave" 0.0261863519285838
"laveB" 0.308662189043799
"agg" 0.691483920870417
"ave" 0.0135692876742616
"laveB" 0.161059371939953
"agg" 0.703156290444167
"ave" 0.0156534351698164
"laveB" 0.161347261041575
