"EST" "CORR"
"agg" 0.890630488823836
"ave" 0.0433389416362557
"laveB" 0.292769190937623
"agg" 0.886595934876409
"ave" 0.0434835643607831
"laveB" 0.302733087610132
"agg" 0.85990777321347
"ave" 0.0501296512023626
"laveB" 0.345510873572714
"agg" 0.8401420336339
"ave" 0.0263633836470308
"laveB" 0.235694058838106
"agg" 0.789596592517469
"ave" 0.0262634654020204
"laveB" 0.251014000395645
"agg" 0.581414632037301
"ave" 0.0237777872363764
"laveB" 0.229489344366897
"agg" 0.573515007958496
"ave" 0.0245603230670353
"laveB" 0.22043851472211
"agg" 0.683652451141074
"ave" 0.0275018029644009
"laveB" 0.239313308757445
"agg" 0.733668798795279
"ave" 0.0338479765310309
"laveB" 0.277330454906629
"agg" 0.437971598473827
"ave" 0.0130835300091833
"laveB" 0.115961647403518
"agg" 0.32706881459398
"ave" 0.0184561046222266
"laveB" 0.113885340105847
"agg" 0.52150690964107
"ave" 0.0188742754838249
"laveB" 0.152275469865432
"agg" 0.547917478597826
"ave" 0.0319602941713657
"laveB" 0.217897509749913
"agg" 0.340412835290993
"ave" 0.0181037108397609
"laveB" 0.120090060850365
"agg" 0.273014976490016
"ave" 0.0154618056698246
"laveB" 0.103003493117384
"agg" 0.474214238992996
"ave" 0.0164520915802923
"laveB" 0.113720461278091
"agg" 0.581085526747701
"ave" 0.0202349908532086
"laveB" 0.144606626256071
"agg" 0.303783965283781
"ave" 0.0101944485622806
"laveB" 0.102115935670447
"agg" 0.357396927728718
"ave" 0.0125230417483873
"laveB" 0.127196448752513
"agg" 0.154563641786286
"ave" 0.00329503904584298
"laveB" 0.0392272405968737
"agg" 0.30554381299155
"ave" 0.00642240025147841
"laveB" 0.0654257691387999
"agg" 0.244197183427121
"ave" 0.00619798736701936
"laveB" 0.0609608362254609
"agg" 0.288977496098003
"ave" 0.00696133386456054
"laveB" 0.0706694330122187
"agg" 0.0465981238576393
"ave" 0.00101531390507311
"laveB" 0.0338899386856446
"agg" 0.0668772915363976
"ave" 0.00352707297164437
"laveB" 0.0244524103431691
"agg" 0.375166349079208
"ave" 0.012320079827579
"laveB" 0.120408654710052
"agg" 0.462350845278819
"ave" 0.0173189595466899
"laveB" 0.154418837648409
"agg" 0.454124180124413
"ave" 0.0196784735257586
"laveB" 0.160775070052301
"agg" 0.733904759887845
"ave" 0.0362155582737516
"laveB" 0.328915502303543
"agg" 0.622480612028341
"ave" 0.0201160611413262
"laveB" 0.206737749214707
"agg" 0.642799808617147
"ave" 0.0253534351766317
"laveB" 0.241438296950091
"agg" 0.582294018806755
"ave" 0.0117573753626267
"laveB" 0.13899034344084
"agg" 0.28716860726633
"ave" 0.00552427920022817
"laveB" 0.0836044158456185
"agg" 0.640219280249127
"ave" 0.0216126361412795
"laveB" 0.195440245534382
"agg" 0.669905608026523
"ave" 0.0250174715847366
"laveB" 0.199639496831239
"agg" 0.705818273674431
"ave" 0.0157371117573371
"laveB" 0.157948506137276
"agg" 0.698943631424364
"ave" 0.0150486104083843
"laveB" 0.147838766219415
"agg" 0.452241034196167
"ave" 0.0131827360706251
"laveB" 0.14542070819481
"agg" 0.611577202183172
"ave" 0.0219434362953825
"laveB" 0.217539159427227
"agg" 0.324704524232931
"ave" 0.00559299033886924
"laveB" 0.0509588022435157
"agg" 0.590368202461083
"ave" 0.0115542417526166
"laveB" 0.116344340429497
"agg" 0.599323753053242
"ave" 0.010613608488197
"laveB" 0.133609626176102
"agg" 0.702103872420261
"ave" 0.0162586888851976
"laveB" 0.197658577375974
"agg" 0.518738909336437
"ave" 0.0140429156712392
"laveB" 0.145978819003104
"agg" 0.85601514824086
"ave" 0.0449211520633893
"laveB" 0.29620542115693
"agg" 0.88999442056305
"ave" 0.0553154646799129
"laveB" 0.324589632206418
"agg" 0.766627103366293
"ave" 0.0258155207584599
"laveB" 0.21939684523691
"agg" 0.711944930743875
"ave" 0.0260192931238259
"laveB" 0.215308271594202
"agg" 0.472818813848777
"ave" 0.0213463047462663
"laveB" 0.188765594054342
"agg" 0.430861772412269
"ave" 0.0207305783609233
"laveB" 0.174114440346878
"agg" 0.612424898068533
"ave" 0.0265451337179578
"laveB" 0.206853091717455
"agg" 0.674504613624702
"ave" 0.0328660213049665
"laveB" 0.242504206649991
"agg" 0.476350610595031
"ave" 0.0162303081256068
"laveB" 0.126337370139492
"agg" 0.405080840942193
"ave" 0.0242404738629446
"laveB" 0.128618739036293
"agg" 0.523816396300964
"ave" 0.0200733476606798
"laveB" 0.147723673542405
"agg" 0.571997077091449
"ave" 0.0360736013583575
"laveB" 0.176940823688733
"agg" 0.400668281177426
"ave" 0.0231405413817022
"laveB" 0.136501272826393
"agg" 0.37979882531462
"ave" 0.0223738740882349
"laveB" 0.125439173057684
"agg" 0.538650546919749
"ave" 0.0195788204626247
"laveB" 0.111958367782705
"agg" 0.659206529059673
"ave" 0.0242645960884921
"laveB" 0.167066915329185
"agg" 0.174959747383735
"ave" 0.00674372051879593
"laveB" 0.09212862048796
"agg" 0.245372226929123
"ave" 0.00943836441238164
"laveB" 0.103604371800531
"agg" 0.161303539705653
"ave" 0.00351008673337794
"laveB" 0.0433757607893711
"agg" 0.344910287354668
"ave" 0.0077413788221911
"laveB" 0.0697637325322335
"agg" 0.220748379278678
"ave" 0.00589659816730134
"laveB" 0.055596310764783
"agg" 0.238441795175861
"ave" 0.0064519307459433
"laveB" 0.0715176606135727
"agg" 0.0471895655124271
"ave" 0.00170818256050638
"laveB" 0.0427855040157321
"agg" 0.057724710744612
"ave" 0.0027871620333024
"laveB" 0.029278036605868
"agg" 0.474634516073546
"ave" 0.016615859902612
"laveB" 0.104749366232139
"agg" 0.59779279778595
"ave" 0.0240105214478047
"laveB" 0.167763549431104
"agg" 0.401562897880613
"ave" 0.0198131440777578
"laveB" 0.157196739041088
"agg" 0.679112578489904
"ave" 0.0363330799373566
"laveB" 0.287527365914051
"agg" 0.567070844094739
"ave" 0.0198407223102661
"laveB" 0.174668585996529
"agg" 0.574422830757174
"ave" 0.024872839760815
"laveB" 0.214484981934642
"agg" 0.5539402280325
"ave" 0.0120390356972207
"laveB" 0.117580504786534
"agg" 0.187887302910104
"ave" 0.00375011099884194
"laveB" 0.0691272588078748
"agg" 0.630245665670564
"ave" 0.0231326243584293
"laveB" 0.20014269482863
"agg" 0.649120714199996
"ave" 0.026040575456945
"laveB" 0.189140048125776
"agg" 0.694570715886645
"ave" 0.0172665828547322
"laveB" 0.129011374583792
"agg" 0.668027728114632
"ave" 0.0157276298326721
"laveB" 0.152184051056796
"agg" 0.560059390452272
"ave" 0.017341193122952
"laveB" 0.143914052255765
"agg" 0.669859308693883
"ave" 0.0260569396725882
"laveB" 0.210982201234355
"agg" 0.278039529704793
"ave" 0.00533596409812205
"laveB" 0.0432293278335891
"agg" 0.590779246701791
"ave" 0.0126640654992481
"laveB" 0.105398649998423
"agg" 0.611763258380601
"ave" 0.0118120023666449
"laveB" 0.0962734983003644
"agg" 0.758468558525196
"ave" 0.019441070930567
"laveB" 0.18674263488262
"agg" 0.619489240830835
"ave" 0.0176630464678475
"laveB" 0.155849138471417
"agg" 0.918882619248064
"ave" 0.0583359951833785
"laveB" 0.360054144627159
"agg" 0.842001321303392
"ave" 0.0290170442347589
"laveB" 0.25652993011604
"agg" 0.767468261432872
"ave" 0.0280154904397909
"laveB" 0.223474639142263
"agg" 0.600751548419129
"ave" 0.0272170973108032
"laveB" 0.206778959097241
"agg" 0.573819477340088
"ave" 0.0268712756071821
"laveB" 0.214420378948861
"agg" 0.731977252478342
"ave" 0.0319323205565547
"laveB" 0.255645733502394
"agg" 0.770426518688783
"ave" 0.0383451098716046
"laveB" 0.270575142188235
"agg" 0.500413876000695
"ave" 0.01723606382464
"laveB" 0.151725376733336
"agg" 0.376586167385019
"ave" 0.0231463122448918
"laveB" 0.142474295629979
"agg" 0.525811917239198
"ave" 0.0213167323261602
"laveB" 0.193383828006629
"agg" 0.545271449409366
"ave" 0.0344409972892578
"laveB" 0.2083687528624
"agg" 0.397300064591591
"ave" 0.0227571058599241
"laveB" 0.140884080971298
"agg" 0.382152560829136
"ave" 0.0231061998730773
"laveB" 0.139555494749701
"agg" 0.535948819646613
"ave" 0.0200822121156703
"laveB" 0.141277888516385
"agg" 0.656642116910179
"ave" 0.0248958634741095
"laveB" 0.174476122777272
"agg" 0.312729151847793
"ave" 0.0118969824216526
"laveB" 0.0912587965496476
"agg" 0.399392625809829
"ave" 0.0149898409871903
"laveB" 0.130798546145748
"agg" 0.203056379965559
"ave" 0.00477976235391034
"laveB" 0.0481375175641904
"agg" 0.347197845118931
"ave" 0.00795677862810132
"laveB" 0.0746446929421364
"agg" 0.235364882073908
"ave" 0.00637314866812197
"laveB" 0.0599468268073127
"agg" 0.302916924595793
"ave" 0.00785687412756171
"laveB" 0.0728775672754774
"agg" 0.0103009676719323
"ave" -7.15646908436196e-06
"laveB" 0.023807583411687
"agg" 0.0612978313445166
"ave" 0.00364617757532087
"laveB" 0.0196146295176696
"agg" 0.422428785742797
"ave" 0.01493625659518
"laveB" 0.11950275799083
"agg" 0.50824039772908
"ave" 0.0201570688370126
"laveB" 0.171034509658101
"agg" 0.445884412192568
"ave" 0.0216957327251177
"laveB" 0.158870442076625
"agg" 0.688850834456547
"ave" 0.0370520809733205
"laveB" 0.287165094287371
"agg" 0.640213374997718
"ave" 0.022723583383632
"laveB" 0.178160901521873
"agg" 0.645437603813209
"ave" 0.0283363924660058
"laveB" 0.235113018019251
"agg" 0.52134276371485
"ave" 0.0115377531956529
"laveB" 0.118347031003821
"agg" 0.194123707799186
"ave" 0.0037719485874603
"laveB" 0.059777722736091
"agg" 0.68323868650048
"ave" 0.0253324616030205
"laveB" 0.211043555377597
"agg" 0.76782800165113
"ave" 0.0316587732908787
"laveB" 0.247776815080806
"agg" 0.739275027025272
"ave" 0.0182807129970124
"laveB" 0.162393137999985
"agg" 0.732632815132191
"ave" 0.0176290841198446
"laveB" 0.162427554829378
"agg" 0.543532284650568
"ave" 0.0171128993500981
"laveB" 0.16751651352315
"agg" 0.683381949727656
"ave" 0.0262921580681477
"laveB" 0.254254466161655
"agg" 0.416752152822729
"ave" 0.00753541981725142
"laveB" 0.0806944877205599
"agg" 0.670571375057941
"ave" 0.0140207542695014
"laveB" 0.127658306639317
"agg" 0.692618458676677
"ave" 0.0132465484625797
"laveB" 0.161243282844887
"agg" 0.735264808822868
"ave" 0.0186202810439085
"laveB" 0.196114145801736
"agg" 0.583200422053
"ave" 0.0168348009821076
"laveB" 0.165698533967996
"agg" 0.790313177056548
"ave" 0.0324426366651157
"laveB" 0.258904509830071
"agg" 0.733922063290602
"ave" 0.0324392592701816
"laveB" 0.272462166589554
"agg" 0.570339381644021
"ave" 0.0309405220729592
"laveB" 0.246814128898576
"agg" 0.523275047493059
"ave" 0.0297029866173073
"laveB" 0.218923490947305
"agg" 0.719370554163506
"ave" 0.0373162056646024
"laveB" 0.287986180477153
"agg" 0.747491430882554
"ave" 0.0442826612452655
"laveB" 0.316211765730309
"agg" 0.424134854410365
"ave" 0.0169055789654728
"laveB" 0.131541240438448
"agg" 0.390028846392437
"ave" 0.0282509373644176
"laveB" 0.16624517780582
"agg" 0.495556341365675
"ave" 0.023289697443405
"laveB" 0.173086514339465
"agg" 0.58947150566294
"ave" 0.0448166869787014
"laveB" 0.247359281943312
"agg" 0.341348297457846
"ave" 0.0231836573707237
"laveB" 0.140387239298434
"agg" 0.363267418470277
"ave" 0.0258426843341828
"laveB" 0.14595259225855
"agg" 0.537278857931491
"ave" 0.0228987031831976
"laveB" 0.145593048385651
"agg" 0.620088401125129
"ave" 0.0273187575044085
"laveB" 0.181527838752729
"agg" 0.237536524460503
"ave" 0.0113941108724995
"laveB" 0.0999232688542545
"agg" 0.375890743435483
"ave" 0.0172519833563642
"laveB" 0.135384137877392
"agg" 0.146396573799226
"ave" 0.00423967483465242
"laveB" 0.0255706743675154
"agg" 0.356317899713027
"ave" 0.00962609412254569
"laveB" 0.0892267793000023
"agg" 0.177135163759145
"ave" 0.00584068686429199
"laveB" 0.0569834015796651
"agg" 0.279735273510982
"ave" 0.00898390436086349
"laveB" 0.0881671814549516
"agg" 0.0304050954903044
"ave" 0.000989480235613247
"laveB" 0.0417248380562341
"agg" 0.0822577249196923
"ave" 0.00509902838752276
"laveB" 0.0201875540472439
"agg" 0.475937384276925
"ave" 0.0191412357100524
"laveB" 0.169979295065045
"agg" 0.54192940683526
"ave" 0.0247967886370792
"laveB" 0.208731750523433
"agg" 0.385402426569482
"ave" 0.0226043766735658
"laveB" 0.174096180975274
"agg" 0.65742105371276
"ave" 0.0424436476152164
"laveB" 0.322804305689338
"agg" 0.60649244460263
"ave" 0.0261207078760264
"laveB" 0.207165395803762
"agg" 0.623592338915694
"ave" 0.033624003656411
"laveB" 0.263084666418578
"agg" 0.526735206743398
"ave" 0.0142050381432628
"laveB" 0.136428697316036
"agg" 0.133284245673647
"ave" 0.0034575523684121
"laveB" 0.0571092816530069
"agg" 0.623613111776856
"ave" 0.0279206474764718
"laveB" 0.223004584876468
"agg" 0.719156160926669
"ave" 0.0359967595469372
"laveB" 0.248288912130615
"agg" 0.720110455030232
"ave" 0.0212017951928413
"laveB" 0.179674585523291
"agg" 0.735237824469612
"ave" 0.0215345740567181
"laveB" 0.18801732189141
"agg" 0.606818518293335
"ave" 0.0222680727148167
"laveB" 0.214151874856225
"agg" 0.729277237775101
"ave" 0.0336179981757719
"laveB" 0.28202548987647
"agg" 0.41336917670602
"ave" 0.0090217737007438
"laveB" 0.0735744610703583
"agg" 0.708712449633058
"ave" 0.0179176473309968
"laveB" 0.151692350920875
"agg" 0.70887966415483
"ave" 0.0160997824776226
"laveB" 0.17790369158723
"agg" 0.755329956232061
"ave" 0.0228407875411978
"laveB" 0.24696245919638
"agg" 0.665452127547081
"ave" 0.0223330544029991
"laveB" 0.201454742359159
"agg" 0.863560022297103
"ave" 0.0201157228929258
"laveB" 0.230908851928854
"agg" 0.620231220477315
"ave" 0.0185761398518214
"laveB" 0.188841247626522
"agg" 0.632348234847977
"ave" 0.0195737761672051
"laveB" 0.196498401874478
"agg" 0.635497516019265
"ave" 0.0183104753131394
"laveB" 0.173728692241838
"agg" 0.656792278445946
"ave" 0.021440314345956
"laveB" 0.211376747752616
"agg" 0.391826017722198
"ave" 0.00795980985792377
"laveB" 0.0942336467108906
"agg" 0.267563423759494
"ave" 0.00963138160032226
"laveB" 0.0864498996127609
"agg" 0.540434563507131
"ave" 0.013810086754353
"laveB" 0.139973405584755
"agg" 0.522079255522662
"ave" 0.0206820321045941
"laveB" 0.173741618777894
"agg" 0.19662663860042
"ave" 0.00613309090068756
"laveB" 0.0677054901519208
"agg" 0.136278894020983
"ave" 0.00474818677534098
"laveB" 0.036791196965486
"agg" 0.253215666812632
"ave" 0.00594593503683963
"laveB" 0.0520450610425685
"agg" 0.429708854097909
"ave" 0.0101374081757101
"laveB" 0.0984839747448413
"agg" 0.373594749286616
"ave" 0.00954553721885348
"laveB" 0.0927399823157519
"agg" 0.369376494858115
"ave" 0.00984693531288515
"laveB" 0.111120205311067
"agg" 0.123296978154917
"ave" 0.00166670943884959
"laveB" 0.0239279473746247
"agg" 0.214744460385494
"ave" 0.00285067505457766
"laveB" 0.0374968630722046
"agg" 0.331057265031229
"ave" 0.0053806699277765
"laveB" 0.0729803327260522
"agg" 0.288105244473768
"ave" 0.00519038312857346
"laveB" 0.0720576614424524
"agg" 0.13070144534067
"ave" 0.00336680062327061
"laveB" 0.0703581586600634
"agg" -0.0120302267967191
"ave" 0.000212005477116249
"laveB" 0.00777406611974173
"agg" 0.262561763109938
"ave" 0.00557122746684804
"laveB" 0.0769915106065424
"agg" 0.370254841084468
"ave" 0.00902652894659732
"laveB" 0.0962815824143287
"agg" 0.514794124953712
"ave" 0.0157448945211822
"laveB" 0.157748335552727
"agg" 0.76305777366026
"ave" 0.026078906053107
"laveB" 0.270158112958423
"agg" 0.664306849263726
"ave" 0.0151431174463052
"laveB" 0.169499821463285
"agg" 0.732851221310267
"ave" 0.020493307311972
"laveB" 0.212233141155887
"agg" 0.63750376604521
"ave" 0.00866098843724669
"laveB" 0.116344377940876
"agg" 0.453340056654525
"ave" 0.00651961244031761
"laveB" 0.0963086298568312
"agg" 0.670711476119198
"ave" 0.015770505231523
"laveB" 0.179645327994744
"agg" 0.698557060195825
"ave" 0.0182009254480349
"laveB" 0.168389813109301
"agg" 0.744803582365527
"ave" 0.0111336406290521
"laveB" 0.118002095175574
"agg" 0.710313260732847
"ave" 0.0105333761175214
"laveB" 0.117563260363892
"agg" 0.277825917737589
"ave" 0.00530422901532193
"laveB" 0.0693771894029416
"agg" 0.467910533707842
"ave" 0.0113674010590918
"laveB" 0.142146877108518
"agg" 0.194031192318389
"ave" 0.00284584866191207
"laveB" 0.0279972510343601
"agg" 0.509675536553443
"ave" 0.00668179977413136
"laveB" 0.0813989564576507
"agg" 0.51201971930848
"ave" 0.00637991158505069
"laveB" 0.0948779353010099
"agg" 0.602626033101398
"ave" 0.0096322021275822
"laveB" 0.135223900005685
"agg" 0.433382173357417
"ave" 0.00814745915336831
"laveB" 0.102403644119057
"agg" 0.633266743572947
"ave" 0.0194161649922612
"laveB" 0.19298565322833
"agg" 0.669757931198747
"ave" 0.0212105616542646
"laveB" 0.210925909057949
"agg" 0.554034689743565
"ave" 0.0165228199084645
"laveB" 0.164712263662441
"agg" 0.614743320424318
"ave" 0.0213611180190559
"laveB" 0.193789532521945
"agg" 0.413885300046157
"ave" 0.00904561942905948
"laveB" 0.103873772912196
"agg" 0.343516060445299
"ave" 0.01375992358544
"laveB" 0.118034022963782
"agg" 0.529735310309622
"ave" 0.0141607680163789
"laveB" 0.149205717783527
"agg" 0.530086103755287
"ave" 0.022860314489855
"laveB" 0.193320318138078
"agg" 0.196614148907203
"ave" 0.00674645271790475
"laveB" 0.0694536081714611
"agg" 0.178992771373082
"ave" 0.0066828765570635
"laveB" 0.0643102986389965
"agg" 0.138271348831062
"ave" 0.00366759485003176
"laveB" 0.0173939648397141
"agg" 0.35972993671032
"ave" 0.00913122242268108
"laveB" 0.0933586263009824
"agg" 0.392330784279699
"ave" 0.00974482383508179
"laveB" 0.0953927439744706
"agg" 0.417719484069197
"ave" 0.0111238199654121
"laveB" 0.10810979571067
"agg" 0.119271778840699
"ave" 0.001709507469907
"laveB" 0.0258890242691568
"agg" 0.241686937322675
"ave" 0.0038653150487055
"laveB" 0.0596936596963285
"agg" 0.34813975180487
"ave" 0.00635838486472304
"laveB" 0.0836473522296458
"agg" 0.389687945337777
"ave" 0.00699569931153927
"laveB" 0.0920232265620339
"agg" 0.100074956476699
"ave" 0.00360667653277677
"laveB" 0.0616903405809859
"agg" 0.0449872508120019
"ave" 0.00158497873979892
"laveB" 0.0156542937611261
"agg" 0.0816791964546002
"ave" 0.00245864715927913
"laveB" 0.0460142894012861
"agg" 0.331897994868945
"ave" 0.00925541017948752
"laveB" 0.107791150134245
"agg" 0.495286749249913
"ave" 0.015969440173978
"laveB" 0.170681376334834
"agg" 0.736211585449783
"ave" 0.0269760736226536
"laveB" 0.291010132455511
"agg" 0.696038487015249
"ave" 0.0165804424760778
"laveB" 0.174703089303404
"agg" 0.805333743803271
"ave" 0.0236706015983713
"laveB" 0.274520491835251
"agg" 0.669637021066552
"ave" 0.00980866112499403
"laveB" 0.12504223090101
"agg" 0.52865699143298
"ave" 0.00808468864864206
"laveB" 0.111756122033929
"agg" 0.685488202925379
"ave" 0.0170506365634856
"laveB" 0.192355226821938
"agg" 0.747439386795688
"ave" 0.0203090216086849
"laveB" 0.196841524872349
"agg" 0.734254094407776
"ave" 0.0117187525317513
"laveB" 0.14678357433702
"agg" 0.789950801215257
"ave" 0.0122690725351433
"laveB" 0.157260857533357
"agg" 0.244739820123797
"ave" 0.00525762806278802
"laveB" 0.085647507528178
"agg" 0.431120810761573
"ave" 0.0115997166444793
"laveB" 0.150968453155414
"agg" 0.0899433252426995
"ave" 0.00188422296642619
"laveB" 0.0105486861839737
"agg" 0.459401593460616
"ave" 0.00641069024109901
"laveB" 0.0725774212756264
"agg" 0.440894051552474
"ave" 0.00583406331486529
"laveB" 0.0826592469999837
"agg" 0.543056788524322
"ave" 0.00961068533306011
"laveB" 0.142416340405312
"agg" 0.41195668596372
"ave" 0.00850605685205605
"laveB" 0.110726317992392
"agg" 0.888068825759983
"ave" 0.0346528008719205
"laveB" 0.333136945365874
"agg" 0.625575933331458
"ave" 0.0230389424994246
"laveB" 0.213733346042831
"agg" 0.549068643978683
"ave" 0.02337890446835
"laveB" 0.207392885731971
"agg" 0.41560743668555
"ave" 0.0124478308644499
"laveB" 0.13096147650399
"agg" 0.146600024581766
"ave" 0.00658512103253382
"laveB" 0.0462827479902695
"agg" 0.521105110673951
"ave" 0.0179911745041791
"laveB" 0.165241445722666
"agg" 0.436948105178722
"ave" 0.0222336858884842
"laveB" 0.160852898547518
"agg" 0.0270866765974386
"ave" 0.00126677532380966
"laveB" 0.0154060735839153
"agg" 0.00476250597008689
"ave" 0.000493430000022555
"laveB" -0.0096231399265502
"agg" 0.134242948810244
"ave" 0.00490763184287671
"laveB" 0.0515036432013082
"agg" 0.251487917531279
"ave" 0.00874507505102312
"laveB" 0.0867929360072569
"agg" 0.624376719713841
"ave" 0.0187902763083912
"laveB" 0.19218290014694
"agg" 0.746406855713575
"ave" 0.0231802054727777
"laveB" 0.245741138723894
"agg" 0.0791656103470045
"ave" 0.00137596327475847
"laveB" 0.00529129235117007
"agg" 0.160957423376316
"ave" 0.00238887018478737
"laveB" 0.0360668632838913
"agg" 0.294262661583672
"ave" 0.00643058492507862
"laveB" 0.0726077757466852
"agg" 0.472454410929692
"ave" 0.0103405760624297
"laveB" 0.122216454056656
"agg" 0.0790698557712862
"ave" 0.00297205331086786
"laveB" 0.0410654497286041
"agg" 0.225696949391394
"ave" 0.0109831600942256
"laveB" 0.0823626219782678
"agg" 0.0438599697981924
"ave" 0.00118250977988541
"laveB" 0.0240258684716611
"agg" 0.0944284947458326
"ave" 0.00226889126477522
"laveB" 0.0265824884849037
"agg" 0.618820669995349
"ave" 0.0246496359629227
"laveB" 0.225575792216834
"agg" 0.635843692411796
"ave" 0.0286887364978532
"laveB" 0.270073426523373
"agg" 0.747783498966721
"ave" 0.0221764647180363
"laveB" 0.228180709369372
"agg" 0.674476102703826
"ave" 0.0245133667496919
"laveB" 0.240670268717418
"agg" 0.316844658374769
"ave" 0.00612320228699857
"laveB" 0.0607236416574099
"agg" 0.304717891488068
"ave" 0.00571620360767213
"laveB" 0.0726549962905818
"agg" 0.419493494789697
"ave" 0.0134492874423578
"laveB" 0.13065583846882
"agg" 0.500997435498383
"ave" 0.0173603957877196
"laveB" 0.150349798882866
"agg" 0.498192330453869
"ave" 0.00963678984347746
"laveB" 0.121533051269079
"agg" 0.463260229932148
"ave" 0.00930184095359405
"laveB" 0.108938448416005
"agg" 0.0492505127022186
"ave" 0.00102669646580971
"laveB" 0.0245043051103873
"agg" 0.244796070313525
"ave" 0.00763899483306404
"laveB" 0.0892352319081284
"agg" 0.298494149336644
"ave" 0.00460800684426131
"laveB" 0.0597415592034749
"agg" 0.352594952685975
"ave" 0.00583533724847885
"laveB" 0.0715737841705888
"agg" 0.389093322400947
"ave" 0.00615594118782394
"laveB" 0.0886413288276454
"agg" 0.303274934876573
"ave" 0.00623712533019209
"laveB" 0.0936174588916095
"agg" 0.295710471044172
"ave" 0.00737535964133741
"laveB" 0.0907509326815517
"agg" 0.629170699393225
"ave" 0.0243435696578214
"laveB" 0.21123647342677
"agg" 0.642130220553347
"ave" 0.0296359513605646
"laveB" 0.259058756571054
"agg" 0.376262203404721
"ave" 0.0113835163901926
"laveB" 0.116414116311154
"agg" 0.153070031376766
"ave" 0.00727040881538416
"laveB" 0.0544313117585185
"agg" 0.428722817563183
"ave" 0.0153544319728205
"laveB" 0.140791911238132
"agg" 0.428806986911824
"ave" 0.0233973335924469
"laveB" 0.166117593771439
"agg" -0.0185908277556307
"ave" -0.00205290352551493
"laveB" -0.0161128767061062
"agg" -0.037310695570761
"ave" -0.00214151192148917
"laveB" -0.0163425534575612
"agg" 0.0354477488267129
"ave" 0.00195094819644458
"laveB" 0.0234583631911506
"agg" 0.169736740503005
"ave" 0.00654737400593646
"laveB" 0.0616105755009082
"agg" 0.662894237348318
"ave" 0.0203656972538957
"laveB" 0.190667884683783
"agg" 0.719798480982144
"ave" 0.022773469451864
"laveB" 0.228889720791091
"agg" 0.048487448715449
"ave" 0.00049611297918784
"laveB" 0.0105710432228402
"agg" 0.108706774712737
"ave" 0.00174611524733633
"laveB" 0.022621059484762
"agg" 0.343598046047069
"ave" 0.00825925368565628
"laveB" 0.094328398611402
"agg" 0.471790516412042
"ave" 0.010809814693882
"laveB" 0.121685479336109
"agg" 0.0629987718821353
"ave" 0.00294512419668137
"laveB" 0.0374776905099252
"agg" 0.12445608949203
"ave" 0.0061439067653942
"laveB" 0.0443603052472794
"agg" -0.0729537138789013
"ave" -0.00207636878009175
"laveB" -0.0148982169197847
"agg" 0.0131425015284606
"ave" 0.000350673504815897
"laveB" 0.00452121513151183
"agg" 0.53532072225997
"ave" 0.0223295696977034
"laveB" 0.206751331621668
"agg" 0.665099822822784
"ave" 0.0320966713576916
"laveB" 0.283340243226934
"agg" 0.652849870525313
"ave" 0.0200680541346832
"laveB" 0.196678693861408
"agg" 0.692187504065718
"ave" 0.0260032804815588
"laveB" 0.250355872181271
"agg" 0.381467105970906
"ave" 0.00748919367587566
"laveB" 0.0834586577882285
"agg" 0.419308681412031
"ave" 0.00833053504610107
"laveB" 0.110403332610699
"agg" 0.372901286903299
"ave" 0.0120286050506589
"laveB" 0.126577571337384
"agg" 0.480787915226359
"ave" 0.0170868346500314
"laveB" 0.135054523562201
"agg" 0.470984702624372
"ave" 0.00916363109571232
"laveB" 0.101086536793248
"agg" 0.511712872154936
"ave" 0.010427981062893
"laveB" 0.104115269750739
"agg" -0.0177644731348135
"ave" -0.000647084804556963
"laveB" -0.0205682709062568
"agg" 0.208913827556274
"ave" 0.00698214478044262
"laveB" 0.093906650318232
"agg" 0.158571168975585
"ave" 0.00275168977412182
"laveB" 0.0370360633448528
"agg" 0.323542736463541
"ave" 0.00553644030234977
"laveB" 0.057103375153416
"agg" 0.365481248677668
"ave" 0.00607720560280839
"laveB" 0.0906640939228852
"agg" 0.293526252111035
"ave" 0.00661181775938916
"laveB" 0.0921638269250549
"agg" 0.232352575224436
"ave" 0.00646945171780611
"laveB" 0.0844545766881819
"agg" 0.841734497895799
"ave" 0.0354285575016271
"laveB" 0.301542128919765
"agg" 0.433911030230359
"ave" 0.0118369655110302
"laveB" 0.118489177094655
"agg" 0.367553354507423
"ave" 0.0174564765410827
"laveB" 0.153108159461728
"agg" 0.607970531685944
"ave" 0.0214016802598579
"laveB" 0.20531550794254
"agg" 0.634138258830507
"ave" 0.0330857181660405
"laveB" 0.240661874608673
"agg" 0.0721125355369669
"ave" 0.00245208297304732
"laveB" 0.0232485561328131
"agg" 0.19575464027857
"ave" 0.0102024046263812
"laveB" 0.0853646553734572
"agg" 0.426770947260073
"ave" 0.0143409762086331
"laveB" 0.113118367113347
"agg" 0.473850178852994
"ave" 0.0157970324197501
"laveB" 0.156487573064854
"agg" 0.295953989895284
"ave" 0.00898466708631183
"laveB" 0.0841311763986832
"agg" 0.43711126621291
"ave" 0.0129042684951492
"laveB" 0.130512611212158
"agg" 0.11094600768225
"ave" 0.00223556459871778
"laveB" 0.0399115480860917
"agg" 0.205973428551479
"ave" 0.00374745921732268
"laveB" 0.0438623923629886
"agg" 0.158194158506799
"ave" 0.00341835190442096
"laveB" 0.0414889648853678
"agg" 0.317660451041431
"ave" 0.00679226453569701
"laveB" 0.0770822866230028
"agg" -0.0193518316728835
"ave" -0.00160507869269353
"laveB" 0.000466074942222333
"agg" 0.146319032929484
"ave" 0.00688170969060827
"laveB" 0.0519055630606458
"agg" 0.3560190530805
"ave" 0.0103816989172971
"laveB" 0.120229009556666
"agg" 0.362810951583413
"ave" 0.0117306463262831
"laveB" 0.126297605011888
"agg" 0.386279649974755
"ave" 0.0152831455863091
"laveB" 0.14537706822977
"agg" 0.557428835462144
"ave" 0.0247551198821109
"laveB" 0.221388302634734
"agg" 0.591439816066044
"ave" 0.0171372180250135
"laveB" 0.171101324136569
"agg" 0.492406068168193
"ave" 0.0175661008644912
"laveB" 0.162841466186597
"agg" 0.362793302944075
"ave" 0.0067134101463265
"laveB" 0.0808486331866044
"agg" 0.136482958369412
"ave" 0.00215415215686825
"laveB" 0.0323407350231638
"agg" 0.340606079173981
"ave" 0.0101350922329606
"laveB" 0.0880476835106716
"agg" 0.491340918509658
"ave" 0.0165025002503093
"laveB" 0.13691241150057
"agg" 0.501852361440944
"ave" 0.0103663721165402
"laveB" 0.110044229446952
"agg" 0.545855563104998
"ave" 0.0110645926931571
"laveB" 0.134432774174584
"agg" 0.41173661602075
"ave" 0.0109659840219507
"laveB" 0.147727290756364
"agg" 0.475962118986822
"ave" 0.0151513981131429
"laveB" 0.169924103701097
"agg" 0.416978957865869
"ave" 0.00636105831206813
"laveB" 0.0684228599034643
"agg" 0.520870134520277
"ave" 0.00914120576027026
"laveB" 0.0999349975566095
"agg" 0.694531258521383
"ave" 0.0110389166527622
"laveB" 0.155729546551227
"agg" 0.651194384854754
"ave" 0.0136829424354469
"laveB" 0.18440711097235
"agg" 0.457405387982198
"ave" 0.0112584015582129
"laveB" 0.141100283913918
"agg" 0.460178747930152
"ave" 0.0142495790874276
"laveB" 0.13246372581985
"agg" 0.417008715733687
"ave" 0.0213438482649154
"laveB" 0.162454929887877
"agg" 0.573261200866927
"ave" 0.0224322182308646
"laveB" 0.199131659170301
"agg" 0.663127476434905
"ave" 0.0392488665467508
"laveB" 0.259517575653926
"agg" 0.151274195805859
"ave" 0.00628975515245317
"laveB" 0.0493642046987843
"agg" 0.22254651325535
"ave" 0.0113174288695128
"laveB" 0.0861297388763102
"agg" 0.420747800275543
"ave" 0.0149666397684566
"laveB" 0.114822079553877
"agg" 0.497244535035327
"ave" 0.0179960602427194
"laveB" 0.135188683309108
"agg" 0.220689911168287
"ave" 0.0082417939344986
"laveB" 0.0611353733708522
"agg" 0.353390920281716
"ave" 0.0123693989133071
"laveB" 0.128941447151203
"agg" 0.0799122118469666
"ave" 0.00170990830483556
"laveB" 0.0256332259510618
"agg" 0.306732688545082
"ave" 0.00652898505855541
"laveB" 0.076457218976531
"agg" 0.255035640680196
"ave" 0.00674513941940008
"laveB" 0.0742342496978093
"agg" 0.315294956475623
"ave" 0.00783297268186679
"laveB" 0.0767705744643344
"agg" 0.0906838598740055
"ave" 0.00417625425170312
"laveB" 0.0586405905347776
"agg" 0.0512643759227107
"ave" 0.00249678185001733
"laveB" 0.0187629463804874
"agg" 0.371782211391179
"ave" 0.011735508661469
"laveB" 0.127184485281862
"agg" 0.403353531632106
"ave" 0.0144403324051886
"laveB" 0.148116079607258
"agg" 0.421396008372319
"ave" 0.0196871980075284
"laveB" 0.171604183665671
"agg" 0.649072409134936
"ave" 0.0338221286007682
"laveB" 0.284819281619524
"agg" 0.562376138926619
"ave" 0.0188338125552295
"laveB" 0.182887564965761
"agg" 0.549989762427888
"ave" 0.0231051805461472
"laveB" 0.205761453079101
"agg" 0.483630831428064
"ave" 0.0101711037204533
"laveB" 0.124372459283819
"agg" 0.170333593658956
"ave" 0.00359823558727092
"laveB" 0.0482351904940095
"agg" 0.421192986992083
"ave" 0.0147157932717007
"laveB" 0.135912644139673
"agg" 0.554519915025765
"ave" 0.0213260459981011
"laveB" 0.185136492790308
"agg" 0.559559165024179
"ave" 0.0128678198540796
"laveB" 0.118425886972532
"agg" 0.605091350409452
"ave" 0.0138295028294991
"laveB" 0.154841552954409
"agg" 0.437453287890336
"ave" 0.0120052095521839
"laveB" 0.135396399129092
"agg" 0.539414969414355
"ave" 0.0189047814970074
"laveB" 0.195171599637038
"agg" 0.279958176890348
"ave" 0.00509215251799506
"laveB" 0.0561474922195788
"agg" 0.554670181495902
"ave" 0.0111295023608421
"laveB" 0.112285559104877
"agg" 0.657408973905937
"ave" 0.0115424585891462
"laveB" 0.132773543512631
"agg" 0.697930287447571
"ave" 0.016383793795308
"laveB" 0.20117277945207
"agg" 0.502024195463446
"ave" 0.0130580750866659
"laveB" 0.152374998331731
"agg" 0.604380245122114
"ave" 0.0281179317724788
"laveB" 0.222621344749793
"agg" 0.527799675604679
"ave" 0.0152866396409783
"laveB" 0.163032039576392
"agg" 0.499250201315479
"ave" 0.0217437055848271
"laveB" 0.173418798375103
"agg" 0.493153023170008
"ave" 0.0233938148983788
"laveB" 0.185368831383576
"agg" 0.487725708357224
"ave" 0.0238307502409877
"laveB" 0.172387622969295
"agg" 0.50670019349898
"ave" 0.0141487294836866
"laveB" 0.128042100902691
"agg" 0.555166903110944
"ave" 0.0153900352114456
"laveB" 0.139694286583919
"agg" 0.170559562939462
"ave" 0.0034703155957729
"laveB" 0.0351900615892949
"agg" 0.142428285026508
"ave" 0.00313046165616908
"laveB" 0.0459351218489873
"agg" 0.0644379976218646
"ave" 0.0012923142074707
"laveB" 0.0147639077475809
"agg" 0.162035517116142
"ave" 0.00232307394991813
"laveB" 0.0362437908927563
"agg" 0.0640490338529842
"ave" 0.000132130390269542
"laveB" 0.00504986292052213
"agg" 0.153289983691315
"ave" 0.00235105993676788
"laveB" 0.0313486832518364
"agg" -0.00907669562764181
"ave" -0.00102628394283516
"laveB" -0.00661357796501332
"agg" 0.11184798665695
"ave" 0.00528210349308053
"laveB" 0.0268117585990731
"agg" 0.366272434463807
"ave" 0.00958532733045725
"laveB" 0.104480690571509
"agg" 0.353463895531223
"ave" 0.00958624582921159
"laveB" 0.0944945126102452
"agg" 0.380499865583966
"ave" 0.0118190563701431
"laveB" 0.109203507105452
"agg" 0.397279312512514
"ave" 0.0125434565169003
"laveB" 0.144356915345477
"agg" 0.372089738987676
"ave" 0.00773200874864548
"laveB" 0.094292300370976
"agg" 0.300315605360881
"ave" 0.00840059659367602
"laveB" 0.0809263516908938
"agg" 0.108980118435574
"ave" 0.000927202899442713
"laveB" 0.0141950777738759
"agg" 0.0446341347009829
"ave" -0.000366203579448863
"laveB" 0.00641211502027097
"agg" 0.344106724394714
"ave" 0.00984942916691721
"laveB" 0.103833679850467
"agg" 0.505174728164346
"ave" 0.0146843978575168
"laveB" 0.13970481770507
"agg" 0.521987504064766
"ave" 0.00932436348122699
"laveB" 0.0997446298861317
"agg" 0.379540409025694
"ave" 0.00596216307647397
"laveB" 0.0682264301899486
"agg" 0.368868769193592
"ave" 0.0086450742759081
"laveB" 0.105526150090483
"agg" 0.417721973674455
"ave" 0.0112837040817269
"laveB" 0.115794456904154
"agg" 0.161848132467572
"ave" 0.00220131635604102
"laveB" 0.0313541705791367
"agg" 0.329181212455624
"ave" 0.00437998532294768
"laveB" 0.0454672333530939
"agg" 0.429032780014543
"ave" 0.00544058039517473
"laveB" 0.0769512516145132
"agg" 0.481981707228436
"ave" 0.00820622864849823
"laveB" 0.122747192117276
"agg" 0.316381447265083
"ave" 0.00576737475225281
"laveB" 0.0727534898907854
"agg" 0.396334626025664
"ave" 0.0179094767811032
"laveB" 0.149424493217615
"agg" 0.599633500401296
"ave" 0.0476529494846024
"laveB" 0.290584786820037
"agg" 0.365183347514397
"ave" 0.030188200143516
"laveB" 0.175859633249178
"agg" 0.670636052515447
"ave" 0.0536693521005124
"laveB" 0.330722032894483
"agg" 0.415178547600803
"ave" 0.0193297642792987
"laveB" 0.105147625280088
"agg" 0.55043784030455
"ave" 0.0252653012707885
"laveB" 0.164305057221753
"agg" -0.0827052981854174
"ave" -0.00462246462772489
"laveB" -0.0506768716872238
"agg" -0.0460030808147808
"ave" -0.00263092377455023
"laveB" -0.0126347969396385
"agg" 0.0216473699014417
"ave" 0.00110675509402148
"laveB" 0.0007724318901288
"agg" 0.19620894847024
"ave" 0.00545646441970318
"laveB" 0.051260229156208
"agg" -0.0200381792080313
"ave" -0.00154533592294589
"laveB" -0.0094905173906102
"agg" 0.0751231778107337
"ave" 0.00198370148610766
"laveB" 0.0282776176879142
"agg" -0.0414332817852027
"ave" -0.00379626549346802
"laveB" -0.0157561867052767
"agg" 0.0364252090236611
"ave" 0.00211537058378951
"laveB" 0.0032780903292623
"agg" 0.412385871898991
"ave" 0.0183108846111043
"laveB" 0.151870964942966
"agg" 0.54161261320828
"ave" 0.0266613960936816
"laveB" 0.232072231078361
"agg" 0.211720972262484
"ave" 0.0109652597848759
"laveB" 0.0918207584457197
"agg" 0.306564871421532
"ave" 0.0175092746260206
"laveB" 0.144684282253752
"agg" 0.323262249664058
"ave" 0.0126166329495369
"laveB" 0.10503819181497
"agg" 0.258330459505278
"ave" 0.0142296218605733
"laveB" 0.112431010488892
"agg" 0.1677072537681
"ave" 0.00379173940498082
"laveB" 0.0432969319583193
"agg" -0.0593455523131965
"ave" -0.00240157904166348
"laveB" -0.0172175951200196
"agg" 0.217495232766265
"ave" 0.0117784147174741
"laveB" 0.0934510550450853
"agg" 0.504217739795862
"ave" 0.0262810482848603
"laveB" 0.17822571898566
"agg" 0.351101574238289
"ave" 0.0114645419528627
"laveB" 0.0964563736359886
"agg" 0.456783744033265
"ave" 0.0136987853118901
"laveB" 0.116541790026636
"agg" 0.588931361215962
"ave" 0.0236087849860481
"laveB" 0.243371505504045
"agg" 0.455825710541455
"ave" 0.0218043335020501
"laveB" 0.183969032805566
"agg" 0.0414488532028872
"ave" 0.00216052158707472
"laveB" -0.00877091613468317
"agg" 0.401760564715308
"ave" 0.0103628352814818
"laveB" 0.092669504564383
"agg" 0.474054038016302
"ave" 0.010432147427527
"laveB" 0.109945655114133
"agg" 0.47919462007122
"ave" 0.0147022801265839
"laveB" 0.154508810014428
"agg" 0.377955766535839
"ave" 0.0123030206340911
"laveB" 0.10307969086901
"agg" 0.79258963436506
"ave" 0.0429235099550144
"laveB" 0.30299883914666
"agg" -0.0289587790921627
"ave" -0.00454877348294325
"laveB" -0.0314634422159492
"agg" 0.032231982119129
"ave" 0.000620062470096843
"laveB" 0.00226261181038408
"agg" 0.219537278351503
"ave" 0.00695576047978326
"laveB" 0.0786082053529324
"agg" 0.300773231827303
"ave" 0.00883280135302572
"laveB" 0.0629419091419011
"agg" 0.15108428233782
"ave" 0.00395551719587103
"laveB" 0.0312612056543345
"agg" 0.217623827729147
"ave" 0.00574223144215385
"laveB" 0.052068467868132
"agg" 0.0808268829343413
"ave" 0.00162475042161054
"laveB" 0.0138287581861036
"agg" 0.2474923013602
"ave" 0.00468249376615467
"laveB" 0.0526698048824914
"agg" 0.263679018789046
"ave" 0.00521262620823904
"laveB" 0.0631794987089627
"agg" 0.216668195334429
"ave" 0.00432995453261838
"laveB" 0.0320872860165799
"agg" 0.0958453013878801
"ave" 0.00311765470842078
"laveB" 0.0481756997169663
"agg" 0.0466001501316501
"ave" 0.00200988556073732
"laveB" 0.0151150769939324
"agg" 0.353019128458714
"ave" 0.0101316796402937
"laveB" 0.107192980253371
"agg" 0.439233159820433
"ave" 0.0142547221362721
"laveB" 0.144631398593276
"agg" 0.508701298945448
"ave" 0.0192505170196458
"laveB" 0.174832409446714
"agg" 0.58343227499278
"ave" 0.0236085077473559
"laveB" 0.231740344961575
"agg" 0.708799003635997
"ave" 0.0203410211858838
"laveB" 0.204929190731496
"agg" 0.530575588759674
"ave" 0.0178778384911695
"laveB" 0.164979129195582
"agg" 0.412804928191238
"ave" 0.00660851034238838
"laveB" 0.073514804565686
"agg" 0.224015278596627
"ave" 0.00344162637286287
"laveB" 0.0445439862311015
"agg" 0.379607545103491
"ave" 0.0113381666997887
"laveB" 0.0888599065822493
"agg" 0.370336395395883
"ave" 0.0109287838370168
"laveB" 0.0836748538535365
"agg" 0.480185266913233
"ave" 0.00945795554883924
"laveB" 0.0891527721320838
"agg" 0.350527694425168
"ave" 0.00574556980958008
"laveB" 0.0666914374138822
"agg" 0.266548802043341
"ave" 0.00629904944758657
"laveB" 0.0892712285259746
"agg" 0.315002926083545
"ave" 0.00842574596969963
"laveB" 0.0971266160101215
"agg" 0.146797159816177
"ave" 0.00294128465560881
"laveB" 0.0241242345053107
"agg" 0.322112565990768
"ave" 0.00491023828301796
"laveB" 0.0500877044040699
"agg" 0.479401300976842
"ave" 0.00760576983455813
"laveB" 0.107254925256524
"agg" 0.565447656614753
"ave" 0.0117752032344753
"laveB" 0.165637771263776
"agg" 0.398437708500509
"ave" 0.00862429455635037
"laveB" 0.0992999395111215
"agg" 0.108624922243279
"ave" 0.0071904388009599
"laveB" 0.0484746879141763
"agg" 0.249794459408328
"ave" 0.0223592591211003
"laveB" 0.120392751243195
"agg" 0.362518590908065
"ave" 0.0179869487175691
"laveB" 0.114296125758289
"agg" 0.439573925040617
"ave" 0.0214912315155536
"laveB" 0.138755241558591
"agg" -0.0109986326709192
"ave" -0.00184984172112286
"laveB" -0.0134392009400525
"agg" 0.146580002947534
"ave" 0.0051741880289275
"laveB" 0.0425428190483622
"agg" -0.129476474691113
"ave" -0.00478656000552076
"laveB" -0.0478064713725997
"agg" 0.22663249591822
"ave" 0.00616371359106582
"laveB" 0.0648797425081156
"agg" 0.273781081062489
"ave" 0.00840672494516448
"laveB" 0.0852317184867351
"agg" 0.255598898942892
"ave" 0.0082295456175443
"laveB" 0.0716949540366843
"agg" 0.0677162594988543
"ave" 0.00290760433752668
"laveB" 0.0369420440224905
"agg" 0.0410601527121685
"ave" 0.00241658284498192
"laveB" 0.0145482485867616
"agg" 0.427551936988896
"ave" 0.0195236062232775
"laveB" 0.174667030938301
"agg" 0.542089392227721
"ave" 0.0284833866805597
"laveB" 0.221089664915332
"agg" 0.43497007056242
"ave" 0.0253979520129073
"laveB" 0.183389620688259
"agg" 0.650502644460031
"ave" 0.0422833470904714
"laveB" 0.306446209630646
"agg" 0.636269097603813
"ave" 0.0264624205799455
"laveB" 0.209809137174127
"agg" 0.529783662082801
"ave" 0.0290796330763287
"laveB" 0.230789898213156
"agg" 0.43431011541694
"ave" 0.0114264070511818
"laveB" 0.106448413172611
"agg" 0.163004420603363
"ave" 0.00358767111867812
"laveB" 0.0588371499081548
"agg" 0.372473170202698
"ave" 0.0179272791330438
"laveB" 0.128027182393886
"agg" 0.476852081970436
"ave" 0.0249212116181182
"laveB" 0.160846986177811
"agg" 0.53775346511262
"ave" 0.0163185680761174
"laveB" 0.143554663759198
"agg" 0.509267110539634
"ave" 0.0148880660082807
"laveB" 0.123572961115085
"agg" 0.454398381206981
"ave" 0.0185592633499832
"laveB" 0.182647549629453
"agg" 0.489278250593282
"ave" 0.0238873061214137
"laveB" 0.200247028708786
"agg" 0.0998003055163056
"ave" 0.00385631046005538
"laveB" 0.0176142759399832
"agg" 0.487338211099625
"ave" 0.013284757218859
"laveB" 0.119932169407037
"agg" 0.572652436722636
"ave" 0.0138275456968985
"laveB" 0.147831485706618
"agg" 0.671458096934365
"ave" 0.0220743400197767
"laveB" 0.234896056763892
"agg" 0.549895043432258
"ave" 0.018809005576516
"laveB" 0.170589200394207
"agg" 0.76883811007659
"ave" 0.0591454795474861
"laveB" 0.395724603369252
"agg" 0.655763594258969
"ave" 0.0273525642634697
"laveB" 0.185037765847099
"agg" 0.668089197069758
"ave" 0.0288405536138295
"laveB" 0.216944207500585
"agg" -0.0400712902489873
"ave" -0.00212297177124294
"laveB" -0.0274654396491428
"agg" -0.0474559589126074
"ave" -0.00183481136173156
"laveB" -0.0200402801728791
"agg" 0.164370691966875
"ave" 0.00521837948229067
"laveB" 0.0436023802976251
"agg" 0.20627735058003
"ave" 0.00574888135463905
"laveB" 0.0536373400244333
"agg" -0.0206213602599914
"ave" -0.00073077039728477
"laveB" -0.0211994999998781
"agg" 0.0739459598636269
"ave" 0.00225129232701217
"laveB" 0.0222602592804572
"agg" -0.0542644475188652
"ave" -0.00385234885068034
"laveB" -0.0332251991248772
"agg" 0.138518034440775
"ave" 0.00945419935789407
"laveB" 0.0531380008543892
"agg" 0.368424530368626
"ave" 0.0156812823494593
"laveB" 0.137363208103849
"agg" 0.304683790000522
"ave" 0.0137802707745345
"laveB" 0.130371283886309
"agg" 0.0654798445531147
"ave" 0.00289409471879864
"laveB" 0.0227589371294442
"agg" 0.15438515484544
"ave" 0.00747370606434901
"laveB" 0.0646899931765259
"agg" 0.0487632886844851
"ave" 0.000576098403118344
"laveB" 0.00510535036492347
"agg" 0.122500518292759
"ave" 0.00603556295546912
"laveB" 0.046995726092796
"agg" 0.0937467708003566
"ave" 0.00200130051997063
"laveB" 0.0298901395070197
"agg" -0.0229881602095667
"ave" -0.00142079653294264
"laveB" 0.00313799661921853
"agg" 0.530003239102561
"ave" 0.0233436486636304
"laveB" 0.197378580819602
"agg" 0.504904072929925
"ave" 0.0237507945233234
"laveB" 0.178244202739927
"agg" 0.449028275527021
"ave" 0.0131477622323039
"laveB" 0.113449358087285
"agg" 0.382329240249566
"ave" 0.00996585542211782
"laveB" 0.0984540724652098
"agg" 0.505152756474455
"ave" 0.0197488017403344
"laveB" 0.207990081978384
"agg" 0.545220381892133
"ave" 0.0256328808947684
"laveB" 0.234502084735858
"agg" 0.204396403390758
"ave" 0.00403379195743364
"laveB" 0.0449287260938109
"agg" 0.419369942071878
"ave" 0.00992376576656559
"laveB" 0.094465355483282
"agg" 0.322076241511872
"ave" 0.00684405730319859
"laveB" 0.0704712186442341
"agg" 0.393533595619309
"ave" 0.010574426475354
"laveB" 0.10963417721938
"agg" 0.255783776321958
"ave" 0.00783259394519637
"laveB" 0.0788333291308279
"agg" 0.661774785385894
"ave" 0.0293873860998682
"laveB" 0.214419165753918
"agg" 0.722345989880052
"ave" 0.0322077938146188
"laveB" 0.244991852206608
"agg" -0.125392796547546
"ave" -0.00574159358263009
"laveB" -0.0663227332726618
"agg" -0.0846677133515063
"ave" -0.00343513290171694
"laveB" -0.040686267455109
"agg" 0.193467016153877
"ave" 0.00591638327252943
"laveB" 0.0636555160774173
"agg" 0.193474061876632
"ave" 0.00502836632583158
"laveB" 0.046931282554155
"agg" -0.120543618956052
"ave" -0.00418245039568529
"laveB" -0.0584256863037776
"agg" 0.0553731264992598
"ave" 0.00145695492003102
"laveB" 0.0204676543870044
"agg" -0.140150934080161
"ave" -0.0104054776691737
"laveB" -0.0812028042744831
"agg" 0.166499758137144
"ave" 0.0105594565944572
"laveB" 0.0609769287653671
"agg" 0.426159458833025
"ave" 0.0186357487893685
"laveB" 0.162778539088294
"agg" 0.455600433206159
"ave" 0.021748602291852
"laveB" 0.215572018514253
"agg" 0.0560708770756809
"ave" 0.00315273643616038
"laveB" 0.0229560676896236
"agg" 0.105645065991654
"ave" 0.00552649691101684
"laveB" 0.056215085779351
"agg" 0.0845413577685632
"ave" 0.00286305564390375
"laveB" 0.0252791414599624
"agg" 0.102881288089912
"ave" 0.00626281097995936
"laveB" 0.0548908827856983
"agg" 0.0189192026767462
"ave" 0.000146348543240411
"laveB" 0.00436431680653192
"agg" -0.154142341223338
"ave" -0.00488521288871652
"laveB" -0.0352950194795943
"agg" 0.328992129252828
"ave" 0.0150397851950522
"laveB" 0.126054964342723
"agg" 0.548148130006797
"ave" 0.0269386391397688
"laveB" 0.2163980870694
"agg" 0.311800807573291
"ave" 0.0102300626736901
"laveB" 0.0982774118956621
"agg" 0.430354119383159
"ave" 0.0120448780905494
"laveB" 0.132319582550754
"agg" 0.677859812001667
"ave" 0.0267533159237088
"laveB" 0.287115881789891
"agg" 0.56263817271897
"ave" 0.0268558592768823
"laveB" 0.268246588851567
"agg" 0.169363514549557
"ave" 0.00363180833735797
"laveB" 0.0223770774401558
"agg" 0.44162528118538
"ave" 0.0110745184387556
"laveB" 0.099860014585352
"agg" 0.41100840378554
"ave" 0.00883616811721693
"laveB" 0.105057824311705
"agg" 0.446686531316661
"ave" 0.0130556602512888
"laveB" 0.151227638765541
"agg" 0.330068129518685
"ave" 0.010624764013838
"laveB" 0.102855036680804
"agg" 0.870754281483327
"ave" 0.0234706870583503
"laveB" 0.198580074526444
"agg" -0.0712677978105852
"ave" -0.00147225664642575
"laveB" -0.00465283505752572
"agg" -0.0070489112926244
"ave" -0.000229864834244458
"laveB" 0.00830780873883323
"agg" 0.0500273973622198
"ave" 0.000644560288688218
"laveB" 0.00223165677178598
"agg" 0.160729998454072
"ave" 0.00237224688685988
"laveB" 0.0190384214988786
"agg" -0.0642459423290702
"ave" -0.00130234520600846
"laveB" -0.025566220510214
"agg" 0.084085409533689
"ave" 0.00187685417330152
"laveB" 0.0236963414319081
"agg" -0.135302482822552
"ave" -0.00583307533712342
"laveB" -0.0447987792725494
"agg" 0.164650718548463
"ave" 0.00619585058146466
"laveB" 0.0417242010329107
"agg" 0.611672151870399
"ave" 0.0153488008584449
"laveB" 0.135755632639078
"agg" 0.465897405968096
"ave" 0.0131575515694816
"laveB" 0.121153004414771
"agg" 0.186053234503434
"ave" 0.00679710218241915
"laveB" 0.059189598323351
"agg" 0.210313078947501
"ave" 0.0074223298954662
"laveB" 0.0574950875073857
"agg" 0.165698642689329
"ave" 0.00411178360307195
"laveB" 0.0491412880723653
"agg" 0.0773974216822959
"ave" 0.00276746091238349
"laveB" 0.00868738719170898
"agg" 0.0272025222799596
"ave" 0.000438955772048095
"laveB" -0.0159367436212792
"agg" -0.279915640222091
"ave" -0.00537577997352876
"laveB" -0.0573088653345375
"agg" 0.324407042440547
"ave" 0.00833764116374256
"laveB" 0.0816081485471587
"agg" 0.436101466476042
"ave" 0.0129379424974002
"laveB" 0.121932495317123
"agg" 0.38049588855705
"ave" 0.0074325673432514
"laveB" 0.0745292650912589
"agg" 0.316313660400578
"ave" 0.00546276669058763
"laveB" 0.0568768391608687
"agg" 0.676069021461259
"ave" 0.0155647466261252
"laveB" 0.177268306639635
"agg" 0.674153224087111
"ave" 0.0187349028642393
"laveB" 0.187042988403188
"agg" 0.46971484356097
"ave" 0.00591292097595454
"laveB" 0.0797366711290419
"agg" 0.534780295379286
"ave" 0.00823434009772541
"laveB" 0.0904706220844421
"agg" 0.57593133992003
"ave" 0.00789910176723157
"laveB" 0.0972682971053263
"agg" 0.613277502019064
"ave" 0.011092180844827
"laveB" 0.120745689607376
"agg" 0.470155688875072
"ave" 0.00925110534856175
"laveB" 0.084801915963871
"agg" 0.000886053698328752
"ave" 0.000151869005891877
"laveB" 0.000545015970933544
"agg" 0.0694832691388991
"ave" 0.00215671076889507
"laveB" 0.0150160764416845
"agg" 0.0608661144026756
"ave" 0.0008391928236962
"laveB" 0.0137116044203104
"agg" 0.200876383460071
"ave" 0.00300019291407303
"laveB" 0.0303138222592912
"agg" 0.00742686992463552
"ave" -0.000259662363611067
"laveB" -0.0155910426354497
"agg" 0.157870212135732
"ave" 0.00301490975477949
"laveB" 0.027817593847207
"agg" -0.0798293321149011
"ave" -0.00429181029736485
"laveB" -0.0302135864033299
"agg" 0.212611149057838
"ave" 0.00817004170680073
"laveB" 0.061476917452491
"agg" 0.605837991495162
"ave" 0.0155008971852314
"laveB" 0.165435805049561
"agg" 0.58618910808266
"ave" 0.016690512276711
"laveB" 0.158353172936977
"agg" 0.310305886732089
"ave" 0.0106965496892747
"laveB" 0.0929649559758799
"agg" 0.40198699347428
"ave" 0.0151547381518522
"laveB" 0.127065366696031
"agg" 0.320660747345753
"ave" 0.00770192908099466
"laveB" 0.0838068861420962
"agg" 0.252029360611682
"ave" 0.00805985094066985
"laveB" 0.0771237051904003
"agg" 0.20781358822058
"ave" 0.00312830086683923
"laveB" 0.022069852616729
"agg" -0.16952129696943
"ave" -0.00364858934051143
"laveB" -0.0343618454612987
"agg" 0.454317251180399
"ave" 0.0120354660792953
"laveB" 0.118609345230547
"agg" 0.598245632217228
"ave" 0.0174191440473683
"laveB" 0.143482112533307
"agg" 0.503631023502548
"ave" 0.0092899984900505
"laveB" 0.090894946345535
"agg" 0.454802315955527
"ave" 0.00773887021491844
"laveB" 0.0935262144715904
"agg" 0.650890276739956
"ave" 0.0148830419101929
"laveB" 0.190518173073168
"agg" 0.63312442131139
"ave" 0.0175500409172492
"laveB" 0.174231619920101
"agg" 0.336599328151961
"ave" 0.00430855535720142
"laveB" 0.046698467415624
"agg" 0.552455602118033
"ave" 0.00851289390515067
"laveB" 0.0836472044727691
"agg" 0.575272634325304
"ave" 0.00774203596233459
"laveB" 0.0946265894598054
"agg" 0.625149178217043
"ave" 0.011217283208314
"laveB" 0.127626400953838
"agg" 0.498842956737529
"ave" 0.00968430192251419
"laveB" 0.100568943408147
"agg" 0.620347792257912
"ave" 0.015809598311048
"laveB" 0.179824881154522
"agg" 0.089144335651642
"ave" 0.00184223257534925
"laveB" 0.0334312850177623
"agg" -0.0483506665255645
"ave" -0.000937233453062661
"laveB" -0.0169484037476258
"agg" 0.140155480139462
"ave" 0.00282453773558118
"laveB" 0.0427501955300086
"agg" 0.287743362185891
"ave" 0.00466315265362299
"laveB" 0.0538249378349631
"agg" 0.00382342671258876
"ave" 0.000297308189802759
"laveB" 0.0313416247469052
"agg" 0.0828679942113832
"ave" 0.00289668010225401
"laveB" 0.0132868299421979
"agg" -0.14826359292502
"ave" -0.003735068978101
"laveB" -0.0287088795589097
"agg" -0.275263907409482
"ave" -0.00784381632392365
"laveB" -0.0912904436380623
"agg" 0.265898040014707
"ave" 0.00785165278726984
"laveB" 0.0697510243502357
"agg" 0.310542623099123
"ave" 0.0111907056999781
"laveB" 0.0956230936389315
"agg" 0.349923821179823
"ave" 0.00834681528650247
"laveB" 0.0964870860040928
"agg" 0.463683445062387
"ave" 0.0129885629774532
"laveB" 0.135630593933132
"agg" 0.166440513291857
"ave" 0.00280295765431781
"laveB" 0.0373357109000448
"agg" 0.340359139881315
"ave" 0.00551548503654472
"laveB" 0.0782873758281964
"agg" 0.218128932949425
"ave" 0.00525387768767961
"laveB" 0.0526786516899814
"agg" 0.321323352603478
"ave" 0.00862818652609071
"laveB" 0.0646952536922023
"agg" 0.247090806881753
"ave" 0.00345933366398358
"laveB" 0.0388700400028562
"agg" 0.338250901513072
"ave" 0.00524303372626713
"laveB" 0.0743737989950838
"agg" -0.210960983165402
"ave" -0.00439714360253864
"laveB" -0.0662979447279124
"agg" -0.0328589788784567
"ave" -0.000796641703502675
"laveB" 0.00293251732780053
"agg" 0.225506157603758
"ave" 0.00222851595459567
"laveB" 0.030302676504328
"agg" 0.046043748155056
"ave" 0.000329585068785812
"laveB" 0.00814999883367567
"agg" 0.138523307158838
"ave" 0.00164298260454188
"laveB" 0.0301092851227172
"agg" -0.0200731549352
"ave" -0.000395753545636431
"laveB" -0.0106696718039442
"agg" -0.109525991208294
"ave" -0.000951533070221266
"laveB" -0.00998819231351478
"agg" 0.160963958818413
"ave" 0.00285476540182065
"laveB" 0.0445663433951448
"agg" 0.10134016189068
"ave" 0.00158194158361228
"laveB" 0.0227932916181658
"agg" 0.168859585822708
"ave" 0.00337267169547294
"laveB" 0.0526430870635922
"agg" 0.374636937145671
"ave" 0.00689739438138929
"laveB" 0.0883088778971886
"agg" -0.0397732923088014
"ave" -0.00136213380551206
"laveB" -9.07953063530621e-05
"agg" 0.231713432102645
"ave" 0.00832486177739857
"laveB" 0.0688716254459884
"agg" -0.129897897104002
"ave" -0.00332171659564445
"laveB" -0.0161478913070428
"agg" -0.135053580843718
"ave" -0.00402811472291515
"laveB" -0.0399677595507338
"agg" 0.291872502316652
"ave" 0.00950825527039381
"laveB" 0.100911356384642
"agg" 0.350229269716235
"ave" 0.0132392116621107
"laveB" 0.135222386661774
"agg" 0.480864285466973
"ave" 0.0118180339758591
"laveB" 0.140408912888463
"agg" 0.513077454629183
"ave" 0.0154713538190302
"laveB" 0.168319609369115
"agg" 0.167681979428593
"ave" 0.00306558050115498
"laveB" 0.0437752527502001
"agg" 0.213172550919824
"ave" 0.00345534046021834
"laveB" 0.0493584367967822
"agg" 0.280224694029061
"ave" 0.00716578344518671
"laveB" 0.0768422659449214
"agg" 0.389926035405691
"ave" 0.0110661238347365
"laveB" 0.105802987514931
"agg" 0.278530325361533
"ave" 0.00425287307687659
"laveB" 0.0658902552084955
"agg" 0.32230707929948
"ave" 0.00576243996368164
"laveB" 0.0574848402130739
"agg" -0.04169368138171
"ave" -0.000869940348153672
"laveB" -0.00792373558839195
"agg" 0.121258908848009
"ave" 0.00319039896549223
"laveB" 0.045039704987061
"agg" 0.264659968262456
"ave" 0.00298053186638321
"laveB" 0.0457346193854379
"agg" 0.237273358617339
"ave" 0.00317487599417476
"laveB" 0.0408271582605339
"agg" 0.223037725030636
"ave" 0.00259080716634823
"laveB" 0.0464685076026216
"agg" 0.104654754151658
"ave" 0.00151459844283538
"laveB" 0.0323221388302058
"agg" 0.11007987371512
"ave" 0.00269416936779958
"laveB" 0.0419664023536929
"agg" 0.406905324220868
"ave" 0.00478758212743708
"laveB" 0.0650789774242745
"agg" 0.0982825721345699
"ave" 0.00114641979991225
"laveB" 0.00359858873271763
"agg" 0.061588661683609
"ave" 0.000681769347025051
"laveB" 0.0157834876301379
"agg" 0.139974928533018
"ave" 0.00296446722330031
"laveB" 0.0687321810185332
"agg" 0.0955668385167717
"ave" 0.00217430359848114
"laveB" 0.0247917050088086
"agg" 0.121871296482341
"ave" 0.00217532125777873
"laveB" 0.0277101080964524
"agg" 0.137866003915554
"ave" 0.00270344715709649
"laveB" 0.0261758665726237
"agg" 0.0468224707783391
"ave" 0.000724300186665992
"laveB" 0.0344763664215161
"agg" 0.0322022351555382
"ave" -9.36016411603708e-05
"laveB" 0.00310815991052914
"agg" 0.148615565742961
"ave" 0.00268597400538857
"laveB" 0.0418693695171054
"agg" 0.157864936635283
"ave" 0.00271967612209693
"laveB" 0.0395289225068523
"agg" 0.0330112476989242
"ave" 3.5948028654547e-05
"laveB" -0.00504635023312463
"agg" -0.0167412240430626
"ave" -0.000567999048551206
"laveB" 0.0110653594196009
"agg" 0.21270910552222
"ave" 0.0035433364348634
"laveB" 0.0536908864131214
"agg" 0.115314469944744
"ave" 0.001964603753592
"laveB" 0.0358138964921711
"agg" 0.0583629989577491
"ave" 0.000520325587847376
"laveB" -0.00324064043905926
"agg" 0.0347936148000332
"ave" 0.000458072882680182
"laveB" -0.000727825644961199
"agg" 0.264133513476785
"ave" 0.00434280076011715
"laveB" 0.0697669860206055
"agg" 0.232805836428865
"ave" 0.00430814645980334
"laveB" 0.0658512762789254
"agg" 0.10952375322366
"ave" 0.000810007127192636
"laveB" 0.00222832918786986
"agg" 0.159659554161668
"ave" 0.001492486510676
"laveB" 0.0209490398470225
"agg" 0.083939933554673
"ave" 0.00076544648862198
"laveB" 0.0153194776218939
"agg" 0.118242199575607
"ave" 0.00119959712118948
"laveB" 0.0194713320846251
"agg" 0.156985108171505
"ave" 0.00195674430593241
"laveB" 0.0224073520542471
"agg" 0.318728019561773
"ave" 0.00398063383226621
"laveB" 0.0640666167719194
"agg" 0.357910442689373
"ave" 0.00382364075337639
"laveB" 0.078743806107049
"agg" 0.189175085655266
"ave" 0.00401476799522989
"laveB" 0.0623574267355041
"agg" 0.0924873253979496
"ave" 0.00114270375395831
"laveB" 0.0105830438046484
"agg" 0.231034727114326
"ave" 0.00341573501250325
"laveB" 0.0433767451026423
"agg" 0.333240022954418
"ave" 0.00591926920281604
"laveB" 0.0767779972325288
"agg" 0.139549455381269
"ave" 0.00280044534581862
"laveB" 0.0396919174049197
"agg" 0.306878327255461
"ave" 0.00685359718139847
"laveB" 0.0759832718141628
"agg" 0.345098612344245
"ave" 0.00542482762323647
"laveB" 0.0720487128548744
"agg" 0.301529576435881
"ave" 0.00566319466162157
"laveB" 0.0756127124574022
"agg" 0.280629251979693
"ave" 0.00267417515833689
"laveB" 0.0405619213161874
"agg" 0.0180349356195438
"ave" 8.12524363158152e-05
"laveB" 0.00265852839572118
"agg" 0.30307193960642
"ave" 0.0051027461105238
"laveB" 0.0624535819644582
"agg" 0.226235349510458
"ave" 0.00394129807755754
"laveB" 0.0377449379966629
"agg" 0.327581109408123
"ave" 0.00349791673413713
"laveB" 0.0503129792526209
"agg" 0.243723118006977
"ave" 0.00284371307743562
"laveB" 0.0396394966977226
"agg" 0.378067737645101
"ave" 0.00556805831992524
"laveB" 0.0827594188215343
"agg" 0.396049585954298
"ave" 0.00701136053352098
"laveB" 0.0998925952745616
"agg" 0.138999887457978
"ave" 0.0012993602032851
"laveB" 0.0155066354626866
"agg" 0.321273340861365
"ave" 0.0030027621085425
"laveB" 0.037851337959936
"agg" 0.279303710823416
"ave" 0.00237247348998717
"laveB" 0.0335894350557798
"agg" 0.368980180254574
"ave" 0.00410293666823336
"laveB" 0.0594357685126475
"agg" 0.37776323804568
"ave" 0.00440200491549402
"laveB" 0.0717999422383453
"agg" 0.501290516470753
"ave" 0.00678481067108539
"laveB" 0.11491758381304
"agg" 0.349700883535232
"ave" 0.00934764152453264
"laveB" 0.140046720662191
"agg" 0.078650689493589
"ave" 0.00170294137614499
"laveB" 0.0252779852317103
"agg" 0.00750392530156751
"ave" -4.76420782839521e-06
"laveB" 0.00345674992208133
"agg" 0.097791258908752
"ave" 0.00192841772837502
"laveB" 0.0141218850175454
"agg" 0.316716878044013
"ave" 0.00772994676325123
"laveB" 0.100472496209127
"agg" 0.481637970482113
"ave" 0.0136574874186383
"laveB" 0.182354578929648
"agg" 0.326811660318388
"ave" 0.00625535166279337
"laveB" 0.0804837273934846
"agg" 0.400765811181576
"ave" 0.00910730192022493
"laveB" 0.113214944919101
"agg" 0.432604649690851
"ave" 0.00486312704112576
"laveB" 0.0720156648812562
"agg" 0.345425868464756
"ave" 0.00420369714305813
"laveB" 0.0742328831160697
"agg" 0.247293575629734
"ave" 0.00503937376607408
"laveB" 0.0519608414045241
"agg" 0.155997001076936
"ave" 0.0032704930143349
"laveB" 0.0301239083932823
"agg" 0.372670440511816
"ave" 0.00435354208385162
"laveB" 0.0487282046363037
"agg" 0.279855771313749
"ave" 0.00314306434952111
"laveB" 0.0351351058668993
"agg" 0.0581014877732535
"ave" 0.00102053780695904
"laveB" 0.00934494051238787
"agg" 0.141896385122227
"ave" 0.00305372961981493
"laveB" 0.0383665103905689
"agg" -0.00702501761941252
"ave" 0.000417098726271155
"laveB" -0.000303805952090761
"agg" 0.0886316492657578
"ave" 0.00118560201993856
"laveB" 0.0155702007218767
"agg" 0.193922039691333
"ave" 0.00206932636695496
"laveB" 0.0263561418277984
"agg" 0.317909083628344
"ave" 0.0042419529152409
"laveB" 0.0696235826912585
"agg" 0.199350679583229
"ave" 0.00278038387274803
"laveB" 0.0382461071061236
"agg" 0.225984165231281
"ave" 0.00558053850432625
"laveB" 0.0822039692639097
"agg" 0.395305117025683
"ave" 0.00960420750590594
"laveB" 0.109650218701215
"agg" -0.00414056849272723
"ave" 0.000190914102570236
"laveB" -0.00688292772022557
"agg" 0.0523480164111978
"ave" 0.00113438056860121
"laveB" 0.00942180265530817
"agg" 0.357545270392159
"ave" 0.0083216851840199
"laveB" 0.0951738490957926
"agg" 0.402152062245071
"ave" 0.0108094045283684
"laveB" 0.12058869511598
"agg" 0.429396042500404
"ave" 0.00730364691887301
"laveB" 0.0982806110847819
"agg" 0.470547135448295
"ave" 0.0100282596865001
"laveB" 0.12208159555567
"agg" 0.25977372708445
"ave" 0.00309785032226614
"laveB" 0.0516961620249561
"agg" 0.183318052969888
"ave" 0.00196744219679408
"laveB" 0.0415367890840055
"agg" 0.299839386341761
"ave" 0.00551755820450933
"laveB" 0.0700946029327107
"agg" 0.291609531908567
"ave" 0.00598177465806394
"laveB" 0.0700290053320566
"agg" 0.445289383924263
"ave" 0.00503733975460451
"laveB" 0.0706924611553334
"agg" 0.366471848056953
"ave" 0.00438979481912416
"laveB" 0.0579359462873676
"agg" 0.183547664453342
"ave" 0.00296332442364657
"laveB" 0.0604433322779367
"agg" 0.268208748755537
"ave" 0.00541582778225845
"laveB" 0.0787920769695041
"agg" 0.273145184161637
"ave" 0.00245397266756066
"laveB" 0.0414923642254428
"agg" 0.203986837732763
"ave" 0.00227332197140037
"laveB" 0.0341948520655758
"agg" 0.273867638427487
"ave" 0.00248263349910547
"laveB" 0.0406075427996633
"agg" 0.300204200244184
"ave" 0.00369034368026067
"laveB" 0.0605053227399644
"agg" 0.241794956849471
"ave" 0.00359581725302676
"laveB" 0.0572790138991481
"agg" 0.0722879363272027
"ave" 0.00272086382453028
"laveB" 0.0569759501061064
"agg" -0.0244309777643587
"ave" -0.00170576999953935
"laveB" 0.00334942473885069
"agg" 0.0144440942340894
"ave" -0.000338715762599573
"laveB" 0.00822292842109285
"agg" 0.176524981688013
"ave" 0.00788595468590447
"laveB" 0.118915809816346
"agg" 0.198156458887294
"ave" 0.0100463260969854
"laveB" 0.141634727861434
"agg" 0.137625725407088
"ave" 0.0048688697392504
"laveB" 0.0780336704785155
"agg" 0.18827133919104
"ave" 0.00766513460006981
"laveB" 0.105087813615617
"agg" 0.254156039546848
"ave" 0.00554882818103876
"laveB" 0.0766539832761095
"agg" 0.173113573701754
"ave" 0.00429651705830515
"laveB" 0.0645007026786749
"agg" 0.109366617496322
"ave" 0.00379756147354382
"laveB" 0.0519162510149942
"agg" -0.0229467675530311
"ave" -0.00173584885829415
"laveB" -0.00490038286906007
"agg" 0.206630947352801
"ave" 0.00385055154162956
"laveB" 0.0491114964052103
"agg" 0.0466311241214348
"ave" 0.000401694091327188
"laveB" 0.0066185657569144
"agg" -0.0368810047874415
"ave" -0.00179392356270111
"laveB" -0.00069206661582046
"agg" 0.0125766998727316
"ave" 4.79939678063438e-06
"laveB" 0.0278083124054936
"agg" -0.0153902481007195
"ave" -5.18014272682886e-05
"laveB" 0.00816563553985737
"agg" 0.0130900445345122
"ave" 0.000286966197417736
"laveB" 0.00798325862306314
"agg" -0.0475111210640949
"ave" -0.000959419658366994
"laveB" 0.00161914599014993
"agg" 0.0954477633257946
"ave" 0.00246275820968793
"laveB" 0.0547639928444684
"agg" 0.119713077643437
"ave" 0.00189888306741067
"laveB" 0.0423128652811801
"agg" 0.136250457820992
"ave" 0.00489247471527578
"laveB" 0.0362166926540655
"agg" -0.0878943337172484
"ave" -0.00429212930292508
"laveB" -0.0392401094816677
"agg" 0.0401379135617211
"ave" 0.00193928111332344
"laveB" 0.018512030677032
"agg" 0.0698280470868279
"ave" 0.00347116844450903
"laveB" 0.0351817880360182
"agg" 0.13365499221847
"ave" 0.00377383735052697
"laveB" 0.0400132375028953
"agg" 0.1275463675884
"ave" 0.00561468903930915
"laveB" 0.0593596645056704
"agg" 0.0184512677079506
"ave" 0.000930637650187106
"laveB" 0.0156431267931842
"agg" -0.06979184647538
"ave" -0.00218270169765438
"laveB" 0.00508847977649816
"agg" 0.119040461050234
"ave" 0.0040170061914811
"laveB" 0.0473516472377664
"agg" 0.116110650785646
"ave" 0.00445987446549633
"laveB" 0.030783979171783
"agg" 0.115915699715131
"ave" 0.00262971534939917
"laveB" 0.0258490320692404
"agg" 0.0865030074565147
"ave" 0.00263045445960201
"laveB" 0.0232608667336371
"agg" 0.14692759235752
"ave" 0.00460644761156753
"laveB" 0.0493624145558077
"agg" 0.105155137660718
"ave" 0.00396116849224439
"laveB" 0.0384110015000051
"agg" 0.171838828750303
"ave" 0.00264344880871981
"laveB" 0.0205814186499876
"agg" 0.15639245016516
"ave" 0.00305520362668156
"laveB" 0.0257964017889024
"agg" 0.121180205395503
"ave" 0.00217138329446216
"laveB" 0.0189544882928065
"agg" 0.0767388041870126
"ave" 0.00145732113753229
"laveB" 0.0162928738044499
"agg" 0.174156736620786
"ave" 0.00437736202861448
"laveB" 0.0486652708935311
"agg" 0.567534188183037
"ave" 0.015778082127061
"laveB" 0.199024464274952
"agg" 0.150508237449163
"ave" 0.00497790283028619
"laveB" 0.0648619701769478
"agg" 0.24015718417348
"ave" 0.00851867561417224
"laveB" 0.116207820288417
"agg" 0.187296389794383
"ave" 0.0043474216969739
"laveB" 0.0523481797900829
"agg" 0.0299030273731228
"ave" 0.0013280071085081
"laveB" 0.0297835351446739
"agg" 0.0804623061833896
"ave" 0.00125469699331568
"laveB" 0.0301646827980746
"agg" -0.332268450061671
"ave" -0.00595339781670299
"laveB" -0.0645923843376842
"agg" 0.215041934759266
"ave" 0.006164119348198
"laveB" 0.0663752845157228
"agg" 0.250451335283337
"ave" 0.00770426773892443
"laveB" 0.0784569290468679
"agg" 0.295304889218409
"ave" 0.00581661846608353
"laveB" 0.0754064943341304
"agg" 0.159541814580626
"ave" 0.00317374392589139
"laveB" 0.0437271345064011
"agg" 0.648799460709232
"ave" 0.0141622235657601
"laveB" 0.198572380322716
"agg" 0.576173507188091
"ave" 0.0154461388657448
"laveB" 0.197394823629797
"agg" 0.318033364800238
"ave" 0.00371839355641987
"laveB" 0.0480923353504127
"agg" 0.470760110006998
"ave" 0.00738465554069629
"laveB" 0.0898596293403184
"agg" 0.534956207757686
"ave" 0.00701302014598449
"laveB" 0.103233925533938
"agg" 0.570320329004142
"ave" 0.0102263613213317
"laveB" 0.149894989396748
"agg" 0.550373813798844
"ave" 0.0100257628979718
"laveB" 0.127165121754275
"agg" 0.301171467995782
"ave" 0.0116238344253211
"laveB" 0.135613932747108
"agg" 0.404638907874096
"ave" 0.0165150264608864
"laveB" 0.194498831259685
"agg" 0.32745264527048
"ave" 0.00862623037882996
"laveB" 0.107966665237332
"agg" 0.151974506613164
"ave" 0.0052331347853031
"laveB" 0.055736526327678
"agg" 0.308436786801563
"ave" 0.00502911189100153
"laveB" 0.0724989046880867
"agg" -0.193757622840535
"ave" -0.00414275201449761
"laveB" -0.0586562507456415
"agg" 0.295632875578587
"ave" 0.00910825044108995
"laveB" 0.110305715528865
"agg" 0.315464035436422
"ave" 0.010412726552583
"laveB" 0.115091473117565
"agg" 0.437733863538454
"ave" 0.00912847154499282
"laveB" 0.0979555775154627
"agg" 0.306052234723529
"ave" 0.00600976668779595
"laveB" 0.0792569583759617
"agg" 0.648193899716385
"ave" 0.0160090161405957
"laveB" 0.22561142711343
"agg" 0.582715632222052
"ave" 0.0177216605283388
"laveB" 0.209715432206775
"agg" 0.1469056255578
"ave" 0.00247613833396503
"laveB" 0.0294945592656857
"agg" 0.487152106345459
"ave" 0.00827877448400506
"laveB" 0.109088170362756
"agg" 0.502118531008675
"ave" 0.00753061138169166
"laveB" 0.102127955101481
"agg" 0.649230423315342
"ave" 0.0134057526454721
"laveB" 0.193528803222208
"agg" 0.584154939314032
"ave" 0.0120251754551386
"laveB" 0.150140445490835
"agg" 0.591999187073651
"ave" 0.0294044871971975
"laveB" 0.273725832924905
"agg" 0.658898177779054
"ave" 0.0213839826998397
"laveB" 0.217653595883147
"agg" 0.531756171786979
"ave" 0.0206008193219541
"laveB" 0.209535024513702
"agg" 0.340757704327615
"ave" 0.00695668466011422
"laveB" 0.073889727671196
"agg" 0.249075397079965
"ave" 0.00467797558776276
"laveB" 0.0478129871579649
"agg" 0.350204233898419
"ave" 0.0124391899094804
"laveB" 0.113578147102621
"agg" 0.317742328073016
"ave" 0.0118542377123098
"laveB" 0.0893374960392624
"agg" 0.45841906649998
"ave" 0.00993999093857509
"laveB" 0.100999713736031
"agg" 0.312166137621848
"ave" 0.00649293032095545
"laveB" 0.0633101473011002
"agg" 0.103210761577354
"ave" 0.00295981785824093
"laveB" 0.0482584397544259
"agg" 0.25504650257685
"ave" 0.00902356957930215
"laveB" 0.0981125467710102
"agg" 0.0511244335732355
"ave" 0.00148036538785882
"laveB" 0.0152564589992026
"agg" 0.259168651715817
"ave" 0.00495240076486293
"laveB" 0.0485692515652984
"agg" 0.252987567662168
"ave" 0.00426118121102586
"laveB" 0.0544420755755657
"agg" 0.318922197512864
"ave" 0.00765246227448118
"laveB" 0.106015428255382
"agg" 0.255276540477517
"ave" 0.00680742117274184
"laveB" 0.0814810596522258
"agg" 0.725265084296905
"ave" 0.0258503923549292
"laveB" 0.266957500653086
"agg" 0.737819510065787
"ave" 0.032866168439654
"laveB" 0.325281191537019
"agg" 0.67573500868315
"ave" 0.0153511447967971
"laveB" 0.182529112992599
"agg" 0.416951380518291
"ave" 0.00979656248179504
"laveB" 0.128380710107248
"agg" 0.544015932053386
"ave" 0.0206680261388348
"laveB" 0.213107355099196
"agg" 0.551771997229336
"ave" 0.0227895229290913
"laveB" 0.205422036577613
"agg" 0.694713476580951
"ave" 0.0165475900078377
"laveB" 0.194369804409728
"agg" 0.596233078239996
"ave" 0.0137956905212407
"laveB" 0.143571819782097
"agg" 0.248295254672343
"ave" 0.00742416154706652
"laveB" 0.0991706533611317
"agg" 0.44020263613404
"ave" 0.0170421396706229
"laveB" 0.187315593296294
"agg" 0.0638132824701109
"ave" 0.00193651574333864
"laveB" 0.00469785310598608
"agg" 0.478009898737651
"ave" 0.0104535253662109
"laveB" 0.12528935498734
"agg" 0.433415524522111
"ave" 0.00850756334595116
"laveB" 0.102052179271517
"agg" 0.587767930360224
"ave" 0.0155518488225368
"laveB" 0.220555405295177
"agg" 0.469608503968285
"ave" 0.013388630123349
"laveB" 0.166824044032759
"agg" 0.815715055771074
"ave" 0.0238835283978599
"laveB" 0.273398626188987
"agg" 0.56568579109257
"ave" 0.00854464825977674
"laveB" 0.105356637113406
"agg" 0.392605748954762
"ave" 0.00597276236280905
"laveB" 0.0855340116205478
"agg" 0.600997699596428
"ave" 0.0151369354408071
"laveB" 0.172674418599521
"agg" 0.565546231283003
"ave" 0.0149049533477387
"laveB" 0.152356777946457
"agg" 0.606234896189041
"ave" 0.00919461282333741
"laveB" 0.121041381118567
"agg" 0.508180424434097
"ave" 0.00782594987074603
"laveB" 0.092577875851574
"agg" 0.218681772446988
"ave" 0.00449715366219417
"laveB" 0.0753075564263855
"agg" 0.365536288202129
"ave" 0.00900496365961248
"laveB" 0.107913603952059
"agg" 0.173838317423736
"ave" 0.00264197157700921
"laveB" 0.0188603239409173
"agg" 0.396356154599165
"ave" 0.00529212363633379
"laveB" 0.0691190658983705
"agg" 0.429098081898921
"ave" 0.00566639867135243
"laveB" 0.0828771222953093
"agg" 0.47503324820822
"ave" 0.008157084877896
"laveB" 0.121182007504482
"agg" 0.399998412752032
"ave" 0.00763216342257931
"laveB" 0.106775421480714
"agg" 0.708929528784207
"ave" 0.0129559415040815
"laveB" 0.171155906949374
"agg" 0.632162415843043
"ave" 0.0120500086296391
"laveB" 0.159103962969666
"agg" 0.724010076883277
"ave" 0.0222030250506666
"laveB" 0.237456947601706
"agg" 0.723194573916069
"ave" 0.0244835997169763
"laveB" 0.217378551383524
"agg" 0.678512174847767
"ave" 0.0127529337342581
"laveB" 0.14539491518877
"agg" 0.709568907654707
"ave" 0.0135088270136933
"laveB" 0.164570231645156
"agg" 0.175055592038452
"ave" 0.00493667437309871
"laveB" 0.0828300972168879
"agg" 0.386355681331934
"ave" 0.0126666491105608
"laveB" 0.150910451500518
"agg" 0.107342355198532
"ave" 0.00213357166066006
"laveB" 0.011687723320187
"agg" 0.425002691584511
"ave" 0.00744576018432395
"laveB" 0.0901883795870312
"agg" 0.375066294068625
"ave" 0.00613093753785279
"laveB" 0.0940759072319119
"agg" 0.454918549062219
"ave" 0.0100880564694294
"laveB" 0.149175310055456
"agg" 0.355381134880646
"ave" 0.00876230217668032
"laveB" 0.11105491817011
"agg" 0.589851093129664
"ave" 0.0055292442519169
"laveB" 0.0912357363943321
"agg" 0.619571491110178
"ave" 0.00931883337011098
"laveB" 0.114544348179085
"agg" 0.508052449304241
"ave" 0.00843871554159581
"laveB" 0.0935585238024818
"agg" 0.613445839589956
"ave" 0.00583728302846854
"laveB" 0.0631424358631384
"agg" 0.582548422680991
"ave" 0.0055122110931347
"laveB" 0.0720890651102787
"agg" 0.139833893341568
"ave" 0.00180267828765204
"laveB" 0.0311128041122929
"agg" 0.282851259927373
"ave" 0.00465995734066421
"laveB" 0.0653957585914669
"agg" -0.0573097465724311
"ave" 0.000183561937865263
"laveB" -0.0112132731578644
"agg" 0.3188698957515
"ave" 0.00294115519895687
"laveB" 0.0412943921974343
"agg" 0.275454972420025
"ave" 0.00239975488110715
"laveB" 0.0405110758910059
"agg" 0.438575866523181
"ave" 0.00479448266048584
"laveB" 0.0818342689713332
"agg" 0.287411957200444
"ave" 0.00358882152415382
"laveB" 0.056722445374072
"agg" 0.521849358147346
"ave" 0.00800060457882724
"laveB" 0.108888840821936
"agg" 0.386605127907169
"ave" 0.00631054223874678
"laveB" 0.0821323089774375
"agg" 0.37781769928227
"ave" 0.00325441152427465
"laveB" 0.0496583049285938
"agg" 0.461141822625844
"ave" 0.00414722402439106
"laveB" 0.0488575296743749
"agg" -0.281249663053871
"ave" -0.00462471030695768
"laveB" -0.0625411114712754
"agg" -0.0929650508035821
"ave" -0.00247274689994588
"laveB" -0.00194031188177592
"agg" -0.18948192233951
"ave" -0.00139589095033083
"laveB" -0.0182747666254481
"agg" -0.0407443176011815
"ave" -0.000897682221251752
"laveB" 0.00628361668981449
"agg" -0.0132852372606431
"ave" -0.000228422510290436
"laveB" 0.00605162425592902
"agg" 0.0585081781778196
"ave" 0.000233864669060193
"laveB" 0.00503114704522515
"agg" -0.164321770961271
"ave" -0.00204640239280506
"laveB" -0.00311067384977461
"agg" 0.759836626064272
"ave" 0.0216595148715191
"laveB" 0.204707387963072
"agg" 0.78762070328383
"ave" 0.0132718565976164
"laveB" 0.152132998779558
"agg" 0.675032749066237
"ave" 0.0105999528486825
"laveB" 0.12390744856454
"agg" 0.338385952310076
"ave" 0.00814635862748424
"laveB" 0.112436678484567
"agg" 0.542019743247504
"ave" 0.0154864564058143
"laveB" 0.173729036387675
"agg" 0.188316603446078
"ave" 0.00255877708579732
"laveB" 0.0210979796599591
"agg" 0.459188598751052
"ave" 0.0067775287283901
"laveB" 0.0908261868942485
"agg" 0.40521783522204
"ave" 0.00587955829589002
"laveB" 0.0830003821869955
"agg" 0.492571108922737
"ave" 0.0090818477984912
"laveB" 0.13327376585115
"agg" 0.371816347145873
"ave" 0.00791000180450193
"laveB" 0.0997195933171064
"agg" 0.698928099539001
"ave" 0.0132829086637621
"laveB" 0.132072341436104
"agg" 0.85383024756939
"ave" 0.0154775341793246
"laveB" 0.166907058474192
"agg" 0.427574266634849
"ave" 0.0112698380813983
"laveB" 0.151200832499433
"agg" 0.540256911112393
"ave" 0.0171579568687733
"laveB" 0.17555963846029
"agg" 0.218866785937049
"ave" 0.00353903304042776
"laveB" 0.0398370895033653
"agg" 0.51067760469289
"ave" 0.00838761715957211
"laveB" 0.0834912911907296
"agg" 0.519051373524462
"ave" 0.00776671528869559
"laveB" 0.0990785969766011
"agg" 0.562443065707716
"ave" 0.0113757955108273
"laveB" 0.136773057548016
"agg" 0.386656839161249
"ave" 0.00937597033422794
"laveB" 0.107303016999164
"agg" 0.711244172108425
"ave" 0.00768312205681654
"laveB" 0.0920722188882094
"agg" 0.444145377762305
"ave" 0.00757686563548457
"laveB" 0.109685507678836
"agg" 0.651611919324387
"ave" 0.0126602770187069
"laveB" 0.167621689897575
"agg" 0.237123912870147
"ave" 0.00246214261606362
"laveB" 0.0255896627618041
"agg" 0.580227621851329
"ave" 0.00575857122392159
"laveB" 0.0688416281851337
"agg" 0.519874067926239
"ave" 0.00509656479587423
"laveB" 0.0722579408531098
"agg" 0.657396449435213
"ave" 0.00846927827435831
"laveB" 0.132605379026707
"agg" 0.486189910497578
"ave" 0.00674218549259725
"laveB" 0.0880948398612801
"agg" 0.433163413298581
"ave" 0.00680036521312824
"laveB" 0.10921152966528
"agg" 0.553110821745274
"ave" 0.0102335881033911
"laveB" 0.133564751637706
"agg" 0.204796616202774
"ave" 0.00214185636007471
"laveB" 0.0257123392407192
"agg" 0.514425104515331
"ave" 0.00512677242879473
"laveB" 0.077701042675353
"agg" 0.550987314823841
"ave" 0.00488716093167906
"laveB" 0.0742265515590804
"agg" 0.592224814820199
"ave" 0.00694363606277573
"laveB" 0.124653625724509
"agg" 0.376150708531351
"ave" 0.00547907206899393
"laveB" 0.0798785200640855
"agg" 0.870105223701707
"ave" 0.0214071617592218
"laveB" 0.316283246869542
"agg" 0.474639006201804
"ave" 0.00539219310340593
"laveB" 0.0833541113300719
"agg" 0.722026415493684
"ave" 0.00991094463380103
"laveB" 0.141513750978241
"agg" 0.704734184060851
"ave" 0.00833192452900811
"laveB" 0.158929295709548
"agg" 0.745285360106603
"ave" 0.0117765426301616
"laveB" 0.204387914717311
"agg" 0.682217959901267
"ave" 0.0112184549402183
"laveB" 0.177476751544447
"agg" 0.443506165435921
"ave" 0.00623696608282478
"laveB" 0.0906592306928113
"agg" 0.780855113216488
"ave" 0.01290852771253
"laveB" 0.171378427407116
"agg" 0.684893240280471
"ave" 0.00982389520493554
"laveB" 0.157140738530169
"agg" 0.797340409628039
"ave" 0.0154461127780649
"laveB" 0.239392856288862
"agg" 0.72721104937953
"ave" 0.0149937358304293
"laveB" 0.200964268054022
"agg" 0.422563308357852
"ave" 0.00332361186112473
"laveB" 0.0510801172838719
"agg" 0.540521885339748
"ave" 0.00356792187370049
"laveB" 0.0753983435683816
"agg" 0.352961364956974
"ave" 0.00336995126095845
"laveB" 0.0746565837342719
"agg" 0.286066629632314
"ave" 0.00319531317034919
"laveB" 0.0468683082587372
"agg" 0.647631111403011
"ave" 0.00516261148253487
"laveB" 0.0799460523810704
"agg" 0.664689593687718
"ave" 0.007233506447243
"laveB" 0.111302123398306
"agg" 0.642947944802426
"ave" 0.00718656227213878
"laveB" 0.107184979591309
"agg" 0.784298752877688
"ave" 0.00759872279383654
"laveB" 0.145850463975986
"agg" 0.633979345761664
"ave" 0.00659168893356593
"laveB" 0.111819054875933
"agg" 0.718140293197291
"ave" 0.01002419053105
"laveB" 0.166228010030295
