"EST" "CORR"
"agg" 0.944794221010276
"ave" 0.0869537937073032
"laveB" 0.450435034998876
"agg" 0.924110793619735
"ave" 0.112233289347864
"laveB" 0.474640935194308
"agg" 0.917094750441984
"ave" 0.111482433286462
"laveB" 0.501196347431679
"agg" 0.852982727991359
"ave" 0.0498651536916128
"laveB" 0.297196169787148
"agg" 0.895248313073352
"ave" 0.0517186426136368
"laveB" 0.350841898650191
"agg" 0.802637817516741
"ave" 0.0967815374227743
"laveB" 0.468871070023422
"agg" 0.791266141220338
"ave" 0.0864134181847752
"laveB" 0.453289922425277
"agg" 0.823019580423152
"ave" 0.0882347873275231
"laveB" 0.443296999527554
"agg" 0.823774987639512
"ave" 0.0863698437526436
"laveB" 0.458087402917921
"agg" 0.60331452068301
"ave" 0.0455813137766479
"laveB" 0.26889263437212
"agg" 0.458301406465714
"ave" 0.0426401108626542
"laveB" 0.241515135680268
"agg" 0.654714928965262
"ave" 0.0545172107163299
"laveB" 0.300029381329039
"agg" 0.681127173737597
"ave" 0.0591201889091714
"laveB" 0.310021848600193
"agg" 0.528450963072582
"ave" 0.0531226894204361
"laveB" 0.2553983112394
"agg" 0.601169644648068
"ave" 0.0647729846531609
"laveB" 0.315844927303478
"agg" 0.692899455705595
"ave" 0.0535239766987037
"laveB" 0.299039491510225
"agg" 0.660115092064865
"ave" 0.0533047872538521
"laveB" 0.296858991797836
"agg" 0.729408925248768
"ave" 0.071791860768815
"laveB" 0.406587595176934
"agg" 0.774188821989008
"ave" 0.0893844439442704
"laveB" 0.442654207171244
"agg" 0.432474681416907
"ave" 0.0184554908940878
"laveB" 0.144510988615768
"agg" 0.429717786006174
"ave" 0.0199814861122222
"laveB" 0.169450567254071
"agg" 0.253995075152188
"ave" 0.0105108836778976
"laveB" 0.0930920091448565
"agg" 0.335926817856723
"ave" 0.0184115041630298
"laveB" 0.127732925207733
"agg" -0.0223977924193026
"ave" -0.00216276976230931
"laveB" 0.00354764636255062
"agg" 0.410439094668457
"ave" 0.024993213456751
"laveB" 0.165082851502688
"agg" 0.206680992461219
"ave" 0.0122702126498246
"laveB" 0.091005840475097
"agg" 0.29326674278054
"ave" 0.0233309749766832
"laveB" 0.120201173930531
"agg" 0.67362060186248
"ave" 0.0461994834727176
"laveB" 0.316387364567041
"agg" 0.587614698317499
"ave" 0.0472273725344147
"laveB" 0.281070048015441
"agg" 0.803013626631879
"ave" 0.0594605808019461
"laveB" 0.3898086884199
"agg" 0.80512239434224
"ave" 0.0679198000692741
"laveB" 0.402710477159767
"agg" 0.594894020863646
"ave" 0.0220760660628056
"laveB" 0.208913220360085
"agg" 0.691016931712686
"ave" 0.0311027084253383
"laveB" 0.289029843363647
"agg" 0.767216467790802
"ave" 0.0508794156725083
"laveB" 0.34689991721107
"agg" 0.75670612100853
"ave" 0.0618783502657896
"laveB" 0.345386907800551
"agg" 0.557178899063214
"ave" 0.0220327244732864
"laveB" 0.145263943808249
"agg" 0.653961913371478
"ave" 0.0252289359708069
"laveB" 0.148145362947865
"agg" 0.322283225013349
"ave" 0.0147904218785735
"laveB" 0.118494851555965
"agg" 0.231892262654793
"ave" 0.00962837016458077
"laveB" 0.0780969557444943
"agg" 0.349117280551606
"ave" 0.0101889688848853
"laveB" 0.078201747928235
"agg" 0.173963413295551
"ave" 0.00690770426171593
"laveB" 0.0639977749937511
"agg" 0.363417372400947
"ave" 0.0158276803767569
"laveB" 0.13623465349679
"agg" 0.436044533880889
"ave" 0.0169425538385015
"laveB" 0.144129390009984
"agg" 0.298233213016018
"ave" 0.0127409234496255
"laveB" 0.0777082456854582
"agg" 0.883226317611644
"ave" 0.0980551380546687
"laveB" 0.442043860499113
"agg" 0.897283964411138
"ave" 0.100003130386355
"laveB" 0.450992854845567
"agg" 0.848550838340826
"ave" 0.044970647644444
"laveB" 0.30172340892797
"agg" 0.890582219371097
"ave" 0.0474282387457442
"laveB" 0.313456558467114
"agg" 0.745052371332703
"ave" 0.0835614777081435
"laveB" 0.409854854026448
"agg" 0.750732756546324
"ave" 0.0763523368088195
"laveB" 0.409118540724963
"agg" 0.807755249960933
"ave" 0.0790830420809631
"laveB" 0.424499282036853
"agg" 0.8297282474287
"ave" 0.0795587813482491
"laveB" 0.43038120183374
"agg" 0.558936139327846
"ave" 0.0397325678823086
"laveB" 0.221828292105548
"agg" 0.466981482225611
"ave" 0.0412541829280027
"laveB" 0.22663163668529
"agg" 0.592247331095334
"ave" 0.044587785812281
"laveB" 0.252995109995494
"agg" 0.655079823213863
"ave" 0.0523646821257959
"laveB" 0.275514588633092
"agg" 0.576172214505369
"ave" 0.0534671709539777
"laveB" 0.279004515415439
"agg" 0.61021832666522
"ave" 0.0610640224609877
"laveB" 0.307609212599036
"agg" 0.727708740702679
"ave" 0.0511534062281599
"laveB" 0.307094819334124
"agg" 0.717059815291258
"ave" 0.0525093920579698
"laveB" 0.301829462043742
"agg" 0.630475401523292
"ave" 0.0579085095637696
"laveB" 0.336321677436979
"agg" 0.704654768787787
"ave" 0.0758680530808336
"laveB" 0.404262071865096
"agg" 0.481949068439502
"ave" 0.0189261864099353
"laveB" 0.163212247657857
"agg" 0.489454571460123
"ave" 0.0203959472028133
"laveB" 0.181219985203402
"agg" 0.338095660082004
"ave" 0.0121066333048799
"laveB" 0.11050384509686
"agg" 0.41398728721096
"ave" 0.0212430077408173
"laveB" 0.163845400678859
"agg" -0.0293144815887269
"ave" -0.00188939219922605
"laveB" 0.00474763642156792
"agg" 0.466162138776692
"ave" 0.0262836562066769
"laveB" 0.178274722487236
"agg" 0.326615262857651
"ave" 0.0174026328222666
"laveB" 0.136186915013144
"agg" 0.419418860800404
"ave" 0.0295282331853627
"laveB" 0.175086342854295
"agg" 0.697934586639309
"ave" 0.0442765425447009
"laveB" 0.304185268268521
"agg" 0.636291451934562
"ave" 0.0481430915633491
"laveB" 0.288693037412361
"agg" 0.765798353479301
"ave" 0.0520662124427176
"laveB" 0.357949341389277
"agg" 0.759841670801005
"ave" 0.0596700284418794
"laveB" 0.373429364714672
"agg" 0.594739950718041
"ave" 0.0204083351117
"laveB" 0.194169431687743
"agg" 0.682964743691026
"ave" 0.0285701455435775
"laveB" 0.267775859849729
"agg" 0.714424003581791
"ave" 0.0445295521564453
"laveB" 0.289213592793906
"agg" 0.70910291190598
"ave" 0.0542549072106931
"laveB" 0.316721287964216
"agg" 0.574331955293519
"ave" 0.0208220435017277
"laveB" 0.155865321038579
"agg" 0.650945639997009
"ave" 0.0230866378207073
"laveB" 0.16322874044772
"agg" 0.421105569422132
"ave" 0.0170735421446651
"laveB" 0.162075140533904
"agg" 0.355862791447524
"ave" 0.0134662706066297
"laveB" 0.118332340517035
"agg" 0.383466167961893
"ave" 0.0108836600826554
"laveB" 0.0953070693902628
"agg" 0.27170940688698
"ave" 0.00916946258068576
"laveB" 0.0890475831011216
"agg" 0.51806042801048
"ave" 0.0194979343400265
"laveB" 0.188378171735389
"agg" 0.55383229945462
"ave" 0.0189848727550873
"laveB" 0.188457636073418
"agg" 0.354454459841983
"ave" 0.0128324734476348
"laveB" 0.0893260711470236
"agg" 0.976395431994067
"ave" 0.144324974115122
"laveB" 0.522841334186443
"agg" 0.914871914885229
"ave" 0.0651199239480362
"laveB" 0.375166449358367
"agg" 0.931096573975636
"ave" 0.066086328217755
"laveB" 0.366611820687586
"agg" 0.819025043350996
"ave" 0.12206790589865
"laveB" 0.504213045561279
"agg" 0.81167077448444
"ave" 0.110233066224719
"laveB" 0.475681532134122
"agg" 0.863238010249532
"ave" 0.114971163954999
"laveB" 0.492507957260005
"agg" 0.874461465130246
"ave" 0.113211497112285
"laveB" 0.49397713789895
"agg" 0.612900951837604
"ave" 0.0586742065358328
"laveB" 0.275870107958477
"agg" 0.428851911180898
"ave" 0.0500091331051283
"laveB" 0.227482991700612
"agg" 0.694703011418529
"ave" 0.0728099537381947
"laveB" 0.337565430496648
"agg" 0.703771853966451
"ave" 0.0773446296909141
"laveB" 0.315396156758216
"agg" 0.492215497175521
"ave" 0.0617350232201837
"laveB" 0.263576986296169
"agg" 0.57784957603036
"ave" 0.0773415036124765
"laveB" 0.309721552476379
"agg" 0.710762303892335
"ave" 0.0676165296631737
"laveB" 0.33293821582354
"agg" 0.653964345167597
"ave" 0.065604756248947
"laveB" 0.301382208517554
"agg" 0.747050606451639
"ave" 0.0914019213940771
"laveB" 0.434901510276076
"agg" 0.79018144167634
"ave" 0.113057409664948
"laveB" 0.464349515329125
"agg" 0.451049938825119
"ave" 0.0235120483387589
"laveB" 0.164245260658641
"agg" 0.427085053971409
"ave" 0.023686189614695
"laveB" 0.17993364278492
"agg" 0.290548583810621
"ave" 0.0141352859217478
"laveB" 0.125959512418645
"agg" 0.370730537637508
"ave" 0.0255693518128242
"laveB" 0.165393072007569
"agg" 0.0465294120211106
"ave" 0.00483555912614442
"laveB" 0.0422305934110196
"agg" 0.408936789807702
"ave" 0.0311641887221153
"laveB" 0.187860152400398
"agg" 0.224003088159458
"ave" 0.0141770168919221
"laveB" 0.0997353364961346
"agg" 0.312509077263493
"ave" 0.0295537704561807
"laveB" 0.158378833166385
"agg" 0.689184991245778
"ave" 0.057094271217469
"laveB" 0.320595073505371
"agg" 0.562670690818373
"ave" 0.0571716797245134
"laveB" 0.293732082229845
"agg" 0.797544968658836
"ave" 0.0734655337091367
"laveB" 0.423907103889618
"agg" 0.834854192972128
"ave" 0.0874697308708139
"laveB" 0.450047153907358
"agg" 0.608075389287632
"ave" 0.0275225966373781
"laveB" 0.212786327742885
"agg" 0.707864852560809
"ave" 0.0396074362093481
"laveB" 0.292226765775103
"agg" 0.79318869833696
"ave" 0.0665354022048909
"laveB" 0.356711890946581
"agg" 0.798160850002518
"ave" 0.0823880672669276
"laveB" 0.395458201436684
"agg" 0.578653541169774
"ave" 0.0274766806738516
"laveB" 0.176871669682617
"agg" 0.744633195759643
"ave" 0.0356496011788771
"laveB" 0.183684044804889
"agg" 0.350584337113949
"ave" 0.0179532891011512
"laveB" 0.134569038541953
"agg" 0.297363932704691
"ave" 0.0135057442261079
"laveB" 0.120797198827811
"agg" 0.428261104685994
"ave" 0.0159599120523436
"laveB" 0.115066100744785
"agg" 0.21255913949286
"ave" 0.00972147149031244
"laveB" 0.0686456794866076
"agg" 0.379815892737788
"ave" 0.0196353643462839
"laveB" 0.164745059596855
"agg" 0.502274525025551
"ave" 0.0229269091305374
"laveB" 0.177420942132945
"agg" 0.313420017882212
"ave" 0.0170255458210491
"laveB" 0.0957236894209367
"agg" 0.916723255863486
"ave" 0.0648583274972488
"laveB" 0.35656676501952
"agg" 0.937532779358294
"ave" 0.0662638112318701
"laveB" 0.370694506638858
"agg" 0.807908860681673
"ave" 0.119755849668325
"laveB" 0.488739287785072
"agg" 0.802831210485131
"ave" 0.108495403471143
"laveB" 0.469989575821069
"agg" 0.826316551895724
"ave" 0.110488892535607
"laveB" 0.469245587673946
"agg" 0.856668365308997
"ave" 0.111099733419621
"laveB" 0.50199008486788
"agg" 0.575232844170564
"ave" 0.0555957571172487
"laveB" 0.274933123624781
"agg" 0.426808562373592
"ave" 0.0503673027771881
"laveB" 0.221520059841727
"agg" 0.63592840565216
"ave" 0.0663738262710751
"laveB" 0.317104143499351
"agg" 0.666600863680526
"ave" 0.0732414765795826
"laveB" 0.310851516058904
"agg" 0.501467339806967
"ave" 0.0626097776924892
"laveB" 0.286209931997219
"agg" 0.58371015363451
"ave" 0.07825652941441
"laveB" 0.334746926348094
"agg" 0.733513732797815
"ave" 0.0694723269962247
"laveB" 0.34570286730529
"agg" 0.67375788725166
"ave" 0.0672805118248606
"laveB" 0.313313582645844
"agg" 0.727264373584442
"ave" 0.0885209924853838
"laveB" 0.416513583872555
"agg" 0.780273587274941
"ave" 0.110665136719572
"laveB" 0.457774567555476
"agg" 0.455332378389533
"ave" 0.0241891147696262
"laveB" 0.16855451926884
"agg" 0.427036980592729
"ave" 0.0239131423744149
"laveB" 0.182094248391666
"agg" 0.290947495346721
"ave" 0.0145272236259402
"laveB" 0.110234934496514
"agg" 0.36271783260225
"ave" 0.0257794672728518
"laveB" 0.16923685098376
"agg" 0.0183458289699089
"ave" 0.00297441614475518
"laveB" 0.0239094688454263
"agg" 0.425937375982257
"ave" 0.0330088032360729
"laveB" 0.194611310669007
"agg" 0.271635709865781
"ave" 0.0179728002126597
"laveB" 0.10965391733141
"agg" 0.338801821069576
"ave" 0.0321029587751031
"laveB" 0.159179459326761
"agg" 0.685900996158261
"ave" 0.0566626347098948
"laveB" 0.325119609212483
"agg" 0.557590393228823
"ave" 0.0570368714741785
"laveB" 0.295529147257119
"agg" 0.774342839259368
"ave" 0.0709750937886472
"laveB" 0.396236690333736
"agg" 0.802450258424496
"ave" 0.0843426160123363
"laveB" 0.436515440672853
"agg" 0.605145600872247
"ave" 0.0275112166382804
"laveB" 0.212744807268043
"agg" 0.683577835241445
"ave" 0.03860145467527
"laveB" 0.289595200615507
"agg" 0.750722350545409
"ave" 0.0630809392366793
"laveB" 0.354203438216926
"agg" 0.767888761113609
"ave" 0.0797686326937213
"laveB" 0.369432098942814
"agg" 0.590980266674009
"ave" 0.0282457209010481
"laveB" 0.179946394853608
"agg" 0.726861373708694
"ave" 0.0347876589083716
"laveB" 0.188791275865898
"agg" 0.399769881212772
"ave" 0.0200661441795362
"laveB" 0.152736261880662
"agg" 0.352257085541306
"ave" 0.0166420301774419
"laveB" 0.135029128095061
"agg" 0.424683578820563
"ave" 0.0157256168716796
"laveB" 0.116508197182598
"agg" 0.254548268629843
"ave" 0.011334665248799
"laveB" 0.085247087117295
"agg" 0.415027075685125
"ave" 0.0212434057064287
"laveB" 0.162710859196751
"agg" 0.529521550431202
"ave" 0.0241805039953291
"laveB" 0.189308598986933
"agg" 0.312431212642031
"ave" 0.0168334617707578
"laveB" 0.104513984280667
"agg" 0.909649292188361
"ave" 0.0307133542789554
"laveB" 0.269724916928068
"agg" 0.810902115457774
"ave" 0.05857660208184
"laveB" 0.354508030210769
"agg" 0.817901234583548
"ave" 0.0535005652717017
"laveB" 0.346697875636415
"agg" 0.820354384986048
"ave" 0.0527483854784394
"laveB" 0.335633338481818
"agg" 0.857990576876531
"ave" 0.0539098038091597
"laveB" 0.360412491397349
"agg" 0.563900824318668
"ave" 0.0263402888357532
"laveB" 0.201814749627112
"agg" 0.418960914797312
"ave" 0.0234373787939345
"laveB" 0.164277714265501
"agg" 0.688785557746773
"ave" 0.0343191694604537
"laveB" 0.239790061178946
"agg" 0.700833352296519
"ave" 0.0371905574078545
"laveB" 0.246174561610466
"agg" 0.53089614176495
"ave" 0.0314055231141651
"laveB" 0.209581932850845
"agg" 0.589225738735586
"ave" 0.0371611668397716
"laveB" 0.221046361593428
"agg" 0.761299919208717
"ave" 0.034243672820421
"laveB" 0.24495843478251
"agg" 0.714151656052219
"ave" 0.0333504297043615
"laveB" 0.223650209700527
"agg" 0.663781616288434
"ave" 0.0393052308506068
"laveB" 0.267746513523778
"agg" 0.728017076818851
"ave" 0.0497903637639349
"laveB" 0.307421159054901
"agg" 0.548126396335054
"ave" 0.0135636723730005
"laveB" 0.16808804195337
"agg" 0.523762116390849
"ave" 0.0136532498104551
"laveB" 0.146595742336088
"agg" 0.371093456620324
"ave" 0.0086684704541726
"laveB" 0.113159159510742
"agg" 0.458306164167947
"ave" 0.0151993851387679
"laveB" 0.145575006068896
"agg" 0.0820413638920117
"ave" 0.0040797087033982
"laveB" 0.0607622558314205
"agg" 0.466764465127128
"ave" 0.0172566715569685
"laveB" 0.15310352283092
"agg" 0.38712678987687
"ave" 0.0127538813810136
"laveB" 0.129015686904396
"agg" 0.470645140124252
"ave" 0.0214063162113783
"laveB" 0.173773971225866
"agg" 0.704431552604193
"ave" 0.0280227956548052
"laveB" 0.2318593024198
"agg" 0.623668939843349
"ave" 0.0305730975416931
"laveB" 0.237703070202653
"agg" 0.808951572331664
"ave" 0.0354819893737593
"laveB" 0.316607556984039
"agg" 0.850009924541488
"ave" 0.0432042335966431
"laveB" 0.328172033766417
"agg" 0.690011698910519
"ave" 0.014554077777755
"laveB" 0.175277169418688
"agg" 0.76338701217598
"ave" 0.0202528798050629
"laveB" 0.224020689168734
"agg" 0.764534651108404
"ave" 0.0311950004587885
"laveB" 0.248011724592026
"agg" 0.777581385940967
"ave" 0.0388946687043917
"laveB" 0.260884493493218
"agg" 0.6741564647571
"ave" 0.0152831116826771
"laveB" 0.151600764421989
"agg" 0.788388660375673
"ave" 0.0180614991843197
"laveB" 0.167720037865373
"agg" 0.39406794960466
"ave" 0.00922168784437325
"laveB" 0.104115721966284
"agg" 0.383984018935171
"ave" 0.00854382596026254
"laveB" 0.0953387205609549
"agg" 0.473942590871734
"ave" 0.00809738796750913
"laveB" 0.0973499900013494
"agg" 0.337416598608628
"ave" 0.00634761147399244
"laveB" 0.0755161507935113
"agg" 0.469354845837878
"ave" 0.0113114388087066
"laveB" 0.145862553255076
"agg" 0.608025519319077
"ave" 0.0129554542453507
"laveB" 0.144709632088819
"agg" 0.347457072303259
"ave" 0.00835083125003422
"laveB" 0.0602547495888695
"agg" 0.802296851902244
"ave" 0.0561428434196371
"laveB" 0.360001697939733
"agg" 0.798135535134961
"ave" 0.0506777955679105
"laveB" 0.341310179992066
"agg" 0.838400971266804
"ave" 0.0535169909342018
"laveB" 0.347621970135625
"agg" 0.856155714780052
"ave" 0.0532101052767058
"laveB" 0.364317712069161
"agg" 0.601580874892451
"ave" 0.0271073012559639
"laveB" 0.192669198208045
"agg" 0.441025258693067
"ave" 0.0243351486152981
"laveB" 0.173991578396813
"agg" 0.670898619146815
"ave" 0.0329228637786365
"laveB" 0.250856919595307
"agg" 0.692379205040189
"ave" 0.0351568192573503
"laveB" 0.247047071734688
"agg" 0.536990373463639
"ave" 0.031701584296143
"laveB" 0.210003217792474
"agg" 0.610802031585442
"ave" 0.0384769021349544
"laveB" 0.243141867335665
"agg" 0.740575816290952
"ave" 0.0336412291958581
"laveB" 0.257499172408191
"agg" 0.685893481154167
"ave" 0.0327578333665971
"laveB" 0.228868131597169
"agg" 0.702027962257241
"ave" 0.040541605202093
"laveB" 0.281779918886541
"agg" 0.767465949815278
"ave" 0.0521059567198426
"laveB" 0.330409778901355
"agg" 0.522890457513453
"ave" 0.0130567498759583
"laveB" 0.165000392653526
"agg" 0.464184955783646
"ave" 0.0120775068561265
"laveB" 0.150018335662577
"agg" 0.302019651219801
"ave" 0.00704227452691537
"laveB" 0.105399454861163
"agg" 0.403517785448656
"ave" 0.0130296895396882
"laveB" 0.149929997415943
"agg" 0.0649096750554395
"ave" 0.0024888578509412
"laveB" 0.0405162967627397
"agg" 0.421646866296349
"ave" 0.0146558821087025
"laveB" 0.143478620054756
"agg" 0.264980738550166
"ave" 0.00891052731057375
"laveB" 0.115535945280047
"agg" 0.347310723643908
"ave" 0.0152982061661213
"laveB" 0.141384694196513
"agg" 0.715016751359268
"ave" 0.028250421297197
"laveB" 0.244535198651749
"agg" 0.618287956715975
"ave" 0.0294666469945234
"laveB" 0.243929510645116
"agg" 0.796497039758225
"ave" 0.0341076150973416
"laveB" 0.298040034923086
"agg" 0.829097509046795
"ave" 0.0404279314294914
"laveB" 0.331077138025899
"agg" 0.664211141125862
"ave" 0.0140598961504592
"laveB" 0.184161695255854
"agg" 0.749712047742297
"ave" 0.0196608710031872
"laveB" 0.250784991910881
"agg" 0.783070631315561
"ave" 0.0304488591531597
"laveB" 0.256640271368053
"agg" 0.790372478570863
"ave" 0.0379917847024047
"laveB" 0.273577073103084
"agg" 0.568548135436741
"ave" 0.0128721325999401
"laveB" 0.135110579733992
"agg" 0.730423659753166
"ave" 0.0163618227720618
"laveB" 0.149607886978916
"agg" 0.347847252073978
"ave" 0.00897524485446577
"laveB" 0.103953581826732
"agg" 0.297473322984359
"ave" 0.00705260245349529
"laveB" 0.0937550134143872
"agg" 0.417911558211072
"ave" 0.00767573020017194
"laveB" 0.0899084801148434
"agg" 0.19762332547472
"ave" 0.00463550904314045
"laveB" 0.0650081842707392
"agg" 0.415707378283432
"ave" 0.0106249520658218
"laveB" 0.142897046058259
"agg" 0.508887954249186
"ave" 0.0113270698825725
"laveB" 0.142141339956907
"agg" 0.326141115902801
"ave" 0.00849564447058139
"laveB" 0.0780971177928924
"agg" 0.97720363953798
"ave" 0.129043047475268
"laveB" 0.628461270203607
"agg" 0.724292612954314
"ave" 0.0981231539785941
"laveB" 0.474522767397749
"agg" 0.741497828154604
"ave" 0.0993331951579336
"laveB" 0.490201220126156
"agg" 0.71614437935665
"ave" 0.0684578922905907
"laveB" 0.353693496090368
"agg" 0.454008463419516
"ave" 0.0517802803301784
"laveB" 0.267454863636983
"agg" 0.75014485409055
"ave" 0.0771371376075768
"laveB" 0.399166392846329
"agg" 0.726350210875384
"ave" 0.0780513096310218
"laveB" 0.375188251713399
"agg" 0.487038819724721
"ave" 0.0598524242527664
"laveB" 0.28579256664173
"agg" 0.544864775790307
"ave" 0.0728541755202923
"laveB" 0.329226128895371
"agg" 0.61013137143375
"ave" 0.0586222572271529
"laveB" 0.339988827155647
"agg" 0.561901436959163
"ave" 0.0561294191457277
"laveB" 0.291240022514416
"agg" 0.852588960415661
"ave" 0.103413914167364
"laveB" 0.548696106802172
"agg" 0.890496706814071
"ave" 0.12656647111674
"laveB" 0.598730121470338
"agg" 0.377346728552381
"ave" 0.0194684424612149
"laveB" 0.167983264056526
"agg" 0.380849643081631
"ave" 0.0210800273669821
"laveB" 0.187670826394011
"agg" 0.197642509731115
"ave" 0.00973362108181791
"laveB" 0.0794125577832458
"agg" 0.330079214223577
"ave" 0.0220385799834762
"laveB" 0.149791075344261
"agg" 0.103082675814208
"ave" 0.00863402096025312
"laveB" 0.0593668430245207
"agg" 0.436749229639824
"ave" 0.032642520472625
"laveB" 0.225839655816531
"agg" 0.101233345847369
"ave" 0.0047485370149746
"laveB" 0.063389936961963
"agg" 0.279817238675263
"ave" 0.0274869450601541
"laveB" 0.142741121563298
"agg" 0.72220243355471
"ave" 0.0600129845503142
"laveB" 0.380100380034594
"agg" 0.61619474750233
"ave" 0.0615162930458884
"laveB" 0.356656355263322
"agg" 0.878234744144314
"ave" 0.0807951422891976
"laveB" 0.518439379376645
"agg" 0.888838268907187
"ave" 0.0923068278268121
"laveB" 0.531888307121934
"agg" 0.574963731708757
"ave" 0.0254200471963948
"laveB" 0.233803479264612
"agg" 0.689311248984115
"ave" 0.0381743822292568
"laveB" 0.328620595093481
"agg" 0.8378793483045
"ave" 0.0686646056385036
"laveB" 0.421959499577501
"agg" 0.811618385549629
"ave" 0.0823714514579888
"laveB" 0.432130094607413
"agg" 0.640363797363848
"ave" 0.0296131876399922
"laveB" 0.212968704704492
"agg" 0.745604346854945
"ave" 0.0353992970476862
"laveB" 0.208744344330122
"agg" 0.158449267471633
"ave" 0.00776865742110647
"laveB" 0.0711271565679812
"agg" 0.106812525903189
"ave" 0.00376570932798282
"laveB" 0.0606228715693946
"agg" 0.40616152861356
"ave" 0.0133715122149186
"laveB" 0.120892785265409
"agg" 0.144022598625794
"ave" 0.00610982700111446
"laveB" 0.0714724846961698
"agg" 0.186037440243744
"ave" 0.0107743973638735
"laveB" 0.11582857653097
"agg" 0.305312127600219
"ave" 0.0139679268345505
"laveB" 0.145413991306369
"agg" 0.168888154190982
"ave" 0.0114932347011781
"laveB" 0.0636282436043014
"agg" 0.734143207657455
"ave" 0.0922508904824281
"laveB" 0.480070291266128
"agg" 0.763232695557883
"ave" 0.0948304734654918
"laveB" 0.493237437244467
"agg" 0.702672100215433
"ave" 0.0617353341170765
"laveB" 0.34814741119119
"agg" 0.467750034559242
"ave" 0.0498799406212138
"laveB" 0.269254074565246
"agg" 0.75923390413668
"ave" 0.0716075173196011
"laveB" 0.403509289737118
"agg" 0.74975052902044
"ave" 0.0740787049821627
"laveB" 0.375588706490892
"agg" 0.513920327325713
"ave" 0.0581968418208152
"laveB" 0.294651615526424
"agg" 0.567018710047532
"ave" 0.0700566530190088
"laveB" 0.344126021663566
"agg" 0.633277592579374
"ave" 0.0563761635051378
"laveB" 0.324988878991434
"agg" 0.587044470629326
"ave" 0.0542702871005387
"laveB" 0.324198018018448
"agg" 0.813018736480456
"ave" 0.0892545118325605
"laveB" 0.497507330891549
"agg" 0.859851692215616
"ave" 0.111007089255322
"laveB" 0.546016482622093
"agg" 0.413276276322779
"ave" 0.0198794587064337
"laveB" 0.173688498956101
"agg" 0.434232915102092
"ave" 0.0220403434723012
"laveB" 0.202337019261897
"agg" 0.223242043063857
"ave" 0.0101857185181098
"laveB" 0.0981810510097818
"agg" 0.377349116964147
"ave" 0.023121128088372
"laveB" 0.163314592907787
"agg" 0.10610494975626
"ave" 0.00786622457893508
"laveB" 0.0553768743708328
"agg" 0.449261264053119
"ave" 0.0307863346281434
"laveB" 0.211707379427423
"agg" 0.140598496796066
"ave" 0.00746078934999605
"laveB" 0.0768583752451941
"agg" 0.337619174481773
"ave" 0.0299282073578111
"laveB" 0.172609470018526
"agg" 0.70900092558226
"ave" 0.0537054211659593
"laveB" 0.357610598390037
"agg" 0.614890244298184
"ave" 0.0556307163986456
"laveB" 0.335909446632755
"agg" 0.876107916090867
"ave" 0.0732886636345777
"laveB" 0.480394189471355
"agg" 0.896156770362991
"ave" 0.0847984253050465
"laveB" 0.505955760630348
"agg" 0.58274136638059
"ave" 0.0232997908374327
"laveB" 0.221060342961639
"agg" 0.700195836047889
"ave" 0.0352745701026972
"laveB" 0.318982045204046
"agg" 0.846853582032969
"ave" 0.0636376735719636
"laveB" 0.413308430023728
"agg" 0.827203126141951
"ave" 0.0771516504421254
"laveB" 0.431889094840081
"agg" 0.633457107576838
"ave" 0.0267615853554471
"laveB" 0.221558833602819
"agg" 0.755257951239697
"ave" 0.0328064844366807
"laveB" 0.208086662812841
"agg" 0.184234431522392
"ave" 0.00890394471604239
"laveB" 0.0834990136038289
"agg" 0.13277071257288
"ave" 0.00528605429072149
"laveB" 0.0682127796717309
"agg" 0.435699339883959
"ave" 0.0134884035474183
"laveB" 0.117830294011015
"agg" 0.16710752320209
"ave" 0.00675415874167709
"laveB" 0.0741530452004014
"agg" 0.23604459651985
"ave" 0.0125078957363092
"laveB" 0.132439220825562
"agg" 0.339013139707427
"ave" 0.0143559158895839
"laveB" 0.145090135094336
"agg" 0.202539257400329
"ave" 0.0116993185002406
"laveB" 0.0747289187918621
"agg" 0.942500419928573
"ave" 0.112251941178168
"laveB" 0.578911180546077
"agg" 0.703889370762306
"ave" 0.0604760016449232
"laveB" 0.34217814185682
"agg" 0.504301867344609
"ave" 0.0507904464123062
"laveB" 0.281626536227799
"agg" 0.772059660268742
"ave" 0.0760344834596712
"laveB" 0.4052360738071
"agg" 0.730393169474763
"ave" 0.0741129761864705
"laveB" 0.366248739525175
"agg" 0.534479464345209
"ave" 0.0564643501370375
"laveB" 0.297097067056003
"agg" 0.606467930068154
"ave" 0.0723934097511418
"laveB" 0.360814496564841
"agg" 0.739635052200125
"ave" 0.0631876464148851
"laveB" 0.362189537942246
"agg" 0.672134916521705
"ave" 0.0612424767438049
"laveB" 0.333083122630181
"agg" 0.650084142231901
"ave" 0.0715596241508852
"laveB" 0.393944693017156
"agg" 0.695218131029707
"ave" 0.090165813625831
"laveB" 0.449379097893896
"agg" 0.537446018597492
"ave" 0.0255005668636232
"laveB" 0.2135299692026
"agg" 0.481691794563322
"ave" 0.0245008752160162
"laveB" 0.215859590058706
"agg" 0.322645110142216
"ave" 0.0140854278549354
"laveB" 0.132585695818382
"agg" 0.396995604629193
"ave" 0.0241328366987242
"laveB" 0.184923472222666
"agg" 0.0828297665139511
"ave" 0.00681605060696996
"laveB" 0.0527433520243134
"agg" 0.392131309459018
"ave" 0.0265641519446022
"laveB" 0.200756409803493
"agg" 0.270536507956399
"ave" 0.0167616912242916
"laveB" 0.141285676679396
"agg" 0.309412333654522
"ave" 0.0251572157114654
"laveB" 0.159999774040859
"agg" 0.660821250384178
"ave" 0.0493776813949006
"laveB" 0.334023357216089
"agg" 0.594745327996835
"ave" 0.0535405433430691
"laveB" 0.316409094334846
"agg" 0.780799087631671
"ave" 0.0643574802505282
"laveB" 0.438112202124409
"agg" 0.801002909493539
"ave" 0.0764404901156171
"laveB" 0.458811960073086
"agg" 0.557591193057199
"ave" 0.0228976364455942
"laveB" 0.200550691920508
"agg" 0.708776125022273
"ave" 0.0356408218345044
"laveB" 0.330641795114417
"agg" 0.803240950808366
"ave" 0.0610627784672922
"laveB" 0.392866251095953
"agg" 0.777727338437158
"ave" 0.0734012331718582
"laveB" 0.394618397596951
"agg" 0.597730454575471
"ave" 0.0254097773811769
"laveB" 0.182919934828143
"agg" 0.681543386239108
"ave" 0.029177391238661
"laveB" 0.187282945371255
"agg" 0.320964832923694
"ave" 0.0145935168701975
"laveB" 0.118045876736627
"agg" 0.320647434728931
"ave" 0.0122120844293633
"laveB" 0.122091689578056
"agg" 0.405534938402678
"ave" 0.0136797659182759
"laveB" 0.119659286863184
"agg" 0.173441024774113
"ave" 0.00771849257936803
"laveB" 0.0806728261422682
"agg" 0.458020229762629
"ave" 0.0207991435400497
"laveB" 0.204460879181731
"agg" 0.507939104089729
"ave" 0.0205810140468186
"laveB" 0.202479278372582
"agg" 0.441667692793026
"ave" 0.0171187074615231
"laveB" 0.119529753131447
"agg" 0.700386693017
"ave" 0.0615260303638884
"laveB" 0.344568471833275
"agg" 0.592865045018258
"ave" 0.0612919703220586
"laveB" 0.330844356377995
"agg" 0.737081280988663
"ave" 0.0708302597338969
"laveB" 0.391626052785268
"agg" 0.762135237540833
"ave" 0.0774620884776879
"laveB" 0.39634232979022
"agg" 0.580529519943983
"ave" 0.062956621913506
"laveB" 0.329312760951734
"agg" 0.663876027222625
"ave" 0.0789219939850821
"laveB" 0.402958279802408
"agg" 0.776176779372868
"ave" 0.0639513296944424
"laveB" 0.389982514755197
"agg" 0.74351388208567
"ave" 0.0654811781963818
"laveB" 0.367578625024414
"agg" 0.642355557723541
"ave" 0.0689367259057207
"laveB" 0.400648269053363
"agg" 0.703934648959262
"ave" 0.0889386326270471
"laveB" 0.432610165117209
"agg" 0.542687026850804
"ave" 0.0256095234918493
"laveB" 0.225221546181676
"agg" 0.484441240709469
"ave" 0.0245604507403008
"laveB" 0.218999311918116
"agg" 0.365232086715764
"ave" 0.0165203421488703
"laveB" 0.144852792989759
"agg" 0.454222552104315
"ave" 0.0286760487566626
"laveB" 0.218322642040985
"agg" 0.0853445912237619
"ave" 0.00778285906952805
"laveB" 0.0559557288938519
"agg" 0.458819962373208
"ave" 0.0318512087993675
"laveB" 0.225151504468821
"agg" 0.377100189929738
"ave" 0.0228630299553663
"laveB" 0.173915467905728
"agg" 0.38090375008292
"ave" 0.0318391687276103
"laveB" 0.199513159259521
"agg" 0.687023040084756
"ave" 0.0506925191113112
"laveB" 0.347927154400893
"agg" 0.631135982415208
"ave" 0.0563090743269292
"laveB" 0.343718389432564
"agg" 0.803960597227489
"ave" 0.0657191175937154
"laveB" 0.454962253375719
"agg" 0.808166666135677
"ave" 0.0773160067155839
"laveB" 0.473509650247759
"agg" 0.609181345948882
"ave" 0.023915513257675
"laveB" 0.233958460146129
"agg" 0.727205263250292
"ave" 0.0356982491337255
"laveB" 0.326413737526647
"agg" 0.791029674721215
"ave" 0.0605874610428606
"laveB" 0.408834298695947
"agg" 0.813219956018112
"ave" 0.0766568697424004
"laveB" 0.418231416889385
"agg" 0.690371864409677
"ave" 0.029375200792272
"laveB" 0.225145020019688
"agg" 0.770436438474759
"ave" 0.0325182772093819
"laveB" 0.212153340016926
"agg" 0.381123319153269
"ave" 0.0164461188066395
"laveB" 0.150880243574903
"agg" 0.362553203430266
"ave" 0.013292628108318
"laveB" 0.141147408598768
"agg" 0.458582004905146
"ave" 0.0145604769121632
"laveB" 0.138621286963807
"agg" 0.273868911856899
"ave" 0.0104109434698817
"laveB" 0.108047734329433
"agg" 0.503045214631942
"ave" 0.0219735063658654
"laveB" 0.218414705055345
"agg" 0.57087202529624
"ave" 0.0221845099673346
"laveB" 0.211698727826163
"agg" 0.433146753441346
"ave" 0.0163315208098621
"laveB" 0.118076748861059
"agg" 0.657623567438779
"ave" 0.0532329316282533
"laveB" 0.30890214975797
"agg" 0.708395129265148
"ave" 0.0494450633018955
"laveB" 0.289064844814105
"agg" 0.717890002518673
"ave" 0.0548140767172437
"laveB" 0.308410465973115
"agg" 0.603609643093893
"ave" 0.048806799045275
"laveB" 0.262515720409699
"agg" 0.507021820458854
"ave" 0.0449243633877582
"laveB" 0.238224843374389
"agg" 0.516050168887057
"ave" 0.0335846271552457
"laveB" 0.231680311374576
"agg" 0.444957346223968
"ave" 0.0299393968446277
"laveB" 0.177725143353505
"agg" 0.637428895648701
"ave" 0.0502192381783234
"laveB" 0.308929476159923
"agg" 0.697957143394668
"ave" 0.0662757448478667
"laveB" 0.373417713121203
"agg" 0.359774209169448
"ave" 0.0123291869083191
"laveB" 0.110545150526786
"agg" 0.270896940020387
"ave" 0.00915657913808602
"laveB" 0.0862022267662004
"agg" 0.228387728306978
"ave" 0.00778764434649448
"laveB" 0.0668213786159443
"agg" 0.285433273108281
"ave" 0.0122649499162731
"laveB" 0.103712579114822
"agg" 0.139016653310527
"ave" 0.00756081383575044
"laveB" 0.0492184441375408
"agg" 0.376548890875423
"ave" 0.019028649491439
"laveB" 0.141686501703356
"agg" 0.0226848548124716
"ave" 8.06827000553375e-05
"laveB" 0.0141298886751851
"agg" 0.089941605907282
"ave" 0.00462724535376647
"laveB" 0.0220773581957424
"agg" 0.596389138190925
"ave" 0.0332923970217917
"laveB" 0.251221811866849
"agg" 0.531608887561529
"ave" 0.0353482825514697
"laveB" 0.241605173492823
"agg" 0.73492075662707
"ave" 0.0437883685800026
"laveB" 0.322156985131878
"agg" 0.712113343095121
"ave" 0.0486109189293982
"laveB" 0.310655677529999
"agg" 0.373146118359833
"ave" 0.0104196993718697
"laveB" 0.105636135937334
"agg" 0.485681066964418
"ave" 0.0171056725608283
"laveB" 0.176439245749807
"agg" 0.776977560257237
"ave" 0.0432320521009554
"laveB" 0.300583739239992
"agg" 0.738015243445341
"ave" 0.0499949436244306
"laveB" 0.307223814618875
"agg" 0.680151089615812
"ave" 0.0232805592112372
"laveB" 0.190759205206225
"agg" 0.631840102291466
"ave" 0.0198852711606956
"laveB" 0.134567354011625
"agg" 0.110324958271906
"ave" 0.00353734607755235
"laveB" 0.0393937252860895
"agg" 0.131947749166306
"ave" 0.00426221349327765
"laveB" 0.0544370518624982
"agg" 0.252321915526782
"ave" 0.00529715511020593
"laveB" 0.0574887241870254
"agg" 0.00779496959579258
"ave" 0.00118254651827979
"laveB" 0.0118998324650518
"agg" 0.150852635651761
"ave" 0.00609275294071844
"laveB" 0.0685165286306024
"agg" 0.218276206351518
"ave" 0.00771545289593874
"laveB" 0.0826249444502019
"agg" 0.18053956988546
"ave" 0.00685755242557199
"laveB" 0.0493578382515875
"agg" 0.415362763131364
"ave" 0.0328261466558707
"laveB" 0.191330464929449
"agg" 0.671900987832208
"ave" 0.0645227842090632
"laveB" 0.313932250392113
"agg" 0.749614610747447
"ave" 0.0762925451746114
"laveB" 0.403563512517379
"agg" 0.844817730207907
"ave" 0.0953248957320034
"laveB" 0.466750200161774
"agg" 0.592555960535248
"ave" 0.0452608701760061
"laveB" 0.252219207128136
"agg" 0.645569537236892
"ave" 0.0516036062510732
"laveB" 0.274078671343277
"agg" 0.456072977804661
"ave" 0.0420857342610247
"laveB" 0.255353340102345
"agg" 0.471356383162985
"ave" 0.0513821465193573
"laveB" 0.278006100478111
"agg" 0.50169452191051
"ave" 0.0220347346259525
"laveB" 0.185209982708072
"agg" 0.356214453279804
"ave" 0.0160628027153637
"laveB" 0.142273179320316
"agg" 0.259325153731388
"ave" 0.0110276413797308
"laveB" 0.0998398204304115
"agg" 0.358671474193935
"ave" 0.0200126988406678
"laveB" 0.163512468713635
"agg" 0.0174706138155736
"ave" 0.00159211264397961
"laveB" -0.0128044120176747
"agg" 0.360287451084868
"ave" 0.0226011358689309
"laveB" 0.165702025612295
"agg" 0.153243615543824
"ave" 0.00890524717208867
"laveB" 0.0777928852389785
"agg" 0.218065576062734
"ave" 0.0178835071778836
"laveB" 0.110954123731049
"agg" 0.474454278075033
"ave" 0.0313920522465587
"laveB" 0.229163433511938
"agg" 0.456069867281963
"ave" 0.0377849222357596
"laveB" 0.236694983640532
"agg" 0.548253481245229
"ave" 0.0397212907145748
"laveB" 0.282414913653679
"agg" 0.551063794327214
"ave" 0.0462187289782878
"laveB" 0.283125496387114
"agg" 0.426719650550351
"ave" 0.0150742281143705
"laveB" 0.146403657849573
"agg" 0.469139995093077
"ave" 0.0207884715021165
"laveB" 0.197286732188841
"agg" 0.658742157652803
"ave" 0.0445260737574307
"laveB" 0.305432665364752
"agg" 0.722704377826404
"ave" 0.0583088358465744
"laveB" 0.335409248770795
"agg" 0.607827132654182
"ave" 0.0248967197862796
"laveB" 0.177455315952369
"agg" 0.645133383887533
"ave" 0.0251020347099574
"laveB" 0.196423670779535
"agg" 0.470389854544281
"ave" 0.0226036718888129
"laveB" 0.208775969384449
"agg" 0.322143599965492
"ave" 0.0149416426320764
"laveB" 0.135529334233859
"agg" 0.329499363445332
"ave" 0.00868121037060482
"laveB" 0.0854403874028151
"agg" 0.191555715431002
"ave" 0.00733193368619022
"laveB" 0.0711409441262342
"agg" 0.32238529384968
"ave" 0.0135852689553074
"laveB" 0.14297855422798
"agg" 0.307485782516114
"ave" 0.0118734259160824
"laveB" 0.116021486748837
"agg" 0.236115003940402
"ave" 0.00924987319588746
"laveB" 0.0633839651716776
"agg" 0.822152903074936
"ave" 0.066281642167456
"laveB" 0.361150637653699
"agg" 0.394475739520744
"ave" 0.0344109984060547
"laveB" 0.181469868994359
"agg" 0.476834912481606
"ave" 0.044806641746911
"laveB" 0.231070082536865
"agg" 0.560195538399652
"ave" 0.0383780687422348
"laveB" 0.254477848398151
"agg" 0.49404531979186
"ave" 0.035614365944251
"laveB" 0.216409642978155
"agg" 0.655377872470797
"ave" 0.0565209778985628
"laveB" 0.327663384269222
"agg" 0.687655692817135
"ave" 0.069464589859541
"laveB" 0.361881330706204
"agg" 0.43687459361025
"ave" 0.0159765596269717
"laveB" 0.145060914523516
"agg" 0.410174697981185
"ave" 0.0155185397537588
"laveB" 0.153016112088226
"agg" 0.319161673063657
"ave" 0.0105965942982128
"laveB" 0.111624463577856
"agg" 0.387805950677339
"ave" 0.017070587101672
"laveB" 0.150124186993175
"agg" 0.158125462210372
"ave" 0.00956988292899033
"laveB" 0.0851859347526284
"agg" 0.390780891998162
"ave" 0.0200824638120262
"laveB" 0.168390326896412
"agg" 0.129508847665683
"ave" 0.00399218473984131
"laveB" 0.0420005980218087
"agg" 0.188693010041126
"ave" 0.0101680621149493
"laveB" 0.0737377008250789
"agg" 0.721989621460593
"ave" 0.0417064953803881
"laveB" 0.317215164079498
"agg" 0.567887745005098
"ave" 0.0390553822785977
"laveB" 0.247704867814971
"agg" 0.844773290989187
"ave" 0.0540734091603222
"laveB" 0.381781919225873
"agg" 0.831326461831296
"ave" 0.0612478005750708
"laveB" 0.393869910634858
"agg" 0.525752327150705
"ave" 0.0160476248478234
"laveB" 0.14774858895317
"agg" 0.621231927267805
"ave" 0.0239079239567211
"laveB" 0.23387282187566
"agg" 0.81200103522977
"ave" 0.0478889022936716
"laveB" 0.331713539147853
"agg" 0.757459694734661
"ave" 0.0551655348448068
"laveB" 0.32683497032402
"agg" 0.560005498368949
"ave" 0.0179058574263591
"laveB" 0.130985585918079
"agg" 0.586393520335293
"ave" 0.0190029477995877
"laveB" 0.127464793173936
"agg" 0.14676114348281
"ave" 0.00413305284452598
"laveB" 0.0548587075894038
"agg" 0.151544427857846
"ave" 0.0035299688901372
"laveB" 0.0490708191834697
"agg" 0.397500500770775
"ave" 0.00968370547711531
"laveB" 0.0974748679447667
"agg" 0.123474080659394
"ave" 0.00431500266108166
"laveB" 0.0437778477928695
"agg" 0.269477455581173
"ave" 0.00940881939118588
"laveB" 0.112700737088572
"agg" 0.366985205968381
"ave" 0.0113953427886382
"laveB" 0.134271860603111
"agg" 0.242323888295948
"ave" 0.00976795307584949
"laveB" 0.065871476914047
"agg" 0.559633722565157
"ave" 0.0529306416777344
"laveB" 0.254802259399672
"agg" 0.684442303295434
"ave" 0.0718079021258419
"laveB" 0.347854903015684
"agg" 0.603459319973007
"ave" 0.0435772971030686
"laveB" 0.264324928379151
"agg" 0.615546422024661
"ave" 0.0466818330869275
"laveB" 0.243577876587222
"agg" 0.598553531149664
"ave" 0.0515107779707582
"laveB" 0.278865346136185
"agg" 0.632916748587951
"ave" 0.0643477376718742
"laveB" 0.311724381437604
"agg" 0.547734160701579
"ave" 0.0227064998771473
"laveB" 0.19307212723083
"agg" 0.504603105214651
"ave" 0.0212064386058983
"laveB" 0.185341941138855
"agg" 0.443977760823177
"ave" 0.018257731631734
"laveB" 0.176483834880289
"agg" 0.558568358438759
"ave" 0.0297138925340999
"laveB" 0.213694829551121
"agg" 0.14808530042175
"ave" 0.00982661691125959
"laveB" 0.0774728039347377
"agg" 0.513604397678677
"ave" 0.0307263082457398
"laveB" 0.215333723990329
"agg" 0.231457008251222
"ave" 0.011959847114957
"laveB" 0.0931424810706891
"agg" 0.38123545552331
"ave" 0.0276941818299014
"laveB" 0.161652716127361
"agg" 0.684042602143975
"ave" 0.0423062713568364
"laveB" 0.276922260998074
"agg" 0.640381790624652
"ave" 0.048548277425391
"laveB" 0.283639523572832
"agg" 0.837742978001905
"ave" 0.0565883943847125
"laveB" 0.385171134387705
"agg" 0.87882831512368
"ave" 0.0704367022383024
"laveB" 0.389735841163805
"agg" 0.581970813225605
"ave" 0.0188194497479075
"laveB" 0.164205368631593
"agg" 0.743040053096261
"ave" 0.0306348712216356
"laveB" 0.271683086943917
"agg" 0.84358150198143
"ave" 0.0530464837072552
"laveB" 0.347762641546735
"agg" 0.908078707965397
"ave" 0.0713828879477562
"laveB" 0.393452670741167
"agg" 0.590684328738628
"ave" 0.0211957448596083
"laveB" 0.136290269697787
"agg" 0.761520648431253
"ave" 0.0274318168275553
"laveB" 0.186956637353057
"agg" 0.317820673013832
"ave" 0.01341842422591
"laveB" 0.123817772094303
"agg" 0.211017913809282
"ave" 0.0077017006317142
"laveB" 0.0769054296026515
"agg" 0.404394780194719
"ave" 0.0101578845839987
"laveB" 0.0883714623686567
"agg" 0.227149843240824
"ave" 0.00767591314973933
"laveB" 0.0710542181312627
"agg" 0.378189301177909
"ave" 0.0154142419988921
"laveB" 0.162186262925932
"agg" 0.447250124991823
"ave" 0.0161194121428871
"laveB" 0.163396239260711
"agg" 0.25609363505081
"ave" 0.0100049051304106
"laveB" 0.0663545930716566
"agg" 0.786369746465125
"ave" 0.0891266267382907
"laveB" 0.435880343748675
"agg" 0.763336876775355
"ave" 0.0596564649188853
"laveB" 0.331549475572097
"agg" 0.68774373871115
"ave" 0.0557069994505357
"laveB" 0.300252754207949
"agg" 0.415858067728708
"ave" 0.0411110397738577
"laveB" 0.22968503126629
"agg" 0.43201979048876
"ave" 0.0495711803289692
"laveB" 0.252301667483652
"agg" 0.51617896215059
"ave" 0.0233583053660297
"laveB" 0.19732244555123
"agg" 0.46108978023387
"ave" 0.0217600762938642
"laveB" 0.193605913694897
"agg" 0.234095350620048
"ave" 0.00991575652051069
"laveB" 0.0844205668268118
"agg" 0.407318664631048
"ave" 0.0234028524796583
"laveB" 0.171945042629795
"agg" 0.0326882774202966
"ave" 0.002800236119245
"laveB" 0.0148375303680316
"agg" 0.367956513788508
"ave" 0.0242504450493344
"laveB" 0.164486012363754
"agg" 0.277082844115614
"ave" 0.017567342260679
"laveB" 0.129059551980667
"agg" 0.42027471568959
"ave" 0.033503536608421
"laveB" 0.20004431114427
"agg" 0.509448637760137
"ave" 0.0359802387172631
"laveB" 0.236528324196984
"agg" 0.563705569363808
"ave" 0.0483366133448757
"laveB" 0.286234189645601
"agg" 0.580787686565668
"ave" 0.0440922084627331
"laveB" 0.300010351719614
"agg" 0.571964243856474
"ave" 0.0500792304333351
"laveB" 0.292513193560334
"agg" 0.562827163909019
"ave" 0.0215259786011442
"laveB" 0.207930048221165
"agg" 0.60133859904942
"ave" 0.0281146267302008
"laveB" 0.233392032615773
"agg" 0.708880271259188
"ave" 0.0493909135172547
"laveB" 0.36262917102301
"agg" 0.61484642628692
"ave" 0.0506285586305632
"laveB" 0.276015824032726
"agg" 0.614066613480232
"ave" 0.0247611719919954
"laveB" 0.198374007819532
"agg" 0.601229416256521
"ave" 0.023437409881689
"laveB" 0.171204774601683
"agg" 0.43632786207249
"ave" 0.0202550610186426
"laveB" 0.183260963135604
"agg" 0.435402127714839
"ave" 0.0201733241170094
"laveB" 0.192937297924039
"agg" 0.375793011546705
"ave" 0.0106448092054209
"laveB" 0.0912207928763262
"agg" 0.236590187999915
"ave" 0.0084828574075676
"laveB" 0.0856573766607355
"agg" 0.40921161943972
"ave" 0.0173829640217495
"laveB" 0.160747194493042
"agg" 0.420824873565786
"ave" 0.0161806107462632
"laveB" 0.148244942025606
"agg" 0.332557759562967
"ave" 0.0111149511175344
"laveB" 0.0783234921170677
"agg" 0.784615214233107
"ave" 0.0662205036149429
"laveB" 0.372088764549763
"agg" 0.849099196336435
"ave" 0.0752802296969971
"laveB" 0.394682779500839
"agg" 0.543109592210383
"ave" 0.0592624623634843
"laveB" 0.317142113497191
"agg" 0.555958149945635
"ave" 0.0702951044183611
"laveB" 0.331511086630109
"agg" 0.554213583501488
"ave" 0.0264065653635049
"laveB" 0.210726434387803
"agg" 0.470065758175636
"ave" 0.0233607493220812
"laveB" 0.19639129080232
"agg" 0.271336610926413
"ave" 0.0122576946581809
"laveB" 0.100408140612528
"agg" 0.392149120779865
"ave" 0.0239810331534732
"laveB" 0.177660189748367
"agg" 0.0514829826651421
"ave" 0.00505624702093706
"laveB" 0.0190251175221798
"agg" 0.313173022427806
"ave" 0.0220088135108884
"laveB" 0.161209490071478
"agg" 0.24520022364681
"ave" 0.015652585044774
"laveB" 0.117254937581782
"agg" 0.339235998261816
"ave" 0.0289235250305923
"laveB" 0.15800022008101
"agg" 0.545765609467381
"ave" 0.0417166295778737
"laveB" 0.267645541111409
"agg" 0.53744990764182
"ave" 0.0495087261982136
"laveB" 0.29030938555147
"agg" 0.620295022897204
"ave" 0.0517586938214729
"laveB" 0.323060073207202
"agg" 0.657228660024803
"ave" 0.0617402643071492
"laveB" 0.353692336647282
"agg" 0.550837994196599
"ave" 0.0221168179317019
"laveB" 0.200241310604873
"agg" 0.638327633672094
"ave" 0.0315563465748305
"laveB" 0.26955559420688
"agg" 0.741164503911654
"ave" 0.0553069987858197
"laveB" 0.344253124261205
"agg" 0.775303842077333
"ave" 0.0696742850462635
"laveB" 0.379304981864689
"agg" 0.529956103647305
"ave" 0.0232721273049021
"laveB" 0.164635306861549
"agg" 0.69401394252249
"ave" 0.029834101585749
"laveB" 0.202809585656757
"agg" 0.532871648310621
"ave" 0.0269265367431458
"laveB" 0.220488229425466
"agg" 0.315640441511497
"ave" 0.0152100735623863
"laveB" 0.134154577975057
"agg" 0.38599822579888
"ave" 0.0119318403640601
"laveB" 0.09885998550724
"agg" 0.208315541242757
"ave" 0.00836437294382218
"laveB" 0.0765595367081911
"agg" 0.42082809079852
"ave" 0.0188948411078543
"laveB" 0.181517343260129
"agg" 0.39574672511724
"ave" 0.0154086476896677
"laveB" 0.146658169999643
"agg" 0.295666799124365
"ave" 0.0125759995692978
"laveB" 0.0749728188906886
"agg" 0.911507000816962
"ave" 0.0578144840026661
"laveB" 0.373850416455686
"agg" 0.549185059585458
"ave" 0.0431280653189175
"laveB" 0.284710587014121
"agg" 0.588461511103894
"ave" 0.0542961330145685
"laveB" 0.31109012138811
"agg" 0.581118719830388
"ave" 0.019906196166795
"laveB" 0.197360219993174
"agg" 0.528852984395797
"ave" 0.0191100275483851
"laveB" 0.189526204107401
"agg" 0.289853772642032
"ave" 0.00952717934175829
"laveB" 0.100662702112761
"agg" 0.406879992180246
"ave" 0.0181872694119313
"laveB" 0.153990936451829
"agg" 0.0606293975991756
"ave" 0.0035296371600062
"laveB" 0.0312679019552486
"agg" 0.357208921140143
"ave" 0.0179998585830725
"laveB" 0.153816920436617
"agg" 0.479839777323534
"ave" 0.0230936802846593
"laveB" 0.190250796049392
"agg" 0.474759122564726
"ave" 0.0283767376818957
"laveB" 0.176357379222927
"agg" 0.661575415824751
"ave" 0.0359772271348115
"laveB" 0.271191640487719
"agg" 0.643744433061911
"ave" 0.0425855701762204
"laveB" 0.283137669826338
"agg" 0.677562278784522
"ave" 0.0400834201049106
"laveB" 0.309686692762039
"agg" 0.653790262516537
"ave" 0.0447803022936155
"laveB" 0.320244509571921
"agg" 0.657717742174778
"ave" 0.018720790715726
"laveB" 0.195178687801995
"agg" 0.670753403232096
"ave" 0.0236376903299639
"laveB" 0.243923199674792
"agg" 0.699503007831633
"ave" 0.0381525768373052
"laveB" 0.279720924667573
"agg" 0.651289459429444
"ave" 0.0432966582761682
"laveB" 0.27196856835953
"agg" 0.649848099357168
"ave" 0.0207374690860694
"laveB" 0.171884055120892
"agg" 0.656790445753162
"ave" 0.0199899303214614
"laveB" 0.160610501026596
"agg" 0.573279311961878
"ave" 0.0197382552540046
"laveB" 0.196746199551793
"agg" 0.592750374818026
"ave" 0.0202721863181662
"laveB" 0.19354080921006
"agg" 0.51658326689294
"ave" 0.012406967953758
"laveB" 0.106561645565111
"agg" 0.365786606119984
"ave" 0.0103895524542351
"laveB" 0.101499755463001
"agg" 0.62903729787417
"ave" 0.0203307068751383
"laveB" 0.210003389738631
"agg" 0.678083062523308
"ave" 0.0200939751030905
"laveB" 0.206687652380146
"agg" 0.523155041235444
"ave" 0.0143399467951388
"laveB" 0.126919364505133
"agg" 0.453082663009395
"ave" 0.0377872097454859
"laveB" 0.224985594832494
"agg" 0.522828511115135
"ave" 0.0503567640985711
"laveB" 0.270756192286886
"agg" 0.562259624996979
"ave" 0.0197310220327387
"laveB" 0.182946951898541
"agg" 0.552511915168688
"ave" 0.0200093129698616
"laveB" 0.186217049211482
"agg" 0.382513184446259
"ave" 0.0123650155202059
"laveB" 0.129379862974188
"agg" 0.494179446364291
"ave" 0.0214353645973294
"laveB" 0.170568713331695
"agg" 0.073717555893574
"ave" 0.00448804339953643
"laveB" 0.0293312646870056
"agg" 0.385036252471117
"ave" 0.0189148510554764
"laveB" 0.149130894121883
"agg" 0.489734459294676
"ave" 0.0239634804853866
"laveB" 0.189088306564388
"agg" 0.526511048581182
"ave" 0.0314465012903617
"laveB" 0.205211314382019
"agg" 0.591882039754495
"ave" 0.034012996104778
"laveB" 0.241094674894059
"agg" 0.609904018783204
"ave" 0.0418622394632924
"laveB" 0.271876092766264
"agg" 0.645092969787076
"ave" 0.0395673927211566
"laveB" 0.277570269690692
"agg" 0.6284806186854
"ave" 0.0448028187936999
"laveB" 0.285493856881827
"agg" 0.621653416166438
"ave" 0.0180717988584517
"laveB" 0.181208126651379
"agg" 0.646609333449807
"ave" 0.0233488312298154
"laveB" 0.228878283638037
"agg" 0.642846514021914
"ave" 0.0365854768094411
"laveB" 0.263753121051193
"agg" 0.656098046854085
"ave" 0.045265198581229
"laveB" 0.284418115285583
"agg" 0.578634351534801
"ave" 0.0188722033852789
"laveB" 0.129428314780231
"agg" 0.665266106218952
"ave" 0.0211190292902995
"laveB" 0.148496887097415
"agg" 0.576395097341948
"ave" 0.0205994221163338
"laveB" 0.192572619309416
"agg" 0.483145086027227
"ave" 0.0168493062375403
"laveB" 0.182508031300711
"agg" 0.480462770173287
"ave" 0.0113835269290449
"laveB" 0.117636892150203
"agg" 0.397615824828676
"ave" 0.010372118404788
"laveB" 0.096391702663176
"agg" 0.635886507632537
"ave" 0.0208599982980923
"laveB" 0.200967331525665
"agg" 0.640462308757981
"ave" 0.0188927941871418
"laveB" 0.185141824029537
"agg" 0.443811241672821
"ave" 0.0130095992460009
"laveB" 0.106713699646846
"agg" 0.930183341635588
"ave" 0.112025133995406
"laveB" 0.610226763369866
"agg" 0.341475053992523
"ave" 0.0136268943228825
"laveB" 0.13311087956923
"agg" 0.245314949664747
"ave" 0.0101434816403724
"laveB" 0.105957544952493
"agg" 0.0235056397682431
"ave" -0.000198023244666303
"laveB" 0.00121948311744533
"agg" 0.104092872279972
"ave" 0.003734925581378
"laveB" 0.0213874209083897
"agg" 0.079096402254682
"ave" 0.0045646101800012
"laveB" 0.0408214500501715
"agg" 0.268886312436218
"ave" 0.0150509502182185
"laveB" 0.127184641848051
"agg" -0.0904113335970219
"ave" -0.00935633979263603
"laveB" -0.0572384359203102
"agg" -0.0169822585757811
"ave" -0.0028577579602906
"laveB" -0.0245794196841458
"agg" 0.626027152742964
"ave" 0.0425527838861193
"laveB" 0.307886205691982
"agg" 0.457126595621862
"ave" 0.0368377539974302
"laveB" 0.254083030635782
"agg" 0.70844334054557
"ave" 0.0545954460394608
"laveB" 0.387679311896904
"agg" 0.755800828923033
"ave" 0.0633243289552065
"laveB" 0.412516779725958
"agg" 0.46724721409766
"ave" 0.0170375009951215
"laveB" 0.169602812607546
"agg" 0.559825386095095
"ave" 0.0250229308283812
"laveB" 0.256415146399426
"agg" 0.76988394381334
"ave" 0.0504580930905755
"laveB" 0.343128374824101
"agg" 0.745314737865512
"ave" 0.0609352096864517
"laveB" 0.367705856634313
"agg" 0.52903475944393
"ave" 0.0203706364410564
"laveB" 0.151787423257937
"agg" 0.605959262894145
"ave" 0.0235656014276073
"laveB" 0.184253307961264
"agg" 0.136271205771183
"ave" 0.00508013650397132
"laveB" 0.0552250961672804
"agg" 0.0903400252958054
"ave" 0.0021180893198251
"laveB" 0.0367246110177885
"agg" 0.350886343077577
"ave" 0.00967240330001226
"laveB" 0.077572895407669
"agg" 0.0347032953780576
"ave" 0.00242878424636583
"laveB" 0.0344835767267207
"agg" 0.0414546020160116
"ave" 0.00171438823659442
"laveB" 0.0367425120520559
"agg" 0.150077296185993
"ave" 0.00511253450754107
"laveB" 0.0819944344870537
"agg" 0.102290899283667
"ave" 0.00863427226911366
"laveB" 0.0714282164395101
"agg" 0.34014982138254
"ave" 0.0159492200564735
"laveB" 0.140489737181638
"agg" 0.261000929400342
"ave" 0.0125134633643852
"laveB" 0.111699032629215
"agg" 0.094626366972719
"ave" 0.00290344657816476
"laveB" 0.0263587634289567
"agg" 0.179267812274231
"ave" 0.0089562584060303
"laveB" 0.0555527030894219
"agg" 0.0544417522081162
"ave" 0.00385503022065621
"laveB" 0.0313806316425851
"agg" 0.307782644531006
"ave" 0.0194635757756903
"laveB" 0.157509542411052
"agg" 0.00747387993369474
"ave" -0.00495347886692542
"laveB" -0.0233033522876935
"agg" 0.0529385240093015
"ave" 0.00205858149245573
"laveB" 0.00485250292178806
"agg" 0.689235989063188
"ave" 0.0553222570253501
"laveB" 0.356570281302833
"agg" 0.528858769146192
"ave" 0.0502822673367762
"laveB" 0.28999256694101
"agg" 0.778536746356583
"ave" 0.0693893095072038
"laveB" 0.437913569278049
"agg" 0.795052232269767
"ave" 0.0786521765798899
"laveB" 0.464412150622915
"agg" 0.483430149845425
"ave" 0.0202064546796548
"laveB" 0.191346268521349
"agg" 0.590138808872885
"ave" 0.0307233380355384
"laveB" 0.257036072660733
"agg" 0.769704018421551
"ave" 0.0601795350945004
"laveB" 0.377158895310499
"agg" 0.760415701993886
"ave" 0.0736084508978207
"laveB" 0.384607990860603
"agg" 0.610034345144341
"ave" 0.0276613218862834
"laveB" 0.187109348568732
"agg" 0.646094048724803
"ave" 0.0291321906527511
"laveB" 0.18248587251333
"agg" 0.141401826132728
"ave" 0.00585425389323851
"laveB" 0.0441873135492286
"agg" 0.0982346883080752
"ave" 0.00265134021586464
"laveB" 0.0363181921697597
"agg" 0.329520834283506
"ave" 0.0107632024515226
"laveB" 0.0733295303109213
"agg" 0.0530692468882781
"ave" 0.00300362992365448
"laveB" 0.0431911245051029
"agg" 0.108433736957555
"ave" 0.00528345278502606
"laveB" 0.0449599803505462
"agg" 0.224260109374499
"ave" 0.00923028502747045
"laveB" 0.103386095950962
"agg" 0.113641467734926
"ave" 0.0111113565274942
"laveB" 0.0879291060887396
"agg" 0.78571268224771
"ave" 0.0160580265667463
"laveB" 0.223784864867945
"agg" 0.5800023724147
"ave" 0.0107977707084592
"laveB" 0.171018651087356
"agg" 0.606558907212499
"ave" 0.0155607919442044
"laveB" 0.198310517101316
"agg" 0.0929224991675678
"ave" 0.00282449570810007
"laveB" 0.0358232343740909
"agg" 0.429026497783907
"ave" 0.0124153560267553
"laveB" 0.145338468852428
"agg" 0.304549275353978
"ave" 0.00870721509445719
"laveB" 0.098164764834371
"agg" 0.455610806336551
"ave" 0.0158926657336334
"laveB" 0.168102644533138
"agg" 0.383467115701336
"ave" 0.0114350801334183
"laveB" 0.119978710743688
"agg" 0.406428247599937
"ave" 0.0149555026548934
"laveB" 0.146693615551002
"agg" 0.460365514370601
"ave" 0.0147044531128623
"laveB" 0.163775952417607
"agg" 0.530165175064895
"ave" 0.0197845226967077
"laveB" 0.193509612379038
"agg" 0.527716888909008
"ave" 0.00819152221422416
"laveB" 0.140279428561943
"agg" 0.589005115534111
"ave" 0.0112669542950931
"laveB" 0.181967641630444
"agg" 0.531751719660233
"ave" 0.0156153942503354
"laveB" 0.181153259814056
"agg" 0.541836644715496
"ave" 0.0192025921889865
"laveB" 0.172070366637939
"agg" 0.409174807943004
"ave" 0.00718027533545599
"laveB" 0.0916421671027368
"agg" 0.540699393497034
"ave" 0.00925858056759079
"laveB" 0.104329298996325
"agg" 0.467402619270254
"ave" 0.00987947020031065
"laveB" 0.145954686018165
"agg" 0.40208682209417
"ave" 0.00858251622740339
"laveB" 0.12413165417549
"agg" 0.483771987724816
"ave" 0.00610050834516452
"laveB" 0.0897216356039096
"agg" 0.378077868895431
"ave" 0.00606807467068256
"laveB" 0.0854764901295414
"agg" 0.499413054491288
"ave" 0.00963896524811357
"laveB" 0.144065753957284
"agg" 0.528386305633321
"ave" 0.00919459600832473
"laveB" 0.143906584107666
"agg" 0.323054165256704
"ave" 0.00555710332211922
"laveB" 0.0573789921536485
"agg" 0.575090371988775
"ave" 0.0111401564811427
"laveB" 0.184450175296802
"agg" 0.684620478990803
"ave" 0.0178673857253834
"laveB" 0.236331174903085
"agg" 0.0867290545416321
"ave" 0.00208551630901551
"laveB" 0.0375794280529515
"agg" 0.455587422618008
"ave" 0.0137785554010742
"laveB" 0.168465521699051
"agg" 0.318500756480346
"ave" 0.00922870092300842
"laveB" 0.11330246290263
"agg" 0.548449950814503
"ave" 0.0196398383996638
"laveB" 0.209230497187234
"agg" 0.367679630679502
"ave" 0.0113753867494667
"laveB" 0.129236100784524
"agg" 0.389493203744744
"ave" 0.0146520566784112
"laveB" 0.155449684133102
"agg" 0.448182169606709
"ave" 0.0149668709480055
"laveB" 0.183434700315701
"agg" 0.50097230265735
"ave" 0.0196191453360546
"laveB" 0.20278925373724
"agg" 0.46742265566065
"ave" 0.00774333474487288
"laveB" 0.124549375780238
"agg" 0.530762760610021
"ave" 0.0106640406738929
"laveB" 0.169626660453229
"agg" 0.480828418386885
"ave" 0.014815466374937
"laveB" 0.166081244417458
"agg" 0.452703016664047
"ave" 0.0169354572263998
"laveB" 0.173997410319482
"agg" 0.308106549791124
"ave" 0.00516751154596961
"laveB" 0.0631780889226325
"agg" 0.459642195667379
"ave" 0.00809335320498861
"laveB" 0.104424780131472
"agg" 0.432809686957243
"ave" 0.00939992760693443
"laveB" 0.137806812186502
"agg" 0.332648097941229
"ave" 0.00728930245909453
"laveB" 0.104816108056174
"agg" 0.435019598993078
"ave" 0.0058741382980793
"laveB" 0.0958831934892784
"agg" 0.410286266097671
"ave" 0.00674425689333545
"laveB" 0.103326978547951
"agg" 0.499584385307458
"ave" 0.00966826659434011
"laveB" 0.141428536116342
"agg" 0.531021506686635
"ave" 0.0093739689004145
"laveB" 0.14444244178826
"agg" 0.325636694661055
"ave" 0.00482364387542485
"laveB" 0.0490581938885705
"agg" 0.69203771080572
"ave" 0.0167864838443537
"laveB" 0.232727962477504
"agg" 0.262300546038518
"ave" 0.00766036976712794
"laveB" 0.117109166604478
"agg" 0.41449216002998
"ave" 0.0116449774460764
"laveB" 0.144662737210827
"agg" 0.331584786108241
"ave" 0.00880862282752737
"laveB" 0.116686371277874
"agg" 0.519726158576892
"ave" 0.0169408832436033
"laveB" 0.210519747135628
"agg" 0.256621654941625
"ave" 0.00727248788469438
"laveB" 0.102702864675698
"agg" 0.241434645603001
"ave" 0.00811995897530811
"laveB" 0.0842756824110917
"agg" 0.320505507083081
"ave" 0.00921689104382597
"laveB" 0.119133119202959
"agg" 0.344445022617225
"ave" 0.0129643415343219
"laveB" 0.136036228641109
"agg" 0.23559573813724
"ave" 0.0033909828521981
"laveB" 0.0549086726843579
"agg" 0.334798203400128
"ave" 0.00606548065431042
"laveB" 0.103603565223981
"agg" 0.284320364152876
"ave" 0.0087373657970128
"laveB" 0.101938371427793
"agg" 0.314463200215399
"ave" 0.0113457341283595
"laveB" 0.118243163150189
"agg" 0.287177475169872
"ave" 0.00504559209498065
"laveB" 0.0585815976390967
"agg" 0.404091928120226
"ave" 0.00679234678740151
"laveB" 0.090010002381388
"agg" 0.362399769148195
"ave" 0.00709241260536378
"laveB" 0.118390295444022
"agg" 0.299114823155542
"ave" 0.00591572695105801
"laveB" 0.0996913047285295
"agg" 0.219180617351637
"ave" 0.00294407386378148
"laveB" 0.046165444160565
"agg" 0.379448630095762
"ave" 0.00511782073258468
"laveB" 0.07799180672334
"agg" 0.478944613604867
"ave" 0.00844510218477569
"laveB" 0.13637030209353
"agg" 0.528378027671232
"ave" 0.00859261747220563
"laveB" 0.127151878306288
"agg" 0.219747480704227
"ave" 0.00346845401410395
"laveB" 0.0383494271881116
"agg" 0.201095240497679
"ave" 0.00790185914676788
"laveB" 0.103180563576976
"agg" 0.581785316242933
"ave" 0.0218837130686174
"laveB" 0.224658135048811
"agg" 0.408203437337007
"ave" 0.0156997803485266
"laveB" 0.161262922155929
"agg" 0.643455461838582
"ave" 0.0296227155935277
"laveB" 0.275041706835301
"agg" 0.377023708419161
"ave" 0.0146279244356954
"laveB" 0.133041637596882
"agg" 0.429349886468214
"ave" 0.0205164018103801
"laveB" 0.170016815477509
"agg" 0.498381913600913
"ave" 0.01981661916708
"laveB" 0.203154583537239
"agg" 0.490167178606918
"ave" 0.0245594363755516
"laveB" 0.215938964327385
"agg" 0.386826786637832
"ave" 0.00786901722124379
"laveB" 0.103381144782886
"agg" 0.531707899193131
"ave" 0.0133476698675322
"laveB" 0.182046159516576
"agg" 0.450956792378189
"ave" 0.0176640094107047
"laveB" 0.1709628687755
"agg" 0.43710768744021
"ave" 0.0210296997384912
"laveB" 0.170844228358329
"agg" 0.401669516538085
"ave" 0.00879485087641057
"laveB" 0.0975457206851839
"agg" 0.478299376994772
"ave" 0.0106544557375985
"laveB" 0.100145867298879
"agg" 0.337813418187464
"ave" 0.00941293259464002
"laveB" 0.1330242689869
"agg" 0.318079743942579
"ave" 0.0089499787048786
"laveB" 0.114456833655769
"agg" 0.367764417305575
"ave" 0.00608223575543769
"laveB" 0.0933160798580983
"agg" 0.417537778793252
"ave" 0.0077851350114272
"laveB" 0.109530291160939
"agg" 0.554438731985236
"ave" 0.0137160246138708
"laveB" 0.189682140448216
"agg" 0.558282803251385
"ave" 0.0126451048020129
"laveB" 0.151936784646807
"agg" 0.288165392549574
"ave" 0.0051626974569875
"laveB" 0.0459671628175998
"agg" -0.0525053448736726
"ave" -0.00109075802558065
"laveB" -0.000281190616012651
"agg" 0.0404808943498395
"ave" 0.00273010395693871
"laveB" 0.0303019603596298
"agg" 0.0944882758124381
"ave" 0.00561754240326179
"laveB" 0.0556142239018989
"agg" 0.0724664269341291
"ave" 0.00319164094869879
"laveB" 0.0421046702245748
"agg" 0.0747895610183957
"ave" 0.00446834482413791
"laveB" 0.0267501392087835
"agg" 0.124600583806379
"ave" 0.00603093056792739
"laveB" 0.0541678719760913
"agg" 0.110903486899921
"ave" 0.00654817542853829
"laveB" 0.0523194925615628
"agg" 0.0613692432497245
"ave" 0.00173849518570405
"laveB" 0.0259505516093187
"agg" 0.0665003974049344
"ave" 0.00217274207749959
"laveB" 0.0274742111200691
"agg" 0.168531351143805
"ave" 0.00836511089393749
"laveB" 0.0652880801099235
"agg" 0.105909387058392
"ave" 0.006354163790806
"laveB" 0.0496052802497602
"agg" 0.110859870133144
"ave" 0.00330836116616496
"laveB" 0.0290724307491965
"agg" 0.196901695865208
"ave" 0.00531272777230106
"laveB" 0.0394717058858889
"agg" -0.0658174568258935
"ave" -0.00132866380418324
"laveB" -0.0108955641761924
"agg" -0.0352997623820583
"ave" -0.0005041369631935
"laveB" 0.00261529237319572
"agg" 0.0197073783983246
"ave" 0.00153803564267901
"laveB" 0.0271102065726773
"agg" -0.0274666695418205
"ave" 0.000689297168158406
"laveB" 0.00951541986918209
"agg" 0.00121491072039964
"ave" 0.000904988617773711
"laveB" 0.0262725699147404
"agg" 0.0184189551001543
"ave" 0.00117277925156347
"laveB" 0.0242832537969481
"agg" 0.0970055460817164
"ave" 0.0015653494567384
"laveB" 0.0052880068102604
"agg" 0.309406089590543
"ave" 0.0127647597021554
"laveB" 0.123007208105994
"agg" 0.435750413513885
"ave" 0.0236574220623747
"laveB" 0.184265101923338
"agg" 0.424921861798882
"ave" 0.0180567517247617
"laveB" 0.162195044547804
"agg" 0.449813533976203
"ave" 0.0240675661190612
"laveB" 0.187272184757295
"agg" 0.513015968574503
"ave" 0.0232043798940413
"laveB" 0.221795536765853
"agg" 0.509083234998066
"ave" 0.028296340451918
"laveB" 0.251107577864019
"agg" 0.412172765994946
"ave" 0.00907639161813099
"laveB" 0.109971666305426
"agg" 0.517810322452809
"ave" 0.0146184104525227
"laveB" 0.183954043029689
"agg" 0.419658928796455
"ave" 0.0189057181714419
"laveB" 0.180077201254482
"agg" 0.445672469191996
"ave" 0.0241264959661999
"laveB" 0.161937854418781
"agg" 0.43818842558827
"ave" 0.0105156296133752
"laveB" 0.104751640150603
"agg" 0.471401860674147
"ave" 0.0118648353657083
"laveB" 0.0996554126082455
"agg" 0.273478624501434
"ave" 0.00802628322236128
"laveB" 0.0991116217937682
"agg" 0.272920891123574
"ave" 0.00791625390280199
"laveB" 0.0801469560814455
"agg" 0.359542779541691
"ave" 0.00583328312954758
"laveB" 0.0906386734530938
"agg" 0.346246220951558
"ave" 0.00668716757785358
"laveB" 0.0731896188717434
"agg" 0.415615941237994
"ave" 0.0118022484780701
"laveB" 0.134494969823158
"agg" 0.461615649294717
"ave" 0.0119096158039504
"laveB" 0.113438298070782
"agg" 0.0824299866688275
"ave" 0.00264935405143568
"laveB" 0.033888302551324
"agg" 0.669871337833876
"ave" 0.0344316342917022
"laveB" 0.308383766824182
"agg" 0.265266526181586
"ave" 0.010629724661209
"laveB" 0.110074724997534
"agg" 0.341612745203386
"ave" 0.0187565174121521
"laveB" 0.146407075250023
"agg" 0.205835326803586
"ave" 0.00683325287338992
"laveB" 0.100748105087525
"agg" 0.174512571939353
"ave" 0.00920398030131509
"laveB" 0.0935739072598298
"agg" 0.409890893591126
"ave" 0.0088758153299392
"laveB" 0.118956164220555
"agg" 0.357971344184132
"ave" 0.00962413729540977
"laveB" 0.112733739884772
"agg" 0.0678399652268328
"ave" 0.00327700733822139
"laveB" 0.0262182827739265
"agg" 0.145035930712681
"ave" 0.00787000546436778
"laveB" 0.0687961632833836
"agg" 0.394215608249709
"ave" 0.010533117334837
"laveB" 0.11622311603209
"agg" 0.331218515480725
"ave" 0.0071742629375225
"laveB" 0.0864829072194575
"agg" 0.432267550497563
"ave" 0.0124882775966695
"laveB" 0.149574776551267
"agg" 0.564346088482634
"ave" 0.016686990586825
"laveB" 0.20230403214964
"agg" 0.37099601981654
"ave" 0.0067286237534458
"laveB" 0.105240720212632
"agg" 0.575632235110763
"ave" 0.0114395361328479
"laveB" 0.137361939514197
"agg" 0.677685500881184
"ave" 0.0183357267228468
"laveB" 0.22872635485207
"agg" 0.699212902044635
"ave" 0.017095456641523
"laveB" 0.202557021872846
"agg" 0.492411181227309
"ave" 0.00853447089030217
"laveB" 0.100881363755339
"agg" 0.3230119065983
"ave" 0.0172356154945091
"laveB" 0.139169139209401
"agg" 0.459901451639889
"ave" 0.0306262343159167
"laveB" 0.203810573642567
"agg" 0.355317283325114
"ave" 0.0197455377652546
"laveB" 0.148513293712007
"agg" 0.365553081130743
"ave" 0.0264311223541873
"laveB" 0.166519224482321
"agg" 0.422126718663985
"ave" 0.0120853649647754
"laveB" 0.129928139717294
"agg" 0.495691357100953
"ave" 0.0178665248998419
"laveB" 0.194512481454307
"agg" 0.284908042755568
"ave" 0.016568741350246
"laveB" 0.126301484673303
"agg" 0.290378189700347
"ave" 0.0206665393635948
"laveB" 0.138963869551802
"agg" 0.332268165880573
"ave" 0.0106855163497455
"laveB" 0.0856891886413175
"agg" 0.483577783004762
"ave" 0.0150155772034213
"laveB" 0.140917843627246
"agg" 0.376771736181921
"ave" 0.013332646057041
"laveB" 0.158113364496773
"agg" 0.416469376809108
"ave" 0.014720994258884
"laveB" 0.154394962718949
"agg" 0.310525603009447
"ave" 0.00760881993961762
"laveB" 0.0938964461250214
"agg" 0.445640294202409
"ave" 0.0106220941043393
"laveB" 0.131259208036196
"agg" 0.639307095050411
"ave" 0.0205838113384781
"laveB" 0.246104229743211
"agg" 0.659625447555312
"ave" 0.0189069927834679
"laveB" 0.194087994600562
"agg" 0.417620909396595
"ave" 0.00746960808972003
"laveB" 0.0571302767736267
"agg" 0.720064988527808
"ave" 0.0420226807247923
"laveB" 0.336935470358416
"agg" 0.794146806577114
"ave" 0.0407939674643901
"laveB" 0.36624487889803
"agg" 0.710548446269171
"ave" 0.0420385102127479
"laveB" 0.321726519216502
"agg" 0.613207473061996
"ave" 0.0148683803721963
"laveB" 0.175833135427908
"agg" 0.586172468385959
"ave" 0.0181630773986429
"laveB" 0.209642548600281
"agg" 0.691236435275209
"ave" 0.0326526714112267
"laveB" 0.274834943537046
"agg" 0.670415819416481
"ave" 0.038420530556495
"laveB" 0.277221886752701
"agg" 0.647267184241859
"ave" 0.0174473528089624
"laveB" 0.158268224588461
"agg" 0.601053835086893
"ave" 0.0155960063553266
"laveB" 0.135779355783008
"agg" 0.243355654341649
"ave" 0.00717261156373484
"laveB" 0.0880914223710404
"agg" 0.289791004914462
"ave" 0.00823239133074393
"laveB" 0.0955247489352117
"agg" 0.270520914942172
"ave" 0.00692220079270209
"laveB" 0.0823246863071428
"agg" 0.106209577220124
"ave" 0.00399379142841012
"laveB" 0.0387477187836802
"agg" 0.360401449438481
"ave" 0.0111075479428825
"laveB" 0.138120914196108
"agg" 0.449951864121679
"ave" 0.01176070899933
"laveB" 0.14547540175156
"agg" 0.214155919638294
"ave" 0.00783163332647664
"laveB" 0.0540001328427262
"agg" 0.756897204626691
"ave" 0.0462164005865721
"laveB" 0.359714643404661
"agg" 0.693590061528477
"ave" 0.0505710453422839
"laveB" 0.361255060928504
"agg" 0.650787931625762
"ave" 0.0202546646426798
"laveB" 0.218312071446179
"agg" 0.644513039092621
"ave" 0.0247331221131835
"laveB" 0.268746085086682
"agg" 0.64089291407541
"ave" 0.036503365279748
"laveB" 0.276388193150168
"agg" 0.595964779010569
"ave" 0.0418844270328276
"laveB" 0.268412676571005
"agg" 0.590038038169265
"ave" 0.0194199318695006
"laveB" 0.163882635379178
"agg" 0.609109123734637
"ave" 0.0201514964059571
"laveB" 0.15401016871358
"agg" 0.1804951599733
"ave" 0.00662790565836265
"laveB" 0.0686969667751779
"agg" 0.238623659339552
"ave" 0.00876292943188125
"laveB" 0.0816692324934258
"agg" 0.215519865139516
"ave" 0.00586627508475517
"laveB" 0.0638376811590963
"agg" 0.0956367143254543
"ave" 0.00285225196890453
"laveB" 0.0183098864564438
"agg" 0.405337749178523
"ave" 0.0151554885872168
"laveB" 0.149584744831869
"agg" 0.477684414697579
"ave" 0.0154924602661757
"laveB" 0.143424721643515
"agg" 0.220425477701472
"ave" 0.00769924035541205
"laveB" 0.0682476964836762
"agg" 0.924234666046634
"ave" 0.0599765489078531
"laveB" 0.494808212218454
"agg" 0.671732892062106
"ave" 0.0179329072350596
"laveB" 0.209126355354552
"agg" 0.74878332283284
"ave" 0.0250592264169263
"laveB" 0.296145347271506
"agg" 0.893530865371489
"ave" 0.0462423670634136
"laveB" 0.400636512698377
"agg" 0.832994024577855
"ave" 0.0528452601355669
"laveB" 0.379642857648544
"agg" 0.704329129730925
"ave" 0.020083741560932
"laveB" 0.194912174155912
"agg" 0.740582941026567
"ave" 0.0214626039456335
"laveB" 0.174115062834489
"agg" 0.23460968950644
"ave" 0.00747501070937473
"laveB" 0.0905016820144573
"agg" 0.198113024915648
"ave" 0.00541293236517121
"laveB" 0.0758797458811137
"agg" 0.420282896225842
"ave" 0.00891503241791376
"laveB" 0.0980070835039986
"agg" 0.19693098503537
"ave" 0.00514815051159623
"laveB" 0.0581506267593078
"agg" 0.329623723435838
"ave" 0.0104533200376591
"laveB" 0.135885442720211
"agg" 0.438573121489492
"ave" 0.0119030145773561
"laveB" 0.14373652959644
"agg" 0.288560267012831
"ave" 0.00929666551715597
"laveB" 0.0876310861027522
"agg" 0.688505833168282
"ave" 0.0214733184253684
"laveB" 0.230032022846681
"agg" 0.832788110116369
"ave" 0.0320143772754126
"laveB" 0.348996803460406
"agg" 0.92564655010799
"ave" 0.0534708962274735
"laveB" 0.419566833069975
"agg" 0.919146085279021
"ave" 0.0659999445616491
"laveB" 0.420445101187372
"agg" 0.628160445443719
"ave" 0.0213165740402408
"laveB" 0.178473766604769
"agg" 0.809083528576753
"ave" 0.0273660154308697
"laveB" 0.22289788405448
"agg" 0.247171147206319
"ave" 0.0092316281429127
"laveB" 0.10989253947891
"agg" 0.165393292374056
"ave" 0.00587370216600062
"laveB" 0.0647789703333449
"agg" 0.429533465471747
"ave" 0.00989087964072723
"laveB" 0.106798650979073
"agg" 0.193248187082732
"ave" 0.00598339868447236
"laveB" 0.0694483337938986
"agg" 0.28108622564668
"ave" 0.0116575984870754
"laveB" 0.131034930731757
"agg" 0.39502223867373
"ave" 0.0136862878960654
"laveB" 0.138536546090792
"agg" 0.219457474739175
"ave" 0.00953117472951796
"laveB" 0.0683514044204608
"agg" 0.779505598076545
"ave" 0.0126267060440719
"laveB" 0.192047667636269
"agg" 0.634752761879633
"ave" 0.0157807725963717
"laveB" 0.206254102202387
"agg" 0.640159920116342
"ave" 0.0190678717527292
"laveB" 0.209145188788512
"agg" 0.581018487276748
"ave" 0.00782455256737691
"laveB" 0.109764495350023
"agg" 0.628536521789102
"ave" 0.00859619647331878
"laveB" 0.0979025083263562
"agg" 0.267865782926552
"ave" 0.00436979810247929
"laveB" 0.0810745739368979
"agg" 0.330878459870589
"ave" 0.00535717499228897
"laveB" 0.0901454649719558
"agg" 0.450381443828109
"ave" 0.00394726406915703
"laveB" 0.0725825395742037
"agg" 0.31110477935388
"ave" 0.00331765949202173
"laveB" 0.0585205916693588
"agg" 0.335582235508436
"ave" 0.00551857388894197
"laveB" 0.0978550028426951
"agg" 0.472621474902597
"ave" 0.00638884130018724
"laveB" 0.103003051103883
"agg" 0.27327792562652
"ave" 0.0041923861336575
"laveB" 0.0600695968629898
"agg" 0.775365268250178
"ave" 0.0234944282078789
"laveB" 0.27820550986403
"agg" 0.789835949686444
"ave" 0.029385537244141
"laveB" 0.294825342945403
"agg" 0.556490200905799
"ave" 0.00918516354226808
"laveB" 0.128302192669227
"agg" 0.743568235287404
"ave" 0.0128459855352798
"laveB" 0.137907583016282
"agg" 0.267154446334344
"ave" 0.00532173125841702
"laveB" 0.0894359499431851
"agg" 0.231778937477669
"ave" 0.00434626419543098
"laveB" 0.0815516778254779
"agg" 0.473148184560689
"ave" 0.00496962135839319
"laveB" 0.0905192032742175
"agg" 0.296916092725856
"ave" 0.00330990489145981
"laveB" 0.0551556256860158
"agg" 0.369250854930317
"ave" 0.00742374853895265
"laveB" 0.130806263984083
"agg" 0.457322071043556
"ave" 0.00762054272338087
"laveB" 0.110287980468136
"agg" 0.328829367545807
"ave" 0.00516783118627249
"laveB" 0.0660295429299936
"agg" 0.912533451721754
"ave" 0.0510817010435235
"laveB" 0.379192914014042
"agg" 0.640943851747469
"ave" 0.0180106152042269
"laveB" 0.167745978505428
"agg" 0.772037042399915
"ave" 0.0208115290601949
"laveB" 0.175400166615225
"agg" 0.287317580921007
"ave" 0.0092478466000028
"laveB" 0.107276666443842
"agg" 0.200146804814029
"ave" 0.00662712755657099
"laveB" 0.0815851874060613
"agg" 0.425503080022142
"ave" 0.00845162502973783
"laveB" 0.0980864076285422
"agg" 0.116280203483254
"ave" 0.00415303639817545
"laveB" 0.0418768901036518
"agg" 0.267595862199415
"ave" 0.00919944751384679
"laveB" 0.114771984435577
"agg" 0.336243732857419
"ave" 0.00980130329476462
"laveB" 0.114244499374198
"agg" 0.272262367233367
"ave" 0.00868289709441383
"laveB" 0.0718884808030897
"agg" 0.637003102722391
"ave" 0.0215122055303904
"laveB" 0.155224236794715
"agg" 0.854184194261586
"ave" 0.0279587744354174
"laveB" 0.202602818963
"agg" 0.318385783857837
"ave" 0.0116270522478539
"laveB" 0.108500084893142
"agg" 0.165141081476245
"ave" 0.00574091550655044
"laveB" 0.067242526777174
"agg" 0.435494284984364
"ave" 0.0100791413361699
"laveB" 0.0794009045636222
"agg" 0.169629061163371
"ave" 0.00591066790096177
"laveB" 0.0519412473284714
"agg" 0.268882016603308
"ave" 0.011111232350858
"laveB" 0.124261999353271
"agg" 0.336021080080379
"ave" 0.0117236823218701
"laveB" 0.125812622353548
"agg" 0.214655278472302
"ave" 0.0095535592104467
"laveB" 0.0681987592907729
"agg" 0.714931901152332
"ave" 0.0108399805102904
"laveB" 0.112052335345498
"agg" 0.354909751178775
"ave" 0.00676361448313445
"laveB" 0.0876927483176163
"agg" 0.478125108817221
"ave" 0.00913663316778583
"laveB" 0.115860913827903
"agg" 0.414784973807203
"ave" 0.0049680644985783
"laveB" 0.056607046612109
"agg" 0.319946364513985
"ave" 0.00500484006128998
"laveB" 0.0613450335975165
"agg" 0.401133331399172
"ave" 0.00746133974916005
"laveB" 0.0861907421244905
"agg" 0.534357521285295
"ave" 0.0087207437180698
"laveB" 0.109539379875424
"agg" 0.356065349048683
"ave" 0.0057081472187359
"laveB" 0.0452155745278648
"agg" 0.365525573716409
"ave" 0.00631282500511195
"laveB" 0.0876858377309955
"agg" 0.288573269511336
"ave" 0.00451560524146077
"laveB" 0.0696084570762981
"agg" 0.438613033253965
"ave" 0.00505050432607158
"laveB" 0.0611303659834316
"agg" 0.277067214074632
"ave" 0.00352949629616482
"laveB" 0.0414834390691674
"agg" 0.379717326476094
"ave" 0.00643189392113702
"laveB" 0.0897782919822775
"agg" 0.487539705534648
"ave" 0.00707872332169223
"laveB" 0.0712444900912316
"agg" 0.290114887675261
"ave" 0.00439441578005723
"laveB" 0.0400391706293261
"agg" 0.783403344658198
"ave" 0.0166428929379251
"laveB" 0.244506925273724
"agg" 0.611800984858941
"ave" 0.00930665294821283
"laveB" 0.149622714366286
"agg" 0.61704980893445
"ave" 0.0105203857947759
"laveB" 0.147490165104957
"agg" 0.739020482172772
"ave" 0.0135613816530776
"laveB" 0.2206750674386
"agg" 0.666650163379679
"ave" 0.0117084231249062
"laveB" 0.191828954161359
"agg" 0.557398359817496
"ave" 0.00878231352505888
"laveB" 0.105802219888964
"agg" 0.51316726611243
"ave" 0.00825212846756346
"laveB" 0.13353187970616
"agg" 0.622795570078574
"ave" 0.0110079381878965
"laveB" 0.164488468742918
"agg" 0.771825741238772
"ave" 0.0140762777407977
"laveB" 0.218522186135633
"agg" 0.797372898444291
"ave" 0.0142209730829808
"laveB" 0.209096617021697
"agg" 0.579364149739627
"ave" 0.00861322277251879
"laveB" 0.107823619668186
"agg" 0.759777114074112
"ave" 0.00694701795720745
"laveB" 0.11221818643731
"agg" 0.505365060756442
"ave" 0.00724844688625261
"laveB" 0.12854339861327
"agg" 0.524589879741954
"ave" 0.00691801952011526
"laveB" 0.133050140455296
"agg" 0.533991573802237
"ave" 0.00586520267905601
"laveB" 0.0721038497964449
"agg" 0.608577579222609
"ave" 0.00871654898156482
"laveB" 0.140420072668116
"agg" 0.641544218812779
"ave" 0.00873733772984671
"laveB" 0.122269154431122
"agg" 0.49494188972796
"ave" 0.00595073697187629
"laveB" 0.0866216943808182
"agg" 0.889090616495089
"ave" 0.0139097928466602
"laveB" 0.225030550128128
"agg" 0.621488272889386
"ave" 0.00792679952011101
"laveB" 0.104950931633693
"agg" 0.602139177596156
"ave" 0.00767876614708699
"laveB" 0.124946737021504
