"EST" "CORR"
"agg" 0.850831536675927
"ave" 0.0578340056826687
"laveB" 0.34732235981809
"agg" 0.782512360445072
"ave" 0.0672551897805229
"laveB" 0.34382810070488
"agg" 0.792018200297551
"ave" 0.0770391302815062
"laveB" 0.391388492715475
"agg" 0.695975839112213
"ave" 0.0452761926991775
"laveB" 0.325166600971929
"agg" 0.791144050844238
"ave" 0.0387937951627711
"laveB" 0.308627154916741
"agg" 0.700954694914114
"ave" 0.0613479731108755
"laveB" 0.322723870648534
"agg" 0.664583859891222
"ave" 0.0557054972135762
"laveB" 0.286999389885162
"agg" 0.601342119389754
"ave" 0.0527031528773972
"laveB" 0.269061964488046
"agg" 0.709545325605682
"ave" 0.0587146894714482
"laveB" 0.331550396863343
"agg" 0.425632150887888
"ave" 0.0389755661022707
"laveB" 0.194004625874003
"agg" 0.437456938118483
"ave" 0.0432516723418899
"laveB" 0.210662873392849
"agg" 0.603616353609464
"ave" 0.0537055337925294
"laveB" 0.289867318634045
"agg" 0.608573035668363
"ave" 0.06302478117281
"laveB" 0.296690424184154
"agg" 0.320491847809262
"ave" 0.0367951736206226
"laveB" 0.170065757342015
"agg" 0.419582330085891
"ave" 0.0416396017425674
"laveB" 0.196941863364614
"agg" 0.422448911181916
"ave" 0.0362726918539781
"laveB" 0.216602573913464
"agg" 0.440997799102251
"ave" 0.0313399411422979
"laveB" 0.168866772089471
"agg" 0.600117018750893
"ave" 0.0622841464936237
"laveB" 0.327018455511067
"agg" 0.496260260853164
"ave" 0.0463076416277047
"laveB" 0.244975140921823
"agg" 0.532718183927769
"ave" 0.0236688209955993
"laveB" 0.201816916302152
"agg" 0.506516615574757
"ave" 0.0261444455006783
"laveB" 0.188485092470234
"agg" 0.408730861245113
"ave" 0.0261114485296438
"laveB" 0.208707132373889
"agg" 0.467057228534091
"ave" 0.0295083670051156
"laveB" 0.216427659446913
"agg" 0.0699437280217945
"ave" 0.00514778671957729
"laveB" 0.00753165773474512
"agg" 0.285704515380472
"ave" 0.0212865206892881
"laveB" 0.11768831205575
"agg" 0.39703138461799
"ave" 0.0260673517617319
"laveB" 0.182913202898862
"agg" 0.416281225872568
"ave" 0.0166928583436497
"laveB" 0.149007289537037
"agg" 0.703093022816815
"ave" 0.0681155883595575
"laveB" 0.410439950399495
"agg" 0.71720648374805
"ave" 0.064259038687515
"laveB" 0.406769534154685
"agg" 0.667668810652686
"ave" 0.0533246331446143
"laveB" 0.326437807517483
"agg" 0.707138700868161
"ave" 0.0538755280953489
"laveB" 0.353890938035833
"agg" 0.530708341421071
"ave" 0.0274249992324382
"laveB" 0.22023991637106
"agg" 0.445878070234127
"ave" 0.0215547177329279
"laveB" 0.181634631621943
"agg" 0.482397969652434
"ave" 0.0321520499971773
"laveB" 0.19680049778681
"agg" 0.579487855118486
"ave" 0.0461996687184622
"laveB" 0.238790465098124
"agg" 0.649092945681718
"ave" 0.0264866799253321
"laveB" 0.222877515755641
"agg" 0.683213913261617
"ave" 0.0332830947447539
"laveB" 0.252740281537275
"agg" 0.390626826589385
"ave" 0.0252293301821655
"laveB" 0.163951322319552
"agg" 0.326827202454427
"ave" 0.0214599024247345
"laveB" 0.147607085014953
"agg" 0.689877421018338
"ave" 0.0354901473835553
"laveB" 0.270381878687779
"agg" 0.675864607443542
"ave" 0.040040734758299
"laveB" 0.258264354908089
"agg" 0.697114855747118
"ave" 0.0306209499857013
"laveB" 0.282359293332896
"agg" 0.704122590648161
"ave" 0.0373622522264541
"laveB" 0.282216308137299
"agg" 0.616949581075215
"ave" 0.0322769928931557
"laveB" 0.219668318079267
"agg" 0.794335422159126
"ave" 0.0679029864498806
"laveB" 0.332864771392098
"agg" 0.752885590372699
"ave" 0.0726435269843885
"laveB" 0.342602633996343
"agg" 0.413012497944664
"ave" 0.0286715817067355
"laveB" 0.175048997029384
"agg" 0.57435081006056
"ave" 0.0295935844401522
"laveB" 0.194121857145569
"agg" 0.614062196473601
"ave" 0.0552180563578383
"laveB" 0.267797521875504
"agg" 0.664221876197515
"ave" 0.0568957933613288
"laveB" 0.278085088826287
"agg" 0.708746786844933
"ave" 0.0613264728974246
"laveB" 0.310031601043825
"agg" 0.724592877496691
"ave" 0.0570745953593171
"laveB" 0.312425098185196
"agg" 0.578202393173121
"ave" 0.0548864368879929
"laveB" 0.256747141812492
"agg" 0.519761840911122
"ave" 0.0485445402618624
"laveB" 0.238239933863737
"agg" 0.463997211254413
"ave" 0.0412384412293787
"laveB" 0.208776313639735
"agg" 0.495578188354707
"ave" 0.0499798704364105
"laveB" 0.213226535712067
"agg" 0.435275856359629
"ave" 0.0511545988816371
"laveB" 0.234435212484979
"agg" 0.480193066401544
"ave" 0.0459095641583888
"laveB" 0.216019614394781
"agg" 0.685928919735274
"ave" 0.054998632663567
"laveB" 0.307584434455053
"agg" 0.677782252986626
"ave" 0.0460019832282764
"laveB" 0.251255003926527
"agg" 0.374616211360156
"ave" 0.0386996268958707
"laveB" 0.170243654063145
"agg" 0.244824170252376
"ave" 0.021930830828295
"laveB" 0.0975038528710678
"agg" 0.623733387121997
"ave" 0.026446893532901
"laveB" 0.204332817508958
"agg" 0.3278817792013
"ave" 0.0179638030935611
"laveB" 0.0997911061731402
"agg" 0.0872377079708311
"ave" 0.00687758554076482
"laveB" 0.0281160123314836
"agg" 0.183710114551898
"ave" 0.0127113908060512
"laveB" 0.0646690258741776
"agg" -0.00835442032427516
"ave" -0.000162993526663927
"laveB" -0.0147040740263406
"agg" -0.00750560341787348
"ave" 0.00243634413279476
"laveB" 0.0155519545058546
"agg" 0.533113959845335
"ave" 0.0342807514745135
"laveB" 0.228163805929547
"agg" 0.333860922798555
"ave" 0.014823458932738
"laveB" 0.111077690297143
"agg" 0.485466989067473
"ave" 0.047930189034391
"laveB" 0.244398872444998
"agg" 0.535262698217472
"ave" 0.0487413052209768
"laveB" 0.289812691077725
"agg" 0.404301740613946
"ave" 0.0320288070282948
"laveB" 0.178043842435246
"agg" 0.510399071820495
"ave" 0.0396074903826151
"laveB" 0.226533721239812
"agg" 0.233293224290129
"ave" 0.012574632231824
"laveB" 0.0749122640420701
"agg" 0.258329724715982
"ave" 0.0124372563285501
"laveB" 0.087788593483386
"agg" 0.429873539030046
"ave" 0.0282237493968561
"laveB" 0.159049867190778
"agg" 0.4468645134867
"ave" 0.035655422180759
"laveB" 0.191302297838016
"agg" 0.669467082608711
"ave" 0.0285538886664249
"laveB" 0.202484544135251
"agg" 0.555183261226699
"ave" 0.0266464310920067
"laveB" 0.169800745460279
"agg" 0.423093517327418
"ave" 0.0249332796904327
"laveB" 0.136652053777896
"agg" 0.426173347896286
"ave" 0.026775199227812
"laveB" 0.187721440639586
"agg" 0.573902780190135
"ave" 0.0281992783776579
"laveB" 0.186237639516734
"agg" 0.512967703188114
"ave" 0.0313544376180832
"laveB" 0.209416335673911
"agg" 0.593869863717823
"ave" 0.0265997713258577
"laveB" 0.206836444286702
"agg" 0.713227136277298
"ave" 0.0365106421297372
"laveB" 0.271112572913351
"agg" 0.612482576715197
"ave" 0.0305673049361151
"laveB" 0.186463555529431
"agg" 0.948092150952684
"ave" 0.10896265630724
"laveB" 0.465150062464475
"agg" 0.620512625140308
"ave" 0.0496288066799988
"laveB" 0.299818289750659
"agg" 0.69092318443159
"ave" 0.0415012624780092
"laveB" 0.26633985408334
"agg" 0.666148015943341
"ave" 0.0726701086602084
"laveB" 0.313246489251766
"agg" 0.700894681625193
"ave" 0.07383739775825
"laveB" 0.319259096988229
"agg" 0.792953810380774
"ave" 0.0837161550270244
"laveB" 0.364882682238989
"agg" 0.879268115886279
"ave" 0.0856755117200875
"laveB" 0.421700783948446
"agg" 0.52333534434784
"ave" 0.0619314506149995
"laveB" 0.247338843287616
"agg" 0.494312639803155
"ave" 0.0578023022028102
"laveB" 0.261030740069582
"agg" 0.472285705409613
"ave" 0.0519841100885645
"laveB" 0.233839672395411
"agg" 0.547011568820888
"ave" 0.0674149264962107
"laveB" 0.274444056200912
"agg" 0.31818809768119
"ave" 0.0470038041401966
"laveB" 0.17357710980474
"agg" 0.405043575423101
"ave" 0.0496721137722581
"laveB" 0.208769858358889
"agg" 0.543716217522687
"ave" 0.0569650163079254
"laveB" 0.250061852953636
"agg" 0.514341479888146
"ave" 0.0459685084338514
"laveB" 0.203065587229889
"agg" 0.55873643880101
"ave" 0.0693029113993942
"laveB" 0.320739333807004
"agg" 0.451147551925184
"ave" 0.0500177291054621
"laveB" 0.220133747039379
"agg" 0.587163148182051
"ave" 0.0316166115957143
"laveB" 0.211949283218062
"agg" 0.425921723131407
"ave" 0.0265629699648071
"laveB" 0.173072697402043
"agg" 0.256695583046959
"ave" 0.0193137566040138
"laveB" 0.137224310652189
"agg" 0.364462979264281
"ave" 0.0274336174193317
"laveB" 0.166308121524287
"agg" 0.0304112843704005
"ave" 0.00308114979368104
"laveB" 0.00146921047104749
"agg" 0.136752616640549
"ave" 0.0128954808349015
"laveB" 0.0687711127898806
"agg" 0.520287302950508
"ave" 0.0405645005504717
"laveB" 0.241174174079602
"agg" 0.402122122471224
"ave" 0.0202218216912711
"laveB" 0.146894607527682
"agg" 0.547488860859662
"ave" 0.0652178609936956
"laveB" 0.312856438579974
"agg" 0.626581352723244
"ave" 0.0684532857358004
"laveB" 0.344015483968289
"agg" 0.531292123250725
"ave" 0.0514523318604246
"laveB" 0.249059459950534
"agg" 0.599079546087044
"ave" 0.055540714558672
"laveB" 0.297651085718421
"agg" 0.344978003543512
"ave" 0.0213399478675829
"laveB" 0.138602928018772
"agg" 0.322006235267694
"ave" 0.0185020866618971
"laveB" 0.131894806546603
"agg" 0.394494270193031
"ave" 0.0335141367282906
"laveB" 0.178286601230441
"agg" 0.472240418936385
"ave" 0.0467771775759543
"laveB" 0.217666330645794
"agg" 0.738646994681419
"ave" 0.0381785036154886
"laveB" 0.249554621254187
"agg" 0.68446665837895
"ave" 0.0408611632162828
"laveB" 0.265681592061627
"agg" 0.550782446359782
"ave" 0.0416378581364849
"laveB" 0.237505284896496
"agg" 0.511146940588139
"ave" 0.0406405715468596
"laveB" 0.240674667895108
"agg" 0.71805898202393
"ave" 0.0439755540648012
"laveB" 0.272396253955118
"agg" 0.660682507869578
"ave" 0.0473879071910671
"laveB" 0.282950691114206
"agg" 0.724862845319845
"ave" 0.0391278888478326
"laveB" 0.287647106066451
"agg" 0.780413070424563
"ave" 0.0496830931295588
"laveB" 0.339032472160162
"agg" 0.67217295148459
"ave" 0.0416780247996984
"laveB" 0.232670324479716
"agg" 0.724583605057021
"ave" 0.0643360327517979
"laveB" 0.374188567044596
"agg" 0.801045074934412
"ave" 0.0539540720919515
"laveB" 0.346469672334254
"agg" 0.710958027220842
"ave" 0.0862907400145699
"laveB" 0.368354681168275
"agg" 0.702202923710813
"ave" 0.0820630696925151
"laveB" 0.353075745532745
"agg" 0.734459108624248
"ave" 0.0880556671246422
"laveB" 0.388496694037567
"agg" 0.859781234194968
"ave" 0.0967125876780413
"laveB" 0.462093393420571
"agg" 0.472019051438922
"ave" 0.061060933281037
"laveB" 0.255209650806585
"agg" 0.472954451761337
"ave" 0.0636902553481137
"laveB" 0.275822621339476
"agg" 0.53291524891124
"ave" 0.0666244210776188
"laveB" 0.297808211588529
"agg" 0.570111784837483
"ave" 0.081825206377983
"laveB" 0.313263561116602
"agg" 0.356641805740579
"ave" 0.0552125966325214
"laveB" 0.211506614965215
"agg" 0.42377309889506
"ave" 0.0575918268058866
"laveB" 0.22697841041752
"agg" 0.463087423859912
"ave" 0.0546654137897612
"laveB" 0.257657902910159
"agg" 0.425577051127411
"ave" 0.0431490523627187
"laveB" 0.200046538475241
"agg" 0.684888076132511
"ave" 0.096538604005679
"laveB" 0.417389571105389
"agg" 0.590642040784769
"ave" 0.0742370832738641
"laveB" 0.32304522805303
"agg" 0.584937345786061
"ave" 0.0357982456815673
"laveB" 0.244352748827372
"agg" 0.530609710777569
"ave" 0.0365848605558576
"laveB" 0.222635112484918
"agg" 0.425701833329412
"ave" 0.0367751231972375
"laveB" 0.231675302270397
"agg" 0.506049217830462
"ave" 0.0431472303712794
"laveB" 0.246995283155022
"agg" 0.0703584874148701
"ave" 0.00641088433564201
"laveB" 0.0106658078848121
"agg" 0.271870061345734
"ave" 0.0279307600765547
"laveB" 0.131600821199505
"agg" 0.521770146440201
"ave" 0.0459894059474822
"laveB" 0.259507339564243
"agg" 0.455847565832397
"ave" 0.0250781372559398
"laveB" 0.167933253643123
"agg" 0.623807331323854
"ave" 0.0835944955034978
"laveB" 0.38880617938471
"agg" 0.70722620187632
"ave" 0.087499196120252
"laveB" 0.436121889099886
"agg" 0.628681722660233
"ave" 0.0693461844459844
"laveB" 0.339540428011261
"agg" 0.717988501788726
"ave" 0.0750737735071791
"laveB" 0.385741669379655
"agg" 0.516886500292483
"ave" 0.0358298287036942
"laveB" 0.233082620830835
"agg" 0.479540703983839
"ave" 0.0308927622246385
"laveB" 0.213577488332996
"agg" 0.49413040035868
"ave" 0.0448112900722037
"laveB" 0.222929485644415
"agg" 0.575958097332794
"ave" 0.0629747618103323
"laveB" 0.283627040612053
"agg" 0.736043542037703
"ave" 0.0410166990571759
"laveB" 0.268604024977558
"agg" 0.776923361328851
"ave" 0.0527460214932461
"laveB" 0.319431699532861
"agg" 0.576407427400477
"ave" 0.05040011719184
"laveB" 0.288865569912257
"agg" 0.515976484208211
"ave" 0.0477666313363478
"laveB" 0.277841472130037
"agg" 0.748484402061748
"ave" 0.0523048062084588
"laveB" 0.304243339094087
"agg" 0.735751358730142
"ave" 0.0595883114010484
"laveB" 0.34547362222434
"agg" 0.761327590755276
"ave" 0.0458824347623665
"laveB" 0.337159443198157
"agg" 0.79483725851142
"ave" 0.0577988999049378
"laveB" 0.379076906363464
"agg" 0.670126201252414
"ave" 0.0475576993096142
"laveB" 0.261986506132135
"agg" 0.916781995648096
"ave" 0.0386289937266458
"laveB" 0.367504715657472
"agg" 0.704970843474979
"ave" 0.0557072917944068
"laveB" 0.328611301156558
"agg" 0.575111403372154
"ave" 0.0445334777452131
"laveB" 0.268136191063922
"agg" 0.420331859596724
"ave" 0.0360874118527158
"laveB" 0.220376720086417
"agg" 0.587481808141219
"ave" 0.0483597664554098
"laveB" 0.304026282682803
"agg" 0.285234607070742
"ave" 0.0245036354063381
"laveB" 0.149599230433614
"agg" 0.393801990353289
"ave" 0.0371655526737841
"laveB" 0.22831766153573
"agg" 0.676692578057808
"ave" 0.0565806489805908
"laveB" 0.342449450801255
"agg" 0.636781943751175
"ave" 0.0626875386600407
"laveB" 0.327271736068703
"agg" 0.302431601674899
"ave" 0.0312804351774737
"laveB" 0.180382314162985
"agg" 0.454645220913388
"ave" 0.0414402950395857
"laveB" 0.239953323284673
"agg" 0.141874477239721
"ave" 0.0159862139852649
"laveB" 0.122892720032682
"agg" 0.161799322120746
"ave" 0.0144294716321808
"laveB" 0.0924115744919147
"agg" 0.8536813012546
"ave" 0.076352973494783
"laveB" 0.466940141736478
"agg" 0.810801299335694
"ave" 0.065521860116851
"laveB" 0.378185630291784
"agg" 0.413957704442205
"ave" 0.0193381421186928
"laveB" 0.187036786293487
"agg" 0.702445421556793
"ave" 0.0309267185612699
"laveB" 0.2751327546255
"agg" 0.755761085772863
"ave" 0.0401517302949117
"laveB" 0.358149158656186
"agg" 0.772186995175956
"ave" 0.0411820274660252
"laveB" 0.349408709957679
"agg" 0.115163128950878
"ave" 0.0070831299660514
"laveB" 0.0208690517512141
"agg" 0.558649096536992
"ave" 0.0334912381852972
"laveB" 0.24037705220452
"agg" 0.271413908910895
"ave" 0.0172297062570829
"laveB" 0.129259530939106
"agg" 0.528675435804203
"ave" 0.0182469766883975
"laveB" 0.176184022915574
"agg" 0.814533237655431
"ave" 0.0706258132631727
"laveB" 0.495820704883158
"agg" 0.807191839925138
"ave" 0.0650510565306032
"laveB" 0.456374706559756
"agg" 0.8361259248234
"ave" 0.0605578220652984
"laveB" 0.382236599370032
"agg" 0.834932511643488
"ave" 0.0566008573155476
"laveB" 0.413646386043201
"agg" 0.834699082356944
"ave" 0.0365947797934646
"laveB" 0.350200842501987
"agg" 0.716206974861271
"ave" 0.0296939876322652
"laveB" 0.288420001627131
"agg" 0.568455671957938
"ave" 0.0343088190645115
"laveB" 0.258424646014385
"agg" 0.731135723673875
"ave" 0.0512557957540046
"laveB" 0.337493692387662
"agg" 0.653021092876366
"ave" 0.0232186827149015
"laveB" 0.226956152529208
"agg" 0.846490804583047
"ave" 0.0365152362306768
"laveB" 0.334617635273492
"agg" 0.51598397983353
"ave" 0.0307172995460279
"laveB" 0.251326455605542
"agg" 0.368806384769787
"ave" 0.0226988301733823
"laveB" 0.190620178609396
"agg" 0.807295472603092
"ave" 0.0378490213696562
"laveB" 0.303226363785597
"agg" 0.867151039857984
"ave" 0.0443099153894171
"laveB" 0.364891356067851
"agg" 0.798377779252163
"ave" 0.0304449978551819
"laveB" 0.310653696451201
"agg" 0.695494555817319
"ave" 0.0345061138153149
"laveB" 0.323235490440854
"agg" 0.611413552359641
"ave" 0.0296594152101444
"laveB" 0.220645031016565
"agg" 0.693785812396839
"ave" 0.042069836497739
"laveB" 0.267675401516928
"agg" 0.594021793024367
"ave" 0.0350375673262502
"laveB" 0.227439128486297
"agg" 0.513779609370407
"ave" 0.0324165475731062
"laveB" 0.207522355544082
"agg" 0.673398108309764
"ave" 0.0403833387081584
"laveB" 0.270455788130813
"agg" 0.314667685916574
"ave" 0.0198275756588044
"laveB" 0.129079717793173
"agg" 0.383693791240498
"ave" 0.0267418610137032
"laveB" 0.180898085115166
"agg" 0.651681410522077
"ave" 0.041122495880169
"laveB" 0.262911422365817
"agg" 0.606972292509704
"ave" 0.0443937886506521
"laveB" 0.262647582919607
"agg" 0.351241803614468
"ave" 0.0286274578811336
"laveB" 0.16394207171691
"agg" 0.453035644048145
"ave" 0.0307206539985909
"laveB" 0.190340562957359
"agg" 0.243757768957543
"ave" 0.017533394012236
"laveB" 0.136788539402805
"agg" 0.25275343253976
"ave" 0.0150517426628959
"laveB" 0.139998400332383
"agg" 0.797197296400422
"ave" 0.0541918416061331
"laveB" 0.358816052880744
"agg" 0.74506586718261
"ave" 0.045390543089354
"laveB" 0.290780698120095
"agg" 0.444161643390774
"ave" 0.0151661482405642
"laveB" 0.153189627095001
"agg" 0.684578590105891
"ave" 0.0228421419322072
"laveB" 0.243585983499321
"agg" 0.704221774809047
"ave" 0.0286551626957808
"laveB" 0.300555067030484
"agg" 0.722684138308353
"ave" 0.0293504396066387
"laveB" 0.272519878217441
"agg" 0.0944904514256681
"ave" 0.00436972932562161
"laveB" 0.0108675698485017
"agg" 0.495497377208246
"ave" 0.022320082154615
"laveB" 0.156334264075076
"agg" 0.380338860078833
"ave" 0.0183044253020846
"laveB" 0.145162993857108
"agg" 0.528425901652764
"ave" 0.0137555703781808
"laveB" 0.162796066823892
"agg" 0.783129379859209
"ave" 0.0521966412893581
"laveB" 0.391873193849249
"agg" 0.795549556253528
"ave" 0.0490406304237329
"laveB" 0.385312716562902
"agg" 0.770273305191547
"ave" 0.0422598919543282
"laveB" 0.326939616489556
"agg" 0.818364320976747
"ave" 0.0423303760764872
"laveB" 0.343194992017848
"agg" 0.790649653899128
"ave" 0.0268385426641561
"laveB" 0.284191587643508
"agg" 0.706506095020639
"ave" 0.0228333586651888
"laveB" 0.252478037367748
"agg" 0.572062494776325
"ave" 0.0262197748328979
"laveB" 0.225815839511884
"agg" 0.719244774984578
"ave" 0.0385002877288378
"laveB" 0.269789356310948
"agg" 0.652292016841116
"ave" 0.0175636711512425
"laveB" 0.188938259850272
"agg" 0.857714579495449
"ave" 0.0283097713575215
"laveB" 0.272061839462959
"agg" 0.484539402829506
"ave" 0.0217741015752135
"laveB" 0.201397807595669
"agg" 0.375227024923115
"ave" 0.017796546156125
"laveB" 0.164762945753574
"agg" 0.769484604825426
"ave" 0.0270887862359742
"laveB" 0.259201270042648
"agg" 0.855015010450405
"ave" 0.0335482435640636
"laveB" 0.343374441164918
"agg" 0.794638765924105
"ave" 0.022830410795472
"laveB" 0.2475971018243
"agg" 0.736253172480508
"ave" 0.0274318857781905
"laveB" 0.27835157963141
"agg" 0.667389815842703
"ave" 0.024550833670935
"laveB" 0.231284724592901
"agg" 0.860143907189407
"ave" 0.0927930979002308
"laveB" 0.375114903745671
"agg" 0.552506309074902
"ave" 0.0634126019068822
"laveB" 0.297891829066986
"agg" 0.598305390145344
"ave" 0.0648074893992554
"laveB" 0.308663100664604
"agg" 0.457390491145079
"ave" 0.0560177458057275
"laveB" 0.255124142784198
"agg" 0.310876210013105
"ave" 0.0379739405221731
"laveB" 0.164772773740091
"agg" 0.763582664327647
"ave" 0.0892549249559879
"laveB" 0.383781084647825
"agg" 0.640032929163301
"ave" 0.0843085434967261
"laveB" 0.3233090634733
"agg" 0.315593164501114
"ave" 0.0476066348988094
"laveB" 0.179884028893667
"agg" 0.325008848680555
"ave" 0.0399304243779685
"laveB" 0.159814128145912
"agg" 0.331760589493446
"ave" 0.0385719584687421
"laveB" 0.186558576993042
"agg" 0.296267861289877
"ave" 0.0291600229978209
"laveB" 0.16420320703636
"agg" 0.700576236092187
"ave" 0.0895557635185925
"laveB" 0.362127454541591
"agg" 0.62789691144202
"ave" 0.0729237950910221
"laveB" 0.321701062969647
"agg" 0.535884775203017
"ave" 0.0306414836225037
"laveB" 0.213438248944331
"agg" 0.622855093498775
"ave" 0.0401181398468037
"laveB" 0.262114748739684
"agg" 0.536221168331184
"ave" 0.0423556395198862
"laveB" 0.264012538563736
"agg" 0.620780785200456
"ave" 0.048074361923834
"laveB" 0.283514447599129
"agg" 0.175644090693249
"ave" 0.0161903285324327
"laveB" 0.0749434267862072
"agg" 0.39364689690688
"ave" 0.0363063904193705
"laveB" 0.162532503573555
"agg" 0.436126622691033
"ave" 0.0362795866722212
"laveB" 0.210175570041967
"agg" 0.489901231302055
"ave" 0.0254357827768402
"laveB" 0.172838072800591
"agg" 0.807377168792765
"ave" 0.100376502708515
"laveB" 0.481446668845994
"agg" 0.826605292353857
"ave" 0.0941635686018982
"laveB" 0.470510388666089
"agg" 0.810082868663551
"ave" 0.0812118684926879
"laveB" 0.385306089099233
"agg" 0.809578453993834
"ave" 0.0782078253326193
"laveB" 0.4016792495735
"agg" 0.603637679910471
"ave" 0.0374885640838845
"laveB" 0.233033524169971
"agg" 0.521512114806947
"ave" 0.0304673237342541
"laveB" 0.210898960571698
"agg" 0.53319382360024
"ave" 0.0455645022482836
"laveB" 0.237010249266712
"agg" 0.568108276311423
"ave" 0.0563519523511252
"laveB" 0.256120564832724
"agg" 0.66860815772053
"ave" 0.0342120797927525
"laveB" 0.237226565222861
"agg" 0.640977484187768
"ave" 0.0391519524223069
"laveB" 0.247455455976779
"agg" 0.359400198784441
"ave" 0.0268146608001219
"laveB" 0.165284340109465
"agg" 0.28576342652427
"ave" 0.0215589353052984
"laveB" 0.132709075994004
"agg" 0.682635774011859
"ave" 0.0430508579094743
"laveB" 0.262682509603967
"agg" 0.687343709763438
"ave" 0.0493499863725974
"laveB" 0.29430032863198
"agg" 0.660350835854484
"ave" 0.0357231978982305
"laveB" 0.253454202106577
"agg" 0.668956363232644
"ave" 0.043952823661979
"laveB" 0.310981478048593
"agg" 0.562360723476911
"ave" 0.0366233837604613
"laveB" 0.211107107891941
"agg" 0.653625029435435
"ave" 0.0723952561026275
"laveB" 0.333618559626551
"agg" 0.713003027502152
"ave" 0.0732468672769888
"laveB" 0.351961986890551
"agg" 0.544719394432215
"ave" 0.0659983353517623
"laveB" 0.274070436742873
"agg" 0.414769270749459
"ave" 0.0519296308982669
"laveB" 0.230268505095066
"agg" 0.710836953355504
"ave" 0.0804479498099863
"laveB" 0.351788365559111
"agg" 0.60867879017992
"ave" 0.0771954960555295
"laveB" 0.302698704836368
"agg" 0.321884942563297
"ave" 0.0457370652862018
"laveB" 0.18283650670094
"agg" 0.395754583020495
"ave" 0.0492207364080469
"laveB" 0.199834206992995
"agg" 0.449510407937817
"ave" 0.0489241558445528
"laveB" 0.227179897076708
"agg" 0.41797675967114
"ave" 0.039164522042328
"laveB" 0.187901884284326
"agg" 0.543874179361798
"ave" 0.0655397081004963
"laveB" 0.270114285401916
"agg" 0.475607461750555
"ave" 0.0512257321284115
"laveB" 0.224026311755609
"agg" 0.557301895247686
"ave" 0.0292919565218109
"laveB" 0.202275915631051
"agg" 0.529034341613986
"ave" 0.0332676001391028
"laveB" 0.220637261460999
"agg" 0.366991265928003
"ave" 0.0272362529393105
"laveB" 0.169850783775767
"agg" 0.520040295906009
"ave" 0.0388837640572767
"laveB" 0.234625484737566
"agg" 0.126003017205888
"ave" 0.00957881753275507
"laveB" 0.0324940140161931
"agg" 0.285276189860884
"ave" 0.0254388386679443
"laveB" 0.116717057434516
"agg" 0.41020845754679
"ave" 0.0329491093570007
"laveB" 0.199140947265394
"agg" 0.4841335120517
"ave" 0.024468961089938
"laveB" 0.168764107138529
"agg" 0.683900398236285
"ave" 0.0807633326922039
"laveB" 0.386448397012343
"agg" 0.746203375383678
"ave" 0.0810255137727355
"laveB" 0.413786872933814
"agg" 0.672150204057661
"ave" 0.0636128111190552
"laveB" 0.307777232731462
"agg" 0.697734303847073
"ave" 0.0641893639534237
"laveB" 0.332887730129855
"agg" 0.429990509975667
"ave" 0.0250956385008636
"laveB" 0.160786685542055
"agg" 0.412973506023185
"ave" 0.0224941871930798
"laveB" 0.165291038012539
"agg" 0.486016725435548
"ave" 0.0389890476689047
"laveB" 0.212004298345147
"agg" 0.5090069198184
"ave" 0.0487967102677361
"laveB" 0.219439063119167
"agg" 0.700446831771778
"ave" 0.0358712372365913
"laveB" 0.255492060932712
"agg" 0.636047469966557
"ave" 0.0381471606426532
"laveB" 0.22685083822768
"agg" 0.408381998634005
"ave" 0.0305784422232779
"laveB" 0.184796913556839
"agg" 0.370693745460134
"ave" 0.0292848999952643
"laveB" 0.185535749142662
"agg" 0.683516654030759
"ave" 0.0419569079696258
"laveB" 0.269438438082329
"agg" 0.59439768606199
"ave" 0.0420878401744958
"laveB" 0.240413886707497
"agg" 0.666161928456575
"ave" 0.0363784286084642
"laveB" 0.259248251353771
"agg" 0.716653932278217
"ave" 0.046267086545503
"laveB" 0.32011631226631
"agg" 0.522664324019866
"ave" 0.0325378655734268
"laveB" 0.182564934452533
"agg" 0.886055503925001
"ave" 0.0877259746407434
"laveB" 0.433537608113023
"agg" 0.770250725862765
"ave" 0.0922910354961213
"laveB" 0.383960597805252
"agg" 0.57610156747065
"ave" 0.0697898805298726
"laveB" 0.317565364227688
"agg" 0.503872642005664
"ave" 0.0569191184888703
"laveB" 0.280309782181311
"agg" 0.560779838259554
"ave" 0.070227398392829
"laveB" 0.307685077510902
"agg" 0.201944604107785
"ave" 0.0296779374280242
"laveB" 0.11891476442429
"agg" 0.402359280272938
"ave" 0.0504980337528961
"laveB" 0.204546310474186
"agg" 0.519779273922211
"ave" 0.056683020725102
"laveB" 0.265073397303615
"agg" 0.544193632418592
"ave" 0.050751881089393
"laveB" 0.249237796165247
"agg" 0.351216435978349
"ave" 0.0444919653587969
"laveB" 0.203099283371232
"agg" 0.252480408882056
"ave" 0.0279772538710358
"laveB" 0.134432774516648
"agg" 0.491130838288351
"ave" 0.0262342156616921
"laveB" 0.177379803359592
"agg" 0.275324686631827
"ave" 0.0183804539940729
"laveB" 0.128812086407712
"agg" 0.115697547322152
"ave" 0.00956490647460157
"laveB" 0.06976277236654
"agg" 0.222953570869162
"ave" 0.0177075451820146
"laveB" 0.10705793360983
"agg" -0.0109682095846696
"ave" -0.00134514511487872
"laveB" -0.0244196386921065
"agg" 0.0106093992110824
"ave" 0.00272826520657233
"laveB" 0.0311298130275882
"agg" 0.457271795544362
"ave" 0.038025685682551
"laveB" 0.223792866403408
"agg" 0.368274046599318
"ave" 0.0195967615570571
"laveB" 0.143595337007927
"agg" 0.419181370128664
"ave" 0.0518967972614715
"laveB" 0.271599307079501
"agg" 0.475433742816188
"ave" 0.0530900728118953
"laveB" 0.273427633834128
"agg" 0.38661184126506
"ave" 0.0379512354724989
"laveB" 0.204850886796344
"agg" 0.441699209347532
"ave" 0.0426307046126417
"laveB" 0.238375522877859
"agg" 0.113682372748046
"ave" 0.00644123366088708
"laveB" 0.0409078176142771
"agg" 0.170184106972027
"ave" 0.0094674628505376
"laveB" 0.0768195562217469
"agg" 0.298173169333325
"ave" 0.0248545294224296
"laveB" 0.145661078546071
"agg" 0.35615899369527
"ave" 0.0361586668844093
"laveB" 0.179358136138333
"agg" 0.73826326465802
"ave" 0.0413517224933587
"laveB" 0.273650904560905
"agg" 0.618539852570044
"ave" 0.0386026271864417
"laveB" 0.270620211788046
"agg" 0.431708451625955
"ave" 0.0327562123676212
"laveB" 0.197851955404197
"agg" 0.428851172332045
"ave" 0.0339120857674686
"laveB" 0.218207030841454
"agg" 0.531096993618118
"ave" 0.0334982095969092
"laveB" 0.216110747561837
"agg" 0.488706490854885
"ave" 0.037220676450479
"laveB" 0.244523370914949
"agg" 0.582274779017404
"ave" 0.0331485718333786
"laveB" 0.264910959007726
"agg" 0.722791116358869
"ave" 0.0474600042707503
"laveB" 0.331192258788158
"agg" 0.454882289341305
"ave" 0.0290882578022143
"laveB" 0.175362627172083
"agg" 0.62994550866149
"ave" 0.066870216649012
"laveB" 0.324145854372205
"agg" 0.602909633851383
"ave" 0.0684798836674549
"laveB" 0.312430882368898
"agg" 0.525487377717354
"ave" 0.0583368728363666
"laveB" 0.274812452296615
"agg" 0.617831139770393
"ave" 0.0748722383362754
"laveB" 0.31892769630065
"agg" 0.254486870813825
"ave" 0.0353654477597967
"laveB" 0.148198341726444
"agg" 0.451124771754574
"ave" 0.0545808604412864
"laveB" 0.230390498154069
"agg" 0.463365678083593
"ave" 0.0459127106649651
"laveB" 0.241586740256085
"agg" 0.486497256124701
"ave" 0.0417496305882891
"laveB" 0.226219474768044
"agg" 0.507738280587542
"ave" 0.0665561710336284
"laveB" 0.300024635524042
"agg" 0.4396700755745
"ave" 0.0525391249225116
"laveB" 0.229592404010601
"agg" 0.494472135374548
"ave" 0.0261886867891066
"laveB" 0.19966207060786
"agg" 0.409347123462896
"ave" 0.027229920379989
"laveB" 0.187439103190003
"agg" 0.279465682556036
"ave" 0.0246788760513416
"laveB" 0.157717402237551
"agg" 0.365251453438038
"ave" 0.0305304613361167
"laveB" 0.183209219896719
"agg" 0.0780114809964469
"ave" 0.00566143401379207
"laveB" 0.0154132093573373
"agg" 0.164724472957691
"ave" 0.0180792753606624
"laveB" 0.0920497633105865
"agg" 0.456719334914642
"ave" 0.0350219684586278
"laveB" 0.229425202939988
"agg" 0.426871961040905
"ave" 0.0211758233894859
"laveB" 0.149975926408032
"agg" 0.50482570813841
"ave" 0.0619083956734075
"laveB" 0.326528012431342
"agg" 0.575656500739332
"ave" 0.0633050279487631
"laveB" 0.329883440964265
"agg" 0.472911814995168
"ave" 0.0485830737226769
"laveB" 0.245199406904746
"agg" 0.550184670836106
"ave" 0.0525516318525034
"laveB" 0.29808167816578
"agg" 0.28356709368137
"ave" 0.0199863987696821
"laveB" 0.114787191432904
"agg" 0.302076680407691
"ave" 0.019160571388779
"laveB" 0.13427054907976
"agg" 0.338977212010046
"ave" 0.0288291373235019
"laveB" 0.153722435787862
"agg" 0.487997275237701
"ave" 0.0483878927291366
"laveB" 0.246265336130103
"agg" 0.706105881089647
"ave" 0.0348402668411078
"laveB" 0.24540779975385
"agg" 0.746740507463227
"ave" 0.044482121046859
"laveB" 0.315159386842412
"agg" 0.521919221184178
"ave" 0.0390474510953863
"laveB" 0.245506863911868
"agg" 0.482712892316754
"ave" 0.0373851745028975
"laveB" 0.239313271542253
"agg" 0.682018635301752
"ave" 0.0424446600801712
"laveB" 0.290954789547144
"agg" 0.660791732262491
"ave" 0.0487210218869571
"laveB" 0.302996114562256
"agg" 0.735537480214043
"ave" 0.0392692397376838
"laveB" 0.325230787348836
"agg" 0.80715203014237
"ave" 0.0504498052504369
"laveB" 0.376698945041428
"agg" 0.567674432118699
"ave" 0.0355296830032379
"laveB" 0.229637328528339
"agg" 0.733212756590242
"ave" 0.100980799653696
"laveB" 0.37944034415998
"agg" 0.594189892581008
"ave" 0.072514691484582
"laveB" 0.301745168203996
"agg" 0.629853460973516
"ave" 0.0850071726828799
"laveB" 0.327143853418486
"agg" 0.39011893497727
"ave" 0.0739300392558107
"laveB" 0.231694526335126
"agg" 0.550772013891476
"ave" 0.0794746585306682
"laveB" 0.281709089280683
"agg" 0.513352795023579
"ave" 0.0634461177626914
"laveB" 0.262319959341249
"agg" 0.55957812460053
"ave" 0.0577010453522542
"laveB" 0.227784633548684
"agg" 0.214109271655215
"ave" 0.0247464946999759
"laveB" 0.119188475170888
"agg" 0.149132786916901
"ave" 0.0122859416294986
"laveB" 0.0665226332129961
"agg" 0.480256085703083
"ave" 0.0280142037979384
"laveB" 0.166161648612975
"agg" 0.29391036927657
"ave" 0.020358444968868
"laveB" 0.125134006808523
"agg" -0.0222423858642802
"ave" -0.00572010307205479
"laveB" -0.0190872387518737
"agg" 0.125281792203807
"ave" 0.00736624772952142
"laveB" 0.050991896169218
"agg" 0.0325733044070261
"ave" 0.00231352400537821
"laveB" 0.0348375970073884
"agg" -0.053971540932798
"ave" -0.00577124556262914
"laveB" -0.0044042981229331
"agg" 0.310708467557859
"ave" 0.0290285512090126
"laveB" 0.163948788744041
"agg" 0.313675550045695
"ave" 0.0181765803711048
"laveB" 0.124318764318124
"agg" 0.350928954801738
"ave" 0.0432748705442855
"laveB" 0.197939007226439
"agg" 0.391928475738613
"ave" 0.0441767151446792
"laveB" 0.220583386698426
"agg" 0.319064228592348
"ave" 0.0295387334637688
"laveB" 0.149118026958553
"agg" 0.37581653132032
"ave" 0.0367966492265712
"laveB" 0.186765576664839
"agg" 0.0730361409615827
"ave" 0.00219490432938197
"laveB" 0.0121110252741575
"agg" 0.155075016065803
"ave" 0.00738778170340575
"laveB" 0.0408599768618226
"agg" 0.462499048108872
"ave" 0.0435952972156696
"laveB" 0.216028642036455
"agg" 0.436368533251626
"ave" 0.0456305108975802
"laveB" 0.207868049515966
"agg" 0.771792880413339
"ave" 0.050923405067052
"laveB" 0.27805315420701
"agg" 0.55374095469881
"ave" 0.035728998141312
"laveB" 0.211453208494376
"agg" 0.350835160668933
"ave" 0.0291723125119454
"laveB" 0.16128191178252
"agg" 0.347437631249587
"ave" 0.0307534895648432
"laveB" 0.172856728082492
"agg" 0.38351036194629
"ave" 0.0252383710648863
"laveB" 0.155509527244366
"agg" 0.356260406536349
"ave" 0.0282082123069797
"laveB" 0.158284348428448
"agg" 0.458132038992717
"ave" 0.0280158406673237
"laveB" 0.202537256959295
"agg" 0.638381225011272
"ave" 0.0447228446622694
"laveB" 0.283751527435866
"agg" 0.239253003006577
"ave" 0.0163504579640556
"laveB" 0.0806321048539746
"agg" 0.370173994080771
"ave" 0.0504584255042653
"laveB" 0.210098415230424
"agg" 0.576040228158474
"ave" 0.0891105435655952
"laveB" 0.357322966830073
"agg" 0.454009532289599
"ave" 0.083281080644086
"laveB" 0.304484983171098
"agg" 0.840262284164487
"ave" 0.126897402604594
"laveB" 0.455034578670626
"agg" 0.526935658100668
"ave" 0.0607462478046571
"laveB" 0.271260614605022
"agg" 0.613444378339773
"ave" 0.0593266989118413
"laveB" 0.282610210494925
"agg" 0.345631034555803
"ave" 0.0505465021909387
"laveB" 0.22213268953622
"agg" 0.310707697532619
"ave" 0.0408891539244294
"laveB" 0.173988553593151
"agg" 0.419317890236075
"ave" 0.026561857373556
"laveB" 0.167981207908036
"agg" 0.31423185306623
"ave" 0.0254440857805873
"laveB" 0.139706344909385
"agg" 0.056244397991739
"ave" 0.0068444260101417
"laveB" 0.0424041634193302
"agg" 0.127975820299909
"ave" 0.0137815800022749
"laveB" 0.0692372406773604
"agg" -0.0245147494392613
"ave" -0.00150105007713949
"laveB" -0.00291360078152074
"agg" 0.0108117619158111
"ave" 0.00495545583861753
"laveB" 0.0317383459435249
"agg" 0.247426538749346
"ave" 0.0235250434692212
"laveB" 0.13483413195416
"agg" 0.275292440577004
"ave" 0.0171519002926715
"laveB" 0.111335407773342
"agg" 0.306651047503148
"ave" 0.0436560102528581
"laveB" 0.19658922660088
"agg" 0.363857435881353
"ave" 0.0471330774137458
"laveB" 0.229434700961101
"agg" 0.239834870342024
"ave" 0.0284370242210755
"laveB" 0.133816408155147
"agg" 0.39066467131907
"ave" 0.0438279283557577
"laveB" 0.212117467124859
"agg" 0.214996763387825
"ave" 0.0168252449708463
"laveB" 0.102807313557609
"agg" 0.32606787504687
"ave" 0.0232752466951422
"laveB" 0.121962816439128
"agg" 0.4687596571816
"ave" 0.0454417056302811
"laveB" 0.234659305920788
"agg" 0.643867255348699
"ave" 0.0735105437127865
"laveB" 0.305258032591557
"agg" 0.62610919932426
"ave" 0.0397510307170982
"laveB" 0.262095617404468
"agg" 0.67580053857079
"ave" 0.0448318782426692
"laveB" 0.297930706961534
"agg" 0.638175971870272
"ave" 0.0591725039545231
"laveB" 0.350835652326947
"agg" 0.577970786034541
"ave" 0.0549906641405635
"laveB" 0.317672176526792
"agg" 0.576405578292208
"ave" 0.0422284652537058
"laveB" 0.253395196067611
"agg" 0.51413965320812
"ave" 0.0449843731086617
"laveB" 0.255352123832191
"agg" 0.612753891796169
"ave" 0.0392000255724924
"laveB" 0.279676065473739
"agg" 0.690987375386668
"ave" 0.0523322851771613
"laveB" 0.317246498154605
"agg" 0.422612458678766
"ave" 0.0308432873662949
"laveB" 0.168854302834101
"agg" 0.850580650017943
"ave" 0.116957358776364
"laveB" 0.458175728186174
"agg" 0.244327067578237
"ave" 0.0432267078324947
"laveB" 0.133311723160898
"agg" 0.325359218132617
"ave" 0.0444762016616174
"laveB" 0.176810077343751
"agg" 0.201926570084994
"ave" 0.0270583373215543
"laveB" 0.159499669138811
"agg" 0.242246542778397
"ave" 0.0259050184413357
"laveB" 0.148695582419446
"agg" 0.563210130104617
"ave" 0.0743951997230348
"laveB" 0.314262266645156
"agg" 0.510603881323294
"ave" 0.0613737501611298
"laveB" 0.262259241251823
"agg" 0.48290006293316
"ave" 0.0283592556272861
"laveB" 0.197780577720194
"agg" 0.686919531119747
"ave" 0.0459210917700239
"laveB" 0.314707395338631
"agg" 0.570483190654436
"ave" 0.0474818050384663
"laveB" 0.310648649119423
"agg" 0.671854784182006
"ave" 0.0553889472124739
"laveB" 0.342983439229284
"agg" 0.227623419340366
"ave" 0.0201159102881774
"laveB" 0.111360242338684
"agg" 0.370020797732817
"ave" 0.037185521664319
"laveB" 0.178928449619307
"agg" 0.301370438994358
"ave" 0.0268578471212091
"laveB" 0.173074984623927
"agg" 0.484367319261448
"ave" 0.0257092159992569
"laveB" 0.191178101284649
"agg" 0.781848349593564
"ave" 0.0998630557934999
"laveB" 0.495744903663973
"agg" 0.749037249443896
"ave" 0.0880926047224575
"laveB" 0.455159832046145
"agg" 0.797832897111918
"ave" 0.083314257225247
"laveB" 0.432239759904847
"agg" 0.754296232287669
"ave" 0.0752257607257482
"laveB" 0.401205849243002
"agg" 0.612657958544298
"ave" 0.0409552489737986
"laveB" 0.270816454146282
"agg" 0.527330671260764
"ave" 0.0333605282683039
"laveB" 0.221100569446528
"agg" 0.577696251243135
"ave" 0.0526013610172742
"laveB" 0.281981562631865
"agg" 0.615722296783785
"ave" 0.0650550706703352
"laveB" 0.297496488181407
"agg" 0.706755994949559
"ave" 0.0389117500030233
"laveB" 0.24533131492256
"agg" 0.699536818282524
"ave" 0.0457694429689571
"laveB" 0.296691729793325
"agg" 0.26877244745492
"ave" 0.0230698845039843
"laveB" 0.14216144484197
"agg" 0.164911392736865
"ave" 0.0134627324952942
"laveB" 0.0988894724421335
"agg" 0.585385772988816
"ave" 0.040402599530082
"laveB" 0.254212896601635
"agg" 0.643194118410015
"ave" 0.0494638614730254
"laveB" 0.306442582221471
"agg" 0.664884229626249
"ave" 0.0382177700488821
"laveB" 0.279962365206623
"agg" 0.662946598424757
"ave" 0.0466208921426656
"laveB" 0.322451045199222
"agg" 0.363233243794231
"ave" 0.0265247099379528
"laveB" 0.156279165189916
"agg" 0.182285455802363
"ave" 0.0386211250124659
"laveB" 0.110220739067619
"agg" 0.411373469845004
"ave" 0.0683818411590959
"laveB" 0.242137034273243
"agg" 0.23038760052837
"ave" 0.0335149900364481
"laveB" 0.163327802803057
"agg" 0.316174051003841
"ave" 0.0368291159815713
"laveB" 0.154806139158733
"agg" 0.492615322570292
"ave" 0.078758880563904
"laveB" 0.302106864720202
"agg" 0.436523921260628
"ave" 0.064320785156773
"laveB" 0.244716618539229
"agg" 0.395837481233741
"ave" 0.0274893406158411
"laveB" 0.169842601019701
"agg" 0.533398913753488
"ave" 0.0427993081417888
"laveB" 0.249357781528328
"agg" 0.43442093699596
"ave" 0.0438705517176729
"laveB" 0.246069941066126
"agg" 0.533740852243915
"ave" 0.0517789226712243
"laveB" 0.272407084618168
"agg" 0.173155082476393
"ave" 0.017225872699845
"laveB" 0.0876809458344201
"agg" 0.302718711732362
"ave" 0.0368361854591879
"laveB" 0.148901542264856
"agg" 0.314105338753196
"ave" 0.030568456142282
"laveB" 0.175396712618014
"agg" 0.407335943381317
"ave" 0.0249482916774637
"laveB" 0.150355768662869
"agg" 0.670167522624872
"ave" 0.0981452980312357
"laveB" 0.42425642080338
"agg" 0.684027882255623
"ave" 0.0918868597142479
"laveB" 0.411186649151028
"agg" 0.664725696859636
"ave" 0.0800697822333702
"laveB" 0.368546228955258
"agg" 0.676478910179046
"ave" 0.0793036976558689
"laveB" 0.361754172950458
"agg" 0.469916700948154
"ave" 0.0372959201136189
"laveB" 0.214117433986326
"agg" 0.43142131520575
"ave" 0.0331928292551456
"laveB" 0.189850437362469
"agg" 0.417397092906266
"ave" 0.0446477450862948
"laveB" 0.210601838457774
"agg" 0.657742979665933
"ave" 0.0807100196452271
"laveB" 0.330436173779737
"agg" 0.709381449565579
"ave" 0.0439420992263019
"laveB" 0.267122534849705
"agg" 0.748653125032136
"ave" 0.0554279809814154
"laveB" 0.333702908526703
"agg" 0.393720039465572
"ave" 0.0388905071151753
"laveB" 0.215052135785139
"agg" 0.276876226114185
"ave" 0.0271436831311729
"laveB" 0.162389619351308
"agg" 0.62732740380835
"ave" 0.049561329963399
"laveB" 0.280904798173187
"agg" 0.667673680659021
"ave" 0.059800928734911
"laveB" 0.324544421844978
"agg" 0.726606103678769
"ave" 0.0480387634453006
"laveB" 0.324135793052052
"agg" 0.719141935454869
"ave" 0.0578957573824277
"laveB" 0.365734500974853
"agg" 0.423240104492373
"ave" 0.0344791686803289
"laveB" 0.177643584003067
"agg" 0.695055091428075
"ave" 0.126610946827721
"laveB" 0.452781038865578
"agg" 0.73836030332468
"ave" 0.0993214514529837
"laveB" 0.36866551058989
"agg" 0.637763465049775
"ave" 0.0734160924799075
"laveB" 0.289398405814366
"agg" 0.274108395590556
"ave" 0.0437226862843147
"laveB" 0.186674389637369
"agg" 0.189584256950033
"ave" 0.0249243154100697
"laveB" 0.112635126445226
"agg" 0.408209928992828
"ave" 0.031336972901333
"laveB" 0.185397439513628
"agg" 0.262290888523898
"ave" 0.0247334597377894
"laveB" 0.133353217679446
"agg" 0.0134200371317446
"ave" -0.00196435688000263
"laveB" -0.0155973756756686
"agg" 0.0804597294273114
"ave" 0.00649326125180154
"laveB" 0.0350509531973037
"agg" 0.109773785446036
"ave" 0.0133341469572628
"laveB" 0.0855718081860286
"agg" -0.00524650170754365
"ave" -0.00112829288789432
"laveB" -0.00199575105494618
"agg" 0.207056639791834
"ave" 0.0250890440582706
"laveB" 0.131425818169158
"agg" 0.0943022687757607
"ave" 0.00864143290753346
"laveB" 0.0414148807389272
"agg" 0.266689306514681
"ave" 0.043472776239206
"laveB" 0.187137096516804
"agg" 0.306755336709624
"ave" 0.0474400734105844
"laveB" 0.213180959412013
"agg" 0.209468681084721
"ave" 0.0267721822302609
"laveB" 0.125090120117863
"agg" 0.348257502067026
"ave" 0.0448497525535522
"laveB" 0.218972840286082
"agg" 0.36304217118155
"ave" 0.034699813218883
"laveB" 0.20714291115714
"agg" 0.552384615784588
"ave" 0.0457279455845372
"laveB" 0.271735293640322
"agg" 0.787898526325917
"ave" 0.0958082780102801
"laveB" 0.451525759140482
"agg" 0.641490399452448
"ave" 0.0886710099653662
"laveB" 0.3828619180291
"agg" 0.495249131882021
"ave" 0.038567277383681
"laveB" 0.215583797082496
"agg" 0.431829576307841
"ave" 0.032358514653078
"laveB" 0.196150370874704
"agg" 0.484076577889749
"ave" 0.0554592411026496
"laveB" 0.286228680658036
"agg" 0.543591022385023
"ave" 0.0663870972996466
"laveB" 0.352713117297357
"agg" 0.392999072118645
"ave" 0.0333900172581317
"laveB" 0.186049944090786
"agg" 0.359968375033554
"ave" 0.037476094281851
"laveB" 0.195958665736149
"agg" 0.397391035049081
"ave" 0.0301933459490235
"laveB" 0.192155509351255
"agg" 0.491777647719072
"ave" 0.0422275891223652
"laveB" 0.241618137026038
"agg" 0.460229353270008
"ave" 0.0408896046251414
"laveB" 0.190087734591112
"agg" 0.623263827113296
"ave" 0.0727953883742405
"laveB" 0.309767104327158
"agg" 0.728410576589245
"ave" 0.0718029039270228
"laveB" 0.306750702850169
"agg" 0.419811095169599
"ave" 0.0619964971132445
"laveB" 0.25784237785207
"agg" 0.372356660889082
"ave" 0.0496089947771533
"laveB" 0.189825386356987
"agg" 0.502328890424873
"ave" 0.0327913270522135
"laveB" 0.20906471015842
"agg" 0.419689056607521
"ave" 0.0325324855985901
"laveB" 0.203262048186155
"agg" 0.189765065499534
"ave" 0.0164751053325662
"laveB" 0.0939301868891648
"agg" 0.230018582132544
"ave" 0.0203360157412754
"laveB" 0.127922288183393
"agg" 0.0665309798442586
"ave" 0.0066081544954728
"laveB" 0.0291600706239338
"agg" 0.116189326226632
"ave" 0.0150909174386885
"laveB" 0.0744746039894857
"agg" 0.226871788607701
"ave" 0.0216751581633906
"laveB" 0.112634188825778
"agg" 0.332015842579049
"ave" 0.020763092641884
"laveB" 0.119536433505238
"agg" 0.364056360467149
"ave" 0.0504036290947933
"laveB" 0.245124284149293
"agg" 0.419817532083414
"ave" 0.0548737594664519
"laveB" 0.264176145528927
"agg" 0.292535875081506
"ave" 0.034218897043145
"laveB" 0.166870563992495
"agg" 0.476579833075349
"ave" 0.053402872749906
"laveB" 0.258363150801069
"agg" 0.385396127775922
"ave" 0.0292840454725618
"laveB" 0.199363624544735
"agg" 0.546963958201848
"ave" 0.0383180799920798
"laveB" 0.248827090599764
"agg" 0.675136807741137
"ave" 0.0668869213270092
"laveB" 0.328258785684764
"agg" 0.783409558718321
"ave" 0.090053439151504
"laveB" 0.381804002182089
"agg" 0.579443668459621
"ave" 0.0365199603742819
"laveB" 0.236376384897868
"agg" 0.640861813249033
"ave" 0.0424237233927019
"laveB" 0.277136177551571
"agg" 0.587512002794004
"ave" 0.0573484078424737
"laveB" 0.319170289021112
"agg" 0.532004070942531
"ave" 0.0544121783253841
"laveB" 0.297403785007767
"agg" 0.551944715209617
"ave" 0.041041767332342
"laveB" 0.226106660356461
"agg" 0.504705442901956
"ave" 0.0436978554067007
"laveB" 0.252029440642513
"agg" 0.578099058329456
"ave" 0.0366820315011451
"laveB" 0.25571712328427
"agg" 0.657993220239091
"ave" 0.0493970180942811
"laveB" 0.301945091015146
"agg" 0.445870235378761
"ave" 0.0332994128340636
"laveB" 0.178548706580585
"agg" 0.90028592337858
"ave" 0.0683823201267239
"laveB" 0.315510985232995
"agg" 0.138914237552584
"ave" 0.0214167619951367
"laveB" 0.116796386766349
"agg" -0.010054283311327
"ave" 0.00220958131048468
"laveB" 0.0624900295075408
"agg" 0.548387126403173
"ave" 0.0273657856648629
"laveB" 0.205572078842593
"agg" 0.127487929220242
"ave" 0.0116681672731554
"laveB" 0.0546585647153963
"agg" -0.214526498928413
"ave" -0.0119339408270858
"laveB" -0.0565535755256011
"agg" -0.101825300223505
"ave" -0.00325932464195993
"laveB" 0.0156515422372794
"agg" 0.047291048098701
"ave" 0.00320360652419768
"laveB" 0.0333213259836976
"agg" -0.212399323414483
"ave" -0.0126744452836703
"laveB" -0.0279598147629774
"agg" 0.383762548954383
"ave" 0.0307331313811105
"laveB" 0.186846145976007
"agg" 0.0804228599745116
"ave" 0.00660427532098438
"laveB" 0.0623750738247046
"agg" 0.205035289289156
"ave" 0.0283104250571689
"laveB" 0.171855958365649
"agg" 0.277496993980508
"ave" 0.0330999788710758
"laveB" 0.210385248167237
"agg" 0.115756630884843
"ave" 0.0135371245242784
"laveB" 0.10773830773475
"agg" 0.242017437796639
"ave" 0.0249527817017098
"laveB" 0.165693051456548
"agg" 0.04848644637938
"ave" 0.00574722173574182
"laveB" 0.0419512721030006
"agg" 0.235104564040668
"ave" 0.0128142342332898
"laveB" 0.113821706865477
"agg" 0.527714246121848
"ave" 0.0413806469962735
"laveB" 0.225042392227582
"agg" 0.403831044274323
"ave" 0.0387121361118254
"laveB" 0.20443688234158
"agg" 0.549091837246211
"ave" 0.0305559759847022
"laveB" 0.213264911735726
"agg" 0.364492732334888
"ave" 0.0215686908894848
"laveB" 0.168497850002379
"agg" 0.506237154643776
"ave" 0.0394931665882597
"laveB" 0.241981306032629
"agg" 0.623283287304349
"ave" 0.0505139697384876
"laveB" 0.291578093115096
"agg" 0.425926231261013
"ave" 0.0266409947228615
"laveB" 0.189836984632835
"agg" 0.27728168291681
"ave" 0.0236472090028517
"laveB" 0.154850251412915
"agg" 0.423968186744942
"ave" 0.0257283713018235
"laveB" 0.200567994081384
"agg" 0.60559736811608
"ave" 0.0382228306494029
"laveB" 0.284343392534182
"agg" 0.553754889996441
"ave" 0.0334814646859567
"laveB" 0.188244558566244
"agg" 0.101443742113226
"ave" 0.0128475804140965
"laveB" 0.105026211779951
"agg" -0.0194443709740475
"ave" 0.00053995530617285
"laveB" 0.0314040466144551
"agg" 0.596783220681909
"ave" 0.0252036666457493
"laveB" 0.18981166299441
"agg" 0.200196212384423
"ave" 0.0130326545895908
"laveB" 0.0951937220087657
"agg" -0.173572429597843
"ave" -0.00777545961702953
"laveB" -0.0290371998917455
"agg" -0.0531157720593667
"ave" -3.80056013445978e-05
"laveB" 0.0170429236397409
"agg" 0.049875391348326
"ave" 0.00288351987996092
"laveB" 0.0312313039204879
"agg" -0.207553403600515
"ave" -0.00949864596879375
"laveB" -0.0519053913534486
"agg" 0.368810756269348
"ave" 0.0258598087070776
"laveB" 0.154300226754716
"agg" 0.183784903106968
"ave" 0.0103729084747709
"laveB" 0.0724122705706625
"agg" 0.235668747823228
"ave" 0.0248357143853981
"laveB" 0.153962770430491
"agg" 0.285842109026959
"ave" 0.0273542749699641
"laveB" 0.172030833041248
"agg" 0.132763287756357
"ave" 0.0112883344594476
"laveB" 0.0936021509900356
"agg" 0.257755333435247
"ave" 0.0218695352266928
"laveB" 0.114182789136582
"agg" 0.0459474448591923
"ave" 0.00400509415506501
"laveB" 0.0217582559544124
"agg" 0.221146187719379
"ave" 0.0101678046474577
"laveB" 0.0804554908340808
"agg" 0.497146997869253
"ave" 0.032529846604261
"laveB" 0.187867651800868
"agg" 0.457798929899042
"ave" 0.0360743525256359
"laveB" 0.186036588618783
"agg" 0.554355646829916
"ave" 0.0261712774400585
"laveB" 0.174719486019123
"agg" 0.387672981854496
"ave" 0.0198669264161809
"laveB" 0.164728481783037
"agg" 0.411237702252129
"ave" 0.0256872840859658
"laveB" 0.175644124140874
"agg" 0.440035085842787
"ave" 0.028932011005563
"laveB" 0.184226702375031
"agg" 0.385461147074364
"ave" 0.0195327499475836
"laveB" 0.158509583599792
"agg" 0.257324272485881
"ave" 0.0182133759038654
"laveB" 0.139660259014485
"agg" 0.437577011541426
"ave" 0.0214987160132148
"laveB" 0.171349613823832
"agg" 0.596121202962857
"ave" 0.0308319855994536
"laveB" 0.236959964428902
"agg" 0.447444220790565
"ave" 0.022490234222181
"laveB" 0.124354914343543
"agg" 0.923416417688442
"ave" 0.125655085276012
"laveB" 0.514990122164267
"agg" 0.391072217716967
"ave" 0.0286419483280507
"laveB" 0.222346333632954
"agg" 0.687258428834253
"ave" 0.049122907775876
"laveB" 0.340228176468379
"agg" 0.725870966339476
"ave" 0.065343964287802
"laveB" 0.411491503704302
"agg" 0.689505409086339
"ave" 0.0611541689652088
"laveB" 0.366427778298693
"agg" 0.094543108445613
"ave" 0.0102988426841094
"laveB" -0.00585881022138427
"agg" 0.482222295938936
"ave" 0.0494609194820921
"laveB" 0.223913085928754
"agg" 0.377931282409042
"ave" 0.036409582156645
"laveB" 0.215562697138364
"agg" 0.459358267599488
"ave" 0.0249150669471671
"laveB" 0.177727616560016
"agg" 0.714303523704599
"ave" 0.102110230489216
"laveB" 0.496462065766833
"agg" 0.72850759501943
"ave" 0.0964053040765537
"laveB" 0.477239535779804
"agg" 0.756334180094221
"ave" 0.091398731263828
"laveB" 0.454392554681006
"agg" 0.83085776908576
"ave" 0.0930049556071024
"laveB" 0.496102156147351
"agg" 0.792893600357831
"ave" 0.0578288270427753
"laveB" 0.379453412358496
"agg" 0.685245641588414
"ave" 0.04780520708475
"laveB" 0.328852648237466
"agg" 0.552050500574054
"ave" 0.0532368428782848
"laveB" 0.286255363634272
"agg" 0.66520569359274
"ave" 0.0761148346301599
"laveB" 0.367009600241817
"agg" 0.526931847802096
"ave" 0.0274718037785247
"laveB" 0.195651667062529
"agg" 0.734929562375285
"ave" 0.0502598110011315
"laveB" 0.324366871688478
"agg" 0.481820034158306
"ave" 0.0475811577691199
"laveB" 0.271071852225903
"agg" 0.379404652657121
"ave" 0.0391501105951698
"laveB" 0.226095512639125
"agg" 0.737622254561058
"ave" 0.0562334915808631
"laveB" 0.363387076202998
"agg" 0.777662982472687
"ave" 0.0653775134295316
"laveB" 0.396791305828252
"agg" 0.675320906323062
"ave" 0.0418976867638266
"laveB" 0.310131382474687
"agg" 0.612805012522926
"ave" 0.0483316587075025
"laveB" 0.321464698116752
"agg" 0.545345290613846
"ave" 0.0431601857671953
"laveB" 0.235442823549986
"agg" 0.277857892316503
"ave" 0.019249749149001
"laveB" 0.130625049441379
"agg" 0.672940547269924
"ave" 0.0434206213896168
"laveB" 0.296001316614102
"agg" 0.729113752870139
"ave" 0.060168064708656
"laveB" 0.376651548384393
"agg" 0.690062448652849
"ave" 0.0561304167321281
"laveB" 0.319559966406742
"agg" 0.145846686337286
"ave" 0.0145934106104802
"laveB" 0.0214077671473141
"agg" 0.498700670449815
"ave" 0.0472948290231352
"laveB" 0.21355509431031
"agg" 0.243831983906197
"ave" 0.0204061982533047
"laveB" 0.110988819675175
"agg" 0.482023203759417
"ave" 0.0241272987610461
"laveB" 0.182991331391755
"agg" 0.644400743734759
"ave" 0.0833983362523246
"laveB" 0.389954326980185
"agg" 0.642941616070188
"ave" 0.0770340564228446
"laveB" 0.376004889400156
"agg" 0.702542320112019
"ave" 0.0776448869033108
"laveB" 0.39396543134185
"agg" 0.767511134965458
"ave" 0.0777979563979353
"laveB" 0.396563544530666
"agg" 0.796217984110119
"ave" 0.0530621263659185
"laveB" 0.358048500286989
"agg" 0.663525129019638
"ave" 0.0419920942574853
"laveB" 0.283488712478515
"agg" 0.496144842954993
"ave" 0.0427959456616543
"laveB" 0.231753596666201
"agg" 0.645057163392526
"ave" 0.0662569616178897
"laveB" 0.302309140840829
"agg" 0.410996735193216
"ave" 0.0175966124095293
"laveB" 0.130047076396329
"agg" 0.687074507381286
"ave" 0.0422360703260217
"laveB" 0.263890477972378
"agg" 0.419727407648864
"ave" 0.0368721896898886
"laveB" 0.217215169828941
"agg" 0.287543726576715
"ave" 0.0260691702132031
"laveB" 0.150026476906235
"agg" 0.636295905505496
"ave" 0.0439235235178591
"laveB" 0.266693028229353
"agg" 0.691619443820026
"ave" 0.0521490280742248
"laveB" 0.288333059799326
"agg" 0.589294687164318
"ave" 0.0325353406507124
"laveB" 0.234072797947006
"agg" 0.524543189735671
"ave" 0.0367289564284663
"laveB" 0.247348667053599
"agg" 0.39623991490492
"ave" 0.0289259741957085
"laveB" 0.172014665588322
"agg" 0.604151563198917
"ave" 0.0199856680512546
"laveB" 0.22099865041401
"agg" 0.242653783009211
"ave" 0.0122957254872289
"laveB" 0.123896370572743
"agg" 0.325059057994748
"ave" 0.0147941207489367
"laveB" 0.157433847765334
"agg" 0.175698678192688
"ave" 0.00717185830175161
"laveB" 0.0658405160380787
"agg" 0.0345296652284738
"ave" 0.00526758363120771
"laveB" 0.053605542131487
"agg" 0.421631849779675
"ave" 0.0189935430040971
"laveB" 0.157746329440457
"agg" 0.543122760108823
"ave" 0.0142181532444477
"laveB" 0.170481752420751
"agg" 0.488449581811847
"ave" 0.0312449195278245
"laveB" 0.261469472681259
"agg" 0.53255850794956
"ave" 0.0315057400680399
"laveB" 0.267067411750808
"agg" 0.490506818661505
"ave" 0.0250849700214469
"laveB" 0.21949915667171
"agg" 0.555160821271067
"ave" 0.028269387144688
"laveB" 0.233373240943335
"agg" 0.31226925968015
"ave" 0.0125328510781807
"laveB" 0.122314245290599
"agg" 0.340685359034779
"ave" 0.0116975971051219
"laveB" 0.160474533830151
"agg" 0.54155474850551
"ave" 0.023202164780516
"laveB" 0.186976606736911
"agg" 0.431030628732763
"ave" 0.0235868568661973
"laveB" 0.165413525358382
"agg" 0.628244217590205
"ave" 0.0167718361250522
"laveB" 0.190087103256313
"agg" 0.455009958720082
"ave" 0.0156102786974538
"laveB" 0.148650901648612
"agg" 0.334018883196667
"ave" 0.0150024597788781
"laveB" 0.1263812497133
"agg" 0.314146651383718
"ave" 0.0145524266642938
"laveB" 0.121566046305903
"agg" 0.487536685321937
"ave" 0.0166207430915739
"laveB" 0.155846714588921
"agg" 0.428637010252055
"ave" 0.0181051632911574
"laveB" 0.16746867696168
"agg" 0.478883933529638
"ave" 0.0144614277656773
"laveB" 0.167886208327175
"agg" 0.580538119864455
"ave" 0.0194239200731185
"laveB" 0.215247975592318
"agg" 0.418125580972614
"ave" 0.0149065949583489
"laveB" 0.125561326817825
"agg" 0.690088567765311
"ave" 0.0297393376944887
"laveB" 0.308622262237853
"agg" 0.742807502530991
"ave" 0.0318379053755565
"laveB" 0.326029759270448
"agg" 0.238116336048752
"ave" 0.0115640192067355
"laveB" 0.0875386388924102
"agg" 0.452988808843514
"ave" 0.023755187160689
"laveB" 0.180174810473673
"agg" 0.215710004201702
"ave" 0.0102826089901646
"laveB" 0.0786160241011998
"agg" 0.593286715928123
"ave" 0.0166967425782852
"laveB" 0.196388257203319
"agg" 0.736059604447869
"ave" 0.0512789458851111
"laveB" 0.390400021604173
"agg" 0.739930468730175
"ave" 0.0480165478948632
"laveB" 0.366978457714725
"agg" 0.76665369971476
"ave" 0.0438187367681629
"laveB" 0.352139677342205
"agg" 0.785130805046206
"ave" 0.0428410541681629
"laveB" 0.346628648470466
"agg" 0.703064861536025
"ave" 0.0252216564355827
"laveB" 0.258289148778556
"agg" 0.618270759094779
"ave" 0.0208843048819172
"laveB" 0.228418274877422
"agg" 0.575252486040347
"ave" 0.0280942974150525
"laveB" 0.223517944161643
"agg" 0.602356570853824
"ave" 0.0345907326367555
"laveB" 0.248383302809444
"agg" 0.499882808066189
"ave" 0.0141216574590021
"laveB" 0.150139207089703
"agg" 0.620812675809586
"ave" 0.0218376830544908
"laveB" 0.208153376654007
"agg" 0.257428566045416
"ave" 0.0130705092279299
"laveB" 0.104799847290901
"agg" 0.134089874887809
"ave" 0.00760426895649545
"laveB" 0.0603301363444848
"agg" 0.552451570379472
"ave" 0.0211487781063635
"laveB" 0.190533590406308
"agg" 0.608133539313255
"ave" 0.025055313843151
"laveB" 0.215335092950287
"agg" 0.584229951461849
"ave" 0.0179142218392172
"laveB" 0.211562390109627
"agg" 0.53904452111039
"ave" 0.0207828660873871
"laveB" 0.207839664105369
"agg" 0.33988818807433
"ave" 0.0140225836760496
"laveB" 0.11013166266551
"agg" 0.880687006991038
"ave" 0.0477597179356097
"laveB" 0.429450694104819
"agg" 0.260309456676242
"ave" 0.0155863593690075
"laveB" 0.0960567967034234
"agg" 0.668783344237291
"ave" 0.042642272114954
"laveB" 0.315515034641379
"agg" 0.209692277878624
"ave" 0.0118322166013102
"laveB" 0.109276662170613
"agg" 0.490646592131489
"ave" 0.0163328170080632
"laveB" 0.180997079909532
"agg" 0.655304857738832
"ave" 0.0567523091562579
"laveB" 0.422270128443652
"agg" 0.633154576660569
"ave" 0.0510789396309779
"laveB" 0.381585305330052
"agg" 0.700110168583544
"ave" 0.0520390497274786
"laveB" 0.356376991059783
"agg" 0.701469152410823
"ave" 0.0479788449719828
"laveB" 0.354180639693119
"agg" 0.790544996993241
"ave" 0.0348231511866929
"laveB" 0.361348104615223
"agg" 0.627826567542655
"ave" 0.026754919236517
"laveB" 0.282617698044342
"agg" 0.339902206769748
"ave" 0.0198212298062923
"laveB" 0.137166670249954
"agg" 0.511871061222728
"ave" 0.0356042344745294
"laveB" 0.238866714948146
"agg" 0.287186637249227
"ave" 0.00703373333935528
"laveB" 0.0852143790574646
"agg" 0.573022131442423
"ave" 0.0246215197112384
"laveB" 0.241058444560025
"agg" 0.184894715416322
"ave" 0.0115057059596064
"laveB" 0.101903834261591
"agg" 0.033354426895846
"ave" 0.00243282154463959
"laveB" 0.0294080487630024
"agg" 0.490993069724065
"ave" 0.023181858791529
"laveB" 0.231820876213045
"agg" 0.617320700780985
"ave" 0.0304710697701904
"laveB" 0.263289434966482
"agg" 0.501601366307861
"ave" 0.0174324297132008
"laveB" 0.201305757749317
"agg" 0.357409556085262
"ave" 0.0172500008727377
"laveB" 0.191313329114253
"agg" 0.3150242133098
"ave" 0.0154742003226963
"laveB" 0.136728592575481
"agg" 0.229310815413381
"ave" 0.0132140240170439
"laveB" 0.0753310124164459
"agg" 0.701546770900723
"ave" 0.0440160574340199
"laveB" 0.306170599081889
"agg" 0.17538672013151
"ave" 0.010445267963319
"laveB" 0.0724269351422799
"agg" 0.522516616335457
"ave" 0.0174322417440962
"laveB" 0.191953589439668
"agg" 0.708833425674637
"ave" 0.0603062820779678
"laveB" 0.442124328038374
"agg" 0.711331465517695
"ave" 0.0561725136122293
"laveB" 0.413397077982437
"agg" 0.759133880822852
"ave" 0.0544280533014499
"laveB" 0.367999082113586
"agg" 0.727778009452459
"ave" 0.048938800932769
"laveB" 0.357604009254645
"agg" 0.757340739327277
"ave" 0.0330871410119314
"laveB" 0.329053372321255
"agg" 0.601270227810362
"ave" 0.0253722747737307
"laveB" 0.239101910565222
"agg" 0.392154778396627
"ave" 0.0230526338933438
"laveB" 0.176517160542345
"agg" 0.530559454440726
"ave" 0.0369158345903571
"laveB" 0.232664469071673
"agg" 0.411447795777472
"ave" 0.0124938955892032
"laveB" 0.136362269645942
"agg" 0.62527785443571
"ave" 0.0270728987222538
"laveB" 0.25289141900464
"agg" 0.246453254338729
"ave" 0.0152577149898469
"laveB" 0.131717251669453
"agg" 0.0793533537606053
"ave" 0.0054947481990151
"laveB" 0.0450672701727433
"agg" 0.552895585326304
"ave" 0.0259674652968097
"laveB" 0.238463016908328
"agg" 0.641483281320223
"ave" 0.0318413579313658
"laveB" 0.254591922865609
"agg" 0.551152423196701
"ave" 0.019810406908651
"laveB" 0.208808027409531
"agg" 0.431912884600985
"ave" 0.0206020391512166
"laveB" 0.207728526576973
"agg" 0.357054428838987
"ave" 0.0176726545701661
"laveB" 0.129380792787263
"agg" 0.224750096359379
"ave" 0.0162072924841928
"laveB" 0.0784870144374386
"agg" 0.00115582633432218
"ave" 0.000894787357639709
"laveB" -0.0313164311680787
"agg" 0.228581485865272
"ave" 0.0086807437043039
"laveB" 0.0743022747546778
"agg" 0.175364174374321
"ave" 0.0161363580365083
"laveB" 0.0779493045017753
"agg" 0.191646914828937
"ave" 0.0164713878205903
"laveB" 0.0962030630547047
"agg" 0.185358856772606
"ave" 0.0143926898662859
"laveB" 0.0648891396582445
"agg" 0.181284234826757
"ave" 0.0139682642473313
"laveB" 0.0639621595572533
"agg" 0.181428138709504
"ave" 0.010209226119782
"laveB" 0.0683123069658681
"agg" 0.182668230902932
"ave" 0.00834925844912296
"laveB" 0.0373615549876338
"agg" 0.168276444050114
"ave" 0.0114295668707826
"laveB" 0.0851264578702977
"agg" 0.210906328054408
"ave" 0.0155535789136534
"laveB" 0.0849319149795504
"agg" 0.0976798383045893
"ave" 0.00246875273402324
"laveB" 0.0219903015321949
"agg" 0.131575851149106
"ave" 0.00650018602338482
"laveB" 0.0373469842922944
"agg" -0.0065599476370099
"ave" 0.000585371395613139
"laveB" 0.00618510233182334
"agg" -0.0233766026395657
"ave" -0.000556895353038402
"laveB" -0.00702877170692571
"agg" 0.0847153458539226
"ave" 0.00464042515714301
"laveB" 0.00610217106400389
"agg" 0.0877527854132278
"ave" 0.00513215592581279
"laveB" 0.0153063255517884
"agg" 0.0781240038386488
"ave" 0.00370220425085245
"laveB" 0.0293382729260433
"agg" 0.104950224088839
"ave" 0.00510534017806433
"laveB" 0.0538423204036292
"agg" 0.0298016561341568
"ave" 0.00235813526176374
"laveB" 0.0052910731143489
"agg" -0.0458729703557503
"ave" -0.00163491862995824
"laveB" -0.0169764766413623
"agg" 0.352997522004277
"ave" 0.014036327441844
"laveB" 0.102772934309759
"agg" 0.45302165655135
"ave" 0.0458992910268195
"laveB" 0.247989090987
"agg" 0.481546348677085
"ave" 0.0452219930124144
"laveB" 0.262092844121748
"agg" 0.513901951687074
"ave" 0.0442811378922108
"laveB" 0.232988268966895
"agg" 0.474673959993515
"ave" 0.0387234766241278
"laveB" 0.218732348481648
"agg" 0.565687308613255
"ave" 0.0291967897759513
"laveB" 0.2259164792342
"agg" 0.430448299850684
"ave" 0.0217543998053617
"laveB" 0.165439464645482
"agg" 0.236107599897797
"ave" 0.0174318640900478
"laveB" 0.113151101460043
"agg" 0.378049363407351
"ave" 0.0313101530565709
"laveB" 0.158890216942008
"agg" 0.151003894456752
"ave" 0.00425060371550377
"laveB" 0.0486921527851277
"agg" 0.411014068205856
"ave" 0.020295977394829
"laveB" 0.129581322559001
"agg" 0.102253197075654
"ave" 0.00732048721162276
"laveB" 0.0616315621337358
"agg" 0.0116758622236976
"ave" 0.000715153598146454
"laveB" 0.0101894753123218
"agg" 0.394962595735672
"ave" 0.0214040439613369
"laveB" 0.151926731453227
"agg" 0.474267354137314
"ave" 0.0264451439908639
"laveB" 0.169622990757208
"agg" 0.353948944527681
"ave" 0.0140730962876167
"laveB" 0.110033786822056
"agg" 0.23104325558178
"ave" 0.0133787275913682
"laveB" 0.107003041249109
"agg" 0.226485339300757
"ave" 0.0125737711919408
"laveB" 0.0799500227798367
"agg" 0.206647916247779
"ave" 0.00875625826974311
"laveB" 0.0777788793401074
"agg" 0.347968510293013
"ave" 0.0326285657704474
"laveB" 0.206886876680892
"agg" 0.371853139752818
"ave" 0.0311307548593508
"laveB" 0.204598418952845
"agg" 0.237257843993048
"ave" 0.0173566645626085
"laveB" 0.131605569608591
"agg" 0.38624403029869
"ave" 0.0265645665695825
"laveB" 0.206787468600442
"agg" 0.21654563833109
"ave" 0.00957841245489552
"laveB" 0.0773796929528263
"agg" 0.249501341142341
"ave" 0.0117843506958051
"laveB" 0.116403850463026
"agg" 0.208318281447255
"ave" 0.0138076637590649
"laveB" 0.0942889797646494
"agg" 0.240634625694382
"ave" 0.0190909046738232
"laveB" 0.126379999116883
"agg" 0.466690783059939
"ave" 0.0183667611126289
"laveB" 0.155394252454851
"agg" 0.361756389297515
"ave" 0.0175976880346725
"laveB" 0.16029053891916
"agg" 0.264146616953256
"ave" 0.0172766168779113
"laveB" 0.128815497691504
"agg" 0.278583766525689
"ave" 0.0201298404720299
"laveB" 0.1637532478803
"agg" 0.386475868816525
"ave" 0.0184129319078597
"laveB" 0.157042358597573
"agg" 0.391498150518825
"ave" 0.0237252971824745
"laveB" 0.173674564322196
"agg" 0.379900441697417
"ave" 0.0163754917516807
"laveB" 0.15957992850918
"agg" 0.432016052399173
"ave" 0.0220403273349226
"laveB" 0.190201634846448
"agg" 0.47131161379075
"ave" 0.0233656377295072
"laveB" 0.178239711854429
"agg" 0.542140680501884
"ave" 0.029972781872963
"laveB" 0.24746875005447
"agg" 0.55201608033845
"ave" 0.0279523116897144
"laveB" 0.215707754656172
"agg" 0.528169265014924
"ave" 0.0231316058188025
"laveB" 0.20764314681202
"agg" 0.55800306383806
"ave" 0.0241262599328677
"laveB" 0.217500923347654
"agg" 0.439617392388037
"ave" 0.0124897498479524
"laveB" 0.133147747575883
"agg" 0.407145732623026
"ave" 0.0108450118330853
"laveB" 0.120790645412332
"agg" 0.371707885185171
"ave" 0.0143593530178875
"laveB" 0.128661631629463
"agg" 0.428739929424523
"ave" 0.0193000090607647
"laveB" 0.125148023560445
"agg" 0.425735765862125
"ave" 0.0101192094450088
"laveB" 0.107458473808811
"agg" 0.469183157933636
"ave" 0.0135075786500499
"laveB" 0.146325185013268
"agg" 0.0913557001579882
"ave" 0.00273606173020274
"laveB" 0.0268635076589513
"agg" -0.00602760172146565
"ave" -0.000632858190023412
"laveB" -0.0246837368242383
"agg" 0.426055595693515
"ave" 0.011942425156898
"laveB" 0.121210957348034
"agg" 0.477615125499474
"ave" 0.0148407837219078
"laveB" 0.147935666224466
"agg" 0.38979738358134
"ave" 0.00920006349213076
"laveB" 0.115714167884959
"agg" 0.411562156810373
"ave" 0.0121810141448684
"laveB" 0.145416859225674
"agg" 0.259717681732797
"ave" 0.00766481404728316
"laveB" 0.0779310322312175
"agg" 0.921808813591392
"ave" 0.116028271344218
"laveB" 0.68579633550567
"agg" 0.924337438170065
"ave" 0.101898396774334
"laveB" 0.577631051182358
"agg" 0.87940350404748
"ave" 0.0931153340235991
"laveB" 0.5332661211611
"agg" 0.72841182204657
"ave" 0.0511196598966499
"laveB" 0.416982616900152
"agg" 0.614072606892505
"ave" 0.0400768230264149
"laveB" 0.328751777844847
"agg" 0.5326744871177
"ave" 0.0493296008712675
"laveB" 0.293248812537618
"agg" 0.602573790567467
"ave" 0.0657944340336443
"laveB" 0.344155825894564
"agg" 0.62558616606107
"ave" 0.0335996491401446
"laveB" 0.245979889146697
"agg" 0.686539524560954
"ave" 0.0464654230524738
"laveB" 0.326822808331629
"agg" 0.293364070210802
"ave" 0.0265440799688615
"laveB" 0.166080009033227
"agg" 0.166781243484378
"ave" 0.015408577592868
"laveB" 0.0994471521116606
"agg" 0.683507476326113
"ave" 0.0497828335457146
"laveB" 0.351688697411272
"agg" 0.707669978635177
"ave" 0.0572516689158573
"laveB" 0.382687018839693
"agg" 0.681136236404352
"ave" 0.0397698590069913
"laveB" 0.32250700831071
"agg" 0.605756030382722
"ave" 0.0448471794555619
"laveB" 0.332402333507404
"agg" 0.537093345325266
"ave" 0.0409938671175971
"laveB" 0.259707971943419
"agg" 0.91100391200529
"ave" 0.0932794314252613
"laveB" 0.548252429828484
"agg" 0.905552618200129
"ave" 0.0892200851327108
"laveB" 0.545349838928106
"agg" 0.705395738042347
"ave" 0.0462689809766603
"laveB" 0.36415600466259
"agg" 0.619580313053159
"ave" 0.0383112972523403
"laveB" 0.304604772734542
"agg" 0.555207663596256
"ave" 0.0482988044177332
"laveB" 0.287952892868043
"agg" 0.643567307622424
"ave" 0.0659293268305766
"laveB" 0.377944255929762
"agg" 0.67039622905947
"ave" 0.0333963690351421
"laveB" 0.272434910994582
"agg" 0.733197600710525
"ave" 0.0459673469480656
"laveB" 0.345214763145729
"agg" 0.376330009691414
"ave" 0.0319849714733783
"laveB" 0.202763142271631
"agg" 0.266031042869712
"ave" 0.0234005632031146
"laveB" 0.155403254405256
"agg" 0.720481607393869
"ave" 0.0479933740469472
"laveB" 0.332037457663661
"agg" 0.727800172638686
"ave" 0.0540125694189077
"laveB" 0.376882282762754
"agg" 0.71335675124064
"ave" 0.0388741344057804
"laveB" 0.31847227290182
"agg" 0.673997866394499
"ave" 0.0458544699434666
"laveB" 0.366616717300407
"agg" 0.569569898813789
"ave" 0.0390502874341513
"laveB" 0.280415493209415
"agg" 0.912606310548776
"ave" 0.0803392379566134
"laveB" 0.477535719737214
"agg" 0.758880901783964
"ave" 0.0449995930354541
"laveB" 0.331955273362051
"agg" 0.612804087124564
"ave" 0.0339588408163192
"laveB" 0.268832164195718
"agg" 0.542114761337959
"ave" 0.0420040947151474
"laveB" 0.253433808460411
"agg" 0.600476204232945
"ave" 0.055628936174151
"laveB" 0.28139165747153
"agg" 0.61800053286695
"ave" 0.0260530393592366
"laveB" 0.201702210485792
"agg" 0.670583138110216
"ave" 0.0381044849209204
"laveB" 0.292092240438503
"agg" 0.280999877111363
"ave" 0.0219799277540214
"laveB" 0.147606816034994
"agg" 0.141824567746063
"ave" 0.0111531112848893
"laveB" 0.0821869596075666
"agg" 0.665509719744995
"ave" 0.0402954315371518
"laveB" 0.274655744013739
"agg" 0.672277373491907
"ave" 0.0444601819070735
"laveB" 0.293342591853723
"agg" 0.658294913988036
"ave" 0.032159030453187
"laveB" 0.26245436537706
"agg" 0.58283874977281
"ave" 0.0356945422008292
"laveB" 0.292234658296789
"agg" 0.457749916326877
"ave" 0.028377562599018
"laveB" 0.166947435436635
"agg" 0.796885905070196
"ave" 0.0439078257507511
"laveB" 0.344986000938691
"agg" 0.739584348440577
"ave" 0.0382944152453457
"laveB" 0.340793258252958
"agg" 0.653970703763849
"ave" 0.0473681858379804
"laveB" 0.312049165415559
"agg" 0.754019897235911
"ave" 0.0649404448490326
"laveB" 0.347525510921136
"agg" 0.64983972985645
"ave" 0.0269006248906975
"laveB" 0.238131661802594
"agg" 0.762416646655806
"ave" 0.0400886602532587
"laveB" 0.300805676698987
"agg" 0.391870277302394
"ave" 0.0278037763517216
"laveB" 0.178321787166212
"agg" 0.278961798950211
"ave" 0.0208796421565288
"laveB" 0.163370882879509
"agg" 0.71127926267744
"ave" 0.039896852959097
"laveB" 0.293308433370325
"agg" 0.741765527215984
"ave" 0.0461037259653481
"laveB" 0.343684783326144
"agg" 0.713009420235026
"ave" 0.0330986841531633
"laveB" 0.294269408905858
"agg" 0.687955965265223
"ave" 0.039765623693468
"laveB" 0.332423103238604
"agg" 0.513326651453972
"ave" 0.0296853065740908
"laveB" 0.206006535128859
"agg" 0.887972602158383
"ave" 0.0321210087930038
"laveB" 0.35392766242153
"agg" 0.709337933963816
"ave" 0.0360259130459325
"laveB" 0.325425939928739
"agg" 0.757024828910741
"ave" 0.0439331539236927
"laveB" 0.306886375904014
"agg" 0.462174568828902
"ave" 0.0112832641164051
"laveB" 0.135183608164903
"agg" 0.692122817293959
"ave" 0.0234652504477672
"laveB" 0.224148473991494
"agg" 0.37367925848791
"ave" 0.0194903581420993
"laveB" 0.171906109216782
"agg" 0.231642126136042
"ave" 0.0131044196243169
"laveB" 0.106238520037492
"agg" 0.625754843725262
"ave" 0.0239193722803706
"laveB" 0.222294880216927
"agg" 0.720113769648029
"ave" 0.0296247344914711
"laveB" 0.276357483904098
"agg" 0.610729209229583
"ave" 0.0181332879889263
"laveB" 0.206274116178287
"agg" 0.495414847964709
"ave" 0.0195922678232404
"laveB" 0.210831765396172
"agg" 0.464989226003285
"ave" 0.0188092583690625
"laveB" 0.181566563336516
"agg" 0.797004065373834
"ave" 0.0360463350544461
"laveB" 0.323760950000724
"agg" 0.846656145510379
"ave" 0.0452074650281147
"laveB" 0.3339870509759
"agg" 0.476270501424813
"ave" 0.0109856552498325
"laveB" 0.144085550212045
"agg" 0.694309077355536
"ave" 0.0218531004797207
"laveB" 0.219935559730102
"agg" 0.430803473056136
"ave" 0.0207560399457076
"laveB" 0.19344153968946
"agg" 0.342735680789853
"ave" 0.0175082362233031
"laveB" 0.163687637277723
"agg" 0.59617619571754
"ave" 0.0213192062451725
"laveB" 0.205838795125331
"agg" 0.681209127082186
"ave" 0.027256952003535
"laveB" 0.260645657681323
"agg" 0.587018128668836
"ave" 0.0166290482744271
"laveB" 0.173978549921644
"agg" 0.535735577213015
"ave" 0.0193744671704367
"laveB" 0.21319319836279
"agg" 0.478564847024735
"ave" 0.0180255394884353
"laveB" 0.160596786426796
"agg" 0.827425207281176
"ave" 0.0621521151464466
"laveB" 0.364133183091572
"agg" 0.64705275534843
"ave" 0.0263621183045765
"laveB" 0.220103059202912
"agg" 0.645125764062749
"ave" 0.0285775378611842
"laveB" 0.231977537643368
"agg" 0.460369077960954
"ave" 0.030044691435367
"laveB" 0.231731041846845
"agg" 0.436209061940068
"ave" 0.0298565948008028
"laveB" 0.209250340202211
"agg" 0.544558661630887
"ave" 0.0269255130636456
"laveB" 0.217837418670177
"agg" 0.551727823703189
"ave" 0.031043720795251
"laveB" 0.238997334558486
"agg" 0.554918327916743
"ave" 0.0232990726444193
"laveB" 0.203474721676682
"agg" 0.615442734476603
"ave" 0.0308100875582977
"laveB" 0.256688771256071
"agg" 0.423994812064836
"ave" 0.0221565080937099
"laveB" 0.163996037583393
"agg" 0.645557295587966
"ave" 0.0294278115142277
"laveB" 0.21911809108556
"agg" 0.825674401786165
"ave" 0.0431456978331846
"laveB" 0.278128651812592
"agg" 0.582906585832936
"ave" 0.0447387035235832
"laveB" 0.289051697147069
"agg" 0.475419731303574
"ave" 0.0386027871852271
"laveB" 0.248285226983284
"agg" 0.690558397949505
"ave" 0.0408695969171345
"laveB" 0.264330643660123
"agg" 0.734004114254361
"ave" 0.0485279403738899
"laveB" 0.309475496719783
"agg" 0.732297443897097
"ave" 0.0359161452442261
"laveB" 0.268112907690072
"agg" 0.743801847087985
"ave" 0.0446019486845763
"laveB" 0.318174499519529
"agg" 0.526250123564922
"ave" 0.0326529017019318
"laveB" 0.180094864383791
"agg" 0.788267619990472
"ave" 0.0225391441965768
"laveB" 0.210574308952785
"agg" 0.590703640484661
"ave" 0.0226937749789035
"laveB" 0.21147059045295
"agg" 0.525715116856712
"ave" 0.0211864087811955
"laveB" 0.200383111357754
"agg" 0.704352493788591
"ave" 0.0203245798426935
"laveB" 0.206000682489977
"agg" 0.65264925757609
"ave" 0.0215183921843464
"laveB" 0.211867430008684
"agg" 0.745520642742831
"ave" 0.0192708078863807
"laveB" 0.215638336795935
"agg" 0.810475496888623
"ave" 0.0259524190539904
"laveB" 0.266574211547661
"agg" 0.5811688123155
"ave" 0.0170773805485558
"laveB" 0.140756476396575
"agg" 0.707782483382017
"ave" 0.0302178601207134
"laveB" 0.257775602224858
"agg" 0.591489905792991
"ave" 0.0259224805277887
"laveB" 0.215811752259472
"agg" 0.83310995552448
"ave" 0.0291620058921429
"laveB" 0.260911785977693
"agg" 0.862788166998646
"ave" 0.0344510361896681
"laveB" 0.298104193101291
"agg" 0.892116135784204
"ave" 0.0263232826928891
"laveB" 0.274325243347704
"agg" 0.871253153466067
"ave" 0.0323640574869474
"laveB" 0.322940632880701
"agg" 0.660043268747082
"ave" 0.0236300487917579
"laveB" 0.175259023786982
"agg" 0.900401027820391
"ave" 0.0626313306977999
"laveB" 0.46909936273646
"agg" 0.769039400273729
"ave" 0.0389646580238041
"laveB" 0.301140659850077
"agg" 0.646065273321514
"ave" 0.0377771992774136
"laveB" 0.291678289885897
"agg" 0.749813174693336
"ave" 0.0324503106903253
"laveB" 0.307479611565783
"agg" 0.71041654151271
"ave" 0.0379529079866086
"laveB" 0.309314416898262
"agg" 0.686584894831204
"ave" 0.0353327934607586
"laveB" 0.252409455010081
"agg" 0.666257786835802
"ave" 0.0350541369185007
"laveB" 0.28268509574914
"agg" 0.569688235462561
"ave" 0.0358723823619029
"laveB" 0.265092250144563
"agg" 0.623109630235858
"ave" 0.0285648181489762
"laveB" 0.268067505591244
"agg" 0.688034073697501
"ave" 0.0387703298595478
"laveB" 0.311336524508487
"agg" 0.653410895342218
"ave" 0.0352579598514533
"laveB" 0.272174846414826
"agg" 0.89417179492783
"ave" 0.0395648571289942
"laveB" 0.307810477475585
"agg" 0.915929547144118
"ave" 0.0301603463775339
"laveB" 0.325919104079061
"agg" 0.822599731182903
"ave" 0.0338080324377641
"laveB" 0.304747105687596
"agg" 0.838119284836706
"ave" 0.0327473100230248
"laveB" 0.280530409394878
"agg" 0.874295314843498
"ave" 0.0318853580700443
"laveB" 0.302509706022078
"agg" 0.798236633167411
"ave" 0.0379205977560942
"laveB" 0.342738596358121
"agg" 0.779684036750797
"ave" 0.0356577152833801
"laveB" 0.248393233129124
"agg" 0.890738726318205
"ave" 0.0314835512563018
"laveB" 0.350480329505231
"agg" 0.770229672952726
"ave" 0.0256856983168111
"laveB" 0.245671546625542
"agg" 0.693332288501123
"ave" 0.0292754681953092
"laveB" 0.223056789587601
