"EST" "CORR"
"agg" 0.451672402656236
"ave" 0.00655797896618627
"laveB" 0.0821949360160973
"agg" 0.467770195468903
"ave" 0.00585179884345844
"laveB" 0.0810170387050628
"agg" 0.282850759402973
"ave" 0.00477763243700625
"laveB" 0.0597835108254634
"agg" 0.408577593475084
"ave" 0.00604892591855585
"laveB" 0.0761637100419284
"agg" 0.355532048801746
"ave" 0.00516464426039309
"laveB" 0.0487936044672794
"agg" 0.318322400525988
"ave" 0.00648502717205977
"laveB" 0.0678962123349323
"agg" 0.299168494246722
"ave" 0.00449711894086835
"laveB" 0.0643237709076532
"agg" 0.418000867349821
"ave" 0.00603406069234628
"laveB" 0.0734936276283455
"agg" 0.350544568040335
"ave" 0.0104941892277514
"laveB" 0.0823042512418064
"agg" 0.351830865799416
"ave" 0.00847343848333931
"laveB" 0.0895539154527216
"agg" 0.501655441892596
"ave" 0.00763825762402692
"laveB" 0.099178676393697
"agg" 0.430709803553401
"ave" 0.00625542772465221
"laveB" 0.093611709507768
"agg" 0.198191219924665
"ave" 0.00242484810576552
"laveB" 0.0313193517779442
"agg" 0.214180383485695
"ave" 0.00247594735298888
"laveB" 0.0440982049886569
"agg" 0.399285885887606
"ave" 0.00310317709966108
"laveB" 0.0789164255172971
"agg" 0.395070306308213
"ave" 0.00323516220056724
"laveB" 0.0759481816008313
"agg" 0.327284285825856
"ave" 0.00240241968369994
"laveB" 0.0474283874172697
"agg" 0.31537251277105
"ave" 0.00228324846169938
"laveB" 0.037495715749112
"agg" 0.0616204008263332
"ave" 0.00158841745690871
"laveB" 0.0210339690630947
"agg" 0.161396874692489
"ave" 0.00204025816451292
"laveB" 0.0128774844236535
"agg" 0.336220848820469
"ave" 0.00288605946992083
"laveB" 0.0597660560371882
"agg" 0.17129509422163
"ave" 0.00126592758492719
"laveB" 0.0244178724705318
"agg" 0.331252089261336
"ave" 0.0060451620547023
"laveB" 0.0844734847966975
"agg" 0.263221535600799
"ave" 0.00345618863812525
"laveB" 0.0572748186517096
"agg" 0.296467929041644
"ave" 0.00369705335938538
"laveB" 0.0550646909431693
"agg" 0.432965361641732
"ave" 0.00418870298877517
"laveB" 0.0713022207897927
"agg" 0.2631935452056
"ave" 0.00168771157979941
"laveB" 0.0311334060292935
"agg" 0.137473848791125
"ave" 0.000694306576686125
"laveB" 0.0262077603538135
"agg" 0.394428406901926
"ave" 0.00507541715742889
"laveB" 0.0634120868692883
"agg" 0.40075208135094
"ave" 0.00489542712694337
"laveB" 0.0614310745084799
"agg" 0.274359613146368
"ave" 0.00250181357559059
"laveB" 0.0387641582785898
"agg" 0.539785069104042
"ave" 0.00379182148426802
"laveB" 0.0523359514390309
"agg" 0.44897075304923
"ave" 0.00531905287745389
"laveB" 0.0861325775897413
"agg" 0.465975376293204
"ave" 0.00686937899750156
"laveB" 0.095481322674443
"agg" 0.522589064449141
"ave" 0.00340471196176033
"laveB" 0.061212452200933
"agg" 0.596382343292112
"ave" 0.00460241125596653
"laveB" 0.0795063354403922
"agg" 0.560138278191589
"ave" 0.00386853361630196
"laveB" 0.0799828073438169
"agg" 0.641457804475083
"ave" 0.00591399558212337
"laveB" 0.107526675390866
"agg" 0.449995598802534
"ave" 0.00263392965412611
"laveB" 0.0494630670807955
"agg" 0.754886041757043
"ave" 0.0203512500106427
"laveB" 0.211667730623029
"agg" 0.485510587056638
"ave" 0.0155623810926438
"laveB" 0.168830890846981
"agg" 0.499826896690856
"ave" 0.0139769628855764
"laveB" 0.146990967138334
"agg" 0.346654128093199
"ave" 0.0111395936883003
"laveB" 0.0898541666624641
"agg" 0.301034166405165
"ave" 0.0127511500237078
"laveB" 0.0933807030365813
"agg" 0.624740328811433
"ave" 0.0206168305788922
"laveB" 0.17930360064594
"agg" 0.539433381809441
"ave" 0.0161450800329538
"laveB" 0.147379530778606
"agg" 0.210514903552759
"ave" 0.012739142632929
"laveB" 0.0852452877468854
"agg" 0.253578800336794
"ave" 0.0131344138852386
"laveB" 0.0954586894507747
"agg" 0.357176788797316
"ave" 0.0125483377428517
"laveB" 0.122173037942138
"agg" 0.316046061272808
"ave" 0.011486450292532
"laveB" 0.121088405658418
"agg" 0.49188104225586
"ave" 0.0132701623797098
"laveB" 0.147344728306777
"agg" 0.408012988098337
"ave" 0.0124050313192494
"laveB" 0.129810138803571
"agg" 0.248430263527915
"ave" 0.00422673191971782
"laveB" 0.056432277491769
"agg" 0.324686952354516
"ave" 0.00586153961111192
"laveB" 0.0863481777869633
"agg" 0.554948842012442
"ave" 0.00836440365126128
"laveB" 0.140238920055827
"agg" 0.324702474212825
"ave" 0.00546751480694072
"laveB" 0.0738017366905272
"agg" 0.0932645147599954
"ave" 0.00380782618618724
"laveB" 0.0412828227100219
"agg" 0.103392568695815
"ave" 0.00326355709310598
"laveB" 0.0159709126204168
"agg" 0.234373879992817
"ave" 0.00427824713949916
"laveB" 0.0744837902891919
"agg" 0.162310684252326
"ave" 0.00246514755689165
"laveB" 0.0355451971199054
"agg" 0.55764255490079
"ave" 0.0191568095947664
"laveB" 0.206386691491065
"agg" 0.494605841491004
"ave" 0.0118550419059038
"laveB" 0.165307326128382
"agg" 0.673020082732092
"ave" 0.0151444059622363
"laveB" 0.2080357352288
"agg" 0.62574989310532
"ave" 0.011890822627581
"laveB" 0.14331449113083
"agg" 0.258472711773404
"ave" 0.00292573882898028
"laveB" 0.043303892825819
"agg" -0.104689111393335
"ave" -0.00172486868791182
"laveB" 0.0153909387119338
"agg" 0.341882639213424
"ave" 0.00987732584344333
"laveB" 0.0950856938279241
"agg" 0.182363354039148
"ave" 0.00660497086791032
"laveB" 0.0741740251202876
"agg" 0.230786246376929
"ave" 0.00423634272739004
"laveB" 0.0433428046009768
"agg" 0.267575297510322
"ave" 0.00350752556513455
"laveB" 0.047339525525195
"agg" 0.398900033303293
"ave" 0.00897766732279032
"laveB" 0.122673196474527
"agg" 0.401858704608403
"ave" 0.0120472010190087
"laveB" 0.138485434234668
"agg" 0.542422093635636
"ave" 0.00696183329084811
"laveB" 0.0980814293789564
"agg" 0.625644424027329
"ave" 0.00969680964204821
"laveB" 0.153110751071933
"agg" 0.502664617796542
"ave" 0.0073616476782247
"laveB" 0.113416425430218
"agg" 0.667612052856319
"ave" 0.012548423432262
"laveB" 0.183239758538925
"agg" 0.46519524833252
"ave" 0.00577544998108236
"laveB" 0.0702434703156892
"agg" 0.417682815815162
"ave" 0.0124524652157671
"laveB" 0.114268713412079
"agg" 0.562955146701403
"ave" 0.0156221573229255
"laveB" 0.156297838415933
"agg" 0.393470587761413
"ave" 0.0111792638469398
"laveB" 0.0921828275877517
"agg" 0.508861829486107
"ave" 0.0223065490181339
"laveB" 0.182693830609789
"agg" 0.483485384842259
"ave" 0.0157228860271226
"laveB" 0.13289660912355
"agg" 0.563201106877502
"ave" 0.0166134897673367
"laveB" 0.140551719750437
"agg" 0.136392062809221
"ave" 0.00789321282660729
"laveB" 0.0480596186160585
"agg" 0.310226756530661
"ave" 0.0167808877165644
"laveB" 0.121770513620606
"agg" 0.397812740039275
"ave" 0.0121687322272263
"laveB" 0.109188987196475
"agg" 0.421514739805802
"ave" 0.0148943026613406
"laveB" 0.134328710983996
"agg" 0.535439161326535
"ave" 0.0139470679900789
"laveB" 0.149246523999904
"agg" 0.564281226480015
"ave" 0.0169843852927759
"laveB" 0.172647914680376
"agg" 0.349398302912224
"ave" 0.00582367014159956
"laveB" 0.0910290213622158
"agg" 0.519219274379504
"ave" 0.0090058689274686
"laveB" 0.131078631741581
"agg" 0.480464727158031
"ave" 0.00707288921066663
"laveB" 0.105951847521841
"agg" 0.312146588305282
"ave" 0.00517979055194343
"laveB" 0.0735947747206293
"agg" 0.100000061067849
"ave" 0.00390314522061249
"laveB" 0.0354607343361202
"agg" 0.133188671630336
"ave" 0.00463685079506091
"laveB" 0.0225100568323402
"agg" 0.409686603479256
"ave" 0.00833065314036399
"laveB" 0.135102657673131
"agg" 0.187875112529082
"ave" 0.00289806120632093
"laveB" 0.0485088770669321
"agg" 0.364975780093215
"ave" 0.0108133873210942
"laveB" 0.11785654052571
"agg" 0.280999507113657
"ave" 0.00601318577012117
"laveB" 0.0779254295922497
"agg" 0.355552954728001
"ave" 0.00739991449009182
"laveB" 0.0994005512101364
"agg" 0.402535018472419
"ave" 0.00813371737445184
"laveB" 0.102838788682022
"agg" 0.186486279952309
"ave" 0.00128587771048486
"laveB" 0.00782670275877288
"agg" 0.00497795597485925
"ave" 0.000489667826139146
"laveB" 0.0288603973566802
"agg" 0.159214856687316
"ave" 0.00476264477030611
"laveB" 0.0472385567483933
"agg" 0.291213706487972
"ave" 0.00897990736523713
"laveB" 0.0837578006558927
"agg" 0.0983775386024781
"ave" 0.00131453282085638
"laveB" 0.00253626541150072
"agg" 0.437055414240759
"ave" 0.00637174097124131
"laveB" 0.0728664102667839
"agg" 0.313101417055258
"ave" 0.00634707114572766
"laveB" 0.0958527377475039
"agg" 0.426677535885271
"ave" 0.0123611261284264
"laveB" 0.133908810315552
"agg" 0.460338391806766
"ave" 0.00461935688096698
"laveB" 0.0520198619279822
"agg" 0.641347292154766
"ave" 0.00863081005183664
"laveB" 0.120547373959098
"agg" 0.61958909466046
"ave" 0.00861847238741334
"laveB" 0.136668088605024
"agg" 0.727334485891242
"ave" 0.0132097773466272
"laveB" 0.177924886900575
"agg" 0.52997045847819
"ave" 0.00561104369707175
"laveB" 0.0676289787810712
"agg" 0.826025744906655
"ave" 0.025016557469209
"laveB" 0.246082256201263
"agg" 0.62774232229969
"ave" 0.0199758808180972
"laveB" 0.159114930006622
"agg" 0.329480570727599
"ave" 0.0133214238620187
"laveB" 0.104852418924561
"agg" 0.424662908758967
"ave" 0.0154640817966219
"laveB" 0.127130651678245
"agg" 0.309486383183625
"ave" 0.00870827803304499
"laveB" 0.0528763686734362
"agg" 0.089099053568584
"ave" 0.00480096331423022
"laveB" 0.0326117218370884
"agg" 0.16903272062609
"ave" 0.00896238464369056
"laveB" 0.0517296685514044
"agg" 0.225273827774158
"ave" 0.0100486523982968
"laveB" 0.0964664447490017
"agg" 0.12243751843324
"ave" 0.00644296579543138
"laveB" 0.0598912653739797
"agg" 0.347272379680245
"ave" 0.0106520053579498
"laveB" 0.113642210310994
"agg" 0.111696831912852
"ave" 0.00403968856814566
"laveB" 0.0352896961325944
"agg" 0.265962920074496
"ave" 0.00482324171527737
"laveB" 0.0638680776932722
"agg" 0.267425240316645
"ave" 0.00517886163246881
"laveB" 0.0757575498623874
"agg" 0.454768453212194
"ave" 0.00782056101967191
"laveB" 0.129345485788675
"agg" 0.312003575113227
"ave" 0.00558778089055552
"laveB" 0.0728982291495976
"agg" 0.122949551645627
"ave" 0.00500855464071994
"laveB" 0.0624611996709925
"agg" 0.0323437791195977
"ave" 0.00169095308312085
"laveB" 0.00592303708283244
"agg" 0.260650447517681
"ave" 0.00562592644760341
"laveB" 0.0802126613430108
"agg" 0.124595358418503
"ave" 0.00218229708346252
"laveB" 0.032439673128832
"agg" 0.366113969502656
"ave" 0.0144125950119514
"laveB" 0.158772415889817
"agg" 0.414160445649782
"ave" 0.011360855051131
"laveB" 0.149841970806707
"agg" 0.504622818788834
"ave" 0.0122946538077111
"laveB" 0.148556615831024
"agg" 0.458409621341376
"ave" 0.00921948482806595
"laveB" 0.121143241758973
"agg" 0.106811295586631
"ave" 0.0014131501136053
"laveB" 0.0137610959993528
"agg" -0.118884523942898
"ave" -0.00226401298984139
"laveB" -0.013285564529407
"agg" 0.324997946440046
"ave" 0.00989431414412268
"laveB" 0.0825316444122513
"agg" 0.20535852430459
"ave" 0.00783235870155014
"laveB" 0.0750015135602329
"agg" 0.496622716747021
"ave" 0.0109303810484656
"laveB" 0.10009904243335
"agg" 0.401984054489842
"ave" 0.00657327613383165
"laveB" 0.0635319738369879
"agg" 0.447975317776484
"ave" 0.0105923539734577
"laveB" 0.120817380306868
"agg" 0.386982786957427
"ave" 0.0116858548963338
"laveB" 0.125351782172508
"agg" 0.463087902965033
"ave" 0.0067558293290938
"laveB" 0.0929541601450907
"agg" 0.536553287370954
"ave" 0.0100160010940889
"laveB" 0.140064820828957
"agg" 0.477489142650426
"ave" 0.00778702711362698
"laveB" 0.124681338475411
"agg" 0.55382973619702
"ave" 0.0119519728259487
"laveB" 0.168593832932223
"agg" 0.39992017945505
"ave" 0.00552883076610216
"laveB" 0.0745842952398716
"agg" 0.486875813743055
"ave" 0.0143255508743057
"laveB" 0.120036736209
"agg" 0.448003888337675
"ave" 0.0184366394802043
"laveB" 0.153385342444577
"agg" 0.34101486626515
"ave" 0.0112350432585114
"laveB" 0.0987201979709813
"agg" 0.405035212767356
"ave" 0.0109759706664062
"laveB" 0.0958095677982528
"agg" 0.0354500864895855
"ave" 0.00208921226262739
"laveB" 0.0172203129368605
"agg" 0.20008371818715
"ave" 0.0108501986039477
"laveB" 0.0765618885870773
"agg" 0.256290706858784
"ave" 0.00976428036323529
"laveB" 0.0844417832948238
"agg" 0.243605067653156
"ave" 0.0102907117805409
"laveB" 0.0954881916465379
"agg" 0.322511362705868
"ave" 0.00876283385248024
"laveB" 0.0954140436015552
"agg" 0.16663892924776
"ave" 0.00538634413819265
"laveB" 0.0554466171634324
"agg" 0.309118155217778
"ave" 0.00520821166967322
"laveB" 0.0743791961029386
"agg" 0.369110044478582
"ave" 0.00655027689895296
"laveB" 0.105467151611027
"agg" 0.510343281690979
"ave" 0.00772399848911196
"laveB" 0.136081483101907
"agg" 0.343459218763849
"ave" 0.00555998600167682
"laveB" 0.0778961004218869
"agg" 0.200084064641935
"ave" 0.00731626942589888
"laveB" 0.0814033063691864
"agg" 0.0898346882582704
"ave" 0.00285067195529545
"laveB" 0.0106193451926896
"agg" 0.310445574536803
"ave" 0.00631785567076452
"laveB" 0.0879897536158472
"agg" 0.178539748739085
"ave" 0.00293792985489468
"laveB" 0.0469333526266615
"agg" 0.318477945620666
"ave" 0.0104447245642479
"laveB" 0.116636982161158
"agg" 0.338207536017668
"ave" 0.00845401984762058
"laveB" 0.111781894837331
"agg" 0.407307229241578
"ave" 0.00882328444151495
"laveB" 0.105117349180734
"agg" 0.430677510495668
"ave" 0.00808339991493889
"laveB" 0.106154438091569
"agg" 0.165673256736048
"ave" 0.00195630088131252
"laveB" 0.0223907164374785
"agg" -0.100358529699086
"ave" -0.00137029013882628
"laveB" -0.00226689487664579
"agg" 0.16092835547013
"ave" 0.00499037124055927
"laveB" 0.0470820723786609
"agg" 0.252045468105592
"ave" 0.0088097465459849
"laveB" 0.0861014706262051
"agg" 0.335176057316231
"ave" 0.00641149863052828
"laveB" 0.0664820112367812
"agg" 0.498630192504027
"ave" 0.00756429757626352
"laveB" 0.0860451443419756
"agg" 0.436851183956448
"ave" 0.0096092515417506
"laveB" 0.12568714839478
"agg" 0.33671100343872
"ave" 0.00989648250976147
"laveB" 0.117184844998343
"agg" 0.461573427514294
"ave" 0.00596937887018465
"laveB" 0.0814951206677777
"agg" 0.567199724180976
"ave" 0.00917616729117799
"laveB" 0.136400500465753
"agg" 0.497276835237189
"ave" 0.00732954234599742
"laveB" 0.109226774545835
"agg" 0.582188159843845
"ave" 0.0113031412125124
"laveB" 0.159462483563888
"agg" 0.435598300934206
"ave" 0.00529940025027461
"laveB" 0.0885399658229318
"agg" 0.537022430608045
"ave" 0.0249232219886349
"laveB" 0.142270402375888
"agg" 0.409119656937118
"ave" 0.0143664714647053
"laveB" 0.0999859419466228
"agg" 0.2939778057583
"ave" 0.00827452286833249
"laveB" 0.0391050534459679
"agg" 0.375241127524257
"ave" 0.0275206523557606
"laveB" 0.101781157931289
"agg" 0.433951046049818
"ave" 0.0271373541944829
"laveB" 0.146745152221344
"agg" 0.418414968976255
"ave" 0.0168859199293381
"laveB" 0.101075577419119
"agg" 0.312487356723006
"ave" 0.0124480178621548
"laveB" 0.0769114000222111
"agg" 0.375115956718934
"ave" 0.0112873307236298
"laveB" 0.109223174729539
"agg" 0.222933301781423
"ave" 0.00718251496031141
"laveB" 0.0560905007185755
"agg" 0.492339858311474
"ave" 0.00909249466164042
"laveB" 0.102038310621382
"agg" 0.357529269070088
"ave" 0.00649350455513777
"laveB" 0.0722389336020436
"agg" 0.308602653432944
"ave" 0.00502435213636358
"laveB" 0.0713812042989849
"agg" 0.22991299612463
"ave" 0.00382882227264105
"laveB" 0.040722144721154
"agg" 0.157439374892568
"ave" 0.00635830743985278
"laveB" 0.0641051795869569
"agg" 0.0919032321554372
"ave" 0.00295245801241693
"laveB" 0.0184158259647206
"agg" 0.389150057119092
"ave" 0.00830129602318176
"laveB" 0.0943584139142298
"agg" 0.162612134592893
"ave" 0.00284111874635091
"laveB" 0.0279766575711745
"agg" 0.190168945102735
"ave" 0.00728740824474292
"laveB" 0.0561182179135231
"agg" 0.196142028892351
"ave" 0.00561840249359304
"laveB" 0.0630060243500696
"agg" 0.306831443503965
"ave" 0.00735035567132768
"laveB" 0.0880156532771019
"agg" 0.282935992930198
"ave" 0.00601354982804535
"laveB" 0.0609335646165756
"agg" 0.14571745970975
"ave" 0.00206921481020396
"laveB" 0.0204037193313834
"agg" 0.0494808200584266
"ave" 0.000664916338014149
"laveB" 0.00704244694503255
"agg" 0.503053148837336
"ave" 0.015825410292637
"laveB" 0.100927288145689
"agg" 0.486156083874559
"ave" 0.0145536997849017
"laveB" 0.0899012995034727
"agg" 0.592529518549729
"ave" 0.0139796508295662
"laveB" 0.106086163829796
"agg" 0.519528575265014
"ave" 0.00812045016670032
"laveB" 0.0793166831655818
"agg" 0.481949912280363
"ave" 0.0120232678265334
"laveB" 0.118646985278928
"agg" 0.500603936569141
"ave" 0.0156344663207594
"laveB" 0.140121109666728
"agg" 0.424128280809102
"ave" 0.005790642133142
"laveB" 0.0568885851179695
"agg" 0.43955396365368
"ave" 0.00766648657558796
"laveB" 0.0833269619311874
"agg" 0.49121632219306
"ave" 0.00772745985756916
"laveB" 0.0990812400399862
"agg" 0.548572508898262
"ave" 0.0110368015355442
"laveB" 0.126713453501854
"agg" 0.454600600623669
"ave" 0.00572843145161848
"laveB" 0.0633744937623879
"agg" 0.254840313075216
"ave" 0.0122400701604838
"laveB" 0.0923072488771614
"agg" 0.569857365693095
"ave" 0.0270849974581442
"laveB" 0.168279619044785
"agg" 0.212877169371892
"ave" 0.0219499821542328
"laveB" 0.0418353313025088
"agg" 0.619855115775622
"ave" 0.0549000399797266
"laveB" 0.26244407435479
"agg" 0.478074431478466
"ave" 0.0247425856160813
"laveB" 0.12358645612073
"agg" 0.572827263377517
"ave" 0.0318849491336183
"laveB" 0.203056588275866
"agg" 0.462812553288874
"ave" 0.018644010134104
"laveB" 0.169492631797959
"agg" 0.47457636092156
"ave" 0.0228740111236256
"laveB" 0.175104675063334
"agg" 0.283776282101182
"ave" 0.00743689196435504
"laveB" 0.0714727054134262
"agg" 0.419728664358027
"ave" 0.0114917853398422
"laveB" 0.133766355176729
"agg" 0.140325856780209
"ave" 0.00331875510880869
"laveB" 0.0500607607897355
"agg" 0.124073900546536
"ave" 0.00359939036070652
"laveB" 0.0329781750775972
"agg" 0.227584022100422
"ave" 0.0126863652549953
"laveB" 0.0827127057849519
"agg" 0.153611145445992
"ave" 0.00763262957781275
"laveB" 0.0266980427693293
"agg" 0.368539276382873
"ave" 0.0122683324980549
"laveB" 0.125050003408801
"agg" 0.159483791345287
"ave" 0.00431518266179553
"laveB" 0.034077660818125
"agg" 0.167691269386986
"ave" 0.00708498693322386
"laveB" 0.0707667764350915
"agg" 0.0764382458663186
"ave" 0.00307606857624139
"laveB" 0.0109448221907916
"agg" 0.214839715748607
"ave" 0.00714303647558601
"laveB" 0.0701783785114771
"agg" 0.244286756197792
"ave" 0.00789242024958239
"laveB" 0.0589134132724788
"agg" 0.18173874796756
"ave" 0.00238081308478377
"laveB" 0.0058492753792257
"agg" 0.0771200728726804
"ave" 0.00225298723192375
"laveB" 0.0352113363263863
"agg" 0.0998949536134742
"ave" 0.00481633602909151
"laveB" 0.0130950364752633
"agg" 0.487801043937576
"ave" 0.0190601415269235
"laveB" 0.113058154605814
"agg" 0.051194331587032
"ave" 0.000858906323240966
"laveB" 0.00511767390240948
"agg" 0.614918377124138
"ave" 0.0131450916518574
"laveB" 0.115664055791316
"agg" 0.330839554171427
"ave" 0.0112673885839585
"laveB" 0.103771237985831
"agg" 0.223236692998533
"ave" 0.0107218388692446
"laveB" 0.0787309897695148
"agg" 0.197222032843755
"ave" 0.00246329492559928
"laveB" 0.0201023919062212
"agg" 0.363739978229047
"ave" 0.00683550892147857
"laveB" 0.0693640156556938
"agg" 0.486057976043304
"ave" 0.0103537433033274
"laveB" 0.121090703710649
"agg" 0.493695585160807
"ave" 0.0134084670258801
"laveB" 0.126412938018082
"agg" 0.502747596879651
"ave" 0.00820646054014163
"laveB" 0.0611866788083948
"agg" 0.713082863223534
"ave" 0.0247919813333951
"laveB" 0.193969957795452
"agg" 0.032535582025192
"ave" 0.00133906611639574
"laveB" 0.0180836891238766
"agg" 0.101281040459867
"ave" 0.0053135358577025
"laveB" 0.0461230134886185
"agg" 0.239465022528944
"ave" 0.0105996484069788
"laveB" 0.0928679342271356
"agg" 0.256135290141788
"ave" 0.01196293817574
"laveB" 0.106099235364141
"agg" 0.346195459847437
"ave" 0.0104530916379605
"laveB" 0.0969400699185438
"agg" 0.457912408447358
"ave" 0.0160173121939145
"laveB" 0.149798656385558
"agg" 0.151952405416612
"ave" 0.003087705643727
"laveB" 0.0459667370640783
"agg" 0.214981599877914
"ave" 0.00460999592216021
"laveB" 0.0586397026109843
"agg" 0.50569653374299
"ave" 0.00918943528099877
"laveB" 0.119730215262884
"agg" 0.222983553418224
"ave" 0.00435586956373897
"laveB" 0.0428070818654735
"agg" 0.196816402911845
"ave" 0.00947365637792253
"laveB" 0.0694900005678589
"agg" -0.025934442677125
"ave" -7.72817197271952e-05
"laveB" -0.0408171435737898
"agg" 0.307871314279314
"ave" 0.00733637948468657
"laveB" 0.0914668239898525
"agg" 0.126832180220589
"ave" 0.00204783454326678
"laveB" 0.045001034067705
"agg" 0.375997736944037
"ave" 0.0141301599131859
"laveB" 0.125790908662102
"agg" 0.285166331340956
"ave" 0.00694273999618128
"laveB" 0.102315681731472
"agg" 0.520353917985628
"ave" 0.0133344365434392
"laveB" 0.132470668373874
"agg" 0.363298014419493
"ave" 0.00810443359693211
"laveB" 0.0843548805518098
"agg" 0.194629104340732
"ave" 0.00210199355830272
"laveB" 0.0106865706994463
"agg" -0.157785389896567
"ave" -0.00322558890383751
"laveB" -0.0111788117767864
"agg" 0.38994347980277
"ave" 0.0131968981508732
"laveB" 0.108198675224238
"agg" 0.120656038300787
"ave" 0.006568126762173
"laveB" 0.0816906405907459
"agg" 0.323363765305407
"ave" 0.00740812033044674
"laveB" 0.0566192481700019
"agg" 0.248390557224123
"ave" 0.00383746938494899
"laveB" 0.0467049866586641
"agg" 0.193073091644683
"ave" 0.00493421259296075
"laveB" 0.0567776892089847
"agg" 0.313457798916674
"ave" 0.0106693384993786
"laveB" 0.108006709676392
"agg" 0.386327885284495
"ave" 0.00522331310854007
"laveB" 0.068216110663472
"agg" 0.45818892658076
"ave" 0.00803907459242809
"laveB" 0.0937554728354201
"agg" 0.342742535273092
"ave" 0.00591213595722639
"laveB" 0.0701681214858849
"agg" 0.563225808535592
"ave" 0.012315162592201
"laveB" 0.140062481829161
"agg" 0.31144155407574
"ave" 0.00394295283089618
"laveB" 0.0471781432694922
"agg" 0.179822860659882
"ave" 0.0118794589953511
"laveB" 0.0522852254771146
"agg" 0.430694521082576
"ave" 0.0256578360969613
"laveB" 0.127568773730542
"agg" 0.512495870682592
"ave" 0.0191580018110761
"laveB" 0.131195057585554
"agg" 0.618010141303893
"ave" 0.0247332860474731
"laveB" 0.165675762614009
"agg" 0.384815949949345
"ave" 0.0109795320762309
"laveB" 0.0907646172621783
"agg" 0.520842401394817
"ave" 0.0179175392084437
"laveB" 0.142608729457263
"agg" 0.15658163467726
"ave" 0.00257744827386366
"laveB" 0.0176513846983811
"agg" 0.312836286192568
"ave" 0.0058870397177589
"laveB" 0.0631089030443375
"agg" 0.383263609022673
"ave" 0.00622854405656547
"laveB" 0.0786703559259015
"agg" 0.199125012602409
"ave" 0.00366878491453861
"laveB" 0.0462882115353335
"agg" 0.201184886093305
"ave" 0.00735861447406499
"laveB" 0.0459077436217192
"agg" -0.0373294017288697
"ave" -6.48343310382057e-05
"laveB" -0.0289387924954502
"agg" 0.359289546227339
"ave" 0.00777908057708187
"laveB" 0.0873817990608228
"agg" 0.242580258889601
"ave" 0.00440249834897998
"laveB" 0.0565370512615891
"agg" 0.384890142611791
"ave" 0.0120739442780455
"laveB" 0.109876749454651
"agg" 0.2590087446947
"ave" 0.00609868568507321
"laveB" 0.0665476221233252
"agg" 0.494991638437699
"ave" 0.0118010748581248
"laveB" 0.117537273464226
"agg" 0.489352381733488
"ave" 0.0102428115258571
"laveB" 0.110152386119773
"agg" 0.27232702588956
"ave" 0.00274539639994038
"laveB" 0.00830247516583744
"agg" -0.0958546463085651
"ave" -0.00146810392607806
"laveB" -0.00502125358292536
"agg" 0.251329636012262
"ave" 0.00787537068180144
"laveB" 0.072156540034965
"agg" 0.288027986480678
"ave" 0.00907105365896169
"laveB" 0.0673625003034204
"agg" 0.0971132923016061
"ave" 0.00029765097666303
"laveB" 0.0121791977394091
"agg" 0.388024340451446
"ave" 0.00521447630892055
"laveB" 0.0607668718561726
"agg" 0.30146571935885
"ave" 0.00668964065296356
"laveB" 0.0867027333941662
"agg" 0.313078733034111
"ave" 0.010008916567637
"laveB" 0.0777591452397421
"agg" 0.394200874015454
"ave" 0.00425305633918116
"laveB" 0.0425668430584963
"agg" 0.479789226894991
"ave" 0.0066431017926884
"laveB" 0.0807642337862804
"agg" 0.503052472589896
"ave" 0.00733457085403531
"laveB" 0.0950580783064978
"agg" 0.645821770415959
"ave" 0.0126157941454235
"laveB" 0.137832040127308
"agg" 0.431314450765978
"ave" 0.00477277179945344
"laveB" 0.0344992112071918
"agg" 0.769805607256434
"ave" 0.090991463668972
"laveB" 0.419491736504183
"agg" 0.798832181943762
"ave" 0.0535263037417465
"laveB" 0.286253707959448
"agg" 0.616680842181184
"ave" 0.0399176576656806
"laveB" 0.238391485789892
"agg" 0.223402898263209
"ave" 0.0134375835365014
"laveB" 0.0911642748269996
"agg" 0.107992142567443
"ave" 0.00710165066751732
"laveB" 0.0409351866026655
"agg" 0.437440145206502
"ave" 0.0158318004001718
"laveB" 0.153760707916569
"agg" 0.406474212827885
"ave" 0.0159231861214757
"laveB" 0.162109224500783
"agg" 0.0353394238165708
"ave" 0.00132066324533747
"laveB" 0.00611846065586307
"agg" 0.0875358669848442
"ave" 0.00334366421571278
"laveB" 0.00336704723932792
"agg" 1.96821497211609e-05
"ave" 0.000681221218865367
"laveB" 0.00550519899151925
"agg" 0.0542822845606542
"ave" 0.00334404492607607
"laveB" 0.0263386693108474
"agg" 0.344532682196641
"ave" 0.0157669283201374
"laveB" 0.144558145172461
"agg" 0.257559529155541
"ave" 0.00936209688369433
"laveB" 0.083539279579927
"agg" 0.131365246862958
"ave" 0.0102407418413649
"laveB" 0.0726341885244424
"agg" 0.162744057646668
"ave" 0.00819720064805829
"laveB" 0.0566285823688499
"agg" 0.195200214934865
"ave" 0.00847372613691073
"laveB" 0.0774156819210696
"agg" 0.457156123429072
"ave" 0.0146182541880878
"laveB" 0.13030031069186
"agg" 0.484706433663859
"ave" 0.0145961586123204
"laveB" 0.133919500671752
"agg" 0.399430992276592
"ave" 0.0149198639084039
"laveB" 0.144452842474646
"agg" 0.752651233853182
"ave" 0.0393925678670906
"laveB" 0.241305068696644
"agg" 0.677846180066349
"ave" 0.0303631135009995
"laveB" 0.176304947568107
"agg" 0.346416615312834
"ave" 0.0134411950801025
"laveB" 0.0903608300753988
"agg" 0.249288029960324
"ave" 0.00592696511552641
"laveB" 0.0342614330685372
"agg" 0.458122161149206
"ave" 0.0221032305299244
"laveB" 0.190149914753747
"agg" 0.539174877416908
"ave" 0.033957795917877
"laveB" 0.256482617949418
"agg" 0.306795692606109
"ave" 0.00809726246245839
"laveB" 0.0652333803361167
"agg" 0.264594585732053
"ave" 0.008544269565752
"laveB" 0.0843764563842958
"agg" 0.386564956586203
"ave" 0.0108922636024034
"laveB" 0.108039571968145
"agg" 0.39762545384264
"ave" 0.014234886211894
"laveB" 0.135607719054265
"agg" 0.395058591843667
"ave" 0.00991647160620676
"laveB" 0.0816518729398889
"agg" 0.792264387311454
"ave" 0.04702875247935
"laveB" 0.262699311054504
"agg" 0.809774167291456
"ave" 0.049196909342035
"laveB" 0.340752337076147
"agg" 0.405638262898803
"ave" 0.0212313981041268
"laveB" 0.163103549690473
"agg" 0.390482378353342
"ave" 0.0233385034780511
"laveB" 0.157389200252605
"agg" 0.399104674596408
"ave" 0.012622694634938
"laveB" 0.130447461602334
"agg" 0.475644489941295
"ave" 0.0158890407095182
"laveB" 0.169588873161647
"agg" 0.0664337261061309
"ave" 0.00205166957620032
"laveB" 0.0226712415116712
"agg" 0.12976760510488
"ave" 0.00451127302944869
"laveB" 0.0325353537635145
"agg" 0.0644328633471749
"ave" 0.00484379617426988
"laveB" 0.0100586538409351
"agg" 0.106906148509221
"ave" 0.00655420182748464
"laveB" 0.0364690629468909
"agg" 0.450448954727782
"ave" 0.0175947295500639
"laveB" 0.176569956863952
"agg" 0.395110352919245
"ave" 0.0122457943451026
"laveB" 0.124241558117351
"agg" 0.160288368241857
"ave" 0.00964732818190887
"laveB" 0.0691481991581652
"agg" 0.0948583998886654
"ave" 0.004191806113699
"laveB" 0.014310980405279
"agg" 0.1692511858289
"ave" 0.006653390809068
"laveB" 0.0474501569682773
"agg" 0.410662113049011
"ave" 0.0124394562710756
"laveB" 0.104987998911485
"agg" 0.479087944123639
"ave" 0.0109215174974018
"laveB" 0.0967072927706883
"agg" 0.419017851032175
"ave" 0.0131761231622433
"laveB" 0.131378743047603
"agg" 0.503936509683959
"ave" 0.0225214832523536
"laveB" 0.143931248842975
"agg" 0.764272250726606
"ave" 0.0311627081056534
"laveB" 0.186758800866835
"agg" 0.201162927336735
"ave" 0.00649699973408432
"laveB" 0.0472951691998893
"agg" 0.414772830237671
"ave" 0.010293238524017
"laveB" 0.0725928136769863
"agg" 0.412866748905603
"ave" 0.0180225267169837
"laveB" 0.172962380612355
"agg" 0.387654563179066
"ave" 0.0225000443633604
"laveB" 0.169928232410327
"agg" 0.246458762178126
"ave" 0.00435309084481616
"laveB" 0.0378703108810331
"agg" 0.335591112750871
"ave" 0.00802777390052101
"laveB" 0.0829613606180872
"agg" 0.481486767982248
"ave" 0.012108390751312
"laveB" 0.126457622083088
"agg" 0.492973034051606
"ave" 0.0157689005606227
"laveB" 0.14763655176012
"agg" 0.480432717220514
"ave" 0.00987482966695921
"laveB" 0.0830449563037528
"agg" 0.878800926628489
"ave" 0.0311426553576273
"laveB" 0.25291794116256
"agg" 0.344352015603482
"ave" 0.0111997319308607
"laveB" 0.109030726850759
"agg" 0.355737436909629
"ave" 0.0118082683744904
"laveB" 0.0946231125046032
"agg" 0.494016018400219
"ave" 0.00914117607612557
"laveB" 0.109628757684452
"agg" 0.5723669248504
"ave" 0.0107686476210927
"laveB" 0.128536908209508
"agg" 0.186946480046819
"ave" 0.00376810711483512
"laveB" 0.0459217969359659
"agg" 0.2151729170431
"ave" 0.00402956748830642
"laveB" 0.0445745637598093
"agg" 0.162029777143802
"ave" 0.00638704097379558
"laveB" 0.046314243519825
"agg" 0.0877590039711237
"ave" 0.0023554382827012
"laveB" 0.00197171335520684
"agg" 0.535544533791959
"ave" 0.0119965622101487
"laveB" 0.150948104573083
"agg" 0.383301474244157
"ave" 0.0069370271686721
"laveB" 0.0873446702615013
"agg" 0.172370509194632
"ave" 0.00841477134311491
"laveB" 0.0908498148557705
"agg" 0.225464405961477
"ave" 0.00709274283667936
"laveB" 0.0699927504265175
"agg" 0.271254239573572
"ave" 0.00832352715608132
"laveB" 0.0987604951178747
"agg" 0.527585262030078
"ave" 0.010431546551282
"laveB" 0.126413314130937
"agg" 0.543923542231648
"ave" 0.00719593150424177
"laveB" 0.0923820603383041
"agg" 0.364685325779295
"ave" 0.0056538860506975
"laveB" 0.0714139925733431
"agg" 0.603951885703632
"ave" 0.0168526514087941
"laveB" 0.138110925473921
"agg" 0.679027450832001
"ave" 0.0165951095254459
"laveB" 0.131282247071231
"agg" 0.187310981718317
"ave" 0.00463152548128128
"laveB" 0.0366868142822852
"agg" 0.407936614211148
"ave" 0.00586506455770336
"laveB" 0.0547186277748499
"agg" 0.491348214469856
"ave" 0.0143549032962929
"laveB" 0.160980601149658
"agg" 0.560225019195924
"ave" 0.0203058217563206
"laveB" 0.202498185377585
"agg" 0.456269999935894
"ave" 0.00707669515332333
"laveB" 0.0921210289581555
"agg" 0.480244955190483
"ave" 0.00873012936080584
"laveB" 0.0972216401897929
"agg" 0.588035030144366
"ave" 0.00908163617045254
"laveB" 0.133046324323157
"agg" 0.643138157322851
"ave" 0.0132044892335445
"laveB" 0.168725555207615
"agg" 0.615606223210521
"ave" 0.00825688641328617
"laveB" 0.0784372410019373
"agg" 0.378132270541824
"ave" 0.0123135232489126
"laveB" 0.133494652490562
"agg" 0.502810844421993
"ave" 0.0188322590140052
"laveB" 0.175226215183129
"agg" 0.439701216525191
"ave" 0.0082144443768879
"laveB" 0.107006803244621
"agg" 0.538122531932126
"ave" 0.0108226403958469
"laveB" 0.149126683070158
"agg" 0.175246596076762
"ave" 0.00394289424276646
"laveB" 0.0480440946613612
"agg" 0.19134926986374
"ave" 0.00429961088220656
"laveB" 0.038271246288971
"agg" 0.184213261192204
"ave" 0.00849960164809194
"laveB" 0.0584989790794312
"agg" 0.0686931565837803
"ave" 0.00255072946714794
"laveB" 0.00606203735453688
"agg" 0.540320318281003
"ave" 0.0130512515702921
"laveB" 0.166314702447808
"agg" 0.363762599618584
"ave" 0.00670158590892673
"laveB" 0.0903594913806775
"agg" 0.116342539679396
"ave" 0.00554948788865896
"laveB" 0.0633263405464387
"agg" 0.0913420195132545
"ave" 0.00298985204091013
"laveB" 0.0278129153145689
"agg" 0.196772514347674
"ave" 0.00649326450258726
"laveB" 0.0787751959830052
"agg" 0.434904754359176
"ave" 0.00929861733363229
"laveB" 0.10427554439033
"agg" 0.488490656530449
"ave" 0.00600363685383811
"laveB" 0.0694364297835567
"agg" 0.338304848351205
"ave" 0.00526308381466867
"laveB" 0.0617244341462122
"agg" 0.397238816180479
"ave" 0.0103822957287609
"laveB" 0.0932077593686183
"agg" 0.599167299324757
"ave" 0.0151463206597014
"laveB" 0.123512460565716
"agg" 0.0287005991842973
"ave" -0.000241860330553434
"laveB" 0.0146105475155556
"agg" 0.335055525243234
"ave" 0.00503311748232138
"laveB" 0.0445587174779657
"agg" 0.290778146794031
"ave" 0.00800188547943904
"laveB" 0.098200552708085
"agg" 0.355631885137525
"ave" 0.0128521960954258
"laveB" 0.149284538031303
"agg" 0.297605220022073
"ave" 0.00380005112166004
"laveB" 0.0401668625257777
"agg" 0.39836483943687
"ave" 0.00651649052455462
"laveB" 0.0881292231885269
"agg" 0.520050495278755
"ave" 0.00834542800717016
"laveB" 0.120522802585383
"agg" 0.596198437507087
"ave" 0.0126190795647463
"laveB" 0.168598937359426
"agg" 0.507354582547767
"ave" 0.00622827937028267
"laveB" 0.0635672569616414
"agg" 0.713497705735514
"ave" 0.020795167718366
"laveB" 0.249900682118828
"agg" 0.239205342092745
"ave" 0.00356280081942483
"laveB" 0.0641635737826477
"agg" 0.306929716764803
"ave" 0.00473285232348023
"laveB" 0.0894527847033243
"agg" 0.193990147105715
"ave" 0.00265012367343306
"laveB" 0.0377786301076637
"agg" 0.116246756539438
"ave" 0.00194749391092942
"laveB" 0.0354208794287342
"agg" -0.0376298122584275
"ave" -0.00182901574488318
"laveB" -0.0275926575083665
"agg" 0.0678569140100669
"ave" 0.00193644822193306
"laveB" 0.01164579400229
"agg" 0.31420611321348
"ave" 0.00576812239702695
"laveB" 0.102890442158883
"agg" 0.144978831847847
"ave" 0.00213882277476263
"laveB" 0.0384169604942575
"agg" 0.306961869768193
"ave" 0.00939586935781037
"laveB" 0.10546534963828
"agg" 0.121254347470859
"ave" 0.00277881701032491
"laveB" 0.0262384341571261
"agg" 0.322576019306605
"ave" 0.00699646120299821
"laveB" 0.100364781663897
"agg" 0.354084971397638
"ave" 0.0066729947270873
"laveB" 0.0945975354564465
"agg" 0.217920991795046
"ave" 0.0018224295212984
"laveB" 0.035696562241312
"agg" 0.0419531184291866
"ave" 0.000517591671764948
"laveB" 0.0299870231417556
"agg" 0.219409881741341
"ave" 0.00633153283515144
"laveB" 0.0550088787065086
"agg" 0.259982895064975
"ave" 0.00672199585046497
"laveB" 0.0710846211721255
"agg" 0.146013248186217
"ave" 0.00319947799780218
"laveB" 0.0363189619203568
"agg" 0.335327539825041
"ave" 0.00418708452808143
"laveB" 0.0492659851269178
"agg" 0.226455895619083
"ave" 0.00522020315445299
"laveB" 0.0712872748505627
"agg" 0.28117831509849
"ave" 0.00853838333470086
"laveB" 0.0967967310755674
"agg" 0.267738863727079
"ave" 0.00253658665151446
"laveB" 0.0348208200330616
"agg" 0.382481125759152
"ave" 0.00492297292106178
"laveB" 0.0695055050944996
"agg" 0.443676867358218
"ave" 0.00579033798628422
"laveB" 0.107917072302855
"agg" 0.461056557786118
"ave" 0.00755667102747183
"laveB" 0.10426355905138
"agg" 0.475801644355077
"ave" 0.00484434594752414
"laveB" 0.0784456035475912
"agg" 0.207476326167055
"ave" 0.00357628413117154
"laveB" 0.0542603413436515
"agg" 0.342824339608718
"ave" 0.00617642994575679
"laveB" 0.0997413917508192
"agg" 0.233150147909032
"ave" 0.00377956521038504
"laveB" 0.0490857583342198
"agg" 0.0705902290420289
"ave" 0.0014780098547362
"laveB" 0.0337994200068723
"agg" 0.0119783942954515
"ave" 0.000270639400924061
"laveB" -0.0166182815174496
"agg" 0.0757921769059243
"ave" 0.00285142367824928
"laveB" 0.00252963748635202
"agg" 0.395508328046309
"ave" 0.00835089257834116
"laveB" 0.125372314769498
"agg" 0.148514773345626
"ave" 0.00275100223846721
"laveB" 0.0392171908010277
"agg" 0.151712267093399
"ave" 0.00472593136822492
"laveB" 0.0506436691831479
"agg" -0.0284413290057488
"ave" -0.00109491163142202
"laveB" -0.0159844648733693
"agg" 0.189856308389659
"ave" 0.00547173160198576
"laveB" 0.0497085292551738
"agg" 0.241417465616945
"ave" 0.00593891180745953
"laveB" 0.0706669357734634
"agg" 0.247551450329893
"ave" 0.00212300467717595
"laveB" 0.0244539733751904
"agg" 0.0613927327201982
"ave" 0.000863213822214745
"laveB" 0.0279860686719893
"agg" 0.126742896812013
"ave" 0.00448006628708427
"laveB" 0.0379891934011077
"agg" 0.240581503320084
"ave" 0.00693030862093081
"laveB" 0.0598433090394892
"agg" -0.0698519504028564
"ave" -0.00163361628991779
"laveB" -0.0261245928939837
"agg" 0.288701185773875
"ave" 0.00398575923049741
"laveB" 0.0377075402530824
"agg" 0.0550061847267887
"ave" 0.00153200523875216
"laveB" 0.0226261086392356
"agg" 0.199002855395452
"ave" 0.00696236995900609
"laveB" 0.0734165421963564
"agg" 0.171111081408615
"ave" 0.000823636834443421
"laveB" -0.00520487146704207
"agg" 0.382588728579904
"ave" 0.00475725358841792
"laveB" 0.0697025225186532
"agg" 0.431268393423305
"ave" 0.00611061739994562
"laveB" 0.0977014193065048
"agg" 0.493706400689518
"ave" 0.00901018554911755
"laveB" 0.113293467459432
"agg" 0.379367432959889
"ave" 0.00361198070830938
"laveB" 0.0301144451038118
"agg" 0.717176445238461
"ave" 0.00735525990497852
"laveB" 0.169423515457546
"agg" 0.36724800337296
"ave" 0.00334872648242992
"laveB" 0.0736561566590595
"agg" 0.48870620772181
"ave" 0.00441532815813256
"laveB" 0.0879459782436951
"agg" 0.272089034882238
"ave" 0.00598606928570228
"laveB" 0.109338949167922
"agg" 0.264225277462152
"ave" 0.00441598884066648
"laveB" 0.0503405883101201
"agg" 0.537772221089608
"ave" 0.00635401704130915
"laveB" 0.125056369675547
"agg" 0.316957206568226
"ave" 0.00299917514434152
"laveB" 0.062214857446246
"agg" 0.084389478224129
"ave" 0.00155445315523926
"laveB" 0.0209066303803193
"agg" 0.073178323026811
"ave" 0.000862112315989027
"laveB" 0.0275979818652595
"agg" 0.077476474854339
"ave" 0.000913121216557098
"laveB" 0.022785308641638
"agg" 0.246213382496695
"ave" 0.00260971251767482
"laveB" 0.0452085939445758
"agg" 0.350339881560369
"ave" 0.00272154380120635
"laveB" 0.0590025930563469
"agg" 0.313437285104336
"ave" 0.00317711485667732
"laveB" 0.0637209829626146
"agg" 0.389682492421479
"ave" 0.00593515426821667
"laveB" 0.0707548045813194
"agg" 0.464112225534012
"ave" 0.00647166335126513
"laveB" 0.0718958082081518
"agg" 0.301220491232027
"ave" 0.00349505005344097
"laveB" 0.0475284188080389
"agg" 0.376557182329423
"ave" 0.00306976889628468
"laveB" 0.0446301634652345
"agg" 0.34543213028639
"ave" 0.00458056471580857
"laveB" 0.0835877658889975
"agg" 0.469896422884633
"ave" 0.00836217411385099
"laveB" 0.131851020050685
"agg" 0.352509972627184
"ave" 0.00240937440228054
"laveB" 0.0363855939760806
"agg" 0.360140662969429
"ave" 0.00318317396075024
"laveB" 0.0648156842347294
"agg" 0.420945060547503
"ave" 0.00350347756241371
"laveB" 0.0867967921249317
"agg" 0.447282689727644
"ave" 0.00470817998663031
"laveB" 0.0977554083876091
"agg" 0.45375351888806
"ave" 0.00322016418960907
"laveB" 0.0560037068955422
"agg" 0.415863833421335
"ave" 0.00388754819122766
"laveB" 0.0970921975488164
"agg" 0.448165772151963
"ave" 0.00433109698230788
"laveB" 0.0896805100542112
"agg" 0.217529296002503
"ave" 0.00505975453608052
"laveB" 0.0833472050957137
"agg" 0.214641594797877
"ave" 0.00380106750745239
"laveB" 0.0404782517176481
"agg" 0.643973775460409
"ave" 0.00784797055006372
"laveB" 0.176449586919852
"agg" 0.345686277993577
"ave" 0.00327976129645174
"laveB" 0.0854890112188461
"agg" 0.0933606046372827
"ave" 0.00198936672595854
"laveB" 0.0329655657624993
"agg" 0.129075746092606
"ave" 0.0017760656048046
"laveB" 0.0401993472755959
"agg" 0.0557684594844132
"ave" 0.000971482754103699
"laveB" 0.00869793777905144
"agg" 0.257185375176804
"ave" 0.00310248359590679
"laveB" 0.0508997761244177
"agg" 0.379180079474522
"ave" 0.00277616230370936
"laveB" 0.0554921550894472
"agg" 0.367707987495324
"ave" 0.00370771935044538
"laveB" 0.0901051494923242
"agg" 0.28398629672503
"ave" 0.004586241198583
"laveB" 0.049109800324251
"agg" 0.528692764501781
"ave" 0.00749954903655484
"laveB" 0.0871342303454187
"agg" 0.162394461012978
"ave" 0.00168779224703615
"laveB" 0.0318771273171223
"agg" 0.447887314179744
"ave" 0.00386768563953806
"laveB" 0.0634165250671353
"agg" 0.317040981205399
"ave" 0.00458178955756941
"laveB" 0.08592435141334
"agg" 0.413623514511597
"ave" 0.00792834133219838
"laveB" 0.132687102079021
"agg" 0.391415711704068
"ave" 0.00268524142652685
"laveB" 0.0535234316704542
"agg" 0.431387605601072
"ave" 0.00382423850281056
"laveB" 0.0790968957846728
"agg" 0.516905051108891
"ave" 0.00448805659246222
"laveB" 0.105083741225818
"agg" 0.554311419089176
"ave" 0.00610689595046222
"laveB" 0.120293207577798
"agg" 0.555676112957407
"ave" 0.00386705062126697
"laveB" 0.0572964974316323
"agg" 0.535377447096524
"ave" 0.00422095536521893
"laveB" 0.102629472053555
"agg" 0.183273969016114
"ave" 0.00382197265663862
"laveB" 0.0718316022401122
"agg" 0.187100186142513
"ave" 0.0030187514417627
"laveB" 0.0297605469836811
"agg" 0.331154946373856
"ave" 0.00341759900487773
"laveB" 0.088497417541422
"agg" 0.212848283415577
"ave" 0.0019203008809036
"laveB" 0.0499944162739133
"agg" 0.24908146814326
"ave" 0.0046527530131987
"laveB" 0.0719761010722253
"agg" 0.295877515337558
"ave" 0.00368343577509094
"laveB" 0.0936294743875144
"agg" 0.364342036424817
"ave" 0.00443495546149887
"laveB" 0.0883031743741783
"agg" 0.33933104198399
"ave" 0.00364575434179576
"laveB" 0.0735970686115416
"agg" 0.20833541727633
"ave" 0.00132684334911748
"laveB" 0.0201357694568507
"agg" -0.0601453511815234
"ave" -0.000509546766755546
"laveB" 0.00745483767573138
"agg" 0.237577971232775
"ave" 0.00393779096117321
"laveB" 0.0541797658448562
"agg" 0.0989388927532819
"ave" 0.00263493329923508
"laveB" 0.0422497388187894
"agg" 0.312412815761157
"ave" 0.00311096550413141
"laveB" 0.0548322808575944
"agg" 0.267983665885183
"ave" 0.00204782349308809
"laveB" 0.0407851961455729
"agg" 0.282563756324494
"ave" 0.00348011578243477
"laveB" 0.071808431940443
"agg" 0.320779915038506
"ave" 0.00520023481027618
"laveB" 0.100307886948237
"agg" 0.432968606427857
"ave" 0.0029728777804728
"laveB" 0.068731461756557
"agg" 0.483726712518682
"ave" 0.00419909650160248
"laveB" 0.105704985001098
"agg" 0.342029731674846
"ave" 0.00273667757019524
"laveB" 0.0712002645223994
"agg" 0.498869162188694
"ave" 0.00524182280490075
"laveB" 0.115622210552968
"agg" 0.282871733975387
"ave" 0.0020159163853717
"laveB" 0.044909604475817
"agg" 0.165553189605673
"ave" 0.0035837426821407
"laveB" 0.0651030047388023
"agg" 0.275381617891284
"ave" 0.00395938448191145
"laveB" 0.0504952311190871
"agg" 0.391142618243638
"ave" 0.00420909480665732
"laveB" 0.0794425184558614
"agg" 0.279751311129943
"ave" 0.00238478892644847
"laveB" 0.0566295377366467
"agg" 0.137907083730488
"ave" 0.00300287180605704
"laveB" 0.0365257910737701
"agg" 0.213356597243997
"ave" 0.00295608659146138
"laveB" 0.0483561712259233
"agg" 0.159078080775237
"ave" 0.00209886423849153
"laveB" 0.0304757847165219
"agg" 0.189799483759068
"ave" 0.00219603364276676
"laveB" 0.0334602253060359
"agg" 0.136139308436583
"ave" 0.00103605720466449
"laveB" 0.0217592404231996
"agg" 0.134659110995332
"ave" 0.00118729612232121
"laveB" 0.0256007377027723
"agg" 0.115322667601062
"ave" 0.00159543270043057
"laveB" 0.0072286876919081
"agg" 0.161305437808982
"ave" 0.00253652959076055
"laveB" 0.0280186660610225
"agg" 0.110379859173071
"ave" 0.000892123615834102
"laveB" 0.0185390371784192
"agg" 0.198536026083827
"ave" 0.00177664339078918
"laveB" 0.0297347966401215
"agg" 0.081580061348222
"ave" 0.00105306945919122
"laveB" 0.0137309962868822
"agg" 0.0925201891426527
"ave" 0.00167707010849968
"laveB" 0.0310386854224732
"agg" 0.254516230390994
"ave" 0.00158849409743083
"laveB" 0.0309223855434875
"agg" 0.268773549900953
"ave" 0.00232074883781085
"laveB" 0.0442184795256338
"agg" 0.262833231924625
"ave" 0.00217722838853165
"laveB" 0.0474611635938552
"agg" 0.332542667510696
"ave" 0.00359549768668414
"laveB" 0.0759762963358864
"agg" 0.222718672434164
"ave" 0.00163393904031742
"laveB" 0.0225813979884329
"agg" -0.0540119889094652
"ave" -0.00165051424115518
"laveB" -0.0224759427319696
"agg" 0.150498076280156
"ave" 0.00414662129075143
"laveB" 0.048568583529914
"agg" 0.0576640977754913
"ave" 0.00105665815920351
"laveB" 0.0293812726765792
"agg" 0.237326525748263
"ave" 0.0112822579823307
"laveB" 0.12137789613468
"agg" 0.0138879924611289
"ave" 0.00102898417088671
"laveB" 0.0141169605695099
"agg" 0.130494546250105
"ave" 0.00440457349157716
"laveB" 0.0572132167031493
"agg" 0.0517297647252807
"ave" 0.00178136183043631
"laveB" 0.0194740463825645
"agg" 0.2103156643409
"ave" 0.00329163908476624
"laveB" 0.0364066643760593
"agg" -0.118376828922598
"ave" -0.00282429592298811
"laveB" -0.0303164443460837
"agg" -0.0522126033891473
"ave" -0.00127615380394766
"laveB" -0.0153261238944929
"agg" 0.046610681076461
"ave" 0.0025826256049489
"laveB" 0.0185116577716177
"agg" 0.0492889682350445
"ave" 0.00154678805787765
"laveB" 0.0267647183321565
"agg" 0.136615485832771
"ave" 0.00220069471800993
"laveB" 0.0222330526845346
"agg" 0.0460148201592509
"ave" 0.00112752912766389
"laveB" 0.0257940245427381
"agg" -0.00260885749372168
"ave" 0.000312819830326555
"laveB" 0.00186565553682364
"agg" 0.118765728022885
"ave" 0.0022172953269626
"laveB" 0.0408807106946747
"agg" 0.112063967250115
"ave" 0.00192388018835999
"laveB" 0.024746978179894
"agg" 0.0971499832967562
"ave" 0.00219298481784493
"laveB" 0.0235990980002531
"agg" 0.131511982135889
"ave" 0.00305170438934392
"laveB" 0.0352867295630828
"agg" 0.116634951904358
"ave" 0.00160124345000931
"laveB" 0.0227500499080999
"agg" 0.194517132127695
"ave" 0.00385490153353029
"laveB" 0.0644359925554018
"agg" 0.222067681123713
"ave" 0.00330174374257852
"laveB" 0.0339630732080617
"agg" -0.0084942918730063
"ave" 0.000350662622725293
"laveB" -0.0224722394539096
"agg" 0.155864255197046
"ave" 0.00267498749452503
"laveB" 0.0134601490413173
"agg" -0.0142034889607749
"ave" 0.000196839284166173
"laveB" -0.0247973517411323
"agg" 0.0678961366390804
"ave" 0.00167723681782467
"laveB" 0.00538473526262079
"agg" 0.0989377598854841
"ave" 0.000841594095522334
"laveB" 0.0126537131538779
"agg" 0.209146912276306
"ave" 0.00292214630822676
"laveB" 0.0495842157339517
"agg" 0.0119240109975609
"ave" 0.000209736014938994
"laveB" -0.000396282981836448
"agg" 0.178529811499337
"ave" 0.00395842017025928
"laveB" 0.0256190588151104
"agg" -0.0429293184616216
"ave" -0.000967888573611923
"laveB" -0.00630405843914915
"agg" 0.162081614780737
"ave" 0.00262321265049173
"laveB" 0.0098420994361347
"agg" -0.0111609434820858
"ave" -0.000225737638375309
"laveB" -0.0107815964325646
"agg" 0.00738394983045935
"ave" 0.000471205462703642
"laveB" -0.00562986980986348
"agg" 0.0693885560552923
"ave" 0.000468991964162243
"laveB" -0.0023650201451764
"agg" 0.0237807353864466
"ave" 0.000561241115265851
"laveB" -0.00997409014472639
"agg" 0.099098954753414
"ave" 0.00159433365409276
"laveB" 0.00773376659208878
"agg" 0.152986298728795
"ave" 0.00292608313089193
"laveB" 0.0227388151977754
"agg" 0.0930787265711906
"ave" 0.00107563596224058
"laveB" 0.0107304935086253
"agg" 0.371282708336502
"ave" 0.00401200162706454
"laveB" 0.0849843432878473
"agg" 0.0396485360273799
"ave" 0.000529953667968985
"laveB" 0.0236314186433575
"agg" 0.117684610714217
"ave" 0.00175578509991125
"laveB" 0.042179515170723
"agg" 0.0197563930716759
"ave" 0.000101465981469573
"laveB" -0.00419790105567194
"agg" 0.177627858508171
"ave" 0.00229700647005676
"laveB" 0.0299490152746474
"agg" 0.412433981746048
"ave" 0.00330886618587863
"laveB" 0.0662571818646226
"agg" 0.429320239910929
"ave" 0.00515325364720451
"laveB" 0.091310391497198
"agg" 0.331796389503862
"ave" 0.00621495873295715
"laveB" 0.0795271746792553
"agg" 0.604684768046792
"ave" 0.0100282830111474
"laveB" 0.1114273638087
"agg" 0.272538507220242
"ave" 0.00332100392575855
"laveB" 0.0519114596891667
"agg" 0.487007400073184
"ave" 0.00485930604611347
"laveB" 0.0658411462580321
"agg" 0.20405110522907
"ave" 0.00333658386685357
"laveB" 0.0610286000463608
"agg" 0.323916365191621
"ave" 0.00733086501018537
"laveB" 0.101975795346918
"agg" 0.325810139258383
"ave" 0.00231494977330169
"laveB" 0.04113081085246
"agg" 0.351561479643819
"ave" 0.00350912403632898
"laveB" 0.0612661556847941
"agg" 0.408170696809577
"ave" 0.00404213428412905
"laveB" 0.0854887585143905
"agg" 0.478524263157545
"ave" 0.0061823510750569
"laveB" 0.11947527868984
"agg" 0.473344928756874
"ave" 0.00365736714291076
"laveB" 0.0553359551701423
"agg" 0.122429613611247
"ave" 0.00223765146013664
"laveB" 0.040428309030972
"agg" 0.129154645309554
"ave" 0.00156424454186672
"laveB" 0.0328655175977366
"agg" 0.108003693157376
"ave" 0.00116702166776454
"laveB" 0.0203142387641953
"agg" 0.178064173591752
"ave" 0.00150267688213799
"laveB" 0.0179898771319767
"agg" 0.34930976946193
"ave" 0.00218791452973593
"laveB" 0.0491169896476808
"agg" 0.280802506199089
"ave" 0.00262399526888026
"laveB" 0.0439400903235587
"agg" 0.230569806255514
"ave" 0.00290494403899802
"laveB" 0.0496129547032657
"agg" 0.407131903941927
"ave" 0.00485048525492961
"laveB" 0.0668452888818264
"agg" 0.0860351007098035
"ave" 0.000558285412190827
"laveB" 0.0174308254854815
"agg" 0.223708829855057
"ave" 0.00157519349409404
"laveB" 0.0184387586929127
"agg" 0.127832840567521
"ave" 0.00181050918695304
"laveB" 0.0350875268696756
"agg" 0.116655049720659
"ave" 0.00232631584051175
"laveB" 0.0424191634588257
"agg" 0.25303815567587
"ave" 0.00162673458275719
"laveB" 0.0394343419058234
"agg" 0.208455087738822
"ave" 0.00173220541566272
"laveB" 0.039778775906021
"agg" 0.137671656860164
"ave" 0.00122355241583703
"laveB" 0.0253052048622805
"agg" 0.27339481677183
"ave" 0.00286666605254749
"laveB" 0.0580173452147305
"agg" 0.321258970837734
"ave" 0.00205381836441553
"laveB" 0.0510922676139702
"agg" 0.445251412298733
"ave" 0.0133753708971178
"laveB" 0.15914582134241
"agg" 0.720849458604594
"ave" 0.0194281192234714
"laveB" 0.254549626754989
"agg" 0.431929760727043
"ave" 0.0101245352022273
"laveB" 0.150905883298377
"agg" 0.0831770395492758
"ave" 0.000727873972304776
"laveB" -0.00917682647965353
"agg" -0.37586410028701
"ave" -0.00828558095339876
"laveB" -0.0613976688714498
"agg" 0.141901114773788
"ave" 0.00549325845573525
"laveB" 0.0573382455282605
"agg" -0.00789700291981486
"ave" 0.00240166152155614
"laveB" 0.0312360287892384
"agg" 0.25030889756674
"ave" 0.00665654317364016
"laveB" 0.0754688054582516
"agg" 0.151241987569455
"ave" 0.00318586543617151
"laveB" 0.0364532703048294
"agg" 0.339976906090191
"ave" 0.00951221892902089
"laveB" 0.112974186953232
"agg" 0.236297763020527
"ave" 0.00812003040504804
"laveB" 0.0884267983338405
"agg" 0.428861781943795
"ave" 0.00724773241545352
"laveB" 0.0895840569230575
"agg" 0.466459314988637
"ave" 0.0089116722018523
"laveB" 0.142933341355623
"agg" 0.360019957250921
"ave" 0.00650534676882363
"laveB" 0.111474595760741
"agg" 0.411179064957356
"ave" 0.0095099894771855
"laveB" 0.138111772006307
"agg" 0.277679334630829
"ave" 0.00456118093317978
"laveB" 0.0538059168896619
"agg" 0.550666568136808
"ave" 0.0102418184211808
"laveB" 0.155847176301559
"agg" 0.514847364441427
"ave" 0.00754161127006415
"laveB" 0.128635909594895
"agg" 0.118215954825825
"ave" 0.00113225469194927
"laveB" 0.0105634235781006
"agg" -0.106388354805975
"ave" -0.00179741910996128
"laveB" -0.00758268408657656
"agg" 0.21999488856378
"ave" 0.00478970397917423
"laveB" 0.0728202909804192
"agg" 0.137222038216034
"ave" 0.00389293350434534
"laveB" 0.0527133876515752
"agg" 0.121779622051242
"ave" 0.00198855465951039
"laveB" 0.0340938297366156
"agg" 0.153836706142883
"ave" 0.00195080239119468
"laveB" 0.0291832297434255
"agg" 0.282848585850354
"ave" 0.00549269412418919
"laveB" 0.0907616122676088
"agg" 0.233534657688401
"ave" 0.00574396005629031
"laveB" 0.0954300667872127
"agg" 0.419010161080352
"ave" 0.00502237245579672
"laveB" 0.0833635570168785
"agg" 0.371042560091431
"ave" 0.00548630880875791
"laveB" 0.102883778085629
"agg" 0.245094589580078
"ave" 0.0032110527805161
"laveB" 0.0539770798543822
"agg" 0.379757800396013
"ave" 0.00625387724295409
"laveB" 0.120009452888827
"agg" 0.227105887609596
"ave" 0.00291142461827783
"laveB" 0.0477486290974568
"agg" 0.618006006936267
"ave" 0.00898419215575852
"laveB" 0.147514214132637
"agg" 0.180574745660142
"ave" 0.00158255162105103
"laveB" 0.0199796336831434
"agg" -0.348728991300153
"ave" -0.00492865486031218
"laveB" -0.0464598102036831
"agg" 0.326137569608809
"ave" 0.00691073491949241
"laveB" 0.0824311409121406
"agg" -0.00530633606105276
"ave" 0.00145200672103993
"laveB" 0.0412206642474191
"agg" 0.269302743522769
"ave" 0.00367660031952151
"laveB" 0.0529234987735878
"agg" 0.158823478133756
"ave" 0.00171490622968587
"laveB" 0.0332981310135049
"agg" 0.363200705722194
"ave" 0.00636024899111934
"laveB" 0.103048402029939
"agg" 0.234848639923862
"ave" 0.00541602959102963
"laveB" 0.0883669998972198
"agg" 0.427765137400635
"ave" 0.00454416281305097
"laveB" 0.0806345530143559
"agg" 0.463856884073423
"ave" 0.00605039085396906
"laveB" 0.11128405668664
"agg" 0.366234943113715
"ave" 0.00446639082371241
"laveB" 0.0819239706478514
"agg" 0.448839981560243
"ave" 0.00695611104891503
"laveB" 0.126458892469862
"agg" 0.317596304107183
"ave" 0.00328163026109131
"laveB" 0.0472941805560568
"agg" 0.381158718223997
"ave" 0.00247332123742479
"laveB" 0.0409820596061395
"agg" 0.0278764178536877
"ave" -0.00019287175647872
"laveB" 0.0119411510213987
"agg" 0.495283196008251
"ave" 0.00690145809718179
"laveB" 0.0841282485711336
"agg" 0.309507659101878
"ave" 0.00488711064774205
"laveB" 0.0763122416476288
"agg" 0.24257835127338
"ave" 0.00224401462742293
"laveB" 0.03779586564327
"agg" 0.315521056222519
"ave" 0.00243019691737704
"laveB" 0.0331354385047804
"agg" 0.504607587409737
"ave" 0.00673517488403855
"laveB" 0.107941099350901
"agg" 0.467928659815716
"ave" 0.00866527729834523
"laveB" 0.119722502032183
"agg" 0.434850268301929
"ave" 0.00367332565191222
"laveB" 0.0650900414123819
"agg" 0.500178983599277
"ave" 0.00535244133794858
"laveB" 0.0965802879460291
"agg" 0.43639856292754
"ave" 0.00413059054961381
"laveB" 0.085100665308475
"agg" 0.549269701633352
"ave" 0.00688032466815484
"laveB" 0.11681587045802
"agg" 0.450079101501943
"ave" 0.00365931200398947
"laveB" 0.0548861677675519
"agg" 0.452817490624098
"ave" 0.00407142795753534
"laveB" 0.0811986514408847
"agg" 0.486036283018943
"ave" 0.00590907114294389
"laveB" 0.0853576395114838
"agg" 0.513654092612621
"ave" 0.00507900556829344
"laveB" 0.0688674227007417
"agg" 0.272458997219782
"ave" 0.00259720098762413
"laveB" 0.0479789636771274
"agg" 0.297397369136588
"ave" 0.00163351979570699
"laveB" 0.0189651161284466
"agg" 0.219252838876838
"ave" 0.00274839337823868
"laveB" 0.0348925190343679
"agg" 0.316741938461188
"ave" 0.00462402869349296
"laveB" 0.0704882231167872
"agg" 0.165854743720732
"ave" 0.000952535125442343
"laveB" 0.00440276673037992
"agg" 0.182075311667021
"ave" 0.00116509541013868
"laveB" 0.0216052594413089
"agg" 0.239870958515218
"ave" 0.00144785055095493
"laveB" 0.0268003497247262
"agg" 0.311329015173322
"ave" 0.0020578408830294
"laveB" 0.0342708692837219
"agg" 0.335649529210103
"ave" 0.00170149997913994
"laveB" 0.0326770527592418
"agg" 0.343513293110893
"ave" 0.00426563416423714
"laveB" 0.0573725270767756
"agg" 0.629545278763232
"ave" 0.0067759157066714
"laveB" 0.0859668718922036
"agg" 0.0715583591656073
"ave" 0.000292032966183726
"laveB" 0.0182168074662858
"agg" 0.22431479331345
"ave" 0.0015833249208166
"laveB" 0.0196446282932196
"agg" 0.021237262625502
"ave" 0.000204042123124853
"laveB" 0.0239957174374583
"agg" 0.106124591597301
"ave" 0.00203778977264643
"laveB" 0.0473139094711735
"agg" -0.0174113670657306
"ave" -0.000532144514141061
"laveB" 0.00532665678690966
"agg" -0.0427902258649074
"ave" -0.000635302647539803
"laveB" 0.00103228220165198
"agg" 0.0851175049888192
"ave" 0.000297241833757245
"laveB" 0.0225045665818075
"agg" 0.0761074396478746
"ave" 0.000354168885044709
"laveB" 0.0352937553949257
"agg" 0.190590471977562
"ave" 0.00109554454439531
"laveB" 0.0237557091815296
"agg" 0.605047974642726
"ave" 0.0122023238581224
"laveB" 0.0998136215528069
"agg" 0.630505215756262
"ave" 0.0113414888405559
"laveB" 0.10804902187311
"agg" 0.345478219771455
"ave" 0.00415757540917002
"laveB" 0.0408784873174786
"agg" 0.496673578115586
"ave" 0.010699449461347
"laveB" 0.124607867024102
"agg" 0.600800088162447
"ave" 0.0163796680382863
"laveB" 0.175729693570537
"agg" 0.405241606191278
"ave" 0.00522381071228933
"laveB" 0.0737771885949799
"agg" 0.341054002530499
"ave" 0.00609533628063454
"laveB" 0.0758611652306195
"agg" 0.395976847387936
"ave" 0.00544477242535709
"laveB" 0.0760278310050888
"agg" 0.455009397037658
"ave" 0.00828506461712977
"laveB" 0.0992078404762273
"agg" 0.365515581160756
"ave" 0.00431311910459189
"laveB" 0.0407874325084979
"agg" 0.414696474320475
"ave" 0.00768072572489068
"laveB" 0.0654785385835674
"agg" 0.618159910968523
"ave" 0.00751589613080052
"laveB" 0.06436684304436
"agg" 0.440978315952357
"ave" 0.00921153325235779
"laveB" 0.117828051458519
"agg" 0.453138512083612
"ave" 0.0124330951458357
"laveB" 0.12675591510553
"agg" 0.359046144663627
"ave" 0.00441648322522477
"laveB" 0.0585835811183233
"agg" 0.294581334923366
"ave" 0.00494457605976981
"laveB" 0.072562178303449
"agg" 0.404910140209044
"ave" 0.00529304989865477
"laveB" 0.0726540298923878
"agg" 0.442672619565726
"ave" 0.00793817074937274
"laveB" 0.0973225492104009
"agg" 0.456907225071893
"ave" 0.00472725297821102
"laveB" 0.053657260712945
"agg" 0.452145332695505
"ave" 0.00497086760644138
"laveB" 0.0632271815569312
"agg" 0.543852137737292
"ave" 0.00895230018511
"laveB" 0.108499821423789
"agg" 0.533473224705057
"ave" 0.0107252419658001
"laveB" 0.119152299605695
"agg" 0.349845893277205
"ave" 0.00375906958960113
"laveB" 0.0610592907565405
"agg" 0.286484311805987
"ave" 0.00401285525720243
"laveB" 0.0473471505386457
"agg" 0.238653007764585
"ave" 0.00258692269177207
"laveB" 0.0358201383880592
"agg" 0.307801466232468
"ave" 0.00423502079188746
"laveB" 0.0642735146736153
"agg" 0.228040766900112
"ave" 0.0024610171890472
"laveB" 0.0301615757747513
"agg" 0.56384892201556
"ave" 0.00637530406379289
"laveB" 0.0923696370798322
"agg" 0.501354204964449
"ave" 0.00721872093592371
"laveB" 0.0849370799460522
"agg" 0.411285019401933
"ave" 0.00253692018264014
"laveB" 0.0355015347669865
"agg" 0.483954933934783
"ave" 0.00377115168364536
"laveB" 0.0644285855363582
"agg" 0.500530294676672
"ave" 0.00376005119953605
"laveB" 0.0568418992343833
"agg" 0.507772517295415
"ave" 0.00495287524172851
"laveB" 0.0618371846224833
"agg" 0.546379046011722
"ave" 0.00306194969577446
"laveB" 0.034737613062205
"agg" 0.810992043012648
"ave" 0.0193320036063177
"laveB" 0.248397121905271
"agg" 0.668835665841588
"ave" 0.00748399365017429
"laveB" 0.103817578572781
"agg" 0.658274404220138
"ave" 0.00885981987644116
"laveB" 0.149408959704597
"agg" 0.602514898127682
"ave" 0.00692673263874654
"laveB" 0.141255735471253
"agg" 0.590011135757442
"ave" 0.0090498064865591
"laveB" 0.156837984959952
"agg" 0.566748741667078
"ave" 0.00604586738234147
"laveB" 0.0945897062629357
"agg" 0.573451054692128
"ave" 0.00769475772977823
"laveB" 0.107852291013917
"agg" 0.651696575175083
"ave" 0.0109795850998192
"laveB" 0.166377482656331
"agg" 0.620584833758345
"ave" 0.00926932375552122
"laveB" 0.150427063077945
"agg" 0.694089821609552
"ave" 0.0137188641043648
"laveB" 0.206285376723611
"agg" 0.568973701068316
"ave" 0.00740472480547807
"laveB" 0.1117878946965
"agg" 0.740906072942044
"ave" 0.00559593398683825
"laveB" 0.114992655539658
"agg" 0.641300985748233
"ave" 0.00392218281651228
"laveB" 0.0812824373964013
"agg" 0.65195160697825
"ave" 0.00529788128237991
"laveB" 0.0902172243388728
"agg" 0.631915552252624
"ave" 0.00371687732407603
"laveB" 0.0522313995257622
"agg" 0.73092808912476
"ave" 0.00564786847239744
"laveB" 0.127768985089383
"agg" 0.83077705888322
"ave" 0.00853767184534992
"laveB" 0.166365488957981
"agg" 0.673283311076181
"ave" 0.00447403693485123
"laveB" 0.0706072297595116
"agg" 0.838353147190704
"ave" 0.00790515832093659
"laveB" 0.159485804119137
"agg" 0.627142421552752
"ave" 0.00358819743201283
"laveB" 0.0824606259730083
"agg" 0.677667766520924
"ave" 0.00502430471031013
"laveB" 0.0671534834668917
