"EST" "CORR"
"agg" 0.634659255564148
"ave" 0.0245349097561393
"laveB" 0.2187527404475
"agg" 0.623129872181217
"ave" 0.0220474536666865
"laveB" 0.205284381475071
"agg" 0.559635049548188
"ave" 0.0188679195255895
"laveB" 0.177559080704691
"agg" 0.595918159901741
"ave" 0.021829858300397
"laveB" 0.178183510024375
"agg" 0.323494294935105
"ave" 0.0103169752656993
"laveB" 0.105780039009671
"agg" 0.0586529006452107
"ave" 0.00189299198192336
"laveB" 0.0218879841615075
"agg" 0.496101598987132
"ave" 0.0153660602085658
"laveB" 0.147525844975275
"agg" 0.443811122527258
"ave" 0.0146682027758114
"laveB" 0.12395315233866
"agg" 0.144861329047051
"ave" 0.00507741526812338
"laveB" 0.0591643912881579
"agg" 0.101392285562037
"ave" 0.00341566331683715
"laveB" 0.0305118442397512
"agg" 0.156071267837217
"ave" 0.00657512709075802
"laveB" 0.0768201711625305
"agg" 0.147211136645073
"ave" 0.00674618002676149
"laveB" 0.0744131473760016
"agg" 0.644532798057668
"ave" 0.0181775653214316
"laveB" 0.223288173477267
"agg" 0.653022564165589
"ave" 0.0161776587561528
"laveB" 0.174633658162241
"agg" 0.233059195974417
"ave" 0.00446533833197497
"laveB" 0.0722284806398844
"agg" 0.0705169191249954
"ave" 0.00129430471390323
"laveB" 0.0261628840534905
"agg" 0.0887838677666992
"ave" 0.00153471219860779
"laveB" 0.0291396203401938
"agg" 0.151639838134634
"ave" 0.00322904656497399
"laveB" 0.0569547099826032
"agg" 0.0413196133350227
"ave" 0.00121313544271419
"laveB" 0.0114606670773476
"agg" 0.263210685207003
"ave" 0.00629067189889192
"laveB" 0.0658981368977629
"agg" -0.16143945890444
"ave" -0.00253275788585091
"laveB" -0.0458191376087053
"agg" -0.17218788875217
"ave" -0.00265196729336335
"laveB" -0.0386468985850105
"agg" 0.259140780082203
"ave" 0.006431180309295
"laveB" 0.0622870584137106
"agg" 0.0607067775493025
"ave" 0.00139470328216846
"laveB" 0.0227865351786996
"agg" 0.48647082360009
"ave" 0.00889720494041036
"laveB" 0.125724599816921
"agg" 0.627988323846558
"ave" 0.0145812623583329
"laveB" 0.155901320530546
"agg" 0.294229903565606
"ave" 0.00303369789577467
"laveB" 0.0476551703770765
"agg" 0.435995931997387
"ave" 0.00669857883734174
"laveB" 0.0923464216095973
"agg" 0.633825359610979
"ave" 0.0140329252792362
"laveB" 0.168345681830596
"agg" 0.607130254113316
"ave" 0.017159845841386
"laveB" 0.14542182944656
"agg" 0.465103322433197
"ave" 0.00561941953721245
"laveB" 0.0742261871491815
"agg" 0.572266873942067
"ave" 0.008281292564149
"laveB" 0.100100873612345
"agg" 0.274866540649071
"ave" 0.00611673071657282
"laveB" 0.0847358660402847
"agg" 0.239548314298065
"ave" 0.00579074191513042
"laveB" 0.0773276978521558
"agg" 0.561246263997312
"ave" 0.00652456007442829
"laveB" 0.0978577191759718
"agg" 0.508582437360311
"ave" 0.00642709175054483
"laveB" 0.0965519378363398
"agg" 0.297479009764955
"ave" 0.00403930637825222
"laveB" 0.0745775533892531
"agg" 0.403381050058547
"ave" 0.00569438636999692
"laveB" 0.0949854025876119
"agg" 0.0631237459647615
"ave" 0.000906945663952133
"laveB" 0.0167529256630785
"agg" 0.938260069687478
"ave" 0.067298176346512
"laveB" 0.4622849039183
"agg" 0.549438607451729
"ave" 0.0393315900057459
"laveB" 0.261105257869178
"agg" 0.539914482178641
"ave" 0.0430198747317857
"laveB" 0.277955122750166
"agg" 0.468098733634883
"ave" 0.0304731504114209
"laveB" 0.210249889232708
"agg" 0.0506833040247742
"ave" 0.00282458615514786
"laveB" 0.0651123048086006
"agg" 0.670227416998142
"ave" 0.0429010185366467
"laveB" 0.310492477225912
"agg" 0.53508192751603
"ave" 0.0356563939322296
"laveB" 0.249355149585436
"agg" -0.0593277984293402
"ave" -0.00586291891634744
"laveB" -0.0101931525936041
"agg" -0.0767614311252069
"ave" -0.00820908640137764
"laveB" -0.0218607122066984
"agg" -0.0201989066172517
"ave" 0.00533778717291368
"laveB" 0.0471108292533309
"agg" -0.0186104106807729
"ave" 0.00603323292615054
"laveB" 0.0319189145069713
"agg" 0.747040620241256
"ave" 0.0435965827812947
"laveB" 0.374803547207955
"agg" 0.654014144503545
"ave" 0.0360248410485179
"laveB" 0.298127873939087
"agg" 0.13523332262936
"ave" 0.00520309343054383
"laveB" 0.058201134705392
"agg" -0.134967113759542
"ave" -0.00465429950403803
"laveB" -0.0552868837073628
"agg" -0.0305611558838774
"ave" -4.75782595072155e-05
"laveB" -0.0104490380304163
"agg" 0.00152414217665794
"ave" 0.00171340191559247
"laveB" 0.0112217020996727
"agg" 0.0435839859781235
"ave" 0.00270883245329337
"laveB" 0.00303303622500627
"agg" 0.24450115745728
"ave" 0.0137500115635291
"laveB" 0.109286651662001
"agg" -0.168916877184628
"ave" -0.00549023518507615
"laveB" -0.0484624795338062
"agg" -0.268946379651549
"ave" -0.00838434914137504
"laveB" -0.0912344981743031
"agg" 0.404855063699356
"ave" 0.0215471462683002
"laveB" 0.160200819796791
"agg" 0.0533006747051736
"ave" 0.00363047240410478
"laveB" 0.0457960337807338
"agg" 0.608432540520609
"ave" 0.0231819605740147
"laveB" 0.224975474080106
"agg" 0.696771819029039
"ave" 0.0330327862452762
"laveB" 0.287410816016144
"agg" 0.311174601192643
"ave" 0.00685046116513822
"laveB" 0.0813875253292363
"agg" 0.510147614771821
"ave" 0.0167400403293662
"laveB" 0.163615238918811
"agg" 0.631896641736074
"ave" 0.0289665362758886
"laveB" 0.264383180826038
"agg" 0.669795423653693
"ave" 0.0378198812465028
"laveB" 0.260976472121813
"agg" 0.380290057369459
"ave" 0.00875396462192132
"laveB" 0.0916806602329256
"agg" 0.498783222230415
"ave" 0.0135572968398335
"laveB" 0.0950950931010372
"agg" -0.0497782695717195
"ave" -0.00328354938411252
"laveB" -0.0227906977069643
"agg" 0.0479276800208377
"ave" 0.00213756027647667
"laveB" 0.0232984385410186
"agg" 0.427626888962918
"ave" 0.0102584497603491
"laveB" 0.141934586344163
"agg" 0.471490179575708
"ave" 0.0118995267212974
"laveB" 0.135959117759328
"agg" 0.121489118224052
"ave" 0.00369321836409211
"laveB" 0.0674188835680506
"agg" 0.306858992663335
"ave" 0.00906273288398491
"laveB" 0.12879344130581
"agg" -0.0623410031775142
"ave" -0.00112296857743608
"laveB" -0.0119421810000249
"agg" 0.576745413128634
"ave" 0.0388672043597272
"laveB" 0.248598999440682
"agg" 0.622198357073696
"ave" 0.0454580451618635
"laveB" 0.28982033656788
"agg" 0.537944153634029
"ave" 0.0323300909344828
"laveB" 0.231246661264327
"agg" 0.158323507479968
"ave" 0.0115249986018961
"laveB" 0.0863238927888942
"agg" 0.67209725360896
"ave" 0.0395436234942635
"laveB" 0.313458896237813
"agg" 0.581712057575832
"ave" 0.036174974158621
"laveB" 0.26308018949606
"agg" -0.0237114363650821
"ave" -0.00185259134721839
"laveB" -0.00885194801305192
"agg" -0.0509041305111621
"ave" -0.00375884931973833
"laveB" -0.0137359224150917
"agg" -0.0379779747217271
"ave" 0.0046359081397461
"laveB" 0.0318047306888156
"agg" -0.0450427105207697
"ave" 0.00513578058883795
"laveB" 0.0349020107764294
"agg" 0.720771236727361
"ave" 0.0382716537676548
"laveB" 0.346050095538449
"agg" 0.65699719290752
"ave" 0.0329783046963817
"laveB" 0.275217153391074
"agg" 0.229807278363168
"ave" 0.00857520509155177
"laveB" 0.0973535346522612
"agg" -0.0982576925810813
"ave" -0.00261540546551424
"laveB" -0.0367090379846109
"agg" 0.0660301316552552
"ave" 0.00247442586136127
"laveB" 0.0171755837210282
"agg" 0.10355348270198
"ave" 0.00546041054518125
"laveB" 0.0533156918509086
"agg" 0.0374100978587492
"ave" 0.00190435414052972
"laveB" 0.000982679582308047
"agg" 0.295130195047015
"ave" 0.0150760301661087
"laveB" 0.117568966136816
"agg" -0.184012237920305
"ave" -0.00478565054303749
"laveB" -0.051749856738488
"agg" -0.286571752994788
"ave" -0.00748652589573589
"laveB" -0.0955697865514339
"agg" 0.330430356719839
"ave" 0.0172304465078516
"laveB" 0.110199860179352
"agg" 0.0193782374808119
"ave" 0.00292131487826452
"laveB" 0.0431198685143445
"agg" 0.567579465553217
"ave" 0.0201937092709847
"laveB" 0.204155066098979
"agg" 0.668366404442583
"ave" 0.0294485749107129
"laveB" 0.250650253557261
"agg" 0.27718498365537
"ave" 0.00584950585096884
"laveB" 0.0658797908995187
"agg" 0.508499066383617
"ave" 0.0155098345308064
"laveB" 0.13493779755981
"agg" 0.630877254634228
"ave" 0.0267371261876447
"laveB" 0.234718612795872
"agg" 0.649991320690118
"ave" 0.0343415073339835
"laveB" 0.256608256354418
"agg" 0.41525450594447
"ave" 0.00920222642135115
"laveB" 0.0941268111942547
"agg" 0.537475193040932
"ave" 0.0144671927621603
"laveB" 0.115552080056656
"agg" -0.0209958598577731
"ave" -0.00129412510608109
"laveB" -0.0226458251909878
"agg" 0.0516824339171065
"ave" 0.00254328283549841
"laveB" 0.0250763574499272
"agg" 0.433450363529751
"ave" 0.0100647407183518
"laveB" 0.129282933452006
"agg" 0.458623035282947
"ave" 0.0110666275755292
"laveB" 0.132132604554241
"agg" 0.150254400918153
"ave" 0.00453102695342539
"laveB" 0.0750264907953082
"agg" 0.291193686546704
"ave" 0.00841897227785518
"laveB" 0.106997063131088
"agg" -0.0817904562459077
"ave" -0.00104696048097521
"laveB" -0.0132471974891245
"agg" 0.824317721840898
"ave" 0.0524780264555247
"laveB" 0.306830192566327
"agg" 0.683785941311964
"ave" 0.0390335095694417
"laveB" 0.239187157153484
"agg" 0.399757837596708
"ave" 0.027074515843715
"laveB" 0.147402695790572
"agg" 0.50560777837956
"ave" 0.0303038576080918
"laveB" 0.214734469362054
"agg" 0.49367800884855
"ave" 0.0316174700634152
"laveB" 0.189060417865045
"agg" 0.043053077739066
"ave" 0.00214890554120763
"laveB" -0.006126499649404
"agg" 0.125684319084995
"ave" 0.00803432784964517
"laveB" 0.057924274593961
"agg" 0.301739418186666
"ave" 0.021269654546457
"laveB" 0.130764340052721
"agg" 0.250816058342456
"ave" 0.018233807675856
"laveB" 0.108359383813134
"agg" 0.461439207276484
"ave" 0.0232400347325137
"laveB" 0.190870671772579
"agg" 0.573724388502473
"ave" 0.0243296413885007
"laveB" 0.196103594504186
"agg" 0.451733816616989
"ave" 0.0151999492135251
"laveB" 0.167034967875945
"agg" 0.245515387225422
"ave" 0.00697657169903497
"laveB" 0.0742697490800833
"agg" 0.11627848894126
"ave" 0.00350214290319156
"laveB" 0.0312747616849194
"agg" 0.151256210350789
"ave" 0.00551946344120823
"laveB" 0.0502415370188557
"agg" 0.129356020596182
"ave" 0.0073174890518299
"laveB" 0.0492856096951487
"agg" 0.274185423779892
"ave" 0.0135739651824242
"laveB" 0.0976835292150539
"agg" 0.234959678363509
"ave" 0.0067085057123593
"laveB" 0.0550160761340611
"agg" 0.114420604373672
"ave" 0.00269248365481668
"laveB" 0.0320260425644937
"agg" 0.276096156497401
"ave" 0.0116975833133746
"laveB" 0.0933882645352671
"agg" 0.164067593992942
"ave" 0.00567931709569028
"laveB" 0.0471036145109781
"agg" 0.44832097596003
"ave" 0.0145773197177935
"laveB" 0.139760695615123
"agg" 0.471333510908744
"ave" 0.0206700930125807
"laveB" 0.170256955407879
"agg" 0.104945444070147
"ave" 0.00226035059623319
"laveB" 0.0106292657341676
"agg" 0.170045704091615
"ave" 0.00539281120949835
"laveB" 0.0491597818407344
"agg" 0.485722850865229
"ave" 0.02061918933359
"laveB" 0.14892076569028
"agg" 0.444021800161084
"ave" 0.0232099834135219
"laveB" 0.150186114614549
"agg" 0.593250187300766
"ave" 0.01523860213494
"laveB" 0.125697893468394
"agg" 0.537226459479952
"ave" 0.0152139806375374
"laveB" 0.115323360379631
"agg" 0.374096012850992
"ave" 0.0136764184866582
"laveB" 0.127243015684666
"agg" 0.40729519402209
"ave" 0.0154923298782408
"laveB" 0.148629317610234
"agg" 0.61133925114756
"ave" 0.0128081081175965
"laveB" 0.149219324105502
"agg" 0.656558559683899
"ave" 0.0148374021702924
"laveB" 0.155534834745168
"agg" 0.46175549319941
"ave" 0.00967640708821278
"laveB" 0.133793690804441
"agg" 0.63955318864254
"ave" 0.0160169262878434
"laveB" 0.186126788799928
"agg" 0.328589977050969
"ave" 0.00606881881974641
"laveB" 0.0591971753309673
"agg" 0.624434579861083
"ave" 0.0357911697197173
"laveB" 0.236071384073399
"agg" 0.488018000476775
"ave" 0.0319418195761689
"laveB" 0.189800526779236
"agg" 0.511380796492697
"ave" 0.0341530011293436
"laveB" 0.230305051559734
"agg" 0.596895958802455
"ave" 0.0410144892568672
"laveB" 0.250909614209993
"agg" 0.164131821771177
"ave" 0.0084762481910424
"laveB" 0.0579823594038715
"agg" 0.278575156566466
"ave" 0.0167335151893662
"laveB" 0.0837315904478938
"agg" 0.313309299328145
"ave" 0.0198129191537883
"laveB" 0.156252106775255
"agg" 0.296885353848233
"ave" 0.0198147961300716
"laveB" 0.118709595019685
"agg" 0.450590128267867
"ave" 0.0252488986714572
"laveB" 0.198250826503996
"agg" 0.583053242569943
"ave" 0.0264598559491171
"laveB" 0.193473145411213
"agg" 0.498674520244393
"ave" 0.0171755932135634
"laveB" 0.186002229412785
"agg" 0.321828446065959
"ave" 0.00895369307923965
"laveB" 0.0820571260967463
"agg" 0.215650634695817
"ave" 0.00622569805143224
"laveB" 0.0752614732775447
"agg" 0.303011965379403
"ave" 0.0111089392789725
"laveB" 0.107562334340867
"agg" 0.0404022792990623
"ave" 0.00208730223903017
"laveB" 0.00187830303103991
"agg" 0.288746181226767
"ave" 0.0152620048513076
"laveB" 0.114480742708741
"agg" 0.154342006026231
"ave" 0.00325421675460483
"laveB" 0.0281970003740461
"agg" 0.103294764052204
"ave" 0.00181986796181791
"laveB" 0.0361604535052283
"agg" 0.234141756826952
"ave" 0.0115237230643305
"laveB" 0.0815340509628666
"agg" 0.114979974194051
"ave" 0.00361899729183939
"laveB" 0.0488599012074075
"agg" 0.415152656162197
"ave" 0.0155742349773811
"laveB" 0.144602222037585
"agg" 0.441486307919027
"ave" 0.0216192826654467
"laveB" 0.149918846666117
"agg" 0.0880215808648028
"ave" 0.00250911373710167
"laveB" 0.0111196384904175
"agg" 0.252525057005976
"ave" 0.0083365262525953
"laveB" 0.0749534283663792
"agg" 0.49299256362691
"ave" 0.0218734608498052
"laveB" 0.164580674212236
"agg" 0.523779011399944
"ave" 0.0291939433007257
"laveB" 0.176026691723175
"agg" 0.523304934319226
"ave" 0.0129514148454398
"laveB" 0.110009681450492
"agg" 0.629587508981027
"ave" 0.017988170683378
"laveB" 0.143542423106704
"agg" 0.494388460559438
"ave" 0.0172731651449659
"laveB" 0.164616684479178
"agg" 0.429861017758602
"ave" 0.0150556001733541
"laveB" 0.14434806002214
"agg" 0.616607017697034
"ave" 0.013348342106779
"laveB" 0.157497415075184
"agg" 0.66094652561331
"ave" 0.0150249592040961
"laveB" 0.168359624316471
"agg" 0.543057162127188
"ave" 0.011361026583803
"laveB" 0.144875095090406
"agg" 0.591917865940292
"ave" 0.0142964063320811
"laveB" 0.154463887884528
"agg" 0.3458447018847
"ave" 0.00552116821428413
"laveB" 0.0718395436770985
"agg" 0.665829432442809
"ave" 0.0433061870747729
"laveB" 0.230693230478196
"agg" 0.533659380038452
"ave" 0.0293196324926257
"laveB" 0.201057991261463
"agg" 0.440446261223291
"ave" 0.0257564307251694
"laveB" 0.171404843394894
"agg" 0.219243888941031
"ave" 0.0149725143559027
"laveB" 0.0665901612332059
"agg" 0.196031231485356
"ave" 0.0147585948464369
"laveB" 0.0664930116345312
"agg" 0.160969269144468
"ave" 0.0107040559102084
"laveB" 0.0667912084134322
"agg" 0.0868966219669927
"ave" 0.00719609858451775
"laveB" 0.0313853068659012
"agg" 0.352542439876225
"ave" 0.0166032766627153
"laveB" 0.146457446440084
"agg" 0.389850992465497
"ave" 0.0150116858899101
"laveB" 0.124094179246988
"agg" 0.479907961420591
"ave" 0.0148736735238746
"laveB" 0.149590271327757
"agg" 0.274018693431876
"ave" 0.00776792941365817
"laveB" 0.0679372550312511
"agg" 0.220116556948812
"ave" 0.00558336922990381
"laveB" 0.059439995000373
"agg" 0.152135948672479
"ave" 0.00491122612400862
"laveB" 0.0388775034067424
"agg" 0.287292842114473
"ave" 0.0148420481831138
"laveB" 0.107822495753548
"agg" 0.250291775649002
"ave" 0.0105369345178611
"laveB" 0.0884004338472878
"agg" 0.18416732463453
"ave" 0.00486526442337745
"laveB" 0.0599750017338154
"agg" 0.0555066106285862
"ave" 0.000991463846310546
"laveB" 0.000856499204614988
"agg" 0.271243593858956
"ave" 0.0115010985372331
"laveB" 0.105518249185354
"agg" 0.131399745019838
"ave" 0.0040495974049703
"laveB" 0.0344065815086542
"agg" 0.38017381091668
"ave" 0.0118580469749942
"laveB" 0.121666833854837
"agg" 0.323823949357735
"ave" 0.0132766748378067
"laveB" 0.113681278289514
"agg" 0.0227281957155778
"ave" 0.000675759831863716
"laveB" 0.00728135304160352
"agg" 0.149602207385847
"ave" 0.00433352297825638
"laveB" 0.0449958131639525
"agg" 0.435728624471175
"ave" 0.0174964511467952
"laveB" 0.147269089787162
"agg" 0.295046793129067
"ave" 0.0146822381464605
"laveB" 0.0921397351780273
"agg" 0.661359240484064
"ave" 0.0152158931648713
"laveB" 0.132475281804051
"agg" 0.429299629218315
"ave" 0.012185259825299
"laveB" 0.0931283868942674
"agg" 0.293133154647244
"ave" 0.0100243790688182
"laveB" 0.0881200360899498
"agg" 0.28804433818931
"ave" 0.010240348537111
"laveB" 0.0870424663900703
"agg" 0.445260375987034
"ave" 0.0087442489156891
"laveB" 0.110930167246237
"agg" 0.568495250491081
"ave" 0.011628308405586
"laveB" 0.134349099660796
"agg" 0.327336063561788
"ave" 0.00647244655854054
"laveB" 0.0793743161218259
"agg" 0.43059985622587
"ave" 0.010824611455051
"laveB" 0.0993160221004512
"agg" 0.265690066132672
"ave" 0.00427390778751367
"laveB" 0.0506446317079511
"agg" 0.193317764332715
"ave" 0.0115175448569927
"laveB" 0.0651140061301222
"agg" 0.325149024203672
"ave" 0.021843656969137
"laveB" 0.127893955830609
"agg" 0.265296896230789
"ave" 0.0262233469659067
"laveB" 0.134850175790107
"agg" 0.433914116834289
"ave" 0.0470524759105748
"laveB" 0.196114963212087
"agg" 0.244593074275119
"ave" 0.0196118095309551
"laveB" 0.107220493337568
"agg" 0.285782264691214
"ave" 0.0210925993957118
"laveB" 0.106162983707763
"agg" 0.0842232478923418
"ave" 0.00405804135205066
"laveB" 0.0610129690710583
"agg" 0.151935511257436
"ave" 0.004498258217562
"laveB" 0.0537153649239108
"agg" 0.46616236915421
"ave" 0.0187816111162434
"laveB" 0.188751409583654
"agg" 0.421207973252004
"ave" 0.0155316388688364
"laveB" 0.163445944952133
"agg" 0.202213236221803
"ave" 0.00592593873705253
"laveB" 0.0620409883378539
"agg" 0.231533163196162
"ave" 0.0090279372435332
"laveB" 0.0921197815600595
"agg" 0.179437989309513
"ave" 0.011903730186342
"laveB" 0.0737496851425959
"agg" 0.128617596387953
"ave" 0.00622387980166191
"laveB" 0.0524581340362108
"agg" 0.272631861570917
"ave" 0.0099916616642675
"laveB" 0.0934771810309742
"agg" 0.276364164453496
"ave" 0.00949545777026906
"laveB" 0.0927101920914887
"agg" 0.172370927265655
"ave" 0.00792578043388958
"laveB" 0.0788580344425974
"agg" 0.210790570068202
"ave" 0.00971710853317207
"laveB" 0.0786736456723154
"agg" 0.182328294505676
"ave" 0.00580268224121842
"laveB" 0.0591875710782046
"agg" 0.144106052452683
"ave" 0.00721970184731032
"laveB" 0.0538214105277437
"agg" -0.0492353444843815
"ave" -0.000962213810552967
"laveB" -0.0087002230272452
"agg" 0.0197896224820592
"ave" 0.0013244692896629
"laveB" 0.0187477958272211
"agg" 0.172614232934909
"ave" 0.00902158845482609
"laveB" 0.0644134694927102
"agg" 0.20651198298398
"ave" 0.0137407199613407
"laveB" 0.0814358740845057
"agg" 0.377016075143612
"ave" 0.0111422625213009
"laveB" 0.0740835907738957
"agg" 0.377790491589211
"ave" 0.0154419930179822
"laveB" 0.123680385084714
"agg" 0.435967211641444
"ave" 0.0210670647593618
"laveB" 0.179932950411711
"agg" 0.216905900494243
"ave" 0.00999400229080977
"laveB" 0.0867492813911699
"agg" 0.307871956123498
"ave" 0.00777072345294279
"laveB" 0.0798535815285818
"agg" 0.351292857727027
"ave" 0.00924029666553373
"laveB" 0.10561423306117
"agg" 0.38505327707511
"ave" 0.00931462034271906
"laveB" 0.0899525146660098
"agg" 0.328389061062627
"ave" 0.00975852316512447
"laveB" 0.104875864305729
"agg" 0.316472797132112
"ave" 0.00698263356334856
"laveB" 0.0839967030644101
"agg" 0.836790356307327
"ave" 0.0478799869586747
"laveB" 0.347698112928478
"agg" -0.0768802878951084
"ave" -0.00609563285239381
"laveB" -0.0412767846919598
"agg" -0.209308740792522
"ave" -0.0152226954826536
"laveB" -0.101260611879584
"agg" -0.204393753731544
"ave" -0.00595937989168103
"laveB" -0.0544949176126946
"agg" -0.21907354728563
"ave" -0.00493214724710672
"laveB" -0.0371118605212361
"agg" 0.410752198118923
"ave" 0.0188727645565839
"laveB" 0.18485396358394
"agg" 0.404181504280748
"ave" 0.017056608256236
"laveB" 0.159413613505065
"agg" 0.219899738168055
"ave" 0.00703702066044716
"laveB" 0.0869012518183871
"agg" 0.0126913076210876
"ave" 0.000169197718304308
"laveB" -0.00273777429151487
"agg" 0.227709003213284
"ave" 0.00628683913785721
"laveB" 0.0831811236239267
"agg" 0.116317136562855
"ave" 0.00449454810794788
"laveB" 0.0549478855750088
"agg" 0.193661397389568
"ave" 0.0103015505873878
"laveB" 0.0685477644304537
"agg" 0.235095129351534
"ave" 0.00955653209923957
"laveB" 0.0838103949694225
"agg" -0.162883391195513
"ave" -0.00470898103377455
"laveB" -0.0529140291837775
"agg" -0.200331244713875
"ave" -0.00529101866644594
"laveB" -0.075833317644032
"agg" 0.368531561424373
"ave" 0.0158902025638694
"laveB" 0.113957261946235
"agg" -0.0655505315191211
"ave" -0.00284497573024268
"laveB" -0.0123876497037239
"agg" 0.636657479577263
"ave" 0.0197911247353615
"laveB" 0.229650279229906
"agg" 0.538538617267008
"ave" 0.0209902055275079
"laveB" 0.196333288789005
"agg" 0.269731921352562
"ave" 0.00477977592665593
"laveB" 0.0643509445246047
"agg" 0.23286925834879
"ave" 0.0060812157245383
"laveB" 0.0707692855582147
"agg" 0.506733479730803
"ave" 0.0199203925686888
"laveB" 0.168369983374437
"agg" 0.421459393059858
"ave" 0.0197567125742021
"laveB" 0.143358153899538
"agg" 0.561719461544691
"ave" 0.0122517445481856
"laveB" 0.122304413523122
"agg" 0.319303365433644
"ave" 0.00726881600664764
"laveB" 0.0558619564496902
"agg" 0.0587722802775041
"ave" 0.0017611627407913
"laveB" 0.0182144433487948
"agg" 0.048069445559346
"ave" 0.00141021090232705
"laveB" 0.0116943507491468
"agg" 0.379448699601707
"ave" 0.00754280929744316
"laveB" 0.123886847124632
"agg" 0.41531801398527
"ave" 0.00873169327435816
"laveB" 0.118242472188966
"agg" 0.115914870684803
"ave" 0.00301938625028395
"laveB" 0.0533232385136558
"agg" 0.232606207407906
"ave" 0.0058327226889928
"laveB" 0.0817977685658758
"agg" -0.105749939597189
"ave" -0.00197718060199749
"laveB" -0.0158674760646625
"agg" -0.0527377226102886
"ave" -0.00668071864481756
"laveB" -0.0434711957034002
"agg" -0.0752949272235457
"ave" -0.00717900144113823
"laveB" -0.0519025664376146
"agg" -0.0970099149319122
"ave" -0.00109880688959883
"laveB" -0.00673175590588672
"agg" -0.0686307058730277
"ave" 0.00211931046782221
"laveB" 0.021111091203177
"agg" 0.299755728988605
"ave" 0.0139082154485763
"laveB" 0.126610571825545
"agg" 0.316891329277112
"ave" 0.0123335911670489
"laveB" 0.108645105143252
"agg" 0.333793558938529
"ave" 0.0115804624071855
"laveB" 0.116266220766378
"agg" 0.180308407703902
"ave" 0.00562759136455623
"laveB" 0.0442642124746776
"agg" 0.275332923638036
"ave" 0.00779627848867203
"laveB" 0.0952393235151785
"agg" 0.307909411162751
"ave" 0.0113296832712045
"laveB" 0.123843856365532
"agg" 0.20208389675258
"ave" 0.0115799408224334
"laveB" 0.0747556577514387
"agg" 0.266179553205362
"ave" 0.0122834771657074
"laveB" 0.0950181742568653
"agg" -0.0213200157284003
"ave" -0.000743441107606145
"laveB" -0.0252399745728411
"agg" 0.0290454540174688
"ave" 0.000755573811644559
"laveB" 0.00423781584400937
"agg" 0.370740760460185
"ave" 0.0167237852594248
"laveB" 0.117826522934644
"agg" 0.0633377470944453
"ave" 0.00192637739415256
"laveB" 0.0250823015497702
"agg" 0.592946278611556
"ave" 0.0190979595502412
"laveB" 0.196206698633943
"agg" 0.49518609647552
"ave" 0.02010318307769
"laveB" 0.163673403831744
"agg" 0.288481723998113
"ave" 0.0052419401977722
"laveB" 0.0462823196735893
"agg" 0.242387565910426
"ave" 0.00660962258477314
"laveB" 0.0686520061202591
"agg" 0.422945595085806
"ave" 0.0173439479867402
"laveB" 0.144202016789817
"agg" 0.473924708365001
"ave" 0.0233810299821626
"laveB" 0.178034122161034
"agg" 0.434597764223426
"ave" 0.0102626512277117
"laveB" 0.090258704310785
"agg" 0.426402655340579
"ave" 0.0109559579588484
"laveB" 0.0974523109651831
"agg" 0.196353666519081
"ave" 0.00794552506018436
"laveB" 0.0725369594221287
"agg" 0.134229097119039
"ave" 0.00505622717037366
"laveB" 0.0514714484179882
"agg" 0.45061244915857
"ave" 0.00994783288609745
"laveB" 0.133929329334694
"agg" 0.459567082655558
"ave" 0.0103795979800453
"laveB" 0.129169591985021
"agg" 0.337737970696863
"ave" 0.00786660545014243
"laveB" 0.10293571644615
"agg" 0.368097902378587
"ave" 0.00964141509374059
"laveB" 0.118765020475211
"agg" 0.0396107693073311
"ave" 0.000946718189270276
"laveB" 0.0095348718688806
"agg" 0.811634036480089
"ave" 0.0808800039581997
"laveB" 0.429602857204984
"agg" 0.674668429159442
"ave" 0.0419572306882599
"laveB" 0.272282646146082
"agg" 0.563949585742244
"ave" 0.0326613819855939
"laveB" 0.198536377012856
"agg" 0.07297911837056
"ave" 0.00398876443340028
"laveB" 0.0373698582868341
"agg" 0.0561047406633184
"ave" 0.000183564802032233
"laveB" 0.0105482720190964
"agg" 0.282194879960768
"ave" 0.013200404737838
"laveB" 0.125147224921746
"agg" 0.327447155391549
"ave" 0.0134853007157491
"laveB" 0.134163008760591
"agg" 0.293804178723994
"ave" 0.00989031378846454
"laveB" 0.1310649044318
"agg" 0.342230294045005
"ave" 0.0152738141765391
"laveB" 0.168640137257713
"agg" 0.17282689239883
"ave" 0.0129444076722132
"laveB" 0.0914782254459882
"agg" 0.0666760638321621
"ave" 0.00387137845549755
"laveB" 0.0217565156880258
"agg" 0.363185518464296
"ave" 0.0140841256995447
"laveB" 0.129038988532533
"agg" 0.240912135199094
"ave" 0.00842691259753409
"laveB" 0.0905911056602358
"agg" 0.232920584177957
"ave" 0.0115898901108878
"laveB" 0.119107782031105
"agg" 0.333232030665558
"ave" 0.0159847905469421
"laveB" 0.141513590336885
"agg" 0.0949944708754297
"ave" 0.0028008319617365
"laveB" 0.0446972227772991
"agg" 0.157906490411709
"ave" 0.00761722179660071
"laveB" 0.0729374392490479
"agg" 0.248268848306617
"ave" 0.00610021689642467
"laveB" 0.0747727904295856
"agg" 0.369118176416359
"ave" 0.0125659295580007
"laveB" 0.12645449138747
"agg" 0.508498185314776
"ave" 0.0251589645455318
"laveB" 0.226680422230654
"agg" 0.383661417269018
"ave" 0.0247208882267983
"laveB" 0.170063666804711
"agg" 0.302155653384753
"ave" 0.00925632869601806
"laveB" 0.0888389764081647
"agg" 0.423380531320917
"ave" 0.0161186173772938
"laveB" 0.133512661539205
"agg" 0.437108558526348
"ave" 0.0237890095947693
"laveB" 0.211855522468242
"agg" 0.392176901033525
"ave" 0.0214422402104509
"laveB" 0.195197117500511
"agg" 0.145618462062454
"ave" 0.0036795462414496
"laveB" 0.0320282718315256
"agg" 0.234106152973756
"ave" 0.00694342913806316
"laveB" 0.0711490352497054
"agg" 0.251343651314453
"ave" 0.00571774258226558
"laveB" 0.0476238189694388
"agg" 0.283553450576679
"ave" 0.00815254897651866
"laveB" 0.0799134664194269
"agg" 0.419382259645815
"ave" 0.00984953102018211
"laveB" 0.105221687458426
"agg" 0.807476594717854
"ave" 0.0526847914062446
"laveB" 0.307578945495729
"agg" 0.82429634335051
"ave" 0.0497984302527023
"laveB" 0.284176292963359
"agg" 0.0669107831842514
"ave" 0.00347744538164313
"laveB" 0.0330365107478716
"agg" 0.118588806166635
"ave" 0.00233096799719631
"laveB" 0.0293928697283079
"agg" 0.371348220659859
"ave" 0.0176079506896545
"laveB" 0.177131818448006
"agg" 0.460333517011196
"ave" 0.019387660499409
"laveB" 0.184619046460417
"agg" 0.244476782410018
"ave" 0.00857145028417647
"laveB" 0.0941680644854497
"agg" 0.37081430411342
"ave" 0.0170114929620378
"laveB" 0.169873042804044
"agg" 0.0629890140960913
"ave" 0.00578223600078745
"laveB" 0.0312637520221699
"agg" 0.106284014249081
"ave" 0.00635635969193207
"laveB" 0.0516133496186107
"agg" 0.460859306174259
"ave" 0.017724056940321
"laveB" 0.159671115482652
"agg" 0.407251488556835
"ave" 0.0148444457449977
"laveB" 0.152836741955024
"agg" 0.22969220308369
"ave" 0.0108327756377472
"laveB" 0.108965085699772
"agg" 0.426478281623958
"ave" 0.0211942756935327
"laveB" 0.166907304287068
"agg" 0.0809896875997712
"ave" 0.00202730032495488
"laveB" 0.021867128586337
"agg" 0.192933623261128
"ave" 0.00945333870007463
"laveB" 0.0736939731893946
"agg" 0.180933601473824
"ave" 0.00432886670872452
"laveB" 0.04443864996224
"agg" 0.379984652944351
"ave" 0.0126453727920104
"laveB" 0.116477780031579
"agg" 0.401748548981433
"ave" 0.0198263956150768
"laveB" 0.15880590238427
"agg" 0.462645226346049
"ave" 0.0300437807355821
"laveB" 0.171349771934387
"agg" 0.180704116655058
"ave" 0.00629612288771691
"laveB" 0.0439868046604895
"agg" 0.490719217554396
"ave" 0.0195125237115681
"laveB" 0.13237610398019
"agg" 0.600724451899014
"ave" 0.0324372078857842
"laveB" 0.286994356389222
"agg" 0.44479114308549
"ave" 0.0238022816571373
"laveB" 0.201301466911311
"agg" 0.248697175983241
"ave" 0.00622712126852875
"laveB" 0.0596853669982951
"agg" 0.308655821714376
"ave" 0.00900052770527845
"laveB" 0.0817768230652508
"agg" 0.454435915900974
"ave" 0.0107063456579922
"laveB" 0.100110543628886
"agg" 0.425764105373949
"ave" 0.0123295065365269
"laveB" 0.119290893039051
"agg" 0.573641282470831
"ave" 0.0134660967323174
"laveB" 0.15082842444127
"agg" 0.902812087651691
"ave" 0.0411348804532279
"laveB" 0.278544406776225
"agg" 0.150652053838799
"ave" 0.0103532773573806
"laveB" 0.093214049128409
"agg" 0.208837219281437
"ave" 0.00964236878521275
"laveB" 0.0966510328426405
"agg" 0.439791118686487
"ave" 0.01534979082507
"laveB" 0.179036857274605
"agg" 0.490418767758686
"ave" 0.0145731617166567
"laveB" 0.178157693507098
"agg" 0.21795932865911
"ave" 0.00490814228746176
"laveB" 0.0664920744691986
"agg" 0.367062895468134
"ave" 0.0113147221341515
"laveB" 0.136170509119263
"agg" 0.0179394184326846
"ave" 0.000753790829472025
"laveB" 0.00560291974232682
"agg" 0.0971459857706274
"ave" 0.00599439449882291
"laveB" 0.0540899274395078
"agg" 0.579673733542358
"ave" 0.0147804430828044
"laveB" 0.16393180382805
"agg" 0.419507304352759
"ave" 0.0100595986737204
"laveB" 0.135792143238096
"agg" 0.299287309372987
"ave" 0.0112653946969894
"laveB" 0.125431141204163
"agg" 0.421711739714448
"ave" 0.0145850405836783
"laveB" 0.145107914518918
"agg" 0.105314277395605
"ave" 0.00439971942808309
"laveB" 0.0562767269999744
"agg" 0.212565289387487
"ave" 0.0109191425174191
"laveB" 0.0953574910691073
"agg" 0.0978313627993381
"ave" 0.00193581649095753
"laveB" 0.0131031042932398
"agg" 0.297906697092211
"ave" 0.00733223897029968
"laveB" 0.0688143417076206
"agg" 0.413933188951084
"ave" 0.0171556429566378
"laveB" 0.151890389891034
"agg" 0.433314733497248
"ave" 0.0238251830192804
"laveB" 0.166505860349308
"agg" 0.196411955582321
"ave" 0.00618541446583152
"laveB" 0.069765972685553
"agg" 0.468303995144109
"ave" 0.0136852062274721
"laveB" 0.11444832835484
"agg" 0.595753852616799
"ave" 0.0233369230938148
"laveB" 0.238171871209088
"agg" 0.584959536128305
"ave" 0.0235817286541173
"laveB" 0.230243557085214
"agg" 0.406244136260798
"ave" 0.00942009258699149
"laveB" 0.105734334530528
"agg" 0.411999184638173
"ave" 0.0100425603751614
"laveB" 0.110492998385824
"agg" 0.558308855962108
"ave" 0.0104736482572858
"laveB" 0.129530564235824
"agg" 0.576404342089604
"ave" 0.0141951166408975
"laveB" 0.154489269147212
"agg" 0.653351536106723
"ave" 0.0113540258914911
"laveB" 0.147393700131231
"agg" 0.0993632880617315
"ave" 0.00812336499003077
"laveB" 0.0676714721379691
"agg" 0.179152850050727
"ave" 0.0084755688547304
"laveB" 0.0835161974026322
"agg" 0.378699788464459
"ave" 0.0128046230097213
"laveB" 0.141384133239951
"agg" 0.452589129017224
"ave" 0.0123860198295646
"laveB" 0.145583013864304
"agg" 0.160012540601176
"ave" 0.00383030562249186
"laveB" 0.0476578440683588
"agg" 0.325694819680062
"ave" 0.00968542942424304
"laveB" 0.106714881697097
"agg" -0.0514756222788048
"ave" -0.00260293665878321
"laveB" -0.0253221297044414
"agg" 0.076023086455565
"ave" 0.00448419719817155
"laveB" 0.0542043680885534
"agg" 0.568543745118815
"ave" 0.0133060267445242
"laveB" 0.155774511613729
"agg" 0.46277435618718
"ave" 0.0102561761179475
"laveB" 0.127806047336801
"agg" 0.289963048500225
"ave" 0.0100978547388074
"laveB" 0.117802751705049
"agg" 0.444336908672335
"ave" 0.0134930227099097
"laveB" 0.128924017224987
"agg" 0.120680135371451
"ave" 0.00489933328987255
"laveB" 0.063379905679597
"agg" 0.21775968045451
"ave" 0.0105784516294949
"laveB" 0.0929286967993551
"agg" 0.115333568277317
"ave" 0.00213034713601118
"laveB" 0.0249685488180797
"agg" 0.336491974865277
"ave" 0.00801400271844881
"laveB" 0.0775730473127184
"agg" 0.30528330767334
"ave" 0.0131010023134642
"laveB" 0.101392723081639
"agg" 0.444425207543157
"ave" 0.023459964074742
"laveB" 0.155513677869054
"agg" 0.0808247230039908
"ave" 0.00361048881979129
"laveB" 0.024682415639288
"agg" 0.437771419692622
"ave" 0.01264056176291
"laveB" 0.0985141270115097
"agg" 0.552030693627141
"ave" 0.0206902211582374
"laveB" 0.20538496952318
"agg" 0.436951128348299
"ave" 0.0167435185311761
"laveB" 0.158417063426496
"agg" 0.340432029836035
"ave" 0.00793516979931785
"laveB" 0.0913561446175454
"agg" 0.338502228521627
"ave" 0.00821215243282116
"laveB" 0.0942574746015855
"agg" 0.555137457967073
"ave" 0.00987452880879722
"laveB" 0.126492152784105
"agg" 0.52212261561764
"ave" 0.0120764158529587
"laveB" 0.143134068354145
"agg" 0.606127290715122
"ave" 0.00988267241049267
"laveB" 0.128942792487975
"agg" 0.795184459963371
"ave" 0.0312132176518236
"laveB" 0.338145717665074
"agg" 0.236854442395848
"ave" 0.00667320688356912
"laveB" 0.105548785064131
"agg" 0.0885354419233523
"ave" 0.00237073042465705
"laveB" 0.0279972235855114
"agg" 0.04006012046995
"ave" 0.0010668759045103
"laveB" 0.00164191675187841
"agg" 0.105090123451797
"ave" 0.00345247686021686
"laveB" 0.0496651419931778
"agg" -0.00550063720751526
"ave" -0.00101234555853364
"laveB" -0.027991485005695
"agg" 0.219145653016567
"ave" 0.00870614043112314
"laveB" 0.0833865140603637
"agg" -0.113503235843275
"ave" -0.00309069383685278
"laveB" -0.0620042574098704
"agg" -0.264180913888495
"ave" -0.00623657803768359
"laveB" -0.116127682008752
"agg" 0.199552372025058
"ave" 0.00786257378551513
"laveB" 0.064411933974056
"agg" -0.0205720050315683
"ave" -2.73625867998983e-05
"laveB" -0.00864222717428139
"agg" 0.463578446305125
"ave" 0.0133513166615994
"laveB" 0.185439346762517
"agg" 0.663468791170932
"ave" 0.0239040909736211
"laveB" 0.256252110495684
"agg" 0.257407479147459
"ave" 0.00411030972475519
"laveB" 0.0618177556034247
"agg" 0.381526474435723
"ave" 0.00893934421824982
"laveB" 0.116885480562885
"agg" 0.682574421384662
"ave" 0.0230572476041997
"laveB" 0.2561759719228
"agg" 0.623122396331904
"ave" 0.026289999193729
"laveB" 0.234464169863055
"agg" 0.454490844775687
"ave" 0.00827064555728841
"laveB" 0.104058883456483
"agg" 0.531841679519026
"ave" 0.0114101693833223
"laveB" 0.121555747477564
"agg" 0.16218896815501
"ave" 0.00496531282788507
"laveB" 0.0623080008388447
"agg" 0.241650678360498
"ave" 0.00822812416998633
"laveB" 0.0883876215945407
"agg" 0.473747886540849
"ave" 0.00846076582057984
"laveB" 0.135219086701978
"agg" 0.449704700832389
"ave" 0.00807282826190025
"laveB" 0.119027094164416
"agg" 0.15881957349404
"ave" 0.00336057541845816
"laveB" 0.0607873472015415
"agg" 0.331447704183732
"ave" 0.00707779900487296
"laveB" 0.101991790401684
"agg" 0.114964593176154
"ave" 0.00177000625841962
"laveB" 0.0443967493601394
"agg" 0.352892144718288
"ave" 0.00752939103583666
"laveB" 0.105762682776361
"agg" 0.159015944678277
"ave" 0.00216266362306597
"laveB" 0.0321731764312021
"agg" 0.111543307409752
"ave" 0.0014821846711358
"laveB" 0.0199977162862631
"agg" 0.160258449714574
"ave" 0.00325233169423294
"laveB" 0.0462677585743589
"agg" -0.0209640235009004
"ave" -0.00196927237245405
"laveB" -0.0259698143947414
"agg" 0.261733631467193
"ave" 0.00865453036309752
"laveB" 0.086050342751482
"agg" -0.0334576274691358
"ave" -0.00206427856720426
"laveB" -0.0378157871600281
"agg" -0.136703750992528
"ave" -0.00402287003610477
"laveB" -0.0678992524865897
"agg" 0.164102517981778
"ave" 0.00585632118563187
"laveB" 0.0381115406883841
"agg" 0.0546684560240532
"ave" 0.00140282481832337
"laveB" 0.0301704840034782
"agg" 0.471824758047365
"ave" 0.0117279984581724
"laveB" 0.147570544575337
"agg" 0.639273653462864
"ave" 0.0209695663740298
"laveB" 0.213885106274155
"agg" 0.174331740475522
"ave" 0.00245468029336132
"laveB" 0.0336435141762319
"agg" 0.295152427052795
"ave" 0.00667358383647112
"laveB" 0.0804829919284192
"agg" 0.583345796875705
"ave" 0.0175155827899188
"laveB" 0.19124056360547
"agg" 0.539194939750272
"ave" 0.0207509071382986
"laveB" 0.178725102307504
"agg" 0.501830749429355
"ave" 0.00758404037914006
"laveB" 0.0873862076400036
"agg" 0.51581684133495
"ave" 0.00980535141521577
"laveB" 0.100894435977574
"agg" 0.337446333317349
"ave" 0.0073078634686668
"laveB" 0.103595384974613
"agg" 0.357475162303576
"ave" 0.00888254749415471
"laveB" 0.109371827767574
"agg" 0.513371835232962
"ave" 0.00751864062660001
"laveB" 0.119607013871046
"agg" 0.528361715342746
"ave" 0.00774731317671986
"laveB" 0.105090179597171
"agg" 0.297875300561193
"ave" 0.00408047135940269
"laveB" 0.0815999089099319
"agg" 0.444921363285602
"ave" 0.00726304287173248
"laveB" 0.110832980706956
"agg" 0.191491769335749
"ave" 0.0020576069796446
"laveB" 0.0350010645298301
"agg" 0.732096983773918
"ave" 0.0134163869009714
"laveB" 0.266981855019885
"agg" 0.580978869177878
"ave" 0.00851344706699701
"laveB" 0.193404602872449
"agg" 0.619823608009941
"ave" 0.0120235502333531
"laveB" 0.232465236486033
"agg" 0.205385949865176
"ave" 0.00639704509628779
"laveB" 0.0959402485093475
"agg" 0.33728849650469
"ave" 0.00892492266767441
"laveB" 0.126830159279483
"agg" 0.428076763089613
"ave" 0.00756162915258616
"laveB" 0.135921539382178
"agg" 0.313018366110932
"ave" 0.00515071511626753
"laveB" 0.108687227899701
"agg" 0.190102455558297
"ave" 0.00438196458979459
"laveB" 0.0663698344980985
"agg" 0.224495412144125
"ave" 0.0049225678825454
"laveB" 0.0768707669619983
"agg" 0.241853701892978
"ave" 0.00438739365910683
"laveB" 0.0804074188224156
"agg" 0.227193180773904
"ave" 0.0056954735769885
"laveB" 0.0719636325963591
"agg" -0.025300087343267
"ave" -0.000157733831901711
"laveB" -0.0099405893575846
"agg" 0.136187110333569
"ave" 0.0021690519410872
"laveB" 0.0447164018630885
"agg" 0.300114574812683
"ave" 0.00784744288128134
"laveB" 0.0969633849755697
"agg" 0.312022656289593
"ave" 0.0101447758277575
"laveB" 0.0997991960638128
"agg" 0.434112923164298
"ave" 0.00659130750239534
"laveB" 0.10592397162053
"agg" 0.493928452109176
"ave" 0.00887184724071208
"laveB" 0.119673451980785
"agg" 0.617230919257406
"ave" 0.0150088398545834
"laveB" 0.257277122917858
"agg" 0.582220193892417
"ave" 0.0143786513630403
"laveB" 0.228481615771826
"agg" 0.596607146560605
"ave" 0.00750317273481943
"laveB" 0.152360778706261
"agg" 0.547826903972425
"ave" 0.00706989752058505
"laveB" 0.139717415411795
"agg" 0.635041768796417
"ave" 0.00761055925221984
"laveB" 0.161339534111869
"agg" 0.540111531081359
"ave" 0.0081127233843727
"laveB" 0.149745659594026
"agg" 0.552261722527872
"ave" 0.00622710092716466
"laveB" 0.138138533657806
"agg" 0.583905781736108
"ave" 0.00784266373867013
"laveB" 0.182745616991106
"agg" 0.647205403882245
"ave" 0.0113029173376718
"laveB" 0.216303800787186
"agg" 0.179040521374287
"ave" 0.00495464759760095
"laveB" 0.0801436716649813
"agg" 0.267898362227315
"ave" 0.00638323468257668
"laveB" 0.0930524625834802
"agg" 0.457514317689254
"ave" 0.00700749871238299
"laveB" 0.122735970981202
"agg" 0.440299619667563
"ave" 0.00640883977497753
"laveB" 0.150900548972023
"agg" 0.129452512418551
"ave" 0.00239264106844007
"laveB" 0.0525693238545594
"agg" 0.229511147755563
"ave" 0.00455458470843
"laveB" 0.0736841354325099
"agg" 0.146367177431121
"ave" 0.00236135243025475
"laveB" 0.0357531907734406
"agg" 0.0787768017140635
"ave" 0.00217782624213714
"laveB" 0.0272594009574754
"agg" -0.0718981819726699
"ave" -0.000735495934408383
"laveB" -0.0147729302660863
"agg" -0.0695148525140886
"ave" -0.00104490826475986
"laveB" -0.0124992880660745
"agg" 0.168039187767873
"ave" 0.0045700089268156
"laveB" 0.0356967423761436
"agg" 0.15691860813518
"ave" 0.00530779858331481
"laveB" 0.0531738137134897
"agg" 0.302329111705191
"ave" 0.00466583680793808
"laveB" 0.0786660520547381
"agg" 0.360076582784773
"ave" 0.00625400244816891
"laveB" 0.0904975916790871
"agg" 0.705550417249905
"ave" 0.0155425755629435
"laveB" 0.261020888873988
"agg" 0.663106532148499
"ave" 0.0147774137510075
"laveB" 0.241561656902024
"agg" 0.534507966607683
"ave" 0.00603413494523425
"laveB" 0.12316659107557
"agg" 0.492175092280222
"ave" 0.00568908625706797
"laveB" 0.107688066770845
"agg" 0.61156955753313
"ave" 0.00643194668488231
"laveB" 0.126185609920816
"agg" 0.526377372604583
"ave" 0.00721955907228034
"laveB" 0.125795096627043
"agg" 0.646258516014946
"ave" 0.00641811097594522
"laveB" 0.143829826741443
"agg" 0.777502158993329
"ave" 0.0113834993896833
"laveB" 0.259753152636664
"agg" 0.30556511586876
"ave" 0.00720924219344438
"laveB" 0.12098699570984
"agg" 0.456058701177621
"ave" 0.00901499055349407
"laveB" 0.133451046166644
"agg" 0.264905832086908
"ave" 0.00326402853022488
"laveB" 0.0821868170720126
"agg" 0.335708034032176
"ave" 0.00389687637420971
"laveB" 0.109872778508626
"agg" 0.153658395976088
"ave" 0.00304446761424512
"laveB" 0.0479577791896529
"agg" -0.00724660471710594
"ave" -0.000161343623904622
"laveB" -0.01281698636821
"agg" 0.125811840040172
"ave" 0.00211170205649008
"laveB" 0.0404102919590523
"agg" 0.0268368589469824
"ave" 0.00106522758319023
"laveB" 0.0129956398188115
"agg" -0.0497359652611425
"ave" -0.00035250965474567
"laveB" 0.0022268681726367
"agg" 0.0889867083976401
"ave" 0.00109680824312187
"laveB" 0.021384150332664
"agg" 0.146065817251059
"ave" 0.00327399110777845
"laveB" 0.0485581060809115
"agg" 0.149932547296803
"ave" 0.00411348640057081
"laveB" 0.0335018487344804
"agg" 0.287054303927182
"ave" 0.00331468795960743
"laveB" 0.0638467073377924
"agg" 0.231734900248037
"ave" 0.00332848777862359
"laveB" 0.0554813117562075
"agg" 0.378562943224532
"ave" 0.00678225287515612
"laveB" 0.131760431663185
"agg" 0.33717628767263
"ave" 0.00598897727312348
"laveB" 0.127556491363292
"agg" 0.32904541671384
"ave" 0.00310571938910773
"laveB" 0.0772077456652498
"agg" 0.304336826008954
"ave" 0.00281674170867906
"laveB" 0.0663728059860459
"agg" 0.301619042692463
"ave" 0.00254478063987562
"laveB" 0.0643565537447801
"agg" 0.200484492046446
"ave" 0.00215757397311952
"laveB" 0.0447983573417297
"agg" 0.302157815549611
"ave" 0.00233951345649164
"laveB" 0.06815005295568
"agg" 0.174855080358252
"ave" 0.00551111131016899
"laveB" 0.0736589892053772
"agg" 0.458864084605773
"ave" 0.0119354281162497
"laveB" 0.141883856664659
"agg" 0.330011083461677
"ave" 0.00531546049005291
"laveB" 0.101602012012663
"agg" 0.444024113205799
"ave" 0.00700475643549012
"laveB" 0.15424447645484
"agg" 0.192709808050576
"ave" 0.00526366799118864
"laveB" 0.0804089191710979
"agg" 0.211814500832953
"ave" 0.005157381650198
"laveB" 0.0904799655348669
"agg" 0.173742288179846
"ave" 0.00359152836741073
"laveB" 0.0695614315116626
"agg" 0.166641439519386
"ave" 0.00476927794361478
"laveB" 0.0691748959527528
"agg" 0.105825193544249
"ave" 0.0014549984811348
"laveB" 0.0173875992139505
"agg" 0.250201019047643
"ave" 0.00441066246306205
"laveB" 0.074677450380293
"agg" 0.222925641863014
"ave" 0.00645762363934223
"laveB" 0.0848507573443817
"agg" 0.31774622692735
"ave" 0.0106862632739948
"laveB" 0.11565965095127
"agg" 0.197956778014152
"ave" 0.00300055731462068
"laveB" 0.0414956915990579
"agg" 0.410425938855468
"ave" 0.00741358870955968
"laveB" 0.107538118218713
"agg" 0.446119368893735
"ave" 0.0105045979802145
"laveB" 0.177304559028424
"agg" 0.450431653705908
"ave" 0.010877056020748
"laveB" 0.178536840199834
"agg" 0.377207578056936
"ave" 0.00478363856059208
"laveB" 0.0911518126155577
"agg" 0.401131238830935
"ave" 0.00510768175653404
"laveB" 0.0954061574455677
"agg" 0.472937543798276
"ave" 0.00534390997416899
"laveB" 0.0936143444431062
"agg" 0.388385104991385
"ave" 0.00572344036673819
"laveB" 0.107163579867777
"agg" 0.441375489799423
"ave" 0.00475784092161695
"laveB" 0.116488464240551
"agg" 0.064952718204312
"ave" 0.00282941649102416
"laveB" 0.0260412302606893
"agg" 0.150698921432669
"ave" 0.00405407658222716
"laveB" 0.0608404016695588
"agg" 0.158163962457461
"ave" 0.00401877362999372
"laveB" 0.0660787631088205
"agg" 0.193152074605987
"ave" 0.00749767103466836
"laveB" 0.0991358277776626
"agg" 0.0847469480873509
"ave" 0.00304453865315501
"laveB" 0.0554573679723834
"agg" 0.0841788212838359
"ave" 0.00244768048724899
"laveB" 0.023563701192224
"agg" 0.00265063414321304
"ave" 0.000407511493188668
"laveB" 0.00854277077223903
"agg" 0.041763817757156
"ave" 0.000561720927767585
"laveB" 0.00817170479210397
"agg" 0.0197626808690376
"ave" 0.000711409927047423
"laveB" 0.0125338982350979
"agg" 0.164428897899594
"ave" 0.00690750305095064
"laveB" 0.0519016416006031
"agg" 0.0816651016310074
"ave" 0.00341084076772686
"laveB" 0.0200054833640409
"agg" 0.258324645883934
"ave" 0.0057795383079999
"laveB" 0.0552158263325002
"agg" 0.168619330826692
"ave" 0.00464935120271932
"laveB" 0.0523896241879245
"agg" 0.0352884129140456
"ave" 0.000989923300634525
"laveB" 0.0188831282998945
"agg" 0.117067448921045
"ave" 0.00423160122088022
"laveB" 0.0508768822767071
"agg" 0.0706608371390625
"ave" 0.00137581205873286
"laveB" 0.0255508898567812
"agg" 0.135271706388524
"ave" 0.00260078479019062
"laveB" 0.0264220938530366
"agg" 0.0817208184118944
"ave" 0.00160083951115927
"laveB" 0.0231417461566302
"agg" 0.152058856868404
"ave" 0.00371852862083816
"laveB" 0.0396289708595086
"agg" 0.0718559060651722
"ave" 0.0012897992271879
"laveB" 0.0237923833376798
