"EST" "CORR"
"agg" 0.958363324168482
"ave" 0.0537731957698851
"laveB" 0.453437127112612
"agg" 0.833794809678632
"ave" 0.0594026378727238
"laveB" 0.358044140022696
"agg" 0.694156858776182
"ave" 0.0555794691187727
"laveB" 0.32666912507387
"agg" 0.788203380694012
"ave" 0.0277474197315728
"laveB" 0.297320138471269
"agg" 0.800565385079621
"ave" 0.025785429478568
"laveB" 0.27654438007105
"agg" 0.652272741840441
"ave" 0.0400608999335483
"laveB" 0.313362671313885
"agg" 0.570763832973676
"ave" 0.028858170521004
"laveB" 0.260042792262519
"agg" 0.622256860917615
"ave" 0.034301935811459
"laveB" 0.284646133702059
"agg" 0.68992239132473
"ave" 0.0365152774860398
"laveB" 0.325081375168894
"agg" 0.178440834679216
"ave" 0.00819446947233758
"laveB" 0.0737866706436703
"agg" 0.276209136511531
"ave" 0.0108182697240893
"laveB" 0.0921823642244848
"agg" 0.043587402426834
"ave" 0.000773159375971928
"laveB" 0.0135861383289532
"agg" 0.367533451739916
"ave" 0.0138786550289677
"laveB" 0.129189107468841
"agg" 0.0846040028850244
"ave" 0.00518197434218417
"laveB" 0.0390584267187376
"agg" 0.232978052940823
"ave" 0.0148503183803777
"laveB" 0.0934886517258085
"agg" 0.351019639945531
"ave" 0.0146776655748451
"laveB" 0.129182409773142
"agg" 0.367552681451434
"ave" 0.0145728601591709
"laveB" 0.127655569548833
"agg" 0.362695278648746
"ave" 0.0166108315948853
"laveB" 0.150206794069368
"agg" 0.529095683563898
"ave" 0.019847001885471
"laveB" 0.183107094221739
"agg" 0.21913487037832
"ave" 0.00384822029575197
"laveB" 0.0546459456157208
"agg" 0.315105677038926
"ave" 0.00781444760576404
"laveB" 0.107106972922313
"agg" 0.142626831132446
"ave" 0.00242577139795862
"laveB" 0.0440075424183051
"agg" 0.331933975831288
"ave" 0.00687132482173844
"laveB" 0.0978027495140093
"agg" -0.00605877461176231
"ave" -0.00140169714037569
"laveB" -0.00516641701957406
"agg" -0.0181085114862427
"ave" -0.0004233176388188
"laveB" -0.0247861906179949
"agg" 0.276143083399068
"ave" 0.00670947937707855
"laveB" 0.0673153066457599
"agg" 0.481977377024434
"ave" 0.0114008763834488
"laveB" 0.152568736386947
"agg" 0.327007507143671
"ave" 0.0151968102401277
"laveB" 0.116067332201703
"agg" 0.582278972363828
"ave" 0.0315284010535209
"laveB" 0.266836913558745
"agg" 0.504348923189362
"ave" 0.0205410350016675
"laveB" 0.200452209151222
"agg" 0.436507879522236
"ave" 0.0210724923937207
"laveB" 0.175355904373074
"agg" 0.490964752433324
"ave" 0.0106481697242117
"laveB" 0.143716462573626
"agg" 0.41507387392177
"ave" 0.0108460403924696
"laveB" 0.143867658971858
"agg" 0.472776203508037
"ave" 0.015091978593477
"laveB" 0.151790029487847
"agg" 0.464180970517397
"ave" 0.0190211590560505
"laveB" 0.143202378900137
"agg" 0.407537705375888
"ave" 0.00891250655922917
"laveB" 0.0864718009124445
"agg" 0.488571092449066
"ave" 0.0140866702844571
"laveB" 0.125440098530147
"agg" 0.135765036501341
"ave" 0.00369344602707333
"laveB" 0.0264425875372758
"agg" 0.197086211048375
"ave" 0.00809828607813495
"laveB" 0.078408004901071
"agg" 0.671358762124637
"ave" 0.0141014452262044
"laveB" 0.200299707266271
"agg" 0.559607906970402
"ave" 0.0113195523510895
"laveB" 0.153875461973485
"agg" 0.489187717420963
"ave" 0.0137306750309322
"laveB" 0.191833430355146
"agg" 0.450269726790657
"ave" 0.0145918117457033
"laveB" 0.173336504448623
"agg" 0.412526857416679
"ave" 0.0089167447098044
"laveB" 0.117185822059764
"agg" 0.843504294135565
"ave" 0.0577266433038109
"laveB" 0.374165868721089
"agg" 0.694593544652656
"ave" 0.0532122146649552
"laveB" 0.327556554204899
"agg" 0.814605773264908
"ave" 0.0272302137216392
"laveB" 0.31096225937167
"agg" 0.838716648773134
"ave" 0.0259407969694167
"laveB" 0.301159279694896
"agg" 0.661155364788018
"ave" 0.0389627882803734
"laveB" 0.313332464860078
"agg" 0.596174983379026
"ave" 0.0290313723342233
"laveB" 0.271701103834955
"agg" 0.651544066957721
"ave" 0.0344897632030126
"laveB" 0.301133661577735
"agg" 0.707618157293201
"ave" 0.0355657722909765
"laveB" 0.323091650550956
"agg" 0.176660015319269
"ave" 0.00794583465600431
"laveB" 0.0622340855132258
"agg" 0.263113012237574
"ave" 0.0101060005601382
"laveB" 0.0996549272607592
"agg" 0.00177439717547342
"ave" -0.00154593971763017
"laveB" 0.0131705106928905
"agg" 0.349426721801205
"ave" 0.0123770570736932
"laveB" 0.122984286970419
"agg" 0.0781721499963575
"ave" 0.00582559090198502
"laveB" 0.0408700914360287
"agg" 0.260271394540286
"ave" 0.017037720544658
"laveB" 0.122871740660533
"agg" 0.343354585204969
"ave" 0.0145621791210165
"laveB" 0.143857757939731
"agg" 0.377050723638706
"ave" 0.014918404868618
"laveB" 0.1248460527676
"agg" 0.428119635809691
"ave" 0.0190524787972201
"laveB" 0.170933938003935
"agg" 0.567092486639289
"ave" 0.0207372682778513
"laveB" 0.216973857968196
"agg" 0.176759641302282
"ave" 0.00298324296273278
"laveB" 0.0428372513063348
"agg" 0.284297741170493
"ave" 0.00709355176607095
"laveB" 0.0980527603539067
"agg" 0.045777665589979
"ave" 0.000452414721170725
"laveB" 0.0176565410623551
"agg" 0.266346909840819
"ave" 0.00509124302267516
"laveB" 0.0871673939334999
"agg" -0.0493930597029025
"ave" -0.00378014706421146
"laveB" -0.0205112190223763
"agg" -0.0480934073105708
"ave" -0.00196134796274905
"laveB" -0.0422742762168618
"agg" 0.297263438107876
"ave" 0.00707522858529452
"laveB" 0.0772822847467391
"agg" 0.470840714207554
"ave" 0.0108635882311111
"laveB" 0.167240068057888
"agg" 0.390846439356793
"ave" 0.0173507041347939
"laveB" 0.137396539751076
"agg" 0.616633933525
"ave" 0.032854862610204
"laveB" 0.307570590238316
"agg" 0.540758185206288
"ave" 0.021387162847169
"laveB" 0.218105947700017
"agg" 0.47478500990023
"ave" 0.0225896225552907
"laveB" 0.211021779076143
"agg" 0.482784638746677
"ave" 0.00984821752913541
"laveB" 0.141069255322293
"agg" 0.419897890040178
"ave" 0.0104720645144016
"laveB" 0.144511168175379
"agg" 0.481029752532404
"ave" 0.0146749123198572
"laveB" 0.161384037418653
"agg" 0.482547997744875
"ave" 0.0190797143153384
"laveB" 0.155305338305798
"agg" 0.45103574542568
"ave" 0.00993670036916549
"laveB" 0.107973656186814
"agg" 0.498146330517305
"ave" 0.0141946031212335
"laveB" 0.150649424962386
"agg" 0.123604597619065
"ave" 0.00415680838971408
"laveB" 0.041315406663888
"agg" 0.161091847409186
"ave" 0.00753373026720691
"laveB" 0.0553496419246659
"agg" 0.617690164277
"ave" 0.0123716897335799
"laveB" 0.194208486064336
"agg" 0.51943844531619
"ave" 0.0102088518451466
"laveB" 0.160609707347799
"agg" 0.483769468022485
"ave" 0.0133020700018113
"laveB" 0.186492392928973
"agg" 0.446474449841234
"ave" 0.0142210253316511
"laveB" 0.187073389662582
"agg" 0.37121021455199
"ave" 0.00805846179963373
"laveB" 0.10122025134096
"agg" 0.904996636745164
"ave" 0.0863370135120628
"laveB" 0.38499363177909
"agg" 0.820014552654817
"ave" 0.0358574432092298
"laveB" 0.29936595657406
"agg" 0.866617938417918
"ave" 0.0342947808104196
"laveB" 0.300730117922354
"agg" 0.569637111806555
"ave" 0.0427962375301516
"laveB" 0.253216663689667
"agg" 0.491578207630261
"ave" 0.0305639230282704
"laveB" 0.207431559369165
"agg" 0.738986256616542
"ave" 0.0493200731560222
"laveB" 0.321533808322651
"agg" 0.718683657173119
"ave" 0.0474523224715042
"laveB" 0.311225139383559
"agg" 0.259882463763407
"ave" 0.0150960237558153
"laveB" 0.102831124830849
"agg" 0.365813875848432
"ave" 0.0176439873282099
"laveB" 0.117760890889823
"agg" 0.0334723002834498
"ave" 0.00069205352340212
"laveB" 0.0104200250149467
"agg" 0.324868532031499
"ave" 0.0161015089221289
"laveB" 0.10033942091358
"agg" 0.118072782144568
"ave" 0.00988122933954696
"laveB" 0.0535759861787807
"agg" 0.297790456387235
"ave" 0.0231490405441271
"laveB" 0.136524009791372
"agg" 0.363596741871167
"ave" 0.0177133363139267
"laveB" 0.133865492285098
"agg" 0.331912470268856
"ave" 0.0153839825307478
"laveB" 0.111819503925772
"agg" 0.404150808045695
"ave" 0.0219972616747791
"laveB" 0.125454725672247
"agg" 0.545955733631321
"ave" 0.0255891270953248
"laveB" 0.175904221202394
"agg" 0.21103937660894
"ave" 0.00457270659471259
"laveB" 0.0517694123981475
"agg" 0.313620474737472
"ave" 0.00942172789504475
"laveB" 0.087268365237736
"agg" 0.0746080464415018
"ave" 0.00164315693184327
"laveB" 0.0182703194305826
"agg" 0.314790151918377
"ave" 0.00800465751892443
"laveB" 0.0951906385464066
"agg" -0.0776255636416598
"ave" -0.00618362094570603
"laveB" -0.0364372079149444
"agg" 0.0083004196491875
"ave" 0.00118746000744325
"laveB" -0.00848021740551104
"agg" 0.241183204045206
"ave" 0.00691566992621317
"laveB" 0.0603187374904623
"agg" 0.558310960873806
"ave" 0.0159303885029846
"laveB" 0.179648905340347
"agg" 0.402633513376032
"ave" 0.0207541575281336
"laveB" 0.122630513407478
"agg" 0.565708356285258
"ave" 0.0375438227499929
"laveB" 0.233859078486858
"agg" 0.599895282644466
"ave" 0.0306154658589801
"laveB" 0.229659863901275
"agg" 0.503810878872046
"ave" 0.0301862127659575
"laveB" 0.205018092627595
"agg" 0.45799314577604
"ave" 0.0125590848590919
"laveB" 0.121361907865369
"agg" 0.38789965730715
"ave" 0.0124243228193262
"laveB" 0.108440451256493
"agg" 0.50736333613792
"ave" 0.0201573860512644
"laveB" 0.15216758626132
"agg" 0.49347815134934
"ave" 0.0249259617454483
"laveB" 0.143446735682287
"agg" 0.502104104864395
"ave" 0.0137957615774421
"laveB" 0.123504109218976
"agg" 0.576177631610935
"ave" 0.0204143091463415
"laveB" 0.136572777591057
"agg" 0.315608560729311
"ave" 0.0112610819445989
"laveB" 0.106423404100951
"agg" 0.311404875207495
"ave" 0.0136451121263524
"laveB" 0.106553094452134
"agg" 0.706258411336729
"ave" 0.0180051460795186
"laveB" 0.196670366989889
"agg" 0.6086045372926
"ave" 0.0150897768676684
"laveB" 0.181869304699224
"agg" 0.597955161795222
"ave" 0.0197052741162072
"laveB" 0.194998669045008
"agg" 0.531739914561646
"ave" 0.0207479170801493
"laveB" 0.185541679489999
"agg" 0.496120366983738
"ave" 0.0125151847938078
"laveB" 0.138245761679535
"agg" 0.683429259412966
"ave" 0.0329205923189379
"laveB" 0.238204211744609
"agg" 0.769830638646983
"ave" 0.0337537317749681
"laveB" 0.247302965035252
"agg" 0.435819018235678
"ave" 0.0350687356955345
"laveB" 0.199561092460717
"agg" 0.373077791747614
"ave" 0.0251726970384744
"laveB" 0.181310367883985
"agg" 0.601651210319747
"ave" 0.0438295066335332
"laveB" 0.263974869427185
"agg" 0.611211056019632
"ave" 0.0440964208328951
"laveB" 0.267914055872064
"agg" 0.199489903978204
"ave" 0.0113840446548166
"laveB" 0.0711620931781609
"agg" 0.336843919582289
"ave" 0.017121079825623
"laveB" 0.119808368161211
"agg" 0.109548178250604
"ave" 0.0057164277085352
"laveB" 0.0307419093037012
"agg" 0.26984054455339
"ave" 0.0138690442698526
"laveB" 0.0811456843624159
"agg" 0.0761643649732986
"ave" 0.0050721545876831
"laveB" 0.0260083856860424
"agg" 0.214590473775783
"ave" 0.0172589269960906
"laveB" 0.0745251928742234
"agg" 0.268266427168913
"ave" 0.0138201991745824
"laveB" 0.0780551779867562
"agg" 0.216807983109293
"ave" 0.0101023312764467
"laveB" 0.0841429621333944
"agg" 0.383305825312722
"ave" 0.0229088703258557
"laveB" 0.141315833747539
"agg" 0.523917183268536
"ave" 0.0270559309131361
"laveB" 0.177870850470038
"agg" 0.163159158561184
"ave" 0.00363455249954856
"laveB" 0.0396634141828934
"agg" 0.284397516135984
"ave" 0.00953928596012057
"laveB" 0.0848538673317215
"agg" 0.0161031319506949
"ave" 0.000280122555771882
"laveB" -0.000788209959175875
"agg" 0.299167938883136
"ave" 0.00842611646672628
"laveB" 0.0909945654737324
"agg" -0.0339807136948311
"ave" -0.00372227017721708
"laveB" -0.00830470715232766
"agg" 0.0584640052171978
"ave" 0.00428531297136742
"laveB" 0.0151043618930359
"agg" 0.137042965660678
"ave" 0.00431861355537992
"laveB" 0.0262577285847888
"agg" 0.516770968212411
"ave" 0.016534901333676
"laveB" 0.179318885257465
"agg" 0.33821137201165
"ave" 0.0187411896906355
"laveB" 0.115164927708863
"agg" 0.467394979499262
"ave" 0.0337768780864117
"laveB" 0.207011309557387
"agg" 0.553928156381347
"ave" 0.03098508439593
"laveB" 0.227620352088087
"agg" 0.477938786739487
"ave" 0.032036085297264
"laveB" 0.201339547784798
"agg" 0.344153212464402
"ave" 0.0101440426179968
"laveB" 0.0983809929487643
"agg" 0.308357949698316
"ave" 0.0104357868823229
"laveB" 0.112559154949627
"agg" 0.425420172848388
"ave" 0.0181935674203143
"laveB" 0.134738730258301
"agg" 0.410045280978372
"ave" 0.021920172896781
"laveB" 0.106558899842299
"agg" 0.416391547515184
"ave" 0.0122898106627053
"laveB" 0.104849250513073
"agg" 0.482915266500441
"ave" 0.0185752856055179
"laveB" 0.115316314471369
"agg" 0.315731668490646
"ave" 0.0129873481067925
"laveB" 0.107343120785257
"agg" 0.30817355460312
"ave" 0.015797584349378
"laveB" 0.115900734845505
"agg" 0.653565192832802
"ave" 0.0186081970315626
"laveB" 0.206857492428918
"agg" 0.556590863241679
"ave" 0.0152262109984244
"laveB" 0.180745452521029
"agg" 0.546574588831992
"ave" 0.0200954933612929
"laveB" 0.194425603022596
"agg" 0.453988813989941
"ave" 0.0196493169529443
"laveB" 0.189417874448075
"agg" 0.474740126669339
"ave" 0.0132762782205004
"laveB" 0.131096638854322
"agg" 0.880930714808612
"ave" 0.0173308714058231
"laveB" 0.238659301543907
"agg" 0.590818235193465
"ave" 0.0222548296257572
"laveB" 0.225500840650473
"agg" 0.538347521487892
"ave" 0.0167737156446637
"laveB" 0.193597851004548
"agg" 0.770007073394889
"ave" 0.0259305417783132
"laveB" 0.273013917458833
"agg" 0.781079715590204
"ave" 0.0262074436588656
"laveB" 0.298720249108848
"agg" 0.196468591075661
"ave" 0.00601538997192493
"laveB" 0.0636719651565255
"agg" 0.288717136120017
"ave" 0.00697809139558472
"laveB" 0.0897002617182003
"agg" -0.041881512566266
"ave" -0.00151576700555832
"laveB" -0.0042051874474541
"agg" 0.338162825028635
"ave" 0.00845264718647246
"laveB" 0.103783889051887
"agg" 0.228579152634755
"ave" 0.0105835238726807
"laveB" 0.100165002897767
"agg" 0.376411524148514
"ave" 0.0146119013098655
"laveB" 0.147673323469327
"agg" 0.397225899411461
"ave" 0.00995786652585854
"laveB" 0.111024609126898
"agg" 0.404487753164052
"ave" 0.00974710821461156
"laveB" 0.122484695538943
"agg" 0.348271985127663
"ave" 0.00971295306376038
"laveB" 0.100616842257142
"agg" 0.467886982633506
"ave" 0.0106054865039469
"laveB" 0.121192849758584
"agg" 0.25577562044334
"ave" 0.00298367686353968
"laveB" 0.0493615625333705
"agg" 0.309771883389647
"ave" 0.00481466070296926
"laveB" 0.0744067500977065
"agg" 0.190194227357526
"ave" 0.0022483961415374
"laveB" 0.0538096754170356
"agg" 0.362764702895847
"ave" 0.00465202483235626
"laveB" 0.0815365503799601
"agg" -0.0467324720835075
"ave" -0.00132593156562688
"laveB" 0.000323319812653323
"agg" 0.0670239723104926
"ave" 0.00204722393768462
"laveB" 0.0118045786672201
"agg" 0.280474055101679
"ave" 0.00406774300053074
"laveB" 0.0598273657535605
"agg" 0.496536032294656
"ave" 0.00724011093754324
"laveB" 0.135504596532371
"agg" 0.322331232372827
"ave" 0.00867426394942257
"laveB" 0.102034451329685
"agg" 0.55084527917273
"ave" 0.0179229297067949
"laveB" 0.185650074461896
"agg" 0.583189641853555
"ave" 0.0148531993417819
"laveB" 0.187136456093986
"agg" 0.492955778255672
"ave" 0.0146487466247639
"laveB" 0.159055357060751
"agg" 0.56550187637433
"ave" 0.00759054468416763
"laveB" 0.122750687466588
"agg" 0.476067841457129
"ave" 0.00751549173883883
"laveB" 0.114992767295938
"agg" 0.650659599305575
"ave" 0.0127960182540604
"laveB" 0.165326277176506
"agg" 0.602396624668604
"ave" 0.015138333725401
"laveB" 0.164651821330836
"agg" 0.57236201631481
"ave" 0.00777435555479766
"laveB" 0.110277735723697
"agg" 0.639121800718772
"ave" 0.0116578203519765
"laveB" 0.138231118712298
"agg" 0.175705063114543
"ave" 0.003331948539204
"laveB" 0.0513557079068755
"agg" 0.168838621512102
"ave" 0.00453061610652661
"laveB" 0.0664466062036491
"agg" 0.632690478763393
"ave" 0.00828352724618245
"laveB" 0.145017229353137
"agg" 0.55194306041248
"ave" 0.00705844484600004
"laveB" 0.138431748459895
"agg" 0.531299052434305
"ave" 0.00902254687890899
"laveB" 0.159789362505433
"agg" 0.474081569912931
"ave" 0.00944377502940253
"laveB" 0.150921482631639
"agg" 0.439445002241871
"ave" 0.00571752548707454
"laveB" 0.0968932235771387
"agg" 0.617315551614505
"ave" 0.0212523175033437
"laveB" 0.232553636149466
"agg" 0.579742548050675
"ave" 0.0167390700140032
"laveB" 0.210621577949512
"agg" 0.732235488082027
"ave" 0.0227324167376389
"laveB" 0.249232684346394
"agg" 0.7669810914337
"ave" 0.0233095780629587
"laveB" 0.269993076729357
"agg" 0.219741072076812
"ave" 0.00624619751770571
"laveB" 0.0782438345254623
"agg" 0.35640460221918
"ave" 0.0080986875386746
"laveB" 0.0966295364451975
"agg" 0.00546858338754619
"ave" -0.000521133322501999
"laveB" -0.00171485005003884
"agg" 0.421884447506296
"ave" 0.0100114292734364
"laveB" 0.122613391362272
"agg" 0.146159270263459
"ave" 0.00630600482957182
"laveB" 0.0742541291159582
"agg" 0.345676904541056
"ave" 0.0126868683695082
"laveB" 0.123194657611238
"agg" 0.367076502921872
"ave" 0.00892308294957225
"laveB" 0.123123715217913
"agg" 0.36529696588135
"ave" 0.00831058327511054
"laveB" 0.103282792166808
"agg" 0.414918439817253
"ave" 0.0103273430782974
"laveB" 0.12632811250211
"agg" 0.508577524228326
"ave" 0.0106353926171242
"laveB" 0.146247774921486
"agg" 0.220875525929939
"ave" 0.00239476690280276
"laveB" 0.0412103839888214
"agg" 0.330594820590641
"ave" 0.00493956889527972
"laveB" 0.084508784430009
"agg" 0.141069659322284
"ave" 0.00155018055990756
"laveB" 0.0280024831527354
"agg" 0.357653400112515
"ave" 0.0042795588193187
"laveB" 0.0872702144153857
"agg" -0.00874707118408493
"ave" -0.000405683058716752
"laveB" -0.000457847133599205
"agg" 0.0509134125626222
"ave" 0.00117141689852751
"laveB" -0.00143422185697283
"agg" 0.337087241186488
"ave" 0.00449497474073495
"laveB" 0.0805945854153412
"agg" 0.56985087464267
"ave" 0.00770209311139438
"laveB" 0.154494954549797
"agg" 0.448134476560141
"ave" 0.011117685418966
"laveB" 0.131313898073413
"agg" 0.593284508380022
"ave" 0.0182159418954276
"laveB" 0.205673227686923
"agg" 0.624745695310123
"ave" 0.014749148374533
"laveB" 0.189511942347434
"agg" 0.533062984545842
"ave" 0.0148607882019266
"laveB" 0.174665216530049
"agg" 0.528243938914795
"ave" 0.0064356444228738
"laveB" 0.111497429876485
"agg" 0.467126269189397
"ave" 0.0067045143699621
"laveB" 0.110776575483653
"agg" 0.584825196650676
"ave" 0.0107177927609701
"laveB" 0.141307592984971
"agg" 0.572123429042661
"ave" 0.0134520507529939
"laveB" 0.131796630087698
"agg" 0.545517077607094
"ave" 0.00704333481160027
"laveB" 0.0937487603406076
"agg" 0.686163839987058
"ave" 0.0114992613416262
"laveB" 0.148429690357034
"agg" 0.276562089527916
"ave" 0.00541609638576332
"laveB" 0.0707773753376211
"agg" 0.289683833698738
"ave" 0.00684065708191936
"laveB" 0.0947823089807029
"agg" 0.723598860733953
"ave" 0.00884487405240378
"laveB" 0.155602076850457
"agg" 0.652087067837476
"ave" 0.00792005358977638
"laveB" 0.150238101031389
"agg" 0.651765081922439
"ave" 0.0103976005658681
"laveB" 0.185510505731047
"agg" 0.618227339230877
"ave" 0.011800274681553
"laveB" 0.199821717258128
"agg" 0.485719504500489
"ave" 0.00587732093567833
"laveB" 0.109601975667386
"agg" 0.905977086975313
"ave" 0.0490113112575077
"laveB" 0.416022956149936
"agg" 0.439653502888106
"ave" 0.028259034356274
"laveB" 0.21909668940002
"agg" 0.531846149165783
"ave" 0.0314608490987259
"laveB" 0.266237907069161
"agg" 0.135909964729292
"ave" 0.00768867134333784
"laveB" 0.0542578812577385
"agg" 0.197463904666242
"ave" 0.00746860271862832
"laveB" 0.0656636892738421
"agg" 0.0656120130114458
"ave" 0.00161903085925563
"laveB" 0.0278842188906157
"agg" 0.59057680278284
"ave" 0.025953956140986
"laveB" 0.232792922222716
"agg" 0.0125019782008787
"ave" -0.00120670693896218
"laveB" 0.0116211711674488
"agg" 0.143032833417369
"ave" 0.00938348202670143
"laveB" 0.0560562479444752
"agg" 0.211728549914071
"ave" 0.0103002899780486
"laveB" 0.0892690524691844
"agg" 0.234434306470225
"ave" 0.00995158958480817
"laveB" 0.0840451685019314
"agg" 0.509411665975712
"ave" 0.0247460035951331
"laveB" 0.20775206522598
"agg" 0.66393884059541
"ave" 0.0279588362820484
"laveB" 0.260700720857689
"agg" 0.237516840345454
"ave" 0.0047310261120796
"laveB" 0.057571710201244
"agg" 0.294473409561106
"ave" 0.00773771316602795
"laveB" 0.108734035514688
"agg" 0.220460361506728
"ave" 0.00435498699333443
"laveB" 0.0651683867889149
"agg" 0.400637882589746
"ave" 0.00894705315771712
"laveB" 0.126982846895444
"agg" -0.132462920913973
"ave" -0.00693100041990765
"laveB" -0.0635998647578162
"agg" 0.076881925512283
"ave" 0.00382875103552586
"laveB" 0.0110818305649423
"agg" 0.209445722215991
"ave" 0.00537583555333881
"laveB" 0.0609367064333913
"agg" 0.459222635444477
"ave" 0.0112474522273784
"laveB" 0.162783509219751
"agg" 0.501219282814382
"ave" 0.0238987047841
"laveB" 0.203815927930597
"agg" 0.747692019858837
"ave" 0.0423614085920241
"laveB" 0.340990098298564
"agg" 0.693216975515723
"ave" 0.0312665779408193
"laveB" 0.2942032982043
"agg" 0.629046311843561
"ave" 0.0325445368093661
"laveB" 0.280635603152502
"agg" 0.662494173709801
"ave" 0.0155432793065831
"laveB" 0.197224799640171
"agg" 0.566943882015778
"ave" 0.0156618548053111
"laveB" 0.182438061121804
"agg" 0.557632103237175
"ave" 0.0192045920503533
"laveB" 0.18838707077565
"agg" 0.440872573462654
"ave" 0.0187584392704935
"laveB" 0.155959231161947
"agg" 0.299152054142736
"ave" 0.00699627496190183
"laveB" 0.0648485567102986
"agg" 0.384606379043276
"ave" 0.0117846296206101
"laveB" 0.111726870047615
"agg" -0.137733239852125
"ave" -0.00651520366954026
"laveB" -0.0660862920962792
"agg" -0.0692562381650624
"ave" -0.0024477752140403
"laveB" -0.0183672132427997
"agg" 0.426770909235943
"ave" 0.00918296206632615
"laveB" 0.140337078023374
"agg" 0.447090705650601
"ave" 0.0090942801421813
"laveB" 0.145188328122544
"agg" 0.302424301491019
"ave" 0.00909170277550737
"laveB" 0.125852684903526
"agg" 0.30099080838997
"ave" 0.0104028196743207
"laveB" 0.141643686959856
"agg" 0.337354133976458
"ave" 0.00756653141777665
"laveB" 0.10430145879693
"agg" 0.434607854896329
"ave" 0.0229980515018148
"laveB" 0.199896115698274
"agg" 0.526296780664128
"ave" 0.0264401519036018
"laveB" 0.255742856398127
"agg" 0.163999855290045
"ave" 0.00812227128324641
"laveB" 0.0835043294957148
"agg" 0.221262268069322
"ave" 0.00809470207204131
"laveB" 0.0957400556491691
"agg" 0.0989739604258979
"ave" 0.0035427759743974
"laveB" 0.0321893629135839
"agg" 0.623179045224278
"ave" 0.023267783622276
"laveB" 0.230483977999303
"agg" 0.0947816189883599
"ave" 0.00587145785297081
"laveB" 0.0514792827881325
"agg" 0.166340093173571
"ave" 0.0104066268995502
"laveB" 0.0833694658657615
"agg" 0.215203543639075
"ave" 0.00940648854802506
"laveB" 0.101763374737202
"agg" 0.204256694865846
"ave" 0.00782518936046545
"laveB" 0.0917390885822875
"agg" 0.554370339324434
"ave" 0.0218353735927483
"laveB" 0.198761958239906
"agg" 0.652340003501785
"ave" 0.0223783130476887
"laveB" 0.214430178679849
"agg" 0.285418398683956
"ave" 0.00518766001936217
"laveB" 0.0764242137572806
"agg" 0.293957922118504
"ave" 0.00684230400338402
"laveB" 0.109053464750785
"agg" 0.223496458278663
"ave" 0.00364434916466996
"laveB" 0.0685117088419642
"agg" 0.379189862511423
"ave" 0.00724490150715269
"laveB" 0.119560831114422
"agg" -0.133231578405289
"ave" -0.00540563016171111
"laveB" -0.0583546007536504
"agg" 0.00960955347664782
"ave" 0.000376165916016059
"laveB" -0.00746735788059737
"agg" 0.200040360613897
"ave" 0.00431155688314261
"laveB" 0.0634036060183012
"agg" 0.435681441676031
"ave" 0.00916887693577725
"laveB" 0.164247093976161
"agg" 0.452715375710086
"ave" 0.018418199730072
"laveB" 0.164216947657292
"agg" 0.700103906743535
"ave" 0.0329767746909706
"laveB" 0.294032607036345
"agg" 0.655749307983853
"ave" 0.0245571800651523
"laveB" 0.259010285241687
"agg" 0.60371346117742
"ave" 0.0258079413501268
"laveB" 0.241922890014858
"agg" 0.644985178732435
"ave" 0.012376509423242
"laveB" 0.178117729461735
"agg" 0.550689146892619
"ave" 0.012391096702805
"laveB" 0.17494196007777
"agg" 0.600447912780883
"ave" 0.0171544062619229
"laveB" 0.180847328638016
"agg" 0.460938415737241
"ave" 0.0166749564201741
"laveB" 0.161982391878825
"agg" 0.311447474580482
"ave" 0.00627375295081293
"laveB" 0.0704584427551484
"agg" 0.414948884574549
"ave" 0.0110612912682266
"laveB" 0.116864956885786
"agg" -0.142107133085891
"ave" -0.00451864692121951
"laveB" -0.0393378616241757
"agg" -0.0527009091022243
"ave" -0.000448888783131055
"laveB" 0.00585841911766362
"agg" 0.357629768574538
"ave" 0.00654001528872634
"laveB" 0.12335169001361
"agg" 0.364310741006669
"ave" 0.00641610928934264
"laveB" 0.106110118300871
"agg" 0.304055333551279
"ave" 0.00801847353798188
"laveB" 0.134935728087381
"agg" 0.26540871130153
"ave" 0.00792437435237594
"laveB" 0.111744451348184
"agg" 0.275572187100206
"ave" 0.00527046824987455
"laveB" 0.0777660288915253
"agg" 0.843060644186108
"ave" 0.044155219310451
"laveB" 0.383225922626141
"agg" 0.532225298254827
"ave" 0.0210567238403252
"laveB" 0.178592967395595
"agg" 0.526075201459778
"ave" 0.0181814120292524
"laveB" 0.162915793527281
"agg" 0.0362826063744145
"ave" -1.42035332972176e-05
"laveB" 0.00942936951867731
"agg" 0.345475160813902
"ave" 0.014885473707445
"laveB" 0.128536273278125
"agg" 0.316025750816088
"ave" 0.0165649081518123
"laveB" 0.0961698949166284
"agg" 0.503182606639764
"ave" 0.0260053422260575
"laveB" 0.174011713047021
"agg" 0.513371821800549
"ave" 0.0174179701229858
"laveB" 0.15573219690199
"agg" 0.461708149132775
"ave" 0.0158188257750391
"laveB" 0.139850300237714
"agg" 0.336003222597229
"ave" 0.0145903266807623
"laveB" 0.117519226741321
"agg" 0.445579785065643
"ave" 0.0165820683553633
"laveB" 0.153581070189511
"agg" 0.336579202705209
"ave" 0.00560294209856327
"laveB" 0.0751478241456527
"agg" 0.324350989948174
"ave" 0.00671246199940936
"laveB" 0.0955401633131956
"agg" 0.132728721764205
"ave" 0.00239203364122353
"laveB" 0.036274409325201
"agg" 0.323791376738263
"ave" 0.00656180712433759
"laveB" 0.0911608018254719
"agg" -0.0823344953309443
"ave" -0.00353117491803284
"laveB" -0.0232345443864934
"agg" -0.0299334982631264
"ave" -0.000514450480821507
"laveB" -0.0131623988463605
"agg" 0.263238980529492
"ave" 0.00581548461531034
"laveB" 0.0659806795873222
"agg" 0.537066921456275
"ave" 0.0117031729825925
"laveB" 0.172093285022883
"agg" 0.247957798171673
"ave" 0.0110618957022452
"laveB" 0.0741799606557054
"agg" 0.421150373751899
"ave" 0.0219670454942487
"laveB" 0.187632190585884
"agg" 0.467495794915199
"ave" 0.0185556945051909
"laveB" 0.170353638087759
"agg" 0.352092192819952
"ave" 0.0162233601474416
"laveB" 0.149255257257026
"agg" 0.322880450826053
"ave" 0.00760655664059564
"laveB" 0.0981717162501317
"agg" 0.286029073837365
"ave" 0.00742662418987719
"laveB" 0.0984501799952663
"agg" 0.540553838420735
"ave" 0.0160220196556874
"laveB" 0.159490389454365
"agg" 0.468033846498088
"ave" 0.0170523585103731
"laveB" 0.133095544874415
"agg" 0.735336889171041
"ave" 0.0150471069735878
"laveB" 0.14683802454538
"agg" 0.705245231404845
"ave" 0.0192440549144508
"laveB" 0.177247507865332
"agg" 0.3586671701262
"ave" 0.0090146887333086
"laveB" 0.110933182750233
"agg" 0.398664577103147
"ave" 0.0117495487405067
"laveB" 0.14034568897721
"agg" 0.638403446849414
"ave" 0.0129913099343496
"laveB" 0.192076789853415
"agg" 0.601941285080565
"ave" 0.0122879336984631
"laveB" 0.179270204846262
"agg" 0.583162637481149
"ave" 0.0151032028262572
"laveB" 0.209499768403145
"agg" 0.542191920193873
"ave" 0.0168916402560043
"laveB" 0.204081932279611
"agg" 0.422743431020795
"ave" 0.00796416189147857
"laveB" 0.126564539983595
"agg" 0.34009941940186
"ave" 0.0136641881599062
"laveB" 0.135074502091231
"agg" 0.535949682981035
"ave" 0.0190229534788871
"laveB" 0.191865996684664
"agg" 0.0818169993092782
"ave" 0.00135922612438153
"laveB" 0.0187819825124763
"agg" 0.570775615689588
"ave" 0.0221871297580864
"laveB" 0.20856088141152
"agg" 0.0542198198856111
"ave" 0.00459243985573605
"laveB" 0.0237229368625635
"agg" 0.385940873028033
"ave" 0.0222066101884512
"laveB" 0.177989658614422
"agg" 0.393941219786035
"ave" 0.0155220102810487
"laveB" 0.127623640297918
"agg" 0.471656078417332
"ave" 0.0173152419053638
"laveB" 0.162914413102836
"agg" 0.305717559127566
"ave" 0.0129731074523413
"laveB" 0.120745894446046
"agg" 0.448089847735209
"ave" 0.015511532572027
"laveB" 0.156299626621936
"agg" 0.328824452831286
"ave" 0.00599403437344587
"laveB" 0.0832301367561297
"agg" 0.286913490473722
"ave" 0.00632596464920249
"laveB" 0.0873114684670044
"agg" 0.225501376968055
"ave" 0.00403336759127706
"laveB" 0.0669066161342282
"agg" 0.359140770928087
"ave" 0.00699489523852768
"laveB" 0.111067372338325
"agg" -0.0280177193023646
"ave" -0.0013182147379419
"laveB" -0.0141206768291547
"agg" 0.0105644662835425
"ave" 0.000744175225730999
"laveB" -0.0118466955665439
"agg" 0.290010641280375
"ave" 0.00590818271601212
"laveB" 0.0745639854614295
"agg" 0.499580931069052
"ave" 0.0109512535094643
"laveB" 0.182436586438322
"agg" 0.269247890412597
"ave" 0.0110988583761328
"laveB" 0.0869467119057986
"agg" 0.437363711382835
"ave" 0.0212520361383402
"laveB" 0.179363397977402
"agg" 0.470860930378994
"ave" 0.0182713753499611
"laveB" 0.179351416055448
"agg" 0.363742168917629
"ave" 0.0160057142317733
"laveB" 0.140173533639857
"agg" 0.378794609312998
"ave" 0.00817734800773617
"laveB" 0.115252101901077
"agg" 0.279933320831499
"ave" 0.00718175842842374
"laveB" 0.0975114982342286
"agg" 0.478491114464331
"ave" 0.0152128873576915
"laveB" 0.148306897296175
"agg" 0.443675301801883
"ave" 0.0172611871846379
"laveB" 0.125100881551149
"agg" 0.505519000039526
"ave" 0.0107062874423661
"laveB" 0.110215359790254
"agg" 0.65128324476134
"ave" 0.0184992951029146
"laveB" 0.19673582003062
"agg" 0.227394281991396
"ave" 0.00554738545051878
"laveB" 0.0942401783502476
"agg" 0.178366556618004
"ave" 0.00522725687547016
"laveB" 0.0695627999949311
"agg" 0.688539408659181
"ave" 0.0139652777753721
"laveB" 0.208596510732453
"agg" 0.587810289036308
"ave" 0.0114458484367398
"laveB" 0.182671752647456
"agg" 0.628609195092469
"ave" 0.0165654409646405
"laveB" 0.239223805106841
"agg" 0.53490198521573
"ave" 0.016111736564399
"laveB" 0.227039445651228
"agg" 0.447964111709077
"ave" 0.00822690468656351
"laveB" 0.114400114742606
"agg" 0.738387204641267
"ave" 0.0272044495554717
"laveB" 0.219057206527487
"agg" 0.505033275939324
"ave" 0.01973426132458
"laveB" 0.160327897186839
"agg" 0.376034178334876
"ave" 0.0147352006831367
"laveB" 0.107962257384394
"agg" 0.44127774254893
"ave" 0.0329663186376505
"laveB" 0.149130181472404
"agg" 0.560941114308469
"ave" 0.0325456726591757
"laveB" 0.204818766988957
"agg" 0.572420991240504
"ave" 0.0199899658371401
"laveB" 0.159967656186154
"agg" 0.506741897228892
"ave" 0.0178494022557835
"laveB" 0.148357880777438
"agg" 0.129453487109255
"ave" 0.00490863272691144
"laveB" 0.0410301559223816
"agg" 0.168372200200551
"ave" 0.00574306532677798
"laveB" 0.0571856493721594
"agg" 0.347956679010319
"ave" 0.00586736708620699
"laveB" 0.0754297609242806
"agg" 0.351535767224667
"ave" 0.00757847807257688
"laveB" 0.0946786408770556
"agg" 0.0727459438478512
"ave" 0.00101335406326956
"laveB" 0.0135331779498132
"agg" 0.268077295129028
"ave" 0.0048622266437635
"laveB" 0.0759556317246567
"agg" -0.0153816404909209
"ave" -0.00125444816823648
"laveB" 0.000307310205419503
"agg" 0.0740367272565235
"ave" 0.00271272541496775
"laveB" 0.0141702055126796
"agg" 0.294432789782928
"ave" 0.00593346482348112
"laveB" 0.0754180721472837
"agg" 0.30266282133307
"ave" 0.00592636053977218
"laveB" 0.0950899658053435
"agg" 0.146994399508772
"ave" 0.00596129080100193
"laveB" 0.0505725503965771
"agg" 0.240379189698291
"ave" 0.0120803508298583
"laveB" 0.0861350419387355
"agg" 0.273808621366948
"ave" 0.0106756603135489
"laveB" 0.0997524931267907
"agg" 0.235340207800862
"ave" 0.0100669635099706
"laveB" 0.0892008628262088
"agg" -0.00264561653855988
"ave" 0.00021262421249984
"laveB" -0.00365441903647863
"agg" 0.0398059287108081
"ave" 0.00126889868472704
"laveB" 0.0154501498294477
"agg" 0.329958739114437
"ave" 0.00984898390752115
"laveB" 0.080186355955239
"agg" 0.421574781067814
"ave" 0.0151526791537719
"laveB" 0.133253745782991
"agg" 0.501223895758299
"ave" 0.0104086819440256
"laveB" 0.119316161715725
"agg" 0.465891871978119
"ave" 0.0110690235214166
"laveB" 0.108486382388139
"agg" 0.42973058180375
"ave" 0.0139538396780521
"laveB" 0.148626842302021
"agg" 0.427460242415133
"ave" 0.0142990899609972
"laveB" 0.145827770112941
"agg" 0.313975885832546
"ave" 0.00557139476938206
"laveB" 0.0798159618401258
"agg" 0.27676067487365
"ave" 0.00528193101182043
"laveB" 0.0756587817950099
"agg" 0.219330577823929
"ave" 0.00471749428108935
"laveB" 0.0647606164930042
"agg" 0.190932602484006
"ave" 0.00517898632322159
"laveB" 0.0767747240762253
"agg" 0.243127477549931
"ave" 0.00395950297351349
"laveB" 0.0684421271250029
"agg" 0.298186460477949
"ave" 0.00998246404136297
"laveB" 0.0963152823136461
"agg" 0.51908907021298
"ave" 0.0162725225726551
"laveB" 0.171986005894854
"agg" 0.321914824754358
"ave" 0.0234073958571726
"laveB" 0.127885277726835
"agg" 0.705328793780209
"ave" 0.0381538132322275
"laveB" 0.290498079441428
"agg" 0.546674559706763
"ave" 0.0173121109441145
"laveB" 0.163099806795961
"agg" 0.599582628572663
"ave" 0.0193862796642635
"laveB" 0.200583403087634
"agg" 0.0976392417035881
"ave" 0.00296197846626843
"laveB" 0.0259047097213113
"agg" 0.207143599490143
"ave" 0.00530407762466868
"laveB" 0.0516797834117004
"agg" 0.426341163765618
"ave" 0.00654970827559846
"laveB" 0.0977408110086483
"agg" 0.456538472557434
"ave" 0.00915219029475308
"laveB" 0.132806379034468
"agg" 0.164779774708962
"ave" 0.00200208909880199
"laveB" 0.0286068745985297
"agg" 0.330400838876863
"ave" 0.00514814768731301
"laveB" 0.0794129813799206
"agg" -0.0476310080405959
"ave" -0.00227886553974417
"laveB" -0.0214924747488893
"agg" 0.0661600320181255
"ave" 0.00191501982394174
"laveB" 0.0056470467552739
"agg" 0.324055303428754
"ave" 0.00547671240372334
"laveB" 0.0776186084489643
"agg" 0.376270323019754
"ave" 0.00618066586616687
"laveB" 0.104210174037492
"agg" 0.274188281020422
"ave" 0.00787187802107354
"laveB" 0.079835248104429
"agg" 0.310465059093935
"ave" 0.012021312547074
"laveB" 0.118507583277678
"agg" 0.325438909866353
"ave" 0.0101928901308703
"laveB" 0.105970508788978
"agg" 0.337320125441553
"ave" 0.0118328625358389
"laveB" 0.110022534566563
"agg" 0.0480146119502113
"ave" 0.000281152673083515
"laveB" -0.00304332173206031
"agg" 0.0867013628507257
"ave" 0.00152731387983428
"laveB" 0.0280525423921202
"agg" 0.301810243103533
"ave" 0.00747991826315761
"laveB" 0.0827286070597514
"agg" 0.527304174605081
"ave" 0.0164218359889256
"laveB" 0.142312555240444
"agg" 0.445635850996552
"ave" 0.00806594436691057
"laveB" 0.0895719597654476
"agg" 0.649479784136843
"ave" 0.0134983840640135
"laveB" 0.165842518897541
"agg" 0.56965082553856
"ave" 0.0165827019426055
"laveB" 0.213200329537358
"agg" 0.441639579103897
"ave" 0.013211903979671
"laveB" 0.164416310972091
"agg" 0.503460185424402
"ave" 0.007795715088374
"laveB" 0.127114727964504
"agg" 0.402510549233555
"ave" 0.00595274375712607
"laveB" 0.0897399669737409
"agg" 0.476767635842573
"ave" 0.00909886508601345
"laveB" 0.128908660921034
"agg" 0.337953582941813
"ave" 0.00734140328281251
"laveB" 0.0948351045926932
"agg" 0.420570403608009
"ave" 0.00574085217129065
"laveB" 0.0880366288189963
"agg" 0.539183860920466
"ave" 0.0185658558216121
"laveB" 0.16436130543585
"agg" 0.0816528106374831
"ave" 0.00855915733237162
"laveB" 0.0262454785411151
"agg" -0.0100411961192916
"ave" -0.000202718916997288
"laveB" 0.00168791578680988
"agg" 0.177295119707169
"ave" 0.00689178436933779
"laveB" 0.0734611094620341
"agg" 0.0925695995426985
"ave" 0.00338246798488465
"laveB" 0.0504378604530567
"agg" 0.040671817555167
"ave" 0.0014531048253581
"laveB" 0.0172531671051893
"agg" 0.0913243056835434
"ave" 0.00276898697664395
"laveB" 0.0262550806890735
"agg" 0.228749163053924
"ave" 0.00372413377862941
"laveB" 0.0532189414020175
"agg" 0.151954070388535
"ave" 0.00313358783617695
"laveB" 0.0409657748115184
"agg" 0.102330332145885
"ave" 0.00108956123476778
"laveB" 0.00953700862688594
"agg" 0.187149815912822
"ave" 0.00320175001449903
"laveB" 0.0423392705744697
"agg" 0.222282403937642
"ave" 0.0080942171772691
"laveB" 0.0901033377604202
"agg" 0.219529115167053
"ave" 0.00641191460301265
"laveB" 0.06300781692308
"agg" 0.154194083585467
"ave" 0.00246133181600908
"laveB" 0.0361840067029572
"agg" 0.1609391078725
"ave" 0.00264265041561747
"laveB" 0.0329042928426752
"agg" 0.0609672112187073
"ave" 0.00125163345678979
"laveB" 0.0357775788588851
"agg" 0.146201238586283
"ave" 0.00488319319088507
"laveB" 0.0489659774653295
"agg" 0.264923757607554
"ave" 0.00927414631477538
"laveB" 0.0775801648245729
"agg" 0.163583912012632
"ave" 0.00622952551037965
"laveB" 0.0447324659319971
"agg" 0.118107965061072
"ave" 0.00167752782304127
"laveB" 0.0292123190455337
"agg" 0.0268142125627562
"ave" 0.000483839002601559
"laveB" 0.00949561921950813
"agg" 0.281055848752462
"ave" 0.00778533021272172
"laveB" 0.0856186811870544
"agg" 0.204447423197478
"ave" 0.00702343134758891
"laveB" 0.0476087596456684
"agg" 0.134801751051051
"ave" 0.00247283436512452
"laveB" 0.0344417326903589
"agg" 0.0984037607190352
"ave" 0.00116910893321765
"laveB" 0.000452494790056161
"agg" 0.156095945246012
"ave" 0.00615287334477155
"laveB" 0.0728025211596353
"agg" 0.19064373312957
"ave" 0.006734683116565
"laveB" 0.0880018461002182
"agg" 0.215024683551091
"ave" 0.0034598291829858
"laveB" 0.0678766716578509
"agg" 0.162397998919043
"ave" 0.00266577348240826
"laveB" 0.0471320880880553
"agg" 0.10656432205879
"ave" 0.0019860959755721
"laveB" 0.0303218431881675
"agg" 0.088674905500502
"ave" 0.00145371778200697
"laveB" 0.0282690711601962
"agg" 0.201730025680036
"ave" 0.00266994126565828
"laveB" 0.0430659825208429
"agg" -0.13550954977978
"ave" -0.00733404042082261
"laveB" -0.058184225282113
"agg" 0.141421748717494
"ave" 0.00676923818475676
"laveB" 0.0648015888112809
"agg" 0.18815144922895
"ave" 0.00746666242323289
"laveB" 0.0934531824658179
"agg" 0.274782158807084
"ave" 0.00916789249821
"laveB" 0.0998275286363909
"agg" 0.24223721086733
"ave" 0.00808263336282839
"laveB" 0.0817431223118375
"agg" 0.378784557541212
"ave" 0.00983371966612168
"laveB" 0.0912174144614467
"agg" 0.36914113029398
"ave" 0.00539318426058168
"laveB" 0.0686924135245293
"agg" 0.268076228033829
"ave" 0.00493449119133121
"laveB" 0.0708384347661437
"agg" 0.333478548766648
"ave" 0.00428451263016184
"laveB" 0.0786442686625317
"agg" 0.385326345264705
"ave" 0.00569483954139934
"laveB" 0.0988367036828325
"agg" 0.110461048800598
"ave" 0.00455132526807859
"laveB" 0.0521371385784047
"agg" 0.179257441166278
"ave" 0.00579448550748122
"laveB" 0.0463454684766702
"agg" 0.341074423659502
"ave" 0.00582971084369999
"laveB" 0.0828013270885542
"agg" 0.412520813678031
"ave" 0.00677228318419315
"laveB" 0.116731532098087
"agg" 0.384148155438948
"ave" 0.0113882260380611
"laveB" 0.110078961103583
"agg" 0.477880710357559
"ave" 0.0174942695677498
"laveB" 0.13572168059135
"agg" 0.487815567393936
"ave" 0.0151140826208609
"laveB" 0.152302469601917
"agg" 0.417856982645992
"ave" 0.0147045704222881
"laveB" 0.139265332428462
"agg" 0.421685053170304
"ave" 0.00663007713979808
"laveB" 0.0854086119693849
"agg" 0.293902578526039
"ave" 0.00559221853998608
"laveB" 0.0740394003441971
"agg" 0.384516160484325
"ave" 0.00964011516495375
"laveB" 0.0985509479178443
"agg" 0.373017041688122
"ave" 0.0117230380860594
"laveB" 0.0855140190098037
"agg" 0.21757945800389
"ave" 0.00376568982609841
"laveB" 0.0438991201558349
"agg" 0.445005526356284
"ave" 0.00964032700547816
"laveB" 0.0989863776018305
"agg" 0.146439450773868
"ave" 0.00503129788119283
"laveB" 0.0773103373032183
"agg" 0.089656214273389
"ave" 0.00256786219828733
"laveB" 0.0427119257808617
"agg" 0.494918833430163
"ave" 0.0081826821067133
"laveB" 0.137323855211652
"agg" 0.436136423939859
"ave" 0.00683170040514647
"laveB" 0.116297335569706
"agg" 0.499137406137806
"ave" 0.0106042617982473
"laveB" 0.162442680210881
"agg" 0.39582604766616
"ave" 0.00978367532370417
"laveB" 0.136719501673666
"agg" 0.359580025650082
"ave" 0.00517103447435447
"laveB" 0.0707490121436658
"agg" 0.691334807703966
"ave" 0.0695503003939727
"laveB" 0.380953862387629
"agg" 0.653167469961935
"ave" 0.0343096444112796
"laveB" 0.259091248991661
"agg" 0.444723745557138
"ave" 0.0265467943534339
"laveB" 0.183096390699943
"agg" 0.095768310961514
"ave" 0.00428404860154662
"laveB" 0.0374798644028383
"agg" 0.0865305454047597
"ave" 0.00466263869415043
"laveB" 0.0468265980300788
"agg" 0.331314607869057
"ave" 0.00962598476518626
"laveB" 0.12081004819141
"agg" 0.309665839333387
"ave" 0.0111339069638233
"laveB" 0.114428806505078
"agg" -0.00460091545819228
"ave" -0.000238125428632885
"laveB" 0.00343946116745985
"agg" 0.132747583578072
"ave" 0.00380685838652833
"laveB" 0.0466587167897432
"agg" -0.154886281765343
"ave" -0.00908693953982932
"laveB" -0.0792771362065561
"agg" -0.105146275137806
"ave" -0.00616036472459758
"laveB" -0.0596243061364745
"agg" 0.0390318341567797
"ave" 0.00226797240284554
"laveB" 0.0116811860151142
"agg" 0.159029848761767
"ave" 0.00577421374159279
"laveB" 0.0576371175058527
"agg" 0.0404060587757278
"ave" 0.00318174302641789
"laveB" 0.0275137292112163
"agg" 0.133700913443239
"ave" 0.0101080631881454
"laveB" 0.0759242625994877
"agg" 0.135339630764009
"ave" 0.00899525913053758
"laveB" 0.0593828426542461
"agg" 0.134936030230223
"ave" 0.00852963952029109
"laveB" 0.0596104491615814
"agg" 0.0141975261114562
"ave" -0.000398126838738852
"laveB" 0.00610317391614937
"agg" 0.152521590329545
"ave" 0.00472170339800827
"laveB" 0.0512569170633417
"agg" 0.535024567341913
"ave" 0.02237972135277
"laveB" 0.209556449227138
"agg" 0.540574760475286
"ave" 0.0317700730988199
"laveB" 0.214115887557704
"agg" 0.428162725360128
"ave" 0.013975904139934
"laveB" 0.122353720386562
"agg" 0.36582305670796
"ave" 0.0149032039703074
"laveB" 0.116890844014306
"agg" 0.3005306999174
"ave" 0.0178983269278559
"laveB" 0.136787239892227
"agg" 0.3957148205437
"ave" 0.0238528568476041
"laveB" 0.202481446953147
"agg" 0.0972582668283577
"ave" 0.00219368327788763
"laveB" 0.0315717176639521
"agg" 0.0756804967124355
"ave" 0.00240310252655956
"laveB" 0.01906305791521
"agg" 0.044239057425467
"ave" 0.001023226602314
"laveB" 0.0262024002190539
"agg" -0.02769393962302
"ave" -0.00107673709427537
"laveB" -0.0223889339192734
"agg" 0.135962433741472
"ave" 0.00383496768120568
"laveB" 0.052439985757487
"agg" 0.710929922380134
"ave" 0.032638029387859
"laveB" 0.256232114954006
"agg" 0.770659904078389
"ave" 0.0377411777340472
"laveB" 0.301327643758283
"agg" 0.0907293763538213
"ave" 0.00478430057079627
"laveB" 0.0314213647264522
"agg" 0.148153092460102
"ave" 0.0067300198469492
"laveB" 0.0527912898702025
"agg" 0.370490145945753
"ave" 0.00914055032342891
"laveB" 0.115981183179459
"agg" 0.461318631254945
"ave" 0.0147031342311506
"laveB" 0.16149581558879
"agg" 0.0554759837174183
"ave" 0.00105357018234101
"laveB" 0.0170869700179955
"agg" 0.182430680370054
"ave" 0.00463531789494841
"laveB" 0.054433348021201
"agg" -0.177482855525157
"ave" -0.00998949715311326
"laveB" -0.0924877318439177
"agg" -0.0652048057349436
"ave" -0.00309505130287857
"laveB" -0.0379869039664282
"agg" 0.265154730468015
"ave" 0.00740422885580032
"laveB" 0.0809340900904384
"agg" 0.328581677567781
"ave" 0.00906437647480962
"laveB" 0.125947806743977
"agg" 0.227923052859413
"ave" 0.0108639114747561
"laveB" 0.0974445298924715
"agg" 0.268853645895918
"ave" 0.017686973948878
"laveB" 0.12812621069633
"agg" 0.284328592078281
"ave" 0.0157402293869583
"laveB" 0.131161114330483
"agg" 0.309587655242841
"ave" 0.0183352911203194
"laveB" 0.145492154409876
"agg" 0.0835082943051389
"ave" 0.00197286439800612
"laveB" 0.0336711216204672
"agg" 0.197339542933644
"ave" 0.00576915739278523
"laveB" 0.0628521452438006
"agg" 0.453510175632761
"ave" 0.0168659860290338
"laveB" 0.148546159606389
"agg" 0.741912676029035
"ave" 0.0362059252969335
"laveB" 0.254653399402122
"agg" 0.532993388557443
"ave" 0.0143936561939111
"laveB" 0.134721260845127
"agg" 0.642376740501822
"ave" 0.0213640751391007
"laveB" 0.184509840368607
"agg" 0.537104953942416
"ave" 0.0241633015303283
"laveB" 0.235420231918353
"agg" 0.418045084783129
"ave" 0.0200172868583507
"laveB" 0.184689927335317
"agg" 0.32616908573963
"ave" 0.00764557018431846
"laveB" 0.096503951497405
"agg" 0.281396363435621
"ave" 0.00665188549398969
"laveB" 0.0874603228320234
"agg" 0.334264377444789
"ave" 0.00979217783300999
"laveB" 0.103243375854186
"agg" 0.229615076833124
"ave" 0.00799230008828222
"laveB" 0.0811298314145576
"agg" 0.313104950513267
"ave" 0.0071244391972393
"laveB" 0.0921792758362936
"agg" 0.87141094935282
"ave" 0.0256148130844046
"laveB" 0.242640139229347
"agg" 0.0892543005034305
"ave" 0.00340799711908768
"laveB" 0.0360821988619666
"agg" 0.185016609103722
"ave" 0.00567558478728527
"laveB" 0.0696343640182712
"agg" 0.408499164908407
"ave" 0.0058864160964413
"laveB" 0.0923944153281277
"agg" 0.419678682752657
"ave" 0.00780522217414035
"laveB" 0.113571563065813
"agg" 0.0500594996905968
"ave" 0.000849400606456479
"laveB" 0.00711708267731439
"agg" 0.214028904790649
"ave" 0.00338322202418307
"laveB" 0.0477772526449516
"agg" -0.12101371203121
"ave" -0.00357783330186966
"laveB" -0.047894402342935
"agg" -0.0075549876236982
"ave" 0.000327569264538008
"laveB" -0.00385974186089596
"agg" 0.32425552669005
"ave" 0.00571389752771169
"laveB" 0.0865952857981992
"agg" 0.351790789793507
"ave" 0.00626803973047889
"laveB" 0.0928531692814191
"agg" 0.281369123791693
"ave" 0.00928288315289074
"laveB" 0.103224012438022
"agg" 0.341224611913211
"ave" 0.0138248543483812
"laveB" 0.139442858482926
"agg" 0.250933718567772
"ave" 0.00889987458534088
"laveB" 0.0882340762731892
"agg" 0.286849078400539
"ave" 0.0105525967500372
"laveB" 0.106454355365761
"agg" 0.056551958639761
"ave" 0.00140693503027202
"laveB" 0.0191661833256777
"agg" 0.146774700086567
"ave" 0.00274357081081253
"laveB" 0.0387945416464029
"agg" 0.421875804235935
"ave" 0.00963298945881991
"laveB" 0.105034356396191
"agg" 0.551392562615589
"ave" 0.0155431818869911
"laveB" 0.153357805960252
"agg" 0.463998382978005
"ave" 0.00753509075914029
"laveB" 0.0913692782923102
"agg" 0.464377274923344
"ave" 0.00912178388045172
"laveB" 0.101907548390984
"agg" 0.517161652916054
"ave" 0.0136328893483855
"laveB" 0.172578528696405
"agg" 0.537937191253869
"ave" 0.0145143818682202
"laveB" 0.184488676992571
"agg" 0.43695370326579
"ave" 0.00679317739927287
"laveB" 0.11498238321861
"agg" 0.39795311301933
"ave" 0.00636650639649293
"laveB" 0.100200526497462
"agg" 0.404540941733961
"ave" 0.00803796176360967
"laveB" 0.122720994575236
"agg" 0.348056817659939
"ave" 0.00845749651770186
"laveB" 0.0956940342815094
"agg" 0.445486753582169
"ave" 0.00628235397593017
"laveB" 0.0958699810459567
"agg" 0.057292037085034
"ave" 0.00175937204217199
"laveB" 0.0144280239443346
"agg" 0.137025561979499
"ave" 0.00321476330701736
"laveB" 0.0269661091166277
"agg" 0.341218181104435
"ave" 0.00509881226207144
"laveB" 0.0860772030838881
"agg" 0.392649931977145
"ave" 0.00763527072156132
"laveB" 0.108714553664835
"agg" 0.0693404662855366
"ave" 0.00112813766686246
"laveB" 0.0200595912532659
"agg" 0.230838779614208
"ave" 0.00349556194060538
"laveB" 0.0567881387524451
"agg" -0.123351725503056
"ave" -0.0035699947256997
"laveB" -0.0444842790511875
"agg" -0.0209878372348462
"ave" -0.000158336704588384
"laveB" -0.0144587457841187
"agg" 0.376377093454819
"ave" 0.00656732755375723
"laveB" 0.103394212937288
"agg" 0.323182503347786
"ave" 0.00549462759309755
"laveB" 0.0842944553890072
"agg" 0.265029457448992
"ave" 0.00813711908830664
"laveB" 0.0908952616697639
"agg" 0.333814116924467
"ave" 0.0130997860060415
"laveB" 0.12912990573999
"agg" 0.212931245543678
"ave" 0.00739416518210376
"laveB" 0.0823728316920395
"agg" 0.259985395503565
"ave" 0.00927958490471666
"laveB" 0.0952034035011865
"agg" 0.0633871409183228
"ave" 0.000966013416805313
"laveB" 0.0182208273314792
"agg" 0.127978304514414
"ave" 0.00214313044625697
"laveB" 0.0329429557684099
"agg" 0.315494707680438
"ave" 0.00732117661119194
"laveB" 0.0876248379095095
"agg" 0.584979297578973
"ave" 0.0169154540584772
"laveB" 0.16411780580836
"agg" 0.422320798466469
"ave" 0.0069698834528886
"laveB" 0.0835216760313198
"agg" 0.488865522283298
"ave" 0.00967734796730029
"laveB" 0.110289350489545
"agg" 0.48333386410735
"ave" 0.0136619934846436
"laveB" 0.177085966455943
"agg" 0.386291208424664
"ave" 0.0109344300629563
"laveB" 0.128409428244883
"agg" 0.409522086734871
"ave" 0.00632383308142783
"laveB" 0.112869975148262
"agg" 0.370912767523397
"ave" 0.00573790404611369
"laveB" 0.0964909209380445
"agg" 0.416707628664511
"ave" 0.00822734329035429
"laveB" 0.123748478160003
"agg" 0.374026098596695
"ave" 0.0086533496723239
"laveB" 0.113982573167097
"agg" 0.430608552338914
"ave" 0.00604139055573995
"laveB" 0.100935707974115
"agg" 0.800146613627742
"ave" 0.0255234230040267
"laveB" 0.247987751617014
"agg" -0.00137594526180137
"ave" -0.00016651260287319
"laveB" -0.0092754988984207
"agg" 0.164327498524656
"ave" 0.00329918268348388
"laveB" 0.0446166046971577
"agg" -0.0412654715243029
"ave" -0.000570802201246224
"laveB" -0.00755615427139384
"agg" 0.251489972996792
"ave" 0.00414223902621009
"laveB" 0.065511942837492
"agg" -0.0551558167789568
"ave" -0.00266068927603693
"laveB" -0.012901448507984
"agg" -0.157204009002828
"ave" -0.00512598701466397
"laveB" -0.0681007571336085
"agg" 0.100427902745133
"ave" 0.00198652572580177
"laveB" 0.0191110235103369
"agg" 0.202684320620201
"ave" 0.00359390983473667
"laveB" 0.057470594353517
"agg" 0.263857343604255
"ave" 0.0092720781374766
"laveB" 0.0773619989463543
"agg" 0.434748427306399
"ave" 0.0180235335419913
"laveB" 0.16580039767365
"agg" 0.500806434437926
"ave" 0.016346236269095
"laveB" 0.170586619225695
"agg" 0.468247975707131
"ave" 0.0172848713063841
"laveB" 0.165827958780474
"agg" 0.430246385893292
"ave" 0.00728815511965857
"laveB" 0.107370962493839
"agg" 0.387003080262136
"ave" 0.00751314764438275
"laveB" 0.113983518745964
"agg" 0.435755504680338
"ave" 0.0108073066675075
"laveB" 0.120485710962798
"agg" 0.26278527693429
"ave" 0.00798008626812145
"laveB" 0.0595563142418241
"agg" 0.271252761946343
"ave" 0.00474105520798259
"laveB" 0.0431382814436499
"agg" 0.331789934831186
"ave" 0.00740512057270555
"laveB" 0.0721187037380126
"agg" -0.0644788338846417
"ave" -0.0021837870467229
"laveB" -0.0291149140651385
"agg" -0.00747588483564182
"ave" 0.00014235123797984
"laveB" -0.000154448711031307
"agg" 0.172435078594513
"ave" 0.00229074464646317
"laveB" 0.0297469383858692
"agg" 0.183696995054396
"ave" 0.00216762911388963
"laveB" 0.0370807455837219
"agg" 0.106709708070461
"ave" 0.00227220988792276
"laveB" 0.0250436749093994
"agg" 0.146527054739032
"ave" 0.00382580322733396
"laveB" 0.0350544043083906
"agg" 0.22869944516415
"ave" 0.00359533485384131
"laveB" 0.058609909066871
"agg" 0.103858014058065
"ave" 0.00104007114793405
"laveB" 0.0188763197816205
"agg" 0.258357102865999
"ave" 0.00418143605949679
"laveB" 0.0544349155751662
"agg" 0.0370754763909834
"ave" 1.57375939956565e-05
"laveB" 0.00676842735928744
"agg" 0.325533951114061
"ave" 0.00438212496324374
"laveB" 0.0695010933159152
"agg" -0.110364115221389
"ave" -0.00471232119844025
"laveB" -0.0337753724974106
"agg" -0.0664190607791493
"ave" -0.00191343458154759
"laveB" -0.0333151474889832
"agg" 0.0638397661108891
"ave" 0.0011080983447096
"laveB" 0.0153505710494438
"agg" 0.378449281852763
"ave" 0.00599605240661607
"laveB" 0.108675181352069
"agg" 0.33403318978285
"ave" 0.0103218715082161
"laveB" 0.10632769345416
"agg" 0.559888920281669
"ave" 0.0204456782560735
"laveB" 0.210263696700915
"agg" 0.587553090316781
"ave" 0.0168799339491784
"laveB" 0.175858514590738
"agg" 0.54901384432925
"ave" 0.0181983640214516
"laveB" 0.179961505067758
"agg" 0.488065065469778
"ave" 0.00727195880643014
"laveB" 0.108719247383539
"agg" 0.443660647843266
"ave" 0.00776264672829024
"laveB" 0.108649213713998
"agg" 0.485076261441961
"ave" 0.0107702882860196
"laveB" 0.122908787394697
"agg" 0.364295272296764
"ave" 0.00948552894018426
"laveB" 0.0929419484005857
"agg" 0.286968938706156
"ave" 0.00439284962711855
"laveB" 0.0489829135623354
"agg" 0.366210163590911
"ave" 0.00698720359495383
"laveB" 0.0680758595262356
"agg" -0.0181713742556453
"ave" -0.000764078967449375
"laveB" -0.0200096484771361
"agg" 0.00408703598195468
"ave" 0.000531708858505229
"laveB" 0.010896250646155
"agg" 0.313562823545651
"ave" 0.00386670978432025
"laveB" 0.0613709927720903
"agg" 0.292288214941735
"ave" 0.00321377544316463
"laveB" 0.0545442849578325
"agg" 0.210276925231013
"ave" 0.00353595298339625
"laveB" 0.0784266574397771
"agg" 0.216021239177367
"ave" 0.00445382928356585
"laveB" 0.0702060428669354
"agg" 0.291669943314498
"ave" 0.00394258211109931
"laveB" 0.0679889599155728
"agg" 0.612399682655423
"ave" 0.00571928214804125
"laveB" 0.141443978284946
"agg" 0.472154051064883
"ave" 0.00297676894893047
"laveB" 0.0840609051412587
"agg" 0.418087532458613
"ave" 0.00316424125552623
"laveB" 0.0823251417223795
"agg" 0.154911783327396
"ave" 0.00279413699760022
"laveB" 0.0408815596759715
"agg" 0.228700134410105
"ave" 0.00324340150954352
"laveB" 0.0492104178632026
"agg" 0.18353658520814
"ave" 0.00146357881820896
"laveB" 0.0301145994465017
"agg" 0.353916971708139
"ave" 0.00301959737257317
"laveB" 0.0687737971893844
"agg" 0.118073805359082
"ave" 0.00191168061990407
"laveB" 0.0243454729461628
"agg" 0.17869767763506
"ave" 0.00299759491860354
"laveB" 0.0262447603688062
"agg" 0.244661296823424
"ave" 0.00386634179664775
"laveB" 0.0595265640887991
"agg" 0.165184825039529
"ave" 0.00270129528729246
"laveB" 0.0331183963573816
"agg" 0.108673457993236
"ave" 0.000602100159470585
"laveB" 0.00991514119452737
"agg" 0.0713256930128218
"ave" 0.00060656743719035
"laveB" 0.00456001950741956
"agg" 0.332639035049487
"ave" 0.00383005291969499
"laveB" 0.0726381143034865
"agg" 0.350368797126276
"ave" 0.00509256440996942
"laveB" 0.0750668974125758
"agg" 0.304810500855796
"ave" 0.00248393381628102
"laveB" 0.0445042966189866
"agg" 0.383683583359413
"ave" 0.00383011314447128
"laveB" 0.052527236061491
"agg" 0.305483616036752
"ave" 0.00460599538545953
"laveB" 0.0826205816805824
"agg" 0.364514303421372
"ave" 0.00556129719464645
"laveB" 0.0942935536141868
"agg" 0.409869719912305
"ave" 0.0032566786291397
"laveB" 0.0797486790739332
"agg" 0.410887335476519
"ave" 0.00328458362445417
"laveB" 0.0731956060616062
"agg" 0.356069544894525
"ave" 0.0035852148548188
"laveB" 0.0715153194355688
"agg" 0.243055513030122
"ave" 0.00272154937089831
"laveB" 0.0403571065731042
"agg" 0.324973481177878
"ave" 0.00222728437159318
"laveB" 0.04725998301475
"agg" 0.296785550107238
"ave" 0.00239488225298476
"laveB" 0.0681585836414593
"agg" 0.458101112162753
"ave" 0.00441434710439095
"laveB" 0.114429491220276
"agg" 0.00442708491531969
"ave" -0.000226210649739837
"laveB" 0.0174514871533238
"agg" 0.0615041801572352
"ave" 0.00124320465149706
"laveB" 0.0162427518935979
"agg" 0.326589174798099
"ave" 0.00362874017778117
"laveB" 0.0775992292916474
"agg" 0.451490953397495
"ave" 0.00505443754979932
"laveB" 0.110140376817654
"agg" 0.291305800546053
"ave" 0.00553510475178251
"laveB" 0.0933281966848486
"agg" 0.368156172598931
"ave" 0.00911425400766321
"laveB" 0.136159631039053
"agg" 0.35358445177668
"ave" 0.00718854593790139
"laveB" 0.111317260195441
"agg" 0.354474627354041
"ave" 0.00790812965254083
"laveB" 0.115820312243218
"agg" 0.208043035208482
"ave" 0.00199142179936466
"laveB" 0.0480490092017162
"agg" 0.196645791910079
"ave" 0.00230934618457466
"laveB" 0.0431931982304717
"agg" 0.30944646078846
"ave" 0.00459331482933598
"laveB" 0.079289339726774
"agg" 0.479101779679222
"ave" 0.00896815994826171
"laveB" 0.126460085975326
"agg" 0.370361162850962
"ave" 0.00394604200879914
"laveB" 0.066441999276978
"agg" 0.499086953086746
"ave" 0.00610220499111466
"laveB" 0.0974920147698458
"agg" 0.440963550000499
"ave" 0.00816359891509444
"laveB" 0.131193536240321
"agg" 0.502858863269044
"ave" 0.00965156189574601
"laveB" 0.146555009470901
"agg" 0.448015572599696
"ave" 0.00447528645246522
"laveB" 0.105132681387405
"agg" 0.45777213990297
"ave" 0.00462406232483422
"laveB" 0.10620254139145
"agg" 0.39524942677289
"ave" 0.00504430684710452
"laveB" 0.0960104219581089
"agg" 0.316403070633763
"ave" 0.00514966479076238
"laveB" 0.0924606759717345
"agg" 0.333389316600175
"ave" 0.00296879881647948
"laveB" 0.0688015373188468
"agg" 0.540599559158507
"ave" 0.00365872169529529
"laveB" 0.106556492020534
"agg" 0.197523365027173
"ave" 0.00309736250572627
"laveB" 0.0571956932749736
"agg" 0.247792449093108
"ave" 0.00337178303028265
"laveB" 0.0620388225221931
"agg" 0.145099791776011
"ave" 0.000968835625334652
"laveB" 0.0166483123271561
"agg" 0.149810158104539
"ave" 0.00114840787241001
"laveB" 0.0237634055273573
"agg" -0.0322798785510953
"ave" 7.89932833639592e-05
"laveB" -0.0249435362559733
"agg" 0.0826817102377851
"ave" 0.00108915037637386
"laveB" -0.00165708447315188
"agg" 0.195996820556641
"ave" 0.00291432671373523
"laveB" 0.050251388300365
"agg" 0.127505149300266
"ave" 0.00192968544357848
"laveB" 0.0216112664750542
"agg" 0.263643523551852
"ave" 0.00171733414228452
"laveB" 0.0512945543647369
"agg" 0.190213491379514
"ave" 0.00161472371478792
"laveB" 0.0388716848873682
"agg" 0.218805412064191
"ave" 0.00237190730519768
"laveB" 0.0420858121213563
"agg" 0.176137257662528
"ave" 0.00219381013127508
"laveB" 0.0291911366203432
"agg" 0.0175426748932771
"ave" 0.000117773105858424
"laveB" -0.00655143289372836
"agg" 0.219615549802068
"ave" 0.001894077412869
"laveB" 0.0265646363392458
"agg" 0.0126844405337455
"ave" 0.000336933249675443
"laveB" 0.00356522687535801
"agg" 0.0972802161486081
"ave" 0.00157813991477101
"laveB" 0.0197112184891695
"agg" 0.221823011549218
"ave" 0.00183223231883493
"laveB" 0.0436966670609423
"agg" 0.259352041802544
"ave" 0.00202214675753941
"laveB" 0.047731548310107
"agg" 0.206480415606774
"ave" 0.00193721618876156
"laveB" 0.0420312034807003
"agg" 0.182100081095294
"ave" 0.00200969856492003
"laveB" 0.0461876133609679
"agg" 0.179982346408817
"ave" 0.00109471806101511
"laveB" 0.0283494919893215
"agg" 0.0391747833363525
"ave" 0.000677887952809399
"laveB" 0.022353343205841
"agg" 0.234775511946958
"ave" 0.00364473514471642
"laveB" 0.0675407784572474
"agg" 0.183989394691417
"ave" 0.0016201190019254
"laveB" 0.0340878548920846
"agg" 0.356452509926278
"ave" 0.00320324213705766
"laveB" 0.0774379603000405
"agg" 0.201257767901012
"ave" 0.00348880362311372
"laveB" 0.0348198969037872
"agg" 0.366256204755129
"ave" 0.00723682764828053
"laveB" 0.100881410263522
"agg" 0.384479169660882
"ave" 0.00608551486357982
"laveB" 0.110073876826292
"agg" 0.339336286931817
"ave" 0.00592034274529164
"laveB" 0.0855737295984796
"agg" 0.317491837669673
"ave" 0.00238902137960165
"laveB" 0.0630494197520948
"agg" 0.211662785979395
"ave" 0.00204748145464676
"laveB" 0.0448878080170509
"agg" 0.357197725003224
"ave" 0.00441940424064033
"laveB" 0.0881165019900551
"agg" 0.323085590182451
"ave" 0.0047064597017246
"laveB" 0.0722274001068054
"agg" 0.222878159162087
"ave" 0.00186162614056364
"laveB" 0.0314482794736788
"agg" 0.388056469333321
"ave" 0.00388675915233032
"laveB" 0.0611862643591698
"agg" 0.12289112217937
"ave" 0.00205452347321063
"laveB" 0.0367782417719368
"agg" 0.178775631275345
"ave" 0.00315892360115944
"laveB" 0.0537080397704804
"agg" 0.377499978898663
"ave" 0.00324722847009765
"laveB" 0.0791962606786754
"agg" 0.39061619605901
"ave" 0.00324036276994279
"laveB" 0.0901673560208813
"agg" 0.24380161026655
"ave" 0.00269899675535538
"laveB" 0.0558681950451599
"agg" 0.235279147753999
"ave" 0.00293131244986664
"laveB" 0.0545744370146389
"agg" 0.39136861650472
"ave" 0.00280605044237568
"laveB" 0.0779937689062292
"agg" 0.243126361466237
"ave" 0.00785451643920407
"laveB" 0.093751807496799
"agg" 0.0628432246248568
"ave" 0.000982390859296619
"laveB" 0.0307503137362769
"agg" 0.0796286096007336
"ave" 0.00131484833653153
"laveB" 0.0303778071054804
"agg" -0.14306969971546
"ave" -0.00537234452760698
"laveB" -0.0748671395809407
"agg" -0.136785580900755
"ave" -0.00760583232762255
"laveB" -0.0731376785022391
"agg" -0.107575021233077
"ave" -0.00455380646587541
"laveB" -0.0420155323686992
"agg" -0.18000441810021
"ave" -0.00822722744726275
"laveB" -0.0751220359283819
"agg" -0.00142002331407149
"ave" -0.000257926582505645
"laveB" -0.00765544677290581
"agg" 0.0013914816682526
"ave" -0.000283888041730076
"laveB" -0.000995887344037313
"agg" -0.114776982158977
"ave" -0.00308713219114709
"laveB" -0.029985463731772
"agg" -0.155366329813923
"ave" -0.00527946259608833
"laveB" -0.0453311074412999
"agg" -0.0718126554733292
"ave" -0.00169660800527991
"laveB" -0.0208317703763319
"agg" -0.00292765299018908
"ave" -0.0005392750603043
"laveB" -0.00193518489393479
"agg" 0.00952986677827614
"ave" 0.00023842569025506
"laveB" 0.0283933147044304
"agg" 0.0749281930898291
"ave" 0.00153142162563445
"laveB" 0.0560038707123822
"agg" 0.138801062844043
"ave" 0.00260277865084583
"laveB" 0.0557298805223621
"agg" 0.108021282269459
"ave" 0.00248609304549485
"laveB" 0.0532650992062382
"agg" 0.0765752640200045
"ave" 0.00175292622507939
"laveB" 0.04088498869229
"agg" 0.135526361454676
"ave" 0.00366972409795599
"laveB" 0.0632202944276964
"agg" 0.133612611839749
"ave" 0.0015435781524051
"laveB" 0.0389858993477157
"agg" -0.116259066064678
"ave" -0.00159775726009674
"laveB" -0.0384171990214244
"agg" 0.0928411806726765
"ave" 0.0018748322419092
"laveB" 0.0307234136472681
"agg" -0.0551528399380925
"ave" -0.000952254371728226
"laveB" -0.0296449640074556
"agg" 0.00066895792150387
"ave" -0.000334055382153436
"laveB" -0.0216416220175294
"agg" 0.117815478802553
"ave" 0.00354165759948668
"laveB" 0.031563995274458
"agg" 0.0730763093893761
"ave" 0.00267213147224235
"laveB" 0.022154698430434
"agg" 0.0685434174100836
"ave" 0.000960081219897237
"laveB" 0.00810908225486475
"agg" -0.0328388518184651
"ave" -0.000375850179114047
"laveB" -0.00443891366752057
"agg" -0.00572438073688612
"ave" 0.000154696770654755
"laveB" -0.011629472910761
"agg" -0.00256195401851872
"ave" -0.000276790150384487
"laveB" -0.0130878895761861
"agg" -0.0656749197560399
"ave" -0.00120120281927441
"laveB" -0.0202571727667435
"agg" -0.0909726691277355
"ave" -0.0017655206098977
"laveB" -0.0279603563460645
"agg" -0.0381663199743703
"ave" -9.04682998048526e-05
"laveB" 0.0198469966531003
"agg" -0.0573664643127543
"ave" -0.000874607239625063
"laveB" -0.00547179358512998
"agg" 0.111136180070825
"ave" 0.00192065896934281
"laveB" 0.0280397274524379
"agg" 0.136862147591017
"ave" 0.00250756130748018
"laveB" 0.0490853950666691
"agg" -0.0257637227532255
"ave" -9.43858816474866e-05
"laveB" -0.010039127164161
"agg" -0.0196418026392274
"ave" -0.000179982931294011
"laveB" -0.000348811373248819
"agg" 0.200530003112039
"ave" 0.0025288501145877
"laveB" 0.0277435228630108
"agg" 0.219891438117783
"ave" 0.00214932747096418
"laveB" 0.039700522702645
"agg" 0.418951163877174
"ave" 0.00691089761486521
"laveB" 0.111837850786099
"agg" 0.380111460114481
"ave" 0.00875337583364033
"laveB" 0.110162956384528
"agg" 0.227890002451292
"ave" 0.00449912946259822
"laveB" 0.0572685263779747
"agg" 0.265919197836623
"ave" 0.00569629251019664
"laveB" 0.0821016311727582
"agg" 0.183405613138016
"ave" 0.00165360859425835
"laveB" 0.027144419200769
"agg" 0.261695275355988
"ave" 0.00257755666958242
"laveB" 0.0551875738861601
"agg" 0.19127703154208
"ave" 0.00268860485164407
"laveB" 0.035647250433458
"agg" 0.34024689511215
"ave" 0.00579754809222935
"laveB" 0.0803294098736671
"agg" 0.354868929949667
"ave" 0.00353480732196821
"laveB" 0.055348542388115
"agg" 0.424816014124975
"ave" 0.00477024992270527
"laveB" 0.0824641575103328
"agg" 0.390347471614407
"ave" 0.00617643754004593
"laveB" 0.107214143814647
"agg" 0.381475697284637
"ave" 0.00609757169324117
"laveB" 0.107529135337648
"agg" 0.458386309573008
"ave" 0.00417929260452516
"laveB" 0.0915717343231053
"agg" 0.427404837682477
"ave" 0.00401917966270581
"laveB" 0.0824664105418515
"agg" 0.505837905437042
"ave" 0.00545575396538624
"laveB" 0.122123118250891
"agg" 0.459053427149422
"ave" 0.00607345612586195
"laveB" 0.114568212394049
"agg" 0.334526537323299
"ave" 0.00288499301880978
"laveB" 0.0559368413265706
"agg" 0.456561853566907
"ave" 0.00782870606799181
"laveB" 0.13740293580142
"agg" 0.48007591396852
"ave" 0.0107334773133668
"laveB" 0.148749169881946
"agg" 0.402270150675247
"ave" 0.00690556244349246
"laveB" 0.120991045292744
"agg" 0.329322462366928
"ave" 0.00663063886483937
"laveB" 0.106740049163193
"agg" 0.294563969593774
"ave" 0.00251409930785866
"laveB" 0.0448095784433004
"agg" 0.136052564212521
"ave" 0.00146547130016777
"laveB" 0.0351000124435098
"agg" 0.336804703781478
"ave" 0.00454467925569174
"laveB" 0.0858075369373288
"agg" 0.361998902053042
"ave" 0.00609634947411198
"laveB" 0.0967554165189132
"agg" 0.447450847452553
"ave" 0.00424526019791582
"laveB" 0.0791872710211574
"agg" 0.543861843105165
"ave" 0.00645260808821666
"laveB" 0.0988482676344104
"agg" 0.452333458441572
"ave" 0.0068951429417809
"laveB" 0.129040888160813
"agg" 0.47175960279811
"ave" 0.00749761674912913
"laveB" 0.143867780664162
"agg" 0.652277366271779
"ave" 0.00593885136436127
"laveB" 0.146815851780473
"agg" 0.630714862331857
"ave" 0.0055804561539704
"laveB" 0.153972836519269
"agg" 0.59481757663347
"ave" 0.00678345282512227
"laveB" 0.151818370303262
"agg" 0.541445776256358
"ave" 0.00737102940880852
"laveB" 0.155748966836419
"agg" 0.407084496938602
"ave" 0.00335236023772267
"laveB" 0.0812583529384584
"agg" 0.647155522646339
"ave" 0.0259986904200459
"laveB" 0.280837174339319
"agg" 0.567588366009634
"ave" 0.0178734446308419
"laveB" 0.204674240513267
"agg" 0.612942325922173
"ave" 0.0218438075062664
"laveB" 0.241298889844783
"agg" 0.332627282365847
"ave" 0.00570518446689717
"laveB" 0.0820293546964966
"agg" 0.288507068464339
"ave" 0.00576425058032247
"laveB" 0.0823215372158108
"agg" 0.306818483530621
"ave" 0.00805831701092402
"laveB" 0.0764344343372443
"agg" 0.349047457332329
"ave" 0.010493647895575
"laveB" 0.100210386712294
"agg" 0.364575436257715
"ave" 0.00640168670624058
"laveB" 0.0927990468122511
"agg" 0.404542916642444
"ave" 0.00823182075231378
"laveB" 0.0899568331260782
"agg" 0.328105084255516
"ave" 0.00767108635544392
"laveB" 0.119130694485476
"agg" 0.284522271236734
"ave" 0.00743744260537949
"laveB" 0.110831708438163
"agg" 0.426535432531112
"ave" 0.00642856079084188
"laveB" 0.10892237183387
"agg" 0.414098190290276
"ave" 0.00613060034226343
"laveB" 0.105253554982584
"agg" 0.4546022812445
"ave" 0.00881114373620067
"laveB" 0.130545734379538
"agg" 0.398328414723452
"ave" 0.00940614486910534
"laveB" 0.145957898191959
"agg" 0.363257283847231
"ave" 0.00553145963723777
"laveB" 0.0826347411133537
"agg" 0.720632484504947
"ave" 0.0289561522349599
"laveB" 0.298209986682054
"agg" 0.772149528861315
"ave" 0.0357286251198222
"laveB" 0.336792630086708
"agg" 0.568875261106892
"ave" 0.0113256032165068
"laveB" 0.14414737131075
"agg" 0.51592363692856
"ave" 0.0122287155712133
"laveB" 0.152111967234375
"agg" 0.517847459393122
"ave" 0.0153931552255337
"laveB" 0.151104062783641
"agg" 0.529746977540431
"ave" 0.0200822489065485
"laveB" 0.164048718063976
"agg" 0.396381818010656
"ave" 0.00852204563751958
"laveB" 0.101494514201451
"agg" 0.4382991213068
"ave" 0.0118955090821894
"laveB" 0.122256569474413
"agg" 0.107761211900268
"ave" 0.0039983814276994
"laveB" 0.0558554187407668
"agg" 0.135976911664229
"ave" 0.00649015575850492
"laveB" 0.0761557157200882
"agg" 0.461981895601479
"ave" 0.00885497469681466
"laveB" 0.135727330860043
"agg" 0.436351056653978
"ave" 0.00812080308265124
"laveB" 0.123785554889739
"agg" 0.377724497526403
"ave" 0.00984575191540067
"laveB" 0.127635605219705
"agg" 0.322845062982858
"ave" 0.0101006210057328
"laveB" 0.127173922549389
"agg" 0.437238472609226
"ave" 0.00806170625168692
"laveB" 0.116314717069758
"agg" 0.903371336646197
"ave" 0.0332946282800557
"laveB" 0.347655613191702
"agg" 0.722245666188795
"ave" 0.0117534764828821
"laveB" 0.188808423653913
"agg" 0.650851644489133
"ave" 0.0123923045384985
"laveB" 0.185064003672053
"agg" 0.720535973682189
"ave" 0.0176033253327511
"laveB" 0.194964020799258
"agg" 0.634910874231818
"ave" 0.0196175103151334
"laveB" 0.18546508266892
"agg" 0.462770348832623
"ave" 0.00794924051956241
"laveB" 0.0927630600496687
"agg" 0.477955739047967
"ave" 0.0100619064524808
"laveB" 0.120107782656767
"agg" 0.0667641738219927
"ave" 0.00247067449507235
"laveB" 0.0297485611496918
"agg" 0.0988390156809484
"ave" 0.00462458101845112
"laveB" 0.0508953071207862
"agg" 0.431070231204921
"ave" 0.00643653180839723
"laveB" 0.102130761345139
"agg" 0.4418092211122
"ave" 0.00662555015571302
"laveB" 0.1174583627816
"agg" 0.336136000495359
"ave" 0.00704102688744929
"laveB" 0.109969161813685
"agg" 0.303808461185973
"ave" 0.00731509009259475
"laveB" 0.108347462495045
"agg" 0.397027351720872
"ave" 0.00638551426654598
"laveB" 0.102372064373388
"agg" 0.621605808818966
"ave" 0.0113944056537908
"laveB" 0.172181775944966
"agg" 0.630631408117001
"ave" 0.0134617114122137
"laveB" 0.178386895799447
"agg" 0.586810489653431
"ave" 0.0157772893601097
"laveB" 0.179670248395048
"agg" 0.634144545751318
"ave" 0.0216059014528957
"laveB" 0.180792445045477
"agg" 0.381095325810556
"ave" 0.00729294005079735
"laveB" 0.0804226322034029
"agg" 0.418310600091659
"ave" 0.0098033489482153
"laveB" 0.101161807745274
"agg" 0.0899271403696915
"ave" 0.00311084156412381
"laveB" 0.0521512727582684
"agg" 0.0946573272250714
"ave" 0.00455483032255299
"laveB" 0.0383449579793484
"agg" 0.364004864409408
"ave" 0.00612236693286862
"laveB" 0.0979523178438482
"agg" 0.341062102964261
"ave" 0.00556472576092412
"laveB" 0.0958804398682426
"agg" 0.289408766234011
"ave" 0.00675825089528297
"laveB" 0.10997553710462
"agg" 0.2222577811418
"ave" 0.00631499317190769
"laveB" 0.0815281029513305
"agg" 0.402130916922534
"ave" 0.00690249801193668
"laveB" 0.107898649772109
"agg" 0.718527732030029
"ave" 0.00707512036682534
"laveB" 0.15757242995413
"agg" 0.676233509254511
"ave" 0.00809590612849031
"laveB" 0.146432248159953
"agg" 0.505620974980912
"ave" 0.0075558066169456
"laveB" 0.10167403326794
"agg" 0.309235607174583
"ave" 0.00237262381649389
"laveB" 0.0355633059661361
"agg" 0.358698180945223
"ave" 0.00374464408284303
"laveB" 0.0611951960146116
"agg" -0.171326897210351
"ave" -0.00235621889909801
"laveB" -0.0419084752171478
"agg" -0.0871709060435546
"ave" -0.000703260844179641
"laveB" -0.0163668570963398
"agg" 0.311536137556171
"ave" 0.002500801251753
"laveB" 0.0584844785418858
"agg" 0.293022089365763
"ave" 0.00225682883848439
"laveB" 0.0626662274824053
"agg" 0.207252631562268
"ave" 0.00236087277295861
"laveB" 0.045319368983072
"agg" 0.249316294669833
"ave" 0.00313185457043681
"laveB" 0.0653630735557245
"agg" 0.277858564389772
"ave" 0.00221709620887617
"laveB" 0.0574189007211415
"agg" 0.627638499157445
"ave" 0.00859065213199025
"laveB" 0.134383594284797
"agg" 0.551360868941023
"ave" 0.00939914996144568
"laveB" 0.123245555179434
"agg" 0.351248575563924
"ave" 0.00327459825690841
"laveB" 0.0666981845579953
"agg" 0.378141041609982
"ave" 0.00453938268942669
"laveB" 0.0628973399523341
"agg" -0.0674252122802978
"ave" -0.0010387590570622
"laveB" -0.0102298559296517
"agg" 0.0318198420230912
"ave" 0.00133606196952764
"laveB" 0.0239582031387079
"agg" 0.273055499992468
"ave" 0.00249610646777265
"laveB" 0.0543541415914535
"agg" 0.285350708009689
"ave" 0.00266501364947967
"laveB" 0.0725108559658413
"agg" 0.256409627899758
"ave" 0.0030453946349619
"laveB" 0.0701556250373997
"agg" 0.253475801749652
"ave" 0.00357398404796706
"laveB" 0.0798816135505647
"agg" 0.23919936926942
"ave" 0.00233356245030557
"laveB" 0.0477525764488099
"agg" 0.726130357096387
"ave" 0.0163700153879808
"laveB" 0.174585990076353
"agg" 0.614620759895188
"ave" 0.00760910603912029
"laveB" 0.0983235748774456
"agg" 0.600250782975545
"ave" 0.00966155155790353
"laveB" 0.117829525307582
"agg" 0.0794630260467754
"ave" 0.00227473514285105
"laveB" 0.0379475129667246
"agg" 0.187402045522227
"ave" 0.0055259604903542
"laveB" 0.0843806824386131
"agg" 0.398704887660701
"ave" 0.00481121820368346
"laveB" 0.0810153068948544
"agg" 0.38608367414642
"ave" 0.00477700422402006
"laveB" 0.0910178460589439
"agg" 0.314436003040109
"ave" 0.00513424544509197
"laveB" 0.0848780293388658
"agg" 0.26772426081454
"ave" 0.00509182312998233
"laveB" 0.0749374110801076
"agg" 0.35303719576281
"ave" 0.00418902681118947
"laveB" 0.0686058364384724
"agg" 0.510744881301413
"ave" 0.0082514008395066
"laveB" 0.0881899290386466
"agg" 0.656312398016876
"ave" 0.0131871469717947
"laveB" 0.142849038144811
"agg" 0.316975864184901
"ave" 0.0088194984434989
"laveB" 0.104331396431901
"agg" 0.25978871653692
"ave" 0.0085853714607364
"laveB" 0.101661823732203
"agg" 0.417412877795325
"ave" 0.00623741133462193
"laveB" 0.081233346777874
"agg" 0.352350995172159
"ave" 0.00520036334538332
"laveB" 0.0742879621404905
"agg" 0.365926785004528
"ave" 0.00717837920214513
"laveB" 0.0939688236991202
"agg" 0.26067280187972
"ave" 0.00609258169123753
"laveB" 0.0721899638170445
"agg" 0.389011122363275
"ave" 0.00551798946850085
"laveB" 0.0877627850286693
"agg" 0.741779552793981
"ave" 0.00882919237512819
"laveB" 0.122446473943665
"agg" 0.437165470962025
"ave" 0.00698951781720672
"laveB" 0.105964411350198
"agg" 0.520386561128025
"ave" 0.00889393080293444
"laveB" 0.122064527860851
"agg" 0.496555368316955
"ave" 0.00433495019235
"laveB" 0.0838618612600262
"agg" 0.547351945777299
"ave" 0.00504966155475669
"laveB" 0.0864774624588389
"agg" 0.521370835162846
"ave" 0.00579868520022254
"laveB" 0.0971622809371952
"agg" 0.52469088773905
"ave" 0.00720527447746089
"laveB" 0.11556173251233
"agg" 0.385287600211669
"ave" 0.00322176958605351
"laveB" 0.0583515749864037
"agg" 0.571272903139433
"ave" 0.010006831813084
"laveB" 0.125674886878052
"agg" 0.53556623426111
"ave" 0.0097915369825928
"laveB" 0.114808556849952
"agg" 0.642158626294861
"ave" 0.00710951095228196
"laveB" 0.127563187613111
"agg" 0.617040910336237
"ave" 0.00673713515042045
"laveB" 0.109040266831752
"agg" 0.659635229220041
"ave" 0.00911791785135268
"laveB" 0.14364245526505
"agg" 0.63263967063049
"ave" 0.0102102843553116
"laveB" 0.151019421760623
"agg" 0.49515861260199
"ave" 0.00486120810436686
"laveB" 0.0673173714290719
"agg" 0.845734432207219
"ave" 0.0207513680419975
"laveB" 0.294776161034951
"agg" 0.59473720212632
"ave" 0.00859814584847174
"laveB" 0.174553444098238
"agg" 0.543710130070126
"ave" 0.0080761727413857
"laveB" 0.157520338691671
"agg" 0.665839107330007
"ave" 0.0113860834705055
"laveB" 0.194926277699798
"agg" 0.56592838628947
"ave" 0.0118717278824769
"laveB" 0.192253329114068
"agg" 0.472760999540328
"ave" 0.00597298317313131
"laveB" 0.109011561214971
"agg" 0.59576101573755
"ave" 0.00896911081837029
"laveB" 0.176397960292373
"agg" 0.630822149778897
"ave" 0.010064058318269
"laveB" 0.181040434121112
"agg" 0.65141123578912
"ave" 0.0114195638508422
"laveB" 0.201002456002995
"agg" 0.632326676906324
"ave" 0.0138092739574976
"laveB" 0.217389062677446
"agg" 0.45063596315292
"ave" 0.00600016212742974
"laveB" 0.0984010559497314
"agg" 0.831385178401198
"ave" 0.00717063609543914
"laveB" 0.195216147694121
"agg" 0.83644996676396
"ave" 0.00916869110693987
"laveB" 0.220443560842608
"agg" 0.726401815179688
"ave" 0.00950709649389329
"laveB" 0.204162113353098
"agg" 0.664589726405388
"ave" 0.00507776409633468
"laveB" 0.121467574853523
"agg" 0.79525285823135
"ave" 0.00861268605760798
"laveB" 0.209779732679599
"agg" 0.820572027634616
"ave" 0.0107961993573689
"laveB" 0.234116034861062
"agg" 0.670486908831054
"ave" 0.00497899529863309
"laveB" 0.132064432212299
"agg" 0.844007472881018
"ave" 0.0132009924291167
"laveB" 0.270822376286373
"agg" 0.589345275004956
"ave" 0.00569157098906312
"laveB" 0.124763497095974
"agg" 0.589524654172818
"ave" 0.00672865868699609
"laveB" 0.126967505518275
