"EST" "CORR"
"agg" 0.146854074113173
"ave" 0.00201303750648893
"laveB" 0.0287681566417459
"agg" 0.282242404593785
"ave" 0.00654404874750759
"laveB" 0.0771258242303436
"agg" 0.399924059621689
"ave" 0.0103710213964503
"laveB" 0.132515340265903
"agg" 0.282648537948407
"ave" 0.00563735885912769
"laveB" 0.074712778667141
"agg" 0.403914796416344
"ave" 0.00680754399643633
"laveB" 0.123519896318998
"agg" 0.268573267033886
"ave" 0.00444313419675775
"laveB" 0.078421286095929
"agg" 0.77899791291394
"ave" 0.014637744295749
"laveB" 0.263157389354341
"agg" 0.757736799372545
"ave" 0.0202190555343301
"laveB" 0.277781554828487
"agg" 0.540723500958362
"ave" 0.0105688441616282
"laveB" 0.187332037223867
"agg" 0.411488472047933
"ave" 0.00730452236156895
"laveB" 0.120918113546323
"agg" 0.728496617549809
"ave" 0.0142583871120074
"laveB" 0.193471197919059
"agg" 0.75411509781043
"ave" 0.0138582037482936
"laveB" 0.197510710654865
"agg" 0.337260865351007
"ave" 0.011722181121135
"laveB" 0.123650633372
"agg" 0.121293805752151
"ave" 0.00426801266092124
"laveB" 0.0485243952540376
"agg" 0.461217811351325
"ave" 0.00605140955967939
"laveB" 0.111749598982764
"agg" 0.406951462577994
"ave" 0.00626339983577266
"laveB" 0.101107215144891
"agg" 0.457483075970457
"ave" 0.0053832474249756
"laveB" 0.107895416534732
"agg" 0.382648210626135
"ave" 0.00512852548970468
"laveB" 0.0897773291228132
"agg" 0.320688886299913
"ave" 0.00625728358363347
"laveB" 0.100009991650229
"agg" 0.238196599610936
"ave" 0.00587057830475993
"laveB" 0.0995541572132388
"agg" 0.611709623846594
"ave" 0.0251037989921438
"laveB" 0.246653645920907
"agg" 0.701573866049908
"ave" 0.0276835550322858
"laveB" 0.296829073641376
"agg" 0.635100709664596
"ave" 0.0341690902750267
"laveB" 0.277042827964614
"agg" 0.733378878049183
"ave" 0.0348125476916129
"laveB" 0.341098744315545
"agg" 0.728269083576996
"ave" 0.0277801291897084
"laveB" 0.295266890173779
"agg" 0.731175643493154
"ave" 0.0272349572011455
"laveB" 0.300086424758898
"agg" 0.619992232779472
"ave" 0.031504746025114
"laveB" 0.263452151104234
"agg" 0.570456413638011
"ave" 0.0297354123834594
"laveB" 0.24601756359929
"agg" 0.725407269989119
"ave" 0.0161320524528711
"laveB" 0.217408117763248
"agg" 0.662967970387509
"ave" 0.0117196155138149
"laveB" 0.174652187797158
"agg" 0.815832938550753
"ave" 0.0353007163858817
"laveB" 0.365434936099494
"agg" 0.809433775468468
"ave" 0.0352996829818998
"laveB" 0.349439769063131
"agg" 0.695026986533462
"ave" 0.0236182162614793
"laveB" 0.25474643765662
"agg" 0.610800090925112
"ave" 0.0225554070076724
"laveB" 0.247301310854343
"agg" 0.516411217362811
"ave" 0.0162292411848816
"laveB" 0.160209645537165
"agg" 0.297895101570349
"ave" 0.00964190693583542
"laveB" 0.109249166252754
"agg" 0.803878916680932
"ave" 0.0245342709497133
"laveB" 0.285144190594525
"agg" 0.653876327641017
"ave" 0.0233141979955062
"laveB" 0.237905704514405
"agg" 0.245834172998388
"ave" 0.0123935833801523
"laveB" 0.119280064773013
"agg" 0.185890617621557
"ave" 0.00764743869753323
"laveB" 0.0763920942761082
"agg" 0.495750388622544
"ave" 0.0149412518494839
"laveB" 0.180688261993498
"agg" 0.523050817710161
"ave" 0.0146001207602363
"laveB" 0.162585341566392
"agg" 0.84510378717238
"ave" 0.0314339855362002
"laveB" 0.341516172088781
"agg" 0.81334338495053
"ave" 0.0321550539957048
"laveB" 0.33080952835921
"agg" 0.492541978784967
"ave" 0.00851765583469677
"laveB" 0.150043652795095
"agg" 0.327078598824646
"ave" 0.00541517908139621
"laveB" 0.102387718080496
"agg" 0.236095456000641
"ave" 0.00309381854646778
"laveB" 0.0528079779739574
"agg" 0.267416844533442
"ave" 0.00431955735791486
"laveB" 0.0714714352727531
"agg" 0.128574832436808
"ave" 0.00349434397925593
"laveB" 0.0551249966243465
"agg" 0.141464966830377
"ave" 0.00307755977598329
"laveB" 0.0539734536988182
"agg" 0.306236268830766
"ave" 0.00822541969264846
"laveB" 0.153311528602133
"agg" 0.171797629947886
"ave" 0.00355005200642649
"laveB" 0.0602536591071654
"agg" 0.719583338235876
"ave" 0.0246267961250299
"laveB" 0.273535144384109
"agg" 0.723068301656015
"ave" 0.0315670420574989
"laveB" 0.321647595139541
"agg" 0.786898784251289
"ave" 0.0222031448247212
"laveB" 0.293179260724717
"agg" 0.679391044067047
"ave" 0.021292377032975
"laveB" 0.239412379055918
"agg" 0.40550218053784
"ave" 0.00604488322707477
"laveB" 0.065713395037172
"agg" 0.389106201960559
"ave" 0.00710536703453931
"laveB" 0.0963600608138748
"agg" 0.556692853643485
"ave" 0.0158584690188475
"laveB" 0.184882667422618
"agg" 0.551680738513043
"ave" 0.0165027162167558
"laveB" 0.169741389065316
"agg" 0.530594997443031
"ave" 0.0115172461679982
"laveB" 0.153851456995799
"agg" 0.490169195098923
"ave" 0.010864079813704
"laveB" 0.150618182745415
"agg" 0.130994978335397
"ave" 0.00325175050993456
"laveB" 0.0506540473419766
"agg" 0.214513414073045
"ave" 0.00642666295212791
"laveB" 0.102147999177527
"agg" 0.296929079088997
"ave" 0.00506531571739806
"laveB" 0.0992802583264719
"agg" 0.2400641986009
"ave" 0.00419359457416599
"laveB" 0.0721463810537419
"agg" 0.458126826981288
"ave" 0.0115654014795781
"laveB" 0.18283645857933
"agg" 0.545372173209515
"ave" 0.0121815395806571
"laveB" 0.200019840362802
"agg" 0.328675084067367
"ave" 0.00722933166009696
"laveB" 0.133064828073034
"agg" 0.0984722589422731
"ave" 0.00109900372395909
"laveB" 0.0257584767897686
"agg" 0.338435898042705
"ave" 0.00551762297267879
"laveB" 0.0788385188734257
"agg" 0.252825487776614
"ave" 0.00361513465081221
"laveB" 0.0385482860683024
"agg" 0.248967738807671
"ave" 0.00281026576716811
"laveB" 0.0543096135815758
"agg" 0.164838547981058
"ave" 0.00155975771754514
"laveB" 0.0348096240346994
"agg" 0.16961928711269
"ave" 0.00200383370997406
"laveB" 0.0368106927451605
"agg" 0.0943067956819379
"ave" 0.00143200569291331
"laveB" 0.0241439469919171
"agg" 0.221225009272554
"ave" 0.00287109528814358
"laveB" 0.0509658929688106
"agg" 0.269554748756876
"ave" 0.003099829036048
"laveB" 0.057441560321275
"agg" 0.309788483158903
"ave" 0.00363873562013493
"laveB" 0.0570906913338011
"agg" 0.295428500382686
"ave" 0.00334854436732507
"laveB" 0.0668301593796729
"agg" 0.239805556887486
"ave" 0.00496337597789414
"laveB" 0.0730670946604388
"agg" 0.104815813444451
"ave" 0.00206389427162256
"laveB" 0.0396823236563237
"agg" 0.152670337608047
"ave" 0.0010457297278305
"laveB" 0.0173689264273204
"agg" 0.138249452286408
"ave" 0.00129449560182442
"laveB" 0.0236352921286044
"agg" 0.165249107087883
"ave" 0.00111268505032012
"laveB" 0.0268132353905187
"agg" 0.0879306721730979
"ave" 0.000763143117369096
"laveB" 0.0215593053995696
"agg" -0.046176075921661
"ave" -0.000736638090964688
"laveB" -0.027221202426552
"agg" 0.00395109863904897
"ave" -0.000106628462354854
"laveB" -0.0111150276214457
"agg" 0.225110113033732
"ave" 0.00614546138434149
"laveB" 0.0590321927146983
"agg" 0.216653407694335
"ave" 0.00608880269317303
"laveB" 0.0560577643538819
"agg" 0.259249352246793
"ave" 0.00736320046388255
"laveB" 0.0740740443802677
"agg" 0.155231234431656
"ave" 0.00411959106580595
"laveB" 0.0315102586495307
"agg" 0.168326508250228
"ave" 0.00436160026737884
"laveB" 0.0478710117154703
"agg" 0.117887287132902
"ave" 0.0030954980213242
"laveB" 0.0208546211064951
"agg" 0.257889769796607
"ave" 0.00708625411282703
"laveB" 0.0724633460264407
"agg" 0.257319227162079
"ave" 0.00801001619591248
"laveB" 0.0790724619581016
"agg" 0.216137420012292
"ave" 0.00299989796853557
"laveB" 0.0486455989411635
"agg" 0.200959314688127
"ave" 0.00219232524479785
"laveB" 0.0367774567487819
"agg" 0.0673620400457852
"ave" 0.00152127135895529
"laveB" 0.0154155766097049
"agg" 0.0369977850497619
"ave" 0.00100695777498449
"laveB" 0.00411195996099778
"agg" 0.243103891735098
"ave" 0.00488722521805718
"laveB" 0.0526354523171336
"agg" 0.220190867360118
"ave" 0.00473003642544629
"laveB" 0.0420073503059224
"agg" 0.391543130522546
"ave" 0.00817380419358072
"laveB" 0.0991075444627442
"agg" 0.31616310899867
"ave" 0.00760727584957192
"laveB" 0.0884658162350771
"agg" 0.275956944832964
"ave" 0.00645085881682556
"laveB" 0.0802512471863657
"agg" 0.277350691171936
"ave" 0.00664296330320486
"laveB" 0.0730116776182213
"agg" 0.273062163667439
"ave" 0.00851835947217039
"laveB" 0.0895433800734286
"agg" 0.373480121792356
"ave" 0.00989938105647211
"laveB" 0.114948417003191
"agg" 0.334966215593912
"ave" 0.00585919936519945
"laveB" 0.0688712852716042
"agg" 0.288103947783711
"ave" 0.00476260631042508
"laveB" 0.0609127088675291
"agg" 0.0840675741995772
"ave" 0.00171072242035591
"laveB" 0.0162020181300015
"agg" 0.0840269621444781
"ave" 0.00154424054008515
"laveB" 0.0138701057715915
"agg" 0.331870229133799
"ave" 0.00365707047528397
"laveB" 0.0886696420104931
"agg" 0.288297816107694
"ave" 0.00319752474348497
"laveB" 0.0659514426850371
"agg" 0.155655801442909
"ave" 0.00126806449802383
"laveB" 0.0452777996382341
"agg" 0.0599662063403041
"ave" 0.000544153859190144
"laveB" 0.0178934746603449
"agg" 0.00224810313253004
"ave" -4.69016287477781e-05
"laveB" -0.00256042974487533
"agg" -0.0595198954196513
"ave" -0.00116234025517316
"laveB" -0.0132481017242842
"agg" 0.283402691125159
"ave" 0.00465553971566697
"laveB" 0.086267347297445
"agg" 0.272670480555677
"ave" 0.00396944407854865
"laveB" 0.0669246567910161
"agg" 0.224512371918469
"ave" 0.00475344340072832
"laveB" 0.064802445808525
"agg" 0.0747583584084617
"ave" 0.00216918577207889
"laveB" -0.000486816056985365
"agg" 0.109340164121021
"ave" 0.00157084133101187
"laveB" 0.0157159822068848
"agg" 0.135166129675847
"ave" 0.0024834583367712
"laveB" 0.0320613052421603
"agg" 0.177853917375072
"ave" 0.00164456562951809
"laveB" 0.0339503065733304
"agg" 0.0485583799981623
"ave" 0.000443473991110879
"laveB" 0.0128954878325428
"agg" 0.176058853658783
"ave" 0.00334624939356043
"laveB" 0.0488040260236615
"agg" 0.359045974883316
"ave" 0.00643476113389575
"laveB" 0.0776250643246818
"agg" 0.4159093753163
"ave" 0.0053139471739372
"laveB" 0.0815672721853839
"agg" 0.356742538464323
"ave" 0.00476128650334107
"laveB" 0.079453535276328
"agg" 0.204307497585347
"ave" 0.0042511159966984
"laveB" 0.0797459962671129
"agg" 0.269952003830245
"ave" 0.00596693218939879
"laveB" 0.0912575652826991
"agg" 0.231725906335866
"ave" 0.00272204969289049
"laveB" 0.053289654975323
"agg" 0.212044597282534
"ave" 0.00289514114393526
"laveB" 0.0457969710977845
"agg" 0.248319225066298
"ave" 0.00357006225096424
"laveB" 0.0589543567668537
"agg" 0.311392707404844
"ave" 0.00425320327473755
"laveB" 0.0727724962976485
"agg" 0.279629076916321
"ave" 0.00341251129382689
"laveB" 0.0649583396431067
"agg" 0.127543524200211
"ave" 0.0033793913105498
"laveB" 0.0469021219219925
"agg" 0.13342620195855
"ave" 0.00247123068943955
"laveB" 0.0412688958562377
"agg" 0.27131201648712
"ave" 0.00389394778595835
"laveB" 0.0861185096645595
"agg" 0.289254688877175
"ave" 0.00420641872293935
"laveB" 0.0712227701252992
"agg" 0.309945279417341
"ave" 0.00545988113737249
"laveB" 0.0899088757948216
"agg" 0.342605033387314
"ave" 0.00880089339312872
"laveB" 0.111797526788006
"agg" 0.391963482415918
"ave" 0.00795253651444494
"laveB" 0.120210638516631
"agg" 0.325630177877356
"ave" 0.00611001791512093
"laveB" 0.0954048107159731
"agg" 0.239692052299108
"ave" 0.00449130814198176
"laveB" 0.0613058340394989
"agg" 0.319037114409915
"ave" 0.00560542959464122
"laveB" 0.0773138859551936
"agg" 0.258687452883879
"ave" 0.00875108933963487
"laveB" 0.103617215053103
"agg" 0.150734809752017
"ave" 0.00449211962893132
"laveB" 0.0444218458644952
"agg" 0.123138157085495
"ave" 0.00165840540795737
"laveB" 0.0279977545187894
"agg" 0.263636713477137
"ave" 0.00395269861026894
"laveB" 0.0537648366231371
"agg" 0.23587655725417
"ave" 0.00247731852964678
"laveB" 0.0495330839442009
"agg" 0.264068571590104
"ave" 0.00356603652766158
"laveB" 0.0578244307718402
"agg" 0.340366936112719
"ave" 0.0064031568811957
"laveB" 0.108673921840405
"agg" 0.195929290292523
"ave" 0.00387284725594666
"laveB" 0.0606932262321875
"agg" 0.337763239921366
"ave" 0.0143917370258758
"laveB" 0.126355236071297
"agg" 0.354828923279367
"ave" 0.0139626432764615
"laveB" 0.129891127327611
"agg" 0.330810589652001
"ave" 0.0174934442946492
"laveB" 0.131651729912911
"agg" 0.360929911008734
"ave" 0.0169395591612699
"laveB" 0.134687228377605
"agg" 0.375155222529008
"ave" 0.0138780903507745
"laveB" 0.135312132089738
"agg" 0.390121629261663
"ave" 0.0141143065731911
"laveB" 0.15239966386437
"agg" 0.27099063551955
"ave" 0.0140865262707492
"laveB" 0.107851713960294
"agg" 0.230830024804918
"ave" 0.0130008439781657
"laveB" 0.0912025917317339
"agg" 0.321952556674207
"ave" 0.00671675109462059
"laveB" 0.0932206384770407
"agg" 0.257155527378415
"ave" 0.00430847564257998
"laveB" 0.0609408235632158
"agg" 0.285691694872211
"ave" 0.0112910334203953
"laveB" 0.101510154173594
"agg" 0.254858193376798
"ave" 0.0103757115784494
"laveB" 0.102052539073516
"agg" 0.251237704753723
"ave" 0.00883164343296971
"laveB" 0.0963509510558287
"agg" 0.238106986293373
"ave" 0.00943882497991426
"laveB" 0.0830598494860082
"agg" 0.0444721721524458
"ave" 0.00122290611702688
"laveB" 0.0201267783111522
"agg" 0.0728889528682383
"ave" 0.00292742624521929
"laveB" 0.0334898348221497
"agg" 0.293603028275333
"ave" 0.00798781662064834
"laveB" 0.0894391155987721
"agg" 0.26002220516023
"ave" 0.00985688641536675
"laveB" 0.0916310567095549
"agg" 0.110639875041834
"ave" 0.00522648866058696
"laveB" 0.0750388689761441
"agg" 0.140046589485863
"ave" 0.00594095585431232
"laveB" 0.0597230158406165
"agg" 0.27521628584495
"ave" 0.00818605741377068
"laveB" 0.0883034207704177
"agg" 0.286708059915606
"ave" 0.00808744218257265
"laveB" 0.0805077488829509
"agg" 0.273537537568438
"ave" 0.00931888975590625
"laveB" 0.0883296579861515
"agg" 0.347427374894469
"ave" 0.0130757608554508
"laveB" 0.120948281704269
"agg" 0.212677996545809
"ave" 0.00393015053979848
"laveB" 0.058432854067337
"agg" 0.199068019228625
"ave" 0.00360673658645228
"laveB" 0.0693481797043511
"agg" 0.127368453534937
"ave" 0.0017663563901271
"laveB" 0.0341883366295125
"agg" 0.210386653210138
"ave" 0.00399705272882579
"laveB" 0.0577490214940374
"agg" 0.181056991205084
"ave" 0.00458400420027986
"laveB" 0.0399307589904196
"agg" 0.3531554974165
"ave" 0.00881513334453473
"laveB" 0.121366873012312
"agg" 0.211673631592113
"ave" 0.00638888345340097
"laveB" 0.0884932711044129
"agg" 0.181120144715702
"ave" 0.00488572992229395
"laveB" 0.0799190146538625
"agg" 0.359556844999258
"ave" 0.0119020706077533
"laveB" 0.124386858918046
"agg" 0.364482795278847
"ave" 0.015500282049085
"laveB" 0.145824403710733
"agg" 0.370110350771716
"ave" 0.00925842571878268
"laveB" 0.113994955110032
"agg" 0.301487876949812
"ave" 0.0088147048056802
"laveB" 0.109275229856383
"agg" 0.0525649734897063
"ave" 0.000829438103783715
"laveB" 0.0232203055672047
"agg" 0.161116794305284
"ave" 0.00241682351641003
"laveB" 0.0476184661049821
"agg" 0.176539623726052
"ave" 0.00450500791665523
"laveB" 0.0625146604338052
"agg" 0.239604538432746
"ave" 0.0072142854661004
"laveB" 0.0739103824262431
"agg" 0.143492016775627
"ave" 0.00344578318028411
"laveB" 0.0345456672924606
"agg" 0.119462187162774
"ave" 0.00262279140565237
"laveB" 0.03857718469862
"agg" -0.0868217762156111
"ave" -0.00207308000987609
"laveB" -0.0301619131605793
"agg" -0.00220856438335655
"ave" 0.000378941286599522
"laveB" 0.00731349854061322
"agg" 0.0755212269275699
"ave" 0.00137851524853334
"laveB" 0.00743963364009521
"agg" 0.0834736100522602
"ave" 0.00179872775917801
"laveB" 0.0160829992707507
"agg" 0.155260409341478
"ave" 0.00425235428509475
"laveB" 0.0505600495672187
"agg" 0.289662499856462
"ave" 0.00621290795170297
"laveB" 0.0920400360595062
"agg" 0.258614323721599
"ave" 0.00531273701962697
"laveB" 0.0725915719282089
"agg" 0.713868705762361
"ave" 0.0205078848752047
"laveB" 0.227544514308032
"agg" 0.780736946529816
"ave" 0.0162767702290852
"laveB" 0.266064143057783
"agg" 0.509209328579411
"ave" 0.00932374008077188
"laveB" 0.154481849107656
"agg" 0.365421255315397
"ave" 0.0078615964934318
"laveB" 0.125356651232026
"agg" 0.329288138685759
"ave" 0.00965150260848502
"laveB" 0.116690122229709
"agg" 0.453578723546033
"ave" 0.0108026212317843
"laveB" 0.152005089930286
"agg" 0.425598731871556
"ave" 0.00984782493622584
"laveB" 0.129594272423808
"agg" 0.542747140535593
"ave" 0.0120525841920533
"laveB" 0.150815414027455
"agg" 0.374780273842785
"ave" 0.00803012257312598
"laveB" 0.100582487073932
"agg" 0.59078422508293
"ave" 0.0248358522043079
"laveB" 0.257131564741074
"agg" 0.186220083240529
"ave" 0.00834485699865559
"laveB" 0.0428235013401669
"agg" 0.364825430710895
"ave" 0.00552924680870109
"laveB" 0.101008149794188
"agg" 0.317216892452391
"ave" 0.00541655109039446
"laveB" 0.079870549006953
"agg" 0.37550605073712
"ave" 0.00524928346613409
"laveB" 0.104613352702908
"agg" 0.215517535202738
"ave" 0.00326406663484929
"laveB" 0.0562871030882465
"agg" 0.160727030017298
"ave" 0.00343630931400948
"laveB" 0.0453285713930191
"agg" 0.187338564031206
"ave" 0.00493165013640658
"laveB" 0.081756446623137
"agg" 0.40232636152322
"ave" 0.0191984556959673
"laveB" 0.166516045525269
"agg" 0.417418170884942
"ave" 0.0196066051760818
"laveB" 0.172607241368691
"agg" 0.374145270600803
"ave" 0.0215736882805722
"laveB" 0.167775306399175
"agg" 0.355836146607486
"ave" 0.0186742617727161
"laveB" 0.167383482893138
"agg" 0.421241162080211
"ave" 0.0188012357831803
"laveB" 0.176676542447948
"agg" 0.411984644353835
"ave" 0.017466870807804
"laveB" 0.160008352310577
"agg" 0.3163405841831
"ave" 0.0177945105217333
"laveB" 0.125845124717272
"agg" 0.307927914794435
"ave" 0.0182106408173972
"laveB" 0.130456195369176
"agg" 0.521134019514525
"ave" 0.0133835914677973
"laveB" 0.174101383599445
"agg" 0.500387690617665
"ave" 0.0101728469804198
"laveB" 0.140576217605635
"agg" 0.483197848375703
"ave" 0.0240363615915112
"laveB" 0.220219832531002
"agg" 0.420493599017044
"ave" 0.0208753302357608
"laveB" 0.181861938961145
"agg" 0.367279509541078
"ave" 0.013604240585059
"laveB" 0.131096088736683
"agg" 0.326216005314761
"ave" 0.0127959789273893
"laveB" 0.127369622730117
"agg" 0.64877726410297
"ave" 0.025259905469758
"laveB" 0.247841023414147
"agg" 0.30519865138396
"ave" 0.0128572707532726
"laveB" 0.079703257883952
"agg" 0.507489150196143
"ave" 0.018088179172797
"laveB" 0.19133523762181
"agg" 0.249866968321092
"ave" 0.00945424820706565
"laveB" 0.0799544693887027
"agg" 0.825251997335864
"ave" 0.0488683042851112
"laveB" 0.405265438721643
"agg" 0.61226314520298
"ave" 0.0315616615586402
"laveB" 0.252041087324635
"agg" 0.602033933489558
"ave" 0.0185088801595101
"laveB" 0.190129758011379
"agg" 0.43353135879801
"ave" 0.012802412003741
"laveB" 0.123390336428785
"agg" 0.419000605439019
"ave" 0.0169667919880048
"laveB" 0.1749426679414
"agg" 0.44311076272254
"ave" 0.0196411877164511
"laveB" 0.198528209266964
"agg" 0.415077820471974
"ave" 0.00845674434126316
"laveB" 0.11169275603328
"agg" 0.382539102611751
"ave" 0.00774167419241459
"laveB" 0.120848806430549
"agg" 0.170532842216728
"ave" 0.00278472965062944
"laveB" 0.0444202827935967
"agg" 0.159361557360535
"ave" 0.00301897167136857
"laveB" 0.0426888546113058
"agg" 0.162016227570004
"ave" 0.00460746893690734
"laveB" 0.084287675734652
"agg" 0.169662660242148
"ave" 0.00445886434770107
"laveB" 0.0506262084288359
"agg" 0.259711469308839
"ave" 0.0076796267330926
"laveB" 0.104917199392727
"agg" 0.14003195220924
"ave" 0.00311201709614339
"laveB" 0.0425756294946294
"agg" 0.374430464611718
"ave" 0.013986547155528
"laveB" 0.129947338287283
"agg" 0.390566429418539
"ave" 0.0209105768435872
"laveB" 0.187083287793482
"agg" 0.41508740472565
"ave" 0.0136201618039843
"laveB" 0.154674855217296
"agg" 0.568169400971552
"ave" 0.020017686843511
"laveB" 0.209412194270832
"agg" 0.494213780458214
"ave" 0.00884730164028742
"laveB" 0.132615815067389
"agg" 0.373484459316132
"ave" 0.00786731254802282
"laveB" 0.119095623896862
"agg" 0.729721308507623
"ave" 0.0242041902439307
"laveB" 0.269407211234494
"agg" 0.619482064844747
"ave" 0.0203791740897148
"laveB" 0.208980012774743
"agg" 0.626548459230345
"ave" 0.0156890361770772
"laveB" 0.182884873332029
"agg" 0.550091077874768
"ave" 0.0134556601028964
"laveB" 0.146163153052942
"agg" 0.149744371463542
"ave" 0.00523551135712367
"laveB" 0.0653305721272082
"agg" 0.345059072727101
"ave" 0.0142728523315181
"laveB" 0.155621458379163
"agg" 0.189659646369927
"ave" 0.00355789651519545
"laveB" 0.0413819128581031
"agg" 0.188613746640662
"ave" 0.00388261373728696
"laveB" 0.0576450525882017
"agg" 0.247235068917878
"ave" 0.00635541941050502
"laveB" 0.0880151112406935
"agg" 0.381391478012841
"ave" 0.00881326923454766
"laveB" 0.122145336769511
"agg" 0.193268110602716
"ave" 0.00407043962704198
"laveB" 0.0549393344449616
"agg" 0.683218571249266
"ave" 0.0126227355768924
"laveB" 0.181252220426041
"agg" 0.602096358772856
"ave" 0.00973419670251171
"laveB" 0.141584949671963
"agg" 0.280153879215263
"ave" 0.00486762297448577
"laveB" 0.0799521953292691
"agg" 0.352691063898415
"ave" 0.00861816635098237
"laveB" 0.115063994583527
"agg" 0.280279825179938
"ave" 0.00495895809112175
"laveB" 0.0933435050542673
"agg" 0.380163304898399
"ave" 0.00728660266158352
"laveB" 0.100583790979771
"agg" 0.421121350817669
"ave" 0.00785965233884203
"laveB" 0.102853205447944
"agg" 0.39501913811197
"ave" 0.0068686393937585
"laveB" 0.0892545759643419
"agg" 0.482804498216069
"ave" 0.0177153493838474
"laveB" 0.176015312140963
"agg" 0.334347768316207
"ave" 0.0111741353068247
"laveB" 0.096041156134943
"agg" 0.206399747290712
"ave" 0.00273775098625801
"laveB" 0.0500413131655822
"agg" 0.316159631240793
"ave" 0.00498370959319917
"laveB" 0.0694078590773383
"agg" 0.379970754522997
"ave" 0.00445172219990118
"laveB" 0.0845967000320497
"agg" 0.237041525056139
"ave" 0.00334580090193242
"laveB" 0.047760463978839
"agg" 0.282033601713583
"ave" 0.00590631168096806
"laveB" 0.0887418502431628
"agg" 0.137286566904001
"ave" 0.00408370198398904
"laveB" 0.0618279523939839
"agg" 0.300233875333063
"ave" 0.0103011347255995
"laveB" 0.113577841524657
"agg" 0.332435507288504
"ave" 0.0113479203400696
"laveB" 0.11217005447038
"agg" 0.249396968520344
"ave" 0.0109458572472748
"laveB" 0.0836045131836228
"agg" 0.303561063310479
"ave" 0.0121208649377029
"laveB" 0.102420546369206
"agg" 0.403801346274126
"ave" 0.0145459207284547
"laveB" 0.132115915237027
"agg" 0.401794117288853
"ave" 0.0134633414564535
"laveB" 0.14910865683959
"agg" 0.207201877402058
"ave" 0.00914729456057236
"laveB" 0.0831237373895706
"agg" 0.155832125474218
"ave" 0.00618859592093539
"laveB" 0.0645663869384768
"agg" 0.438377726772992
"ave" 0.00923985471911726
"laveB" 0.122792006408476
"agg" 0.400873902915762
"ave" 0.00696943851712949
"laveB" 0.101698026542414
"agg" 0.472145997907117
"ave" 0.0202392842730584
"laveB" 0.173477310074609
"agg" 0.45594593349394
"ave" 0.0193804345902094
"laveB" 0.159817590972537
"agg" 0.307796869172693
"ave" 0.00984955643599164
"laveB" 0.101933565810289
"agg" 0.326166811304695
"ave" 0.0100399603378796
"laveB" 0.0945290502183831
"agg" 0.502753277441534
"ave" 0.0176003326962198
"laveB" 0.156367396631743
"agg" 0.456902278170388
"ave" 0.0178001152014602
"laveB" 0.15505618674955
"agg" 0.398713056886122
"ave" 0.0121285252215858
"laveB" 0.128777848882758
"agg" 0.238174035572681
"ave" 0.00786112279087089
"laveB" 0.0662296791244747
"agg" 0.72531946353451
"ave" 0.0384258726933417
"laveB" 0.312484216639306
"agg" 0.76084067271694
"ave" 0.0348096160577156
"laveB" 0.261167338423048
"agg" 0.470074168238953
"ave" 0.0117954054591562
"laveB" 0.115919171681864
"agg" 0.430031615420862
"ave" 0.0101495853439501
"laveB" 0.0939985880042058
"agg" 0.351168291297812
"ave" 0.0113740837038929
"laveB" 0.112402547294766
"agg" 0.361857276118693
"ave" 0.0136303987884964
"laveB" 0.13523370878223
"agg" 0.230650945537676
"ave" 0.00350476767153592
"laveB" 0.0535702607152487
"agg" 0.246616620221444
"ave" 0.00394260265015867
"laveB" 0.0683409227708463
"agg" -0.018308279035121
"ave" -0.000689787871541283
"laveB" -0.00389570548975545
"agg" -0.0533398456423746
"ave" -0.00139948579631404
"laveB" -0.0199371989566871
"agg" 0.231223292954498
"ave" 0.00646205558666515
"laveB" 0.0877855842770795
"agg" 0.0661652395212348
"ave" 0.00155316641960002
"laveB" 0.0204512569741338
"agg" -0.00813448248314456
"ave" -0.00189249493510075
"laveB" -0.0256366094061764
"agg" -0.0310400343273387
"ave" -0.00251105387434882
"laveB" -0.0230648140336736
"agg" 0.351356669319521
"ave" 0.0108480527758422
"laveB" 0.108466885102659
"agg" 0.331161467676398
"ave" 0.014433401413986
"laveB" 0.129022297936849
"agg" 0.414686053497342
"ave" 0.0121276917609251
"laveB" 0.140207800706021
"agg" 0.64433296261965
"ave" 0.0198642003608193
"laveB" 0.217912912238686
"agg" 0.510786092719135
"ave" 0.00830538145731393
"laveB" 0.129202120141844
"agg" 0.529895949149139
"ave" 0.0102735008366774
"laveB" 0.135489597893301
"agg" 0.713099352913944
"ave" 0.0211328735354223
"laveB" 0.222657414818662
"agg" 0.74434852184938
"ave" 0.0210509296566505
"laveB" 0.196695305732095
"agg" 0.491197215068137
"ave" 0.0104801381114857
"laveB" 0.131815669305304
"agg" 0.607794978625205
"ave" 0.0129705635589244
"laveB" 0.156980842788088
"agg" 0.0680223475572982
"ave" 0.00109627344062202
"laveB" 0.0171631425560607
"agg" 0.168934683680467
"ave" 0.00526992865122181
"laveB" 0.0617364755014908
"agg" 0.082889980702194
"ave" 0.000601796314921427
"laveB" 0.00737148055525346
"agg" -0.0115208578465927
"ave" -0.00166785935591716
"laveB" -0.0213356101135543
"agg" 0.0864156652074091
"ave" 0.000297962200652327
"laveB" 0.00588641794776907
"agg" 0.185859156934528
"ave" 0.00231765149192045
"laveB" 0.0464199598258149
"agg" -0.00430846267114249
"ave" -0.00143238153795667
"laveB" -0.0126492630456954
"agg" 0.726476306616939
"ave" 0.00773001294506983
"laveB" 0.168693921472067
"agg" 0.384706854958565
"ave" 0.00517248306356019
"laveB" 0.120013822038739
"agg" 0.349749628119735
"ave" 0.00633464357603733
"laveB" 0.111330496358557
"agg" 0.493400718033868
"ave" 0.00685325029606665
"laveB" 0.141141337942472
"agg" 0.441919328065021
"ave" 0.00614359517114727
"laveB" 0.116546242574837
"agg" 0.501906670142778
"ave" 0.00718853848852949
"laveB" 0.124666674987516
"agg" 0.379155001502337
"ave" 0.00528658795861414
"laveB" 0.0817414173597386
"agg" 0.618499886155348
"ave" 0.0168142370423688
"laveB" 0.239839277875023
"agg" 0.333471003113702
"ave" 0.0079176981645005
"laveB" 0.110356121833209
"agg" 0.36299894231956
"ave" 0.00364986352563843
"laveB" 0.0992231400487777
"agg" 0.399817528389738
"ave" 0.00445418703182089
"laveB" 0.0860654805695789
"agg" 0.495503342827515
"ave" 0.00402599788908703
"laveB" 0.111131697910927
"agg" 0.339072784380238
"ave" 0.00297572948280251
"laveB" 0.081020353390859
"agg" 0.228793096456865
"ave" 0.00317526295291658
"laveB" 0.0721754920174087
"agg" 0.232577670326434
"ave" 0.00345692620896708
"laveB" 0.086442714136863
"agg" 0.555803827784088
"ave" 0.0163848564250622
"laveB" 0.206226104844814
"agg" 0.544294542402851
"ave" 0.0157124393646495
"laveB" 0.186741726201454
"agg" 0.480806814184333
"ave" 0.0179524085343484
"laveB" 0.174972338276049
"agg" 0.477559834308273
"ave" 0.0159956663564883
"laveB" 0.189234357542195
"agg" 0.585645895720309
"ave" 0.0162489787923119
"laveB" 0.205012114937662
"agg" 0.563376756485011
"ave" 0.0148450319979487
"laveB" 0.202381111577204
"agg" 0.384851342978492
"ave" 0.0140994751702877
"laveB" 0.129255967783577
"agg" 0.340402196077633
"ave" 0.0129646324346904
"laveB" 0.116463573962703
"agg" 0.613480148950406
"ave" 0.0097321124180993
"laveB" 0.183262317948799
"agg" 0.534476143022912
"ave" 0.00696138458288767
"laveB" 0.128380157826183
"agg" 0.48976739553295
"ave" 0.0153232220121289
"laveB" 0.189867453384371
"agg" 0.478436225381915
"ave" 0.0148410636394775
"laveB" 0.173939425510202
"agg" 0.399269744114142
"ave" 0.00964309171641355
"laveB" 0.154200101736829
"agg" 0.338127884842448
"ave" 0.00866709946160672
"laveB" 0.119190118604172
"agg" 0.492261605069929
"ave" 0.0127988045000752
"laveB" 0.164790156616819
"agg" 0.175828439141622
"ave" 0.00532951222637682
"laveB" 0.0603984171748475
"agg" 0.442708194126104
"ave" 0.00899935810170022
"laveB" 0.145354842233002
"agg" 0.130074222901015
"ave" 0.00311888706968704
"laveB" 0.0399249461242536
"agg" 0.771875044991292
"ave" 0.0299990077800112
"laveB" 0.364211854557217
"agg" 0.633727150705976
"ave" 0.02098717870832
"laveB" 0.2084005819178
"agg" 0.660892272187188
"ave" 0.0128375810717953
"laveB" 0.171630779404368
"agg" 0.502510145633416
"ave" 0.00939456836639463
"laveB" 0.126069650107297
"agg" 0.459012580535084
"ave" 0.012037479739317
"laveB" 0.174440406483318
"agg" 0.503394498859845
"ave" 0.0143876096860835
"laveB" 0.179593922501253
"agg" 0.265439717251084
"ave" 0.00361557471296729
"laveB" 0.0744514703162204
"agg" 0.238474218151274
"ave" 0.0031949648383604
"laveB" 0.0634755781468806
"agg" 0.0195273896512767
"ave" 0.000145569064506054
"laveB" -0.001761985606066
"agg" 0.093403161799889
"ave" 0.000857064356535467
"laveB" 0.00916067596009136
"agg" 0.152076499415507
"ave" 0.0032843937066709
"laveB" 0.076459949923029
"agg" 0.13475443552128
"ave" 0.00175905649621575
"laveB" 0.0377800993396822
"agg" 0.216381436106403
"ave" 0.0042102954486363
"laveB" 0.0687815951416532
"agg" 0.104080115120368
"ave" 0.00153168285560157
"laveB" 0.0186331199338646
"agg" 0.409828592602915
"ave" 0.0095068033132001
"laveB" 0.136838556330854
"agg" 0.489760146690705
"ave" 0.0154267310907276
"laveB" 0.215067089815265
"agg" 0.497668764799008
"ave" 0.0101029922272638
"laveB" 0.15969003569106
"agg" 0.58448358055747
"ave" 0.0133700767998397
"laveB" 0.207972428869868
"agg" 0.500360860276265
"ave" 0.00594327723636307
"laveB" 0.137718554114945
"agg" 0.467138198279986
"ave" 0.00639991111701923
"laveB" 0.130270507118358
"agg" 0.671059912190312
"ave" 0.0145202960685396
"laveB" 0.22620824464121
"agg" 0.614323959305779
"ave" 0.0130952617387766
"laveB" 0.166737972673774
"agg" 0.54410051336831
"ave" 0.00907204264439198
"laveB" 0.149995695501466
"agg" 0.529727775623012
"ave" 0.00854027082696599
"laveB" 0.137416189582328
"agg" 0.0429814518335758
"ave" 0.00106699446061992
"laveB" 0.00207314516122708
"agg" 0.22279555676741
"ave" 0.00647683351271786
"laveB" 0.086310438050331
"agg" 0.100250710692703
"ave" 0.00101336112902186
"laveB" 0.00667990702487001
"agg" 0.0794123542069369
"ave" 0.000896499467001584
"laveB" 0.0165692034750321
"agg" 0.166385474543243
"ave" 0.00290908794804224
"laveB" 0.0514283129988304
"agg" 0.339802035638634
"ave" 0.004857273847434
"laveB" 0.0768896816351563
"agg" 0.164656521010179
"ave" 0.00234251544707593
"laveB" 0.0429007466388908
"agg" 0.221891017111692
"ave" 0.00284987336702071
"laveB" 0.06897606690089
"agg" 0.290471831450901
"ave" 0.0051633078223395
"laveB" 0.0946205162123762
"agg" 0.354326316876502
"ave" 0.00472333845232819
"laveB" 0.0953668461531871
"agg" 0.370181142811675
"ave" 0.00474136734249874
"laveB" 0.0938072067753221
"agg" 0.371086669588071
"ave" 0.00481543202798567
"laveB" 0.0868284245240886
"agg" 0.311508964765842
"ave" 0.00395762245568656
"laveB" 0.0705236808109983
"agg" 0.449409598696894
"ave" 0.010714025603959
"laveB" 0.139708504015225
"agg" 0.420775812715368
"ave" 0.00848455180422261
"laveB" 0.11506758045451
"agg" 0.217393844034008
"ave" 0.00216222079437616
"laveB" 0.0503635471503607
"agg" 0.370552580739416
"ave" 0.00375832105540793
"laveB" 0.0793181338190827
"agg" 0.477704114953873
"ave" 0.0034223477513464
"laveB" 0.0812943981188953
"agg" 0.370712496626277
"ave" 0.00308411128819455
"laveB" 0.0663295144245725
"agg" 0.218032252306869
"ave" 0.00283298700682903
"laveB" 0.0692183014780526
"agg" 0.240200093966866
"ave" 0.00334366730686189
"laveB" 0.0801917313058306
"agg" 0.41227303000052
"ave" 0.0111533064893241
"laveB" 0.144021150005615
"agg" 0.389722404957679
"ave" 0.0102655317271727
"laveB" 0.144902910191622
"agg" 0.343363551314182
"ave" 0.012106385939477
"laveB" 0.120766789823122
"agg" 0.341637351748479
"ave" 0.0109341213869807
"laveB" 0.136970117712948
"agg" 0.447871469041563
"ave" 0.011372416554444
"laveB" 0.1638757809059
"agg" 0.444099470330912
"ave" 0.0106719954045053
"laveB" 0.151246175308036
"agg" 0.246954354466469
"ave" 0.00921511696549177
"laveB" 0.0800947100490665
"agg" 0.215478972043228
"ave" 0.00847121232052001
"laveB" 0.070017714453214
"agg" 0.455064513395261
"ave" 0.0065922536668843
"laveB" 0.119612512902966
"agg" 0.407598666040516
"ave" 0.00478290293740958
"laveB" 0.0934587211415163
"agg" 0.359633518634271
"ave" 0.00993562223719915
"laveB" 0.125057683325801
"agg" 0.391530913700131
"ave" 0.0112485620873759
"laveB" 0.134455003902005
"agg" 0.298315550622857
"ave" 0.00712648093067115
"laveB" 0.0999987666662665
"agg" 0.230771449918771
"ave" 0.0056864571946909
"laveB" 0.0812901345879305
"agg" 0.250877259301243
"ave" 0.00587547661754153
"laveB" 0.0820029567176968
"agg" 0.128834964207179
"ave" 0.00368431413566518
"laveB" 0.0482480910481064
"agg" 0.280015659628307
"ave" 0.00462637544405413
"laveB" 0.0720854029484993
"agg" 0.108018132869392
"ave" 0.00327513916752354
"laveB" 0.0349097283372654
"agg" 0.545986838785033
"ave" 0.0187433526461831
"laveB" 0.218829876149827
"agg" 0.554644206290229
"ave" 0.0162209274278563
"laveB" 0.172620297331814
"agg" 0.509547929962599
"ave" 0.00871454641174588
"laveB" 0.111478859171788
"agg" 0.460322529605433
"ave" 0.0079213225288983
"laveB" 0.120839137581269
"agg" 0.303575447229903
"ave" 0.0073100520023236
"laveB" 0.110526035925086
"agg" 0.328829462635948
"ave" 0.00847785056814948
"laveB" 0.108046875620856
"agg" 0.119702405363464
"ave" 0.00169199344452123
"laveB" 0.0334693993830353
"agg" 0.127481268338532
"ave" 0.0018492462177399
"laveB" 0.0506637813975685
"agg" -0.0115026599913989
"ave" -5.97400240792979e-05
"laveB" -0.00123054759738059
"agg" 0.156830535193746
"ave" 0.00190543329462561
"laveB" 0.0450916710088634
"agg" 0.114930004214976
"ave" 0.00239705573669613
"laveB" 0.0492709139829735
"agg" 0.15780275917869
"ave" 0.00236233009424535
"laveB" 0.03117776584883
"agg" 0.128940372497674
"ave" 0.00260010165877727
"laveB" 0.0462941760330441
"agg" 0.0310845877387473
"ave" 0.000579588880940354
"laveB" 0.000597641466663137
"agg" 0.284894548982135
"ave" 0.006098921638842
"laveB" 0.0880147228971303
"agg" 0.331324087713256
"ave" 0.00950926927976018
"laveB" 0.123046387021055
"agg" 0.363998919170094
"ave" 0.00680505963489245
"laveB" 0.108858874946864
"agg" 0.485255510813944
"ave" 0.0100320055734825
"laveB" 0.154646303164583
"agg" 0.26436620340466
"ave" 0.0030323000389333
"laveB" 0.0615181493901911
"agg" 0.441497422700155
"ave" 0.00540406172133768
"laveB" 0.103565991018028
"agg" 0.46951456037579
"ave" 0.00873932607374717
"laveB" 0.14661597621702
"agg" 0.534023725592492
"ave" 0.0103070622363549
"laveB" 0.130816242118202
"agg" 0.319763202944752
"ave" 0.00483715370689139
"laveB" 0.0805204117184258
"agg" 0.430581344282262
"ave" 0.0063418036978947
"laveB" 0.105506451662829
"agg" 0.0274676592862842
"ave" 0.00110222498020532
"laveB" 0.00621526842396919
"agg" 0.0871614343595342
"ave" 0.00270587906028292
"laveB" 0.0306507662262781
"agg" 0.0859979719705753
"ave" 0.00129874941314894
"laveB" 0.0164437544449407
"agg" 0.019217271055935
"ave" 3.50481301800503e-05
"laveB" -0.00343996950783849
"agg" 0.0676826411785355
"ave" 0.00141518978781908
"laveB" 0.0238588802591103
"agg" 0.189850909143327
"ave" 0.00273001422083948
"laveB" 0.0540195759470729
"agg" 0.0432750007095612
"ave" 0.000872135815522892
"laveB" 0.00957077714268651
"agg" 0.874036623187871
"ave" 0.0187264339837356
"laveB" 0.330709770793809
"agg" 0.631416746359367
"ave" 0.0104253976973798
"laveB" 0.226405214486533
"agg" 0.4634484795086
"ave" 0.00729388596662515
"laveB" 0.155296443994588
"agg" 0.76448878436961
"ave" 0.0119909734771607
"laveB" 0.198534767084341
"agg" 0.694814448290814
"ave" 0.0106276108116778
"laveB" 0.18749817412612
"agg" 0.258022311019631
"ave" 0.0071966440523114
"laveB" 0.0899929191418678
"agg" 0.170842702879486
"ave" 0.00356090552563489
"laveB" 0.047315897738818
"agg" 0.408948573766137
"ave" 0.00437448966471968
"laveB" 0.108751460037379
"agg" 0.433180468187039
"ave" 0.00547837055079014
"laveB" 0.117363485050112
"agg" 0.485307203182066
"ave" 0.00442951793201105
"laveB" 0.116750162132765
"agg" 0.420285537431404
"ave" 0.00455349604754254
"laveB" 0.101789616274204
"agg" 0.4160560252644
"ave" 0.00620288588777728
"laveB" 0.145491435906262
"agg" 0.336653026859275
"ave" 0.00574793169439992
"laveB" 0.122458704438516
"agg" 0.545496709476666
"ave" 0.0190383083534641
"laveB" 0.24275786932689
"agg" 0.661958616142757
"ave" 0.0217698560590148
"laveB" 0.293721745402958
"agg" 0.509825834613105
"ave" 0.0227825604350998
"laveB" 0.246217310910851
"agg" 0.619606694282903
"ave" 0.0239042653760634
"laveB" 0.275230515115043
"agg" 0.703813220238018
"ave" 0.0219103244447992
"laveB" 0.29820741581769
"agg" 0.686359468974882
"ave" 0.0209029023905183
"laveB" 0.281352966341485
"agg" 0.421050346562238
"ave" 0.0187555500816812
"laveB" 0.1942173952998
"agg" 0.355559309891003
"ave" 0.015851212205094
"laveB" 0.182883062331104
"agg" 0.645053701605517
"ave" 0.0115333913385899
"laveB" 0.209474632974739
"agg" 0.57268916247224
"ave" 0.00811731178713296
"laveB" 0.157599921811949
"agg" 0.720649423864262
"ave" 0.02474800673556
"laveB" 0.303787501587849
"agg" 0.728686678469707
"ave" 0.0249015711600788
"laveB" 0.307072921424805
"agg" 0.54927302082388
"ave" 0.0151173822427918
"laveB" 0.215833874037722
"agg" 0.488159500335232
"ave" 0.0151768123886671
"laveB" 0.200337474725224
"agg" 0.475248335614009
"ave" 0.0123749860585554
"laveB" 0.161220182556812
"agg" 0.253692989637132
"ave" 0.00773896554390578
"laveB" 0.107089865841018
"agg" 0.779903764526397
"ave" 0.0197160950691681
"laveB" 0.287137767531146
"agg" 0.61840578251212
"ave" 0.0180132300042615
"laveB" 0.217201879612612
"agg" 0.176623287280145
"ave" 0.00729869477231092
"laveB" 0.0750533039929628
"agg" 0.0828431230305665
"ave" 0.00344483725331306
"laveB" 0.037793269966219
"agg" 0.398088516612794
"ave" 0.00962684151214541
"laveB" 0.146898864327116
"agg" 0.431277795403429
"ave" 0.0093638542828582
"laveB" 0.130863049383825
"agg" 0.745448328929918
"ave" 0.0218508581724382
"laveB" 0.306811475061856
"agg" 0.628928304317155
"ave" 0.0195274278012495
"laveB" 0.247217584739275
"agg" 0.346578109478242
"ave" 0.00491336474426351
"laveB" 0.113085570199147
"agg" 0.213901251774486
"ave" 0.00318601539800463
"laveB" 0.086598598975139
"agg" 0.189672719956607
"ave" 0.00217261319095154
"laveB" 0.0616251771094703
"agg" 0.241194278185767
"ave" 0.00345640553274757
"laveB" 0.0691502038371439
"agg" 0.146898481732424
"ave" 0.00301992984623604
"laveB" 0.0498318616964459
"agg" 0.0998886769866424
"ave" 0.00158622622803849
"laveB" 0.0382529658079105
"agg" 0.200092263632006
"ave" 0.0049068324253873
"laveB" 0.0981199935925045
"agg" 0.0642397478050076
"ave" 0.00144280829299377
"laveB" 0.0321681601147209
"agg" 0.768181788954052
"ave" 0.0212519375208702
"laveB" 0.320644011718105
"agg" 0.770751492997612
"ave" 0.0274004615886118
"laveB" 0.358437020191629
"agg" 0.809702037449976
"ave" 0.0183411005275619
"laveB" 0.316136250329684
"agg" 0.661184767961135
"ave" 0.0164074012843371
"laveB" 0.23861491954598
"agg" 0.496291197473214
"ave" 0.00594535517880562
"laveB" 0.131978283274324
"agg" 0.466911491553224
"ave" 0.00676983369642434
"laveB" 0.119137197035565
"agg" 0.50581138134971
"ave" 0.0116226568876543
"laveB" 0.178515283031946
"agg" 0.407698435799111
"ave" 0.00996844088009937
"laveB" 0.130197744312359
"agg" 0.399914949596126
"ave" 0.00733787840326712
"laveB" 0.121460289349441
"agg" 0.334577494908176
"ave" 0.00645414605888109
"laveB" 0.100825202306218
"agg" -0.188351783609443
"ave" -0.0052093029458767
"laveB" -0.0903382741561846
"agg" -0.109748911065374
"ave" -0.00326737741189705
"laveB" -0.0531000549715618
"agg" 0.000799515654977528
"ave" -0.000251541388226855
"laveB" -0.00484643591083265
"agg" -0.0331871341059194
"ave" -0.000920811328053662
"laveB" -0.00798315797455927
"agg" 0.209768611978316
"ave" 0.00470219407190217
"laveB" 0.0958045609010229
"agg" 0.327765572503246
"ave" 0.00608132291509453
"laveB" 0.143278889989566
"agg" 0.140984145531118
"ave" 0.00287931198012301
"laveB" 0.0668365874957267
"agg" 0.550915295181912
"ave" 0.0126404675826192
"laveB" 0.204280089988662
"agg" 0.426703334381661
"ave" 0.00949399575234344
"laveB" 0.148831282967657
"agg" 0.699596084985958
"ave" 0.0154038258573567
"laveB" 0.219728121519187
"agg" 0.651368026080521
"ave" 0.0140899064883294
"laveB" 0.207100666018744
"agg" 0.205356195649525
"ave" 0.00783469837446468
"laveB" 0.0686274693088841
"agg" 0.21653465659076
"ave" 0.00635568854058096
"laveB" 0.0536549821525676
"agg" 0.300377927256809
"ave" 0.00464034224397599
"laveB" 0.0933838950137245
"agg" 0.387337373177885
"ave" 0.00690181926974844
"laveB" 0.112450257556628
"agg" 0.483563416851831
"ave" 0.0061632895229157
"laveB" 0.125348443309823
"agg" 0.491051823765022
"ave" 0.00737267313595376
"laveB" 0.127487095333149
"agg" 0.489480734749354
"ave" 0.0102452144025783
"laveB" 0.190685185566115
"agg" 0.366621319793626
"ave" 0.0093126225002231
"laveB" 0.163178762536134
"agg" 0.439432916022345
"ave" 0.0216000144479658
"laveB" 0.218556135597804
"agg" 0.59304048355468
"ave" 0.0266310613277007
"laveB" 0.265338883954774
"agg" 0.380190270344765
"ave" 0.025298903187684
"laveB" 0.203241037958651
"agg" 0.528424381238199
"ave" 0.0292491643427734
"laveB" 0.273165790858601
"agg" 0.66566483589752
"ave" 0.028810229991988
"laveB" 0.307924923998539
"agg" 0.636252809182661
"ave" 0.0265264710585242
"laveB" 0.273792625725274
"agg" 0.305192000049012
"ave" 0.0210172914847376
"laveB" 0.173692704945086
"agg" 0.232218430870276
"ave" 0.0159208364142614
"laveB" 0.132538116590428
"agg" 0.588108571155404
"ave" 0.0145368652983104
"laveB" 0.197028531981279
"agg" 0.553269189096253
"ave" 0.0110206318825182
"laveB" 0.166779071741013
"agg" 0.756977083107631
"ave" 0.036277277102895
"laveB" 0.341166241909048
"agg" 0.822331072985637
"ave" 0.0396250531920729
"laveB" 0.382484723295891
"agg" 0.503714387768155
"ave" 0.0201750628347807
"laveB" 0.240681909888036
"agg" 0.416392691356201
"ave" 0.0188653547837028
"laveB" 0.196331472569992
"agg" 0.384994820224653
"ave" 0.0136375747745461
"laveB" 0.137979848179124
"agg" 0.231356837565858
"ave" 0.00987795266646141
"laveB" 0.118396424875372
"agg" 0.719158464536889
"ave" 0.0247774163066223
"laveB" 0.293296307651807
"agg" 0.591485335783877
"ave" 0.0250910511826762
"laveB" 0.241311370819761
"agg" 0.148357821008762
"ave" 0.00736308054348098
"laveB" 0.0762421623573839
"agg" 0.0917802821961454
"ave" 0.00492687573670572
"laveB" 0.0474362816468326
"agg" 0.275957971895283
"ave" 0.00913784491462664
"laveB" 0.104774627254054
"agg" 0.35328685182257
"ave" 0.0103188525153801
"laveB" 0.117707508573782
"agg" 0.735241406014056
"ave" 0.0305819247028977
"laveB" 0.332890627095257
"agg" 0.59642412711148
"ave" 0.0267769682264265
"laveB" 0.275863055206648
"agg" 0.244458224761412
"ave" 0.00489836468706829
"laveB" 0.0824992237079708
"agg" 0.130882239026544
"ave" 0.00286623135109157
"laveB" 0.0766391298776069
"agg" 0.0545015427367501
"ave" 0.000698374470034264
"laveB" 0.0303013005586297
"agg" 0.153325744712993
"ave" 0.00334873448828164
"laveB" 0.0477567302851258
"agg" 0.136683001917031
"ave" 0.00420405463411324
"laveB" 0.0656361929997611
"agg" 0.0828989646930028
"ave" 0.00192595312131496
"laveB" 0.0309103880792901
"agg" 0.00301113930496251
"ave" 0.000760346148515172
"laveB" 0.0124972480318403
"agg" -0.102585656713009
"ave" -0.00244963444739772
"laveB" -0.0248664409850706
"agg" 0.729641540141666
"ave" 0.0283843201738688
"laveB" 0.309995923098058
"agg" 0.770178611970812
"ave" 0.0389794291129588
"laveB" 0.385726628112268
"agg" 0.802124273384887
"ave" 0.025332181054589
"laveB" 0.326910800036548
"agg" 0.716177013315775
"ave" 0.0249056661808121
"laveB" 0.288026201381777
"agg" 0.452926516211661
"ave" 0.00750749033844196
"laveB" 0.121578561931667
"agg" 0.532662255952151
"ave" 0.0110005106542887
"laveB" 0.1697177519728
"agg" 0.497823139453882
"ave" 0.0154330997569309
"laveB" 0.177328852088521
"agg" 0.41300891603686
"ave" 0.0139395182358393
"laveB" 0.143900856646892
"agg" 0.298387812010329
"ave" 0.00775226651627472
"laveB" 0.104398272975469
"agg" 0.298715810972536
"ave" 0.00834268420951813
"laveB" 0.0965442939028011
"agg" -0.325088247425756
"ave" -0.0121845787280723
"laveB" -0.152656103543503
"agg" -0.262531548617675
"ave" -0.0104995856265893
"laveB" -0.116211520880816
"agg" -0.112948337772253
"ave" -0.00249989080415923
"laveB" -0.0512254566728039
"agg" -0.192709072419477
"ave" -0.00503973145529882
"laveB" -0.0777834585152742
"agg" 0.0463438566571055
"ave" 0.00239246026527685
"laveB" 0.0608210777293781
"agg" 0.185206464207821
"ave" 0.00479145365468659
"laveB" 0.097650584377587
"agg" -0.0266961969914678
"ave" -5.65596217075085e-05
"laveB" -0.00905520199397721
"agg" 0.824533537173839
"ave" 0.0142094011649705
"laveB" 0.272862884866354
"agg" 0.633692520641669
"ave" 0.0105937435174952
"laveB" 0.16171436385186
"agg" 0.694709649089939
"ave" 0.0112846821564145
"laveB" 0.20433066914787
"agg" 0.469597162695662
"ave" 0.0142580472358742
"laveB" 0.18665723967673
"agg" 0.223843444503352
"ave" 0.00565886721443235
"laveB" 0.0755074815823784
"agg" 0.356011612822889
"ave" 0.00390891173958606
"laveB" 0.0776933434189
"agg" 0.463322505567081
"ave" 0.00626061888167956
"laveB" 0.122466480424374
"agg" 0.500775256678096
"ave" 0.00484887932592029
"laveB" 0.109230932302472
"agg" 0.421910165560269
"ave" 0.00492588492861462
"laveB" 0.0939715637175968
"agg" 0.217886624818402
"ave" 0.00341302744863305
"laveB" 0.0587416259731442
"agg" 0.15957718496791
"ave" 0.00326730909196271
"laveB" 0.0689230045980801
"agg" 0.692602877822702
"ave" 0.026547960657386
"laveB" 0.314576575886218
"agg" 0.73330020454763
"ave" 0.0270275013155711
"laveB" 0.321496166248599
"agg" 0.690989968056264
"ave" 0.0309175974137768
"laveB" 0.342348683214707
"agg" 0.65630403887069
"ave" 0.0262333431497782
"laveB" 0.31528975325249
"agg" 0.618710014875459
"ave" 0.0209898367551003
"laveB" 0.261767817827243
"agg" 0.626850751985171
"ave" 0.0206786808678132
"laveB" 0.262021623188933
"agg" 0.555637473634857
"ave" 0.0242399538386756
"laveB" 0.225505537310362
"agg" 0.5066344733622
"ave" 0.0236310565003681
"laveB" 0.22298186820234
"agg" 0.586566973757749
"ave" 0.0112627184227116
"laveB" 0.180330206973708
"agg" 0.501312194947414
"ave" 0.00751625638422779
"laveB" 0.131645807542694
"agg" 0.440098146721101
"ave" 0.015322891956518
"laveB" 0.176322784339308
"agg" 0.378257116188973
"ave" 0.0130233668902455
"laveB" 0.157978978952211
"agg" 0.419074717456811
"ave" 0.0117374457381514
"laveB" 0.16375009785614
"agg" 0.38801738255937
"ave" 0.0119611403756755
"laveB" 0.146606997995923
"agg" 0.393402058501046
"ave" 0.0110354656296202
"laveB" 0.145905877461517
"agg" 0.351909238845957
"ave" 0.0126939082030313
"laveB" 0.1390016234809
"agg" 0.528171786634114
"ave" 0.0129653967395962
"laveB" 0.180879366959033
"agg" 0.539503707414247
"ave" 0.0182922465930526
"laveB" 0.21083241217182
"agg" 0.262841684312541
"ave" 0.0116143213581027
"laveB" 0.126980386804487
"agg" 0.300087214352556
"ave" 0.0124155533841836
"laveB" 0.122994695572069
"agg" 0.616169765977779
"ave" 0.0160411343137789
"laveB" 0.211279142646559
"agg" 0.620300655648297
"ave" 0.014767071989163
"laveB" 0.184636548045461
"agg" 0.459137535026571
"ave" 0.0141280252837913
"laveB" 0.176938307944805
"agg" 0.419908597784951
"ave" 0.0122281720973496
"laveB" 0.158216775612245
"agg" 0.506047548775558
"ave" 0.008336789487013
"laveB" 0.171990057508319
"agg" 0.487699458228496
"ave" 0.0082690029745682
"laveB" 0.178813317135265
"agg" 0.248160088003623
"ave" 0.00299654006515925
"laveB" 0.0665515978118298
"agg" 0.485268203357734
"ave" 0.00749686110763332
"laveB" 0.14926451537096
"agg" 0.14437704525038
"ave" 0.00359187639237248
"laveB" 0.0685252076353225
"agg" 0.229305803445348
"ave" 0.00465821037778702
"laveB" 0.0797736666891731
"agg" 0.56585881041318
"ave" 0.0147378044996318
"laveB" 0.248783751436443
"agg" 0.454274077594166
"ave" 0.0104418207216049
"laveB" 0.181196762335814
"agg" 0.622229329850159
"ave" 0.0180568828276871
"laveB" 0.258390175496943
"agg" 0.617923189842516
"ave" 0.0233945353323323
"laveB" 0.285924601869252
"agg" 0.583128373178153
"ave" 0.0130703201097097
"laveB" 0.209234718793413
"agg" 0.530246509332258
"ave" 0.014070132582137
"laveB" 0.188201255655458
"agg" 0.201995056774299
"ave" 0.00259973415138082
"laveB" 0.0386203007638037
"agg" 0.252273225807838
"ave" 0.00345203683315648
"laveB" 0.055917331731348
"agg" 0.351465243350552
"ave" 0.00840562733406029
"laveB" 0.112481131429412
"agg" 0.479173937057944
"ave" 0.0130104229572122
"laveB" 0.166493374075843
"agg" 0.464786010421849
"ave" 0.00917395638858037
"laveB" 0.136394514415079
"agg" 0.444286847092186
"ave" 0.00885748518423127
"laveB" 0.146810006484928
"agg" 0.125420599698971
"ave" 0.0045940197900897
"laveB" 0.0747681939129649
"agg" 0.251972296520018
"ave" 0.0089089554927376
"laveB" 0.131134810045289
"agg" 0.252392177432401
"ave" 0.00426756067568314
"laveB" 0.0759639902906223
"agg" 0.308926535448228
"ave" 0.00585685639864668
"laveB" 0.119818674351283
"agg" 0.410926580622795
"ave" 0.0094085824786604
"laveB" 0.178681617745746
"agg" 0.603448495606837
"ave" 0.0119702195066582
"laveB" 0.223553389286269
"agg" 0.460930325478046
"ave" 0.0091243724407609
"laveB" 0.19153095899767
"agg" 0.553073792286998
"ave" 0.00873472283768014
"laveB" 0.151704723010061
"agg" 0.692532287774566
"ave" 0.0105637584123968
"laveB" 0.182310597728441
"agg" 0.482996885532068
"ave" 0.0140032100523038
"laveB" 0.159345060884159
"agg" 0.126547736331879
"ave" 0.00381160270373977
"laveB" 0.0207737707947965
"agg" 0.250634852595647
"ave" 0.00246633264221974
"laveB" 0.0442049182132255
"agg" 0.351395682118556
"ave" 0.0044004953763286
"laveB" 0.0759254763604801
"agg" 0.371306580513379
"ave" 0.00352195883792151
"laveB" 0.0796225725881555
"agg" 0.256744696760992
"ave" 0.00297073742354846
"laveB" 0.0483446593077294
"agg" 0.0919525506379775
"ave" 0.0016521577476304
"laveB" 0.0118011255038643
"agg" 0.0160089776609965
"ave" 0.00104508537194737
"laveB" 0.0152281912593617
"agg" 0.678664252444781
"ave" 0.0236041194007779
"laveB" 0.257463836637613
"agg" 0.645892315861204
"ave" 0.0221074982517232
"laveB" 0.260126157427536
"agg" 0.703358582280312
"ave" 0.0279504154445863
"laveB" 0.289155848275601
"agg" 0.626802095763436
"ave" 0.0229690735208649
"laveB" 0.253724885430586
"agg" 0.528730121485695
"ave" 0.0173151291822366
"laveB" 0.216386144713502
"agg" 0.556078876409597
"ave" 0.0175357203488198
"laveB" 0.233994660326452
"agg" 0.5579120917846
"ave" 0.0216263850458892
"laveB" 0.214945649874016
"agg" 0.490663625418505
"ave" 0.0201123953383678
"laveB" 0.196897342065312
"agg" 0.514740416961538
"ave" 0.00937550335491789
"laveB" 0.131264289904152
"agg" 0.403149265349557
"ave" 0.00585663262977118
"laveB" 0.0841673396052798
"agg" 0.307367066019603
"ave" 0.0103730574401975
"laveB" 0.121392939166622
"agg" 0.25489356010177
"ave" 0.00881497841901382
"laveB" 0.104081703158561
"agg" 0.371750357086428
"ave" 0.00959106364371011
"laveB" 0.12702546038744
"agg" 0.416723956068755
"ave" 0.0115489276164674
"laveB" 0.134753463463344
"agg" 0.382271750733943
"ave" 0.0105824859236754
"laveB" 0.13317666279897
"agg" 0.480830948665419
"ave" 0.0163688889780846
"laveB" 0.181913464223538
"agg" 0.40927434116375
"ave" 0.00962280616954873
"laveB" 0.140946922950256
"agg" 0.534230442423413
"ave" 0.017436125516024
"laveB" 0.198429000187564
"agg" 0.289507078730635
"ave" 0.012896988920782
"laveB" 0.130256441752658
"agg" 0.426482033742319
"ave" 0.0166540516867621
"laveB" 0.158244482471587
"agg" 0.653012307346126
"ave" 0.0159010887802142
"laveB" 0.200668450327518
"agg" 0.674523302677595
"ave" 0.0150131142250502
"laveB" 0.193339883167716
"agg" 0.332767103805696
"ave" 0.00970621824987556
"laveB" 0.119798058121169
"agg" 0.32145279760683
"ave" 0.00854463720039508
"laveB" 0.104718143867786
"agg" 0.542298130512402
"ave" 0.00810242239686181
"laveB" 0.172078604807819
"agg" 0.617698496899312
"ave" 0.00931516784901128
"laveB" 0.191740288201446
"agg" 0.302045076064738
"ave" 0.00325239572388195
"laveB" 0.0751310244249314
"agg" 0.432662542796002
"ave" 0.0059523635503016
"laveB" 0.102928590674344
"agg" 0.130665630296847
"ave" 0.00334093224897998
"laveB" 0.0735973810411625
"agg" 0.234392647281063
"ave" 0.00424633003275878
"laveB" 0.0693282744773161
"agg" 0.581944626403154
"ave" 0.0132529838973237
"laveB" 0.222247108803819
"agg" 0.525423140535744
"ave" 0.010577794067494
"laveB" 0.173351805019528
"agg" 0.470411139249392
"ave" 0.0134175071833643
"laveB" 0.178954229439545
"agg" 0.413872278800452
"ave" 0.0152190834643406
"laveB" 0.188837559793981
"agg" 0.416035836294544
"ave" 0.00881693928567675
"laveB" 0.135911250068705
"agg" 0.45043460132194
"ave" 0.0118380365594784
"laveB" 0.157742991867096
"agg" 0.159397912998581
"ave" 0.00217673459030143
"laveB" 0.0420404413017252
"agg" 0.196364085915416
"ave" 0.00307640200771281
"laveB" 0.0444644143661075
"agg" 0.29634427358349
"ave" 0.00741231028465101
"laveB" 0.0885213213894973
"agg" 0.546401097168191
"ave" 0.0138932357307044
"laveB" 0.154333000818458
"agg" 0.441276707686642
"ave" 0.00795324268516537
"laveB" 0.116206778346352
"agg" 0.489515291994524
"ave" 0.00904281129688416
"laveB" 0.146308405539371
"agg" 0.281485897439004
"ave" 0.00779588941154363
"laveB" 0.128669523286594
"agg" 0.349151035816413
"ave" 0.0102825181580127
"laveB" 0.1485981923133
"agg" 0.366880133826413
"ave" 0.00541677070501786
"laveB" 0.10490215208515
"agg" 0.363650134478396
"ave" 0.00591133906013716
"laveB" 0.123595318241593
"agg" 0.480188668836825
"ave" 0.0092752989677425
"laveB" 0.173831500040576
"agg" 0.578693375219458
"ave" 0.0103542417994974
"laveB" 0.186190698449025
"agg" 0.508108703700176
"ave" 0.00877299240539939
"laveB" 0.159655375787031
"agg" 0.803487583572964
"ave" 0.0125170682191665
"laveB" 0.192075985604521
"agg" 0.503813078878386
"ave" 0.0143836074873814
"laveB" 0.165140111422388
"agg" 0.19251661936944
"ave" 0.00459002754575591
"laveB" 0.0355123893642002
"agg" 0.475333864558061
"ave" 0.00514689901745549
"laveB" 0.109900065208922
"agg" 0.41076351678312
"ave" 0.00519782725232439
"laveB" 0.0844612478682753
"agg" 0.558092758077814
"ave" 0.00529899681325253
"laveB" 0.104911286398139
"agg" 0.427847801501499
"ave" 0.00482813872123887
"laveB" 0.0816249332100824
"agg" 0.282406797977799
"ave" 0.00453541988745386
"laveB" 0.0691720400775729
"agg" 0.297611858870837
"ave" 0.00522342482698546
"laveB" 0.0901313173294459
"agg" 0.593892127907393
"ave" 0.0205077960472927
"laveB" 0.191511801137568
"agg" 0.666844375376131
"ave" 0.0221957194692643
"laveB" 0.253294616090527
"agg" 0.606822520766377
"ave" 0.0260175795764051
"laveB" 0.238136491954811
"agg" 0.645331743133903
"ave" 0.0250326710527752
"laveB" 0.245716895373771
"agg" 0.655026736978816
"ave" 0.0209443846670203
"laveB" 0.214830538522393
"agg" 0.64053377453752
"ave" 0.0197109656695038
"laveB" 0.226857933625358
"agg" 0.486306202486401
"ave" 0.0213873318762051
"laveB" 0.173096536391867
"agg" 0.398222079171095
"ave" 0.0179028757054543
"laveB" 0.140656783659591
"agg" 0.676335363141052
"ave" 0.0126100974948731
"laveB" 0.193395601504812
"agg" 0.584563588490243
"ave" 0.0085121866673333
"laveB" 0.128845526325753
"agg" 0.732425885720392
"ave" 0.0258107700715544
"laveB" 0.271587633345439
"agg" 0.662374139681378
"ave" 0.0233839253029471
"laveB" 0.215494942800849
"agg" 0.66443278934367
"ave" 0.0185285687753881
"laveB" 0.213374372548384
"agg" 0.575382282951025
"ave" 0.0175097081647875
"laveB" 0.190864219732998
"agg" 0.677830408861002
"ave" 0.0182017032512346
"laveB" 0.200502731520596
"agg" 0.345938749748632
"ave" 0.0106197259990695
"laveB" 0.0991701210004367
"agg" 0.792689558092243
"ave" 0.0211071339800378
"laveB" 0.246748989550552
"agg" 0.60837687763741
"ave" 0.0184208896680842
"laveB" 0.194439548678109
"agg" 0.360575946282414
"ave" 0.0157500072874937
"laveB" 0.138741518515132
"agg" 0.31442953213033
"ave" 0.0119588883823364
"laveB" 0.110670346531655
"agg" 0.626488249736826
"ave" 0.0153738554866029
"laveB" 0.165424272440162
"agg" 0.642933210338611
"ave" 0.0145444927499933
"laveB" 0.174066887978969
"agg" 0.70543515998062
"ave" 0.0211296831906869
"laveB" 0.238004376604681
"agg" 0.660576326596461
"ave" 0.0210579565146943
"laveB" 0.216183865487892
"agg" 0.475776465847692
"ave" 0.00703828912408587
"laveB" 0.144390470893312
"agg" 0.316349158277255
"ave" 0.00478814589412086
"laveB" 0.0796485792109668
"agg" 0.299819632888701
"ave" 0.00341424398492496
"laveB" 0.0699582846086242
"agg" 0.267810330961911
"ave" 0.00377479221706187
"laveB" 0.0628140553758555
"agg" 0.198733511863291
"ave" 0.00452775115455046
"laveB" 0.0665951676252051
"agg" 0.0574354591756524
"ave" 0.000886054510589687
"laveB" 0.00524427331776104
"agg" 0.369009430111581
"ave" 0.00858483596943476
"laveB" 0.110600006420263
"agg" 0.203864915491198
"ave" 0.00387191396847216
"laveB" 0.0599322394484052
"agg" 0.741296050394211
"ave" 0.0210127251398241
"laveB" 0.253814575656233
"agg" 0.719120733974258
"ave" 0.0263452328646685
"laveB" 0.279827157251659
"agg" 0.743175548023323
"ave" 0.0174064299607838
"laveB" 0.234004186802607
"agg" 0.687213727314354
"ave" 0.0177344432807735
"laveB" 0.202174448990456
"agg" 0.483824643865111
"ave" 0.00595680812482065
"laveB" 0.10692614616835
"agg" 0.461636845443407
"ave" 0.00708221282574636
"laveB" 0.117071363807332
"agg" 0.585070620604711
"ave" 0.0140678052994616
"laveB" 0.158037363281144
"agg" 0.591873496243845
"ave" 0.0148853484977809
"laveB" 0.148578824223381
"agg" 0.56752416134627
"ave" 0.0103333858874217
"laveB" 0.12501721881442
"agg" 0.480975087487872
"ave" 0.0090391943405275
"laveB" 0.107951578981031
"agg" 0.040621203589987
"ave" 0.000956016738631628
"laveB" 0.012718486747324
"agg" 0.151211578726549
"ave" 0.00411553518590062
"laveB" 0.0537428056647368
"agg" 0.203801151094446
"ave" 0.00285975631819458
"laveB" 0.0454729476695483
"agg" 0.160013012162596
"ave" 0.00232276313081309
"laveB" 0.0368706905227541
"agg" 0.364869428496206
"ave" 0.00746753759691776
"laveB" 0.127784634149894
"agg" 0.501103383320199
"ave" 0.00898936441370772
"laveB" 0.140565252929774
"agg" 0.261264513253251
"ave" 0.0047826865074455
"laveB" 0.0675298807170037
"agg" 0.507417834691291
"ave" 0.0137184172376083
"laveB" 0.144255800515775
"agg" 0.238287842270714
"ave" 0.00561462498211163
"laveB" 0.0531242404049945
"agg" 0.372205606387979
"ave" 0.00377914428989201
"laveB" 0.0598055992682136
"agg" 0.413979337946152
"ave" 0.00501318336926298
"laveB" 0.0915955614895878
"agg" 0.50744716398026
"ave" 0.00473496075814675
"laveB" 0.102234429294859
"agg" 0.365710793648799
"ave" 0.00416109853258095
"laveB" 0.076958212388731
"agg" 0.180847001473926
"ave" 0.0029491180758526
"laveB" 0.0329498779838586
"agg" 0.169531738129826
"ave" 0.00360097780259308
"laveB" 0.0520096771620927
"agg" 0.681198678209948
"ave" 0.0230091000644985
"laveB" 0.232503207201666
"agg" 0.721406919367979
"ave" 0.0235206532350988
"laveB" 0.266866643301959
"agg" 0.752492558661817
"ave" 0.0307434838112539
"laveB" 0.266551855496207
"agg" 0.778102890938279
"ave" 0.0288819431295275
"laveB" 0.274670605034808
"agg" 0.688467141435975
"ave" 0.0216120799439026
"laveB" 0.244678108560284
"agg" 0.690790403285685
"ave" 0.0210211215762849
"laveB" 0.214451117009783
"agg" 0.643910130346332
"ave" 0.0256054683786859
"laveB" 0.220102177762744
"agg" 0.56345473806047
"ave" 0.0232080163146511
"laveB" 0.181845197550439
"agg" 0.683179655794738
"ave" 0.0122360144577717
"laveB" 0.175560956554411
"agg" 0.61118897676986
"ave" 0.00853663981961351
"laveB" 0.120910269766945
"agg" 0.645539974803406
"ave" 0.0219076248440122
"laveB" 0.232022335626002
"agg" 0.596262656247649
"ave" 0.0205472115862851
"laveB" 0.210605245540538
"agg" 0.659116655787567
"ave" 0.0173957578713705
"laveB" 0.200774625517759
"agg" 0.652614461068551
"ave" 0.0186025885404745
"laveB" 0.189699819853282
"agg" 0.595224118172149
"ave" 0.0155246672929767
"laveB" 0.178126490138989
"agg" 0.576355385273653
"ave" 0.0177849159345685
"laveB" 0.177063640475038
"agg" 0.720914066213494
"ave" 0.0180119059380714
"laveB" 0.213097327681084
"agg" 0.750964310994289
"ave" 0.0225622274898561
"laveB" 0.222448823923868
"agg" 0.257076523633082
"ave" 0.0106096177161158
"laveB" 0.0924350123589519
"agg" 0.417568850672849
"ave" 0.0147988763027533
"laveB" 0.126181142985629
"agg" 0.701060730677244
"ave" 0.0171588749835141
"laveB" 0.199191124288959
"agg" 0.770652741552141
"ave" 0.0169742257634322
"laveB" 0.199989933907112
"agg" 0.647915572203277
"ave" 0.0187556206524141
"laveB" 0.206988428275512
"agg" 0.659408059820719
"ave" 0.0195886254359677
"laveB" 0.212355666779015
"agg" 0.597897081338981
"ave" 0.00839984967791043
"laveB" 0.150763791578508
"agg" 0.49382316161515
"ave" 0.00702388710720517
"laveB" 0.131226805830498
"agg" 0.34191967718161
"ave" 0.00364392951724865
"laveB" 0.0864959727607826
"agg" 0.35158616656528
"ave" 0.00453358934140333
"laveB" 0.0623919618251931
"agg" 0.12040228372943
"ave" 0.00256480651052033
"laveB" 0.0402741725280082
"agg" 0.121669878267269
"ave" 0.00199398749187048
"laveB" 0.0382111598496686
"agg" 0.484392958902644
"ave" 0.0104676318078044
"laveB" 0.146254408388468
"agg" 0.390258665338566
"ave" 0.00713485742406852
"laveB" 0.116243322733394
"agg" 0.711385028018704
"ave" 0.0194268420370413
"laveB" 0.243366359901178
"agg" 0.654393659190348
"ave" 0.0229336048255503
"laveB" 0.246535809531822
"agg" 0.689051816182866
"ave" 0.0152650711863616
"laveB" 0.198985720738809
"agg" 0.673499897732287
"ave" 0.0167445148153696
"laveB" 0.204062314589527
"agg" 0.306427402687185
"ave" 0.00386426592555934
"laveB" 0.0501650156632114
"agg" 0.369460287121451
"ave" 0.00545276140617226
"laveB" 0.0734721713190466
"agg" 0.499407537941244
"ave" 0.0115861985930076
"laveB" 0.143650495742872
"agg" 0.704885634250368
"ave" 0.017180276634937
"laveB" 0.175000616363678
"agg" 0.582560705017949
"ave" 0.0102037289258018
"laveB" 0.12376156499045
"agg" 0.599755826316523
"ave" 0.0107338231022419
"laveB" 0.150569025234591
"agg" 0.247440725449081
"ave" 0.00620906832900036
"laveB" 0.0901637910768911
"agg" 0.328630242482232
"ave" 0.00862160317563923
"laveB" 0.115518330065371
"agg" 0.391691448838748
"ave" 0.0054236925483525
"laveB" 0.100324574010245
"agg" 0.344138624578379
"ave" 0.00505420691089754
"laveB" 0.0867603125402022
"agg" 0.556467553667374
"ave" 0.0105963155752022
"laveB" 0.184149771584248
"agg" 0.650381035071667
"ave" 0.0112672031573992
"laveB" 0.19782330096407
"agg" 0.492796936158452
"ave" 0.0082815110489197
"laveB" 0.13998880005964
"agg" 0.40392792791716
"ave" 0.0211132316003925
"laveB" 0.185669201515445
"agg" 0.337331678565601
"ave" 0.00648923372777134
"laveB" 0.086930082879037
"agg" 0.322612040389522
"ave" 0.00718343019573896
"laveB" 0.0842895098301411
"agg" 0.466656541647066
"ave" 0.00804902724250768
"laveB" 0.139105193230297
"agg" 0.138464133938096
"ave" 0.00251221338958012
"laveB" 0.0246221421781431
"agg" 0.116234462351325
"ave" 0.00339571381592639
"laveB" 0.0332150514008886
"agg" 0.0755219926835118
"ave" 0.00333846003881275
"laveB" 0.0379717591596508
"agg" 0.407396058388982
"ave" 0.023739998744433
"laveB" 0.173396967979396
"agg" 0.395357142185213
"ave" 0.0233376524790431
"laveB" 0.190186986130198
"agg" 0.490021234350562
"ave" 0.0341739343257028
"laveB" 0.239359708372017
"agg" 0.395120444867173
"ave" 0.0258659378202713
"laveB" 0.184429499356344
"agg" 0.36448430896212
"ave" 0.0198963291403638
"laveB" 0.167038349237459
"agg" 0.33691681750025
"ave" 0.0177139462080062
"laveB" 0.154204112531047
"agg" 0.297568277166792
"ave" 0.0202015371963713
"laveB" 0.132209151037419
"agg" 0.25073831035897
"ave" 0.0181567484829586
"laveB" 0.102215786895028
"agg" 0.390494350417315
"ave" 0.0125685811956952
"laveB" 0.13032744754523
"agg" 0.343019561634223
"ave" 0.00904563650384911
"laveB" 0.0976779700515686
"agg" 0.337090694730982
"ave" 0.0213292816488423
"laveB" 0.17908236297348
"agg" 0.26931653729202
"ave" 0.0176315569449022
"laveB" 0.1556629651428
"agg" 0.283591696049222
"ave" 0.0133061569525101
"laveB" 0.130414730528031
"agg" 0.27375195892571
"ave" 0.0131631742883873
"laveB" 0.116896053433473
"agg" 0.398333567190163
"ave" 0.0197214366119464
"laveB" 0.159824412801644
"agg" 0.237967022906305
"ave" 0.0141943402311582
"laveB" 0.0848822286870929
"agg" 0.303227275307688
"ave" 0.0123652817613456
"laveB" 0.127821888888618
"agg" 0.193276592602674
"ave" 0.0105231104142215
"laveB" 0.0604535042124023
"agg" 0.634830720229072
"ave" 0.0490009588729934
"laveB" 0.381842844280861
"agg" 0.559512432157314
"ave" 0.0379767236026864
"laveB" 0.267441883563793
"agg" 0.747888438849841
"ave" 0.0294930540957777
"laveB" 0.256623714517838
"agg" 0.631898853667901
"ave" 0.0238221902501794
"laveB" 0.218078639868753
"agg" 0.307212314308724
"ave" 0.015982161746098
"laveB" 0.140593401584492
"agg" 0.387974769716773
"ave" 0.0223637553161563
"laveB" 0.183132162658176
"agg" 0.336037336149392
"ave" 0.0087150200085448
"laveB" 0.132254915386731
"agg" 0.362948003189851
"ave" 0.00959042471978139
"laveB" 0.135702773169788
"agg" 0.201035738563001
"ave" 0.00382712484313975
"laveB" 0.0662426071212188
"agg" 0.187408543998085
"ave" 0.00453530801842793
"laveB" 0.0552904475893274
"agg" 0.185654024383284
"ave" 0.00807292856791016
"laveB" 0.109055953375273
"agg" 0.102285001890872
"ave" 0.00349600262599564
"laveB" 0.033341358769127
"agg" 0.381272304001392
"ave" 0.0153735780192239
"laveB" 0.169295966719694
"agg" 0.295839006136189
"ave" 0.0101649683573468
"laveB" 0.120057992006345
"agg" 0.300349226507156
"ave" 0.0141533343843179
"laveB" 0.115484440909749
"agg" 0.299318007340927
"ave" 0.0192609788460557
"laveB" 0.143638645162457
"agg" 0.305163362424561
"ave" 0.0126155937436729
"laveB" 0.128150335193615
"agg" 0.455066987083094
"ave" 0.0214096686516696
"laveB" 0.200297244045772
"agg" 0.297254844734233
"ave" 0.0074602970452349
"laveB" 0.0858171895070407
"agg" 0.300753903693081
"ave" 0.00855776727743313
"laveB" 0.104827047392091
"agg" 0.494116197334369
"ave" 0.0212846857088762
"laveB" 0.202309641378488
"agg" 0.523939782362532
"ave" 0.0227156580351503
"laveB" 0.189255923872511
"agg" 0.392070576423521
"ave" 0.0124489150254123
"laveB" 0.117259583990353
"agg" 0.409961083581512
"ave" 0.0127320738595844
"laveB" 0.139696785859164
"agg" 0.171531405844087
"ave" 0.00848383267051849
"laveB" 0.094454942271722
"agg" 0.32818776080682
"ave" 0.0173398364334578
"laveB" 0.190821362576569
"agg" 0.207329478267582
"ave" 0.00490171170464493
"laveB" 0.058834805292839
"agg" 0.192204769785243
"ave" 0.00481564601412622
"laveB" 0.0565738355571779
"agg" 0.264257792725283
"ave" 0.00850421628380767
"laveB" 0.103886020958136
"agg" 0.36962900623221
"ave" 0.0104769696880899
"laveB" 0.131736747446291
"agg" 0.289494648799847
"ave" 0.00844189237895364
"laveB" 0.098232289946377
"agg" 0.150294500490247
"ave" 0.00248690021075432
"laveB" 0.0465812535915687
"agg" 0.243813632715858
"ave" 0.0046827561228096
"laveB" 0.0823753733263058
"agg" 0.408272426801757
"ave" 0.00547379249885685
"laveB" 0.0953684161654129
"agg" 0.248769784569999
"ave" 0.00358128503067038
"laveB" 0.0569587369326939
"agg" 0.244583094040408
"ave" 0.00540659316803594
"laveB" 0.0888785126451395
"agg" 0.199215618579791
"ave" 0.00500940089406435
"laveB" 0.0675179069694323
"agg" 0.169033575356941
"ave" 0.0084256878915426
"laveB" 0.0809173251580832
"agg" 0.173619421452065
"ave" 0.00786265461007594
"laveB" 0.072291149942412
"agg" 0.178825253502998
"ave" 0.0125404254329671
"laveB" 0.0951431050346831
"agg" 0.179397786267185
"ave" 0.010690656949707
"laveB" 0.0815772653654621
"agg" 0.27670374951642
"ave" 0.0126340962179847
"laveB" 0.114174621764617
"agg" 0.201217533365272
"ave" 0.00782789235594518
"laveB" 0.0838856139763394
"agg" 0.0609370724075144
"ave" 0.00658115472536606
"laveB" 0.0444222170457001
"agg" 0.0204518737817976
"ave" 0.00442358808654147
"laveB" 0.0440002939168325
"agg" 0.200774021556081
"ave" 0.00529914484842714
"laveB" 0.0675611345390287
"agg" 0.236670576542763
"ave" 0.00546959295159297
"laveB" 0.0687419125736241
"agg" 0.220873102475204
"ave" 0.011888315557163
"laveB" 0.081169907319897
"agg" 0.272084163932486
"ave" 0.0149519611681253
"laveB" 0.12160026596843
"agg" 0.180942840137853
"ave" 0.00820301693105502
"laveB" 0.0866508861874354
"agg" 0.159117562445489
"ave" 0.00733639062766917
"laveB" 0.0689117247537666
"agg" 0.0572999370927866
"ave" 0.00319743788547568
"laveB" 0.0121702259574393
"agg" 0.0976176206282324
"ave" 0.00639738426429459
"laveB" 0.0267027699496964
"agg" 0.032988899675887
"ave" -0.000578956921637554
"laveB" -0.010283109425171
"agg" -0.0228596785282737
"ave" 0.000267150481842577
"laveB" -0.013670744861637
"agg" 0.20150980499054
"ave" 0.0181281848905377
"laveB" 0.120664581980681
"agg" 0.353198511494268
"ave" 0.0230926984290511
"laveB" 0.142491676495202
"agg" 0.361209912810354
"ave" 0.012323718799091
"laveB" 0.110078097672184
"agg" 0.387784005207937
"ave" 0.0117122386691291
"laveB" 0.108841610277474
"agg" 0.212845743283241
"ave" 0.0104796074694604
"laveB" 0.0965267648724806
"agg" 0.17653391764854
"ave" 0.0110169547209124
"laveB" 0.0965816414749188
"agg" 0.0708818907545788
"ave" 0.00221688527124277
"laveB" 0.041568739656603
"agg" 0.0375633893138643
"ave" 0.0015412599300688
"laveB" 0.0352209790381901
"agg" 0.0599458059948071
"ave" 0.00104499192917609
"laveB" 0.0210075207076136
"agg" 0.0588981753243773
"ave" 0.00141034231119481
"laveB" 0.0303569623861508
"agg" 0.113341654653553
"ave" 0.00521163241262882
"laveB" 0.0745115648222547
"agg" 0.0625396546253162
"ave" 0.00162427867167944
"laveB" 0.0068095851337076
"agg" -0.025581808273735
"ave" 0.00106565068510394
"laveB" 0.0301801591775726
"agg" -0.00615432403648494
"ave" 0.00185779690037023
"laveB" 0.0200852074530699
"agg" 0.219819633851329
"ave" 0.00881422666236196
"laveB" 0.0729212073356494
"agg" 0.333467567111028
"ave" 0.0174863785853402
"laveB" 0.15687143195799
"agg" 0.301046329765252
"ave" 0.00994891831989993
"laveB" 0.0973548375540429
"agg" 0.333409036292906
"ave" 0.0134299086007989
"laveB" 0.118188049856723
"agg" 0.0504129561800823
"ave" 0.00182294763971674
"laveB" 0.0167645745257266
"agg" 0.253341013167959
"ave" 0.00585273046763592
"laveB" 0.0664694593916689
"agg" 0.190271381017661
"ave" 0.00777456343638543
"laveB" 0.0653159181910234
"agg" 0.285798611069685
"ave" 0.0117898011707045
"laveB" 0.082027251724235
"agg" -0.0238396624673203
"ave" 0.000665294142521679
"laveB" -0.0107647973237097
"agg" 0.0796089641355982
"ave" 0.00366396701452939
"laveB" 0.0347330669517159
"agg" -0.184629917961761
"ave" -0.00434604537570633
"laveB" -0.0254829868206111
"agg" -0.152707023996095
"ave" -0.00290279523051954
"laveB" -0.024488373283505
"agg" -0.124339458478342
"ave" -0.00200484349900147
"laveB" -0.0197504403232457
"agg" -0.15446256024548
"ave" -0.00335422435216393
"laveB" -0.0207384429733106
"agg" -0.118172450748025
"ave" -0.00228102778339909
"laveB" -0.0132270454177139
"agg" -0.0187831035158752
"ave" -0.000575851806731528
"laveB" 0.0126541345845082
"agg" -0.0961066634878866
"ave" -0.00111056150280145
"laveB" 0.00571987152192293
"agg" 0.659739422723885
"ave" 0.0059960755643333
"laveB" 0.131923328544007
"agg" 0.523453969719169
"ave" 0.00333190246518059
"laveB" 0.0834362296134819
"agg" 0.491540978505755
"ave" 0.00371113978590802
"laveB" 0.0968533985987736
"agg" 0.434525443768752
"ave" 0.00491259981967793
"laveB" 0.15139482134383
"agg" 0.361019290130331
"ave" 0.00416709892591361
"laveB" 0.088836321356951
"agg" 0.327661154785887
"ave" 0.00749702065366224
"laveB" 0.0653246719126448
"agg" 0.418890583766963
"ave" 0.00888126456535778
"laveB" 0.135619379621216
"agg" 0.360329960596386
"ave" 0.0106221304059532
"laveB" 0.0901893337092504
"agg" 0.441223671417239
"ave" 0.0117862370398115
"laveB" 0.120062614036108
"agg" 0.400246043403492
"ave" 0.00841984228471257
"laveB" 0.116859120967284
"agg" 0.427003393846754
"ave" 0.00864231921547247
"laveB" 0.116577247047655
"agg" 0.304941679516398
"ave" 0.00875813439449058
"laveB" 0.0845158482352364
"agg" 0.278276023627924
"ave" 0.00787141733907192
"laveB" 0.0530248200165
"agg" 0.487073338473744
"ave" 0.00608172306810634
"laveB" 0.0954336708465318
"agg" 0.449969535309886
"ave" 0.00452108714834417
"laveB" 0.107573855206818
"agg" 0.505344458150704
"ave" 0.0124820510087695
"laveB" 0.186488909930797
"agg" 0.39534483456481
"ave" 0.00973805250575842
"laveB" 0.14552804111189
"agg" 0.358435292036441
"ave" 0.00669465671741301
"laveB" 0.0876513817144195
"agg" 0.341288923181735
"ave" 0.00704547061918113
"laveB" 0.083441898665664
"agg" 0.389789435752989
"ave" 0.00704946960607781
"laveB" 0.0816487055777969
"agg" 0.0460888737240975
"ave" 0.000350690968240107
"laveB" -0.0130164808281256
"agg" 0.435078108692806
"ave" 0.0073703768223919
"laveB" 0.125528689910538
"agg" 0.161687302350368
"ave" 0.00250625754388815
"laveB" 0.0135574198646438
"agg" 0.266052562930837
"ave" 0.00801798212951631
"laveB" 0.0970549929695549
"agg" 0.145032752485349
"ave" 0.00352035935337981
"laveB" 0.0299453221480263
"agg" 0.35308717297048
"ave" 0.0055532086103951
"laveB" 0.0708799627363506
"agg" 0.340472474295387
"ave" 0.00504295325706356
"laveB" 0.0570687361536392
"agg" 0.42248856143064
"ave" 0.00870889670963666
"laveB" 0.121725704120893
"agg" 0.486255022698164
"ave" 0.0111639022273641
"laveB" 0.169670333824911
"agg" 0.38509123845702
"ave" 0.0035955313804212
"laveB" 0.0710959475858021
"agg" 0.29209252904399
"ave" 0.00268837765407141
"laveB" 0.0378811208533664
"agg" 0.241843433524104
"ave" 0.00175155818975434
"laveB" 0.0269177445707129
"agg" 0.193561995599318
"ave" 0.00176761568207274
"laveB" 0.0254564563599027
"agg" -0.0331576204670964
"ave" -0.000547764256411015
"laveB" -0.00287859503837562
"agg" 0.0772907291574465
"ave" 0.000883924160801601
"laveB" 0.0280956968437689
"agg" 0.16384566101464
"ave" 0.00213851725952274
"laveB" 0.00351761518461456
"agg" 0.0176078529079243
"ave" -0.000393212937180178
"laveB" -0.0343317454544051
"agg" 0.391963493042159
"ave" 0.00753974205212391
"laveB" 0.126168673572896
"agg" 0.395238285771359
"ave" 0.0102404820780116
"laveB" 0.134572355469948
"agg" 0.484759255945011
"ave" 0.00818053889887062
"laveB" 0.137543808116217
"agg" 0.470585496031744
"ave" 0.00830488501425709
"laveB" 0.126559928084653
"agg" 0.383032534632397
"ave" 0.00309315946564815
"laveB" 0.0627627528576863
"agg" 0.383019509277972
"ave" 0.00415908741539357
"laveB" 0.0958267370358069
"agg" 0.454227635360741
"ave" 0.00748432190273509
"laveB" 0.124555204522314
"agg" 0.346742343962477
"ave" 0.00556447307410985
"laveB" 0.0678104104825905
"agg" 0.461653155610514
"ave" 0.00549501559989746
"laveB" 0.0852468454909881
"agg" 0.352345939251905
"ave" 0.00417469831008835
"laveB" 0.0575813319379781
"agg" 0.0951533135470489
"ave" 0.000879807052143136
"laveB" -0.0132446687510934
"agg" 0.189674314269479
"ave" 0.00292657766036117
"laveB" -0.00505804009970677
"agg" 0.131397033209747
"ave" 0.000736330106347835
"laveB" -0.0155112622768212
"agg" 0.180752997259363
"ave" 0.00140139863805719
"laveB" -0.0139147657115301
"agg" 0.245454405919998
"ave" 0.00300699955821175
"laveB" 0.0309285086383576
"agg" 0.333317962422202
"ave" 0.00381112698580862
"laveB" 0.0561183351761338
"agg" 0.135502760607765
"ave" 0.00153962934673883
"laveB" 0.00303080069820771
"agg" 0.535396228852175
"ave" 0.00396913988558136
"laveB" 0.0850762765247405
"agg" 0.609529318714323
"ave" 0.00549193864779714
"laveB" 0.105698292809036
"agg" 0.486543584393092
"ave" 0.00656696885229994
"laveB" 0.161424615449748
"agg" 0.345400572216888
"ave" 0.00520602741008914
"laveB" 0.110767274461063
"agg" 0.357944760338228
"ave" 0.0100734957193705
"laveB" 0.102330067664353
"agg" 0.433062261884317
"ave" 0.0112920678350677
"laveB" 0.140820490938396
"agg" 0.379788694105925
"ave" 0.0131639464707456
"laveB" 0.124731822448135
"agg" 0.421152681496563
"ave" 0.0131247908973517
"laveB" 0.133254931401831
"agg" 0.430862362453878
"ave" 0.0108298789334412
"laveB" 0.147068594301731
"agg" 0.443221418717126
"ave" 0.0108922792183359
"laveB" 0.141467692626846
"agg" 0.315494444729943
"ave" 0.0107064869881976
"laveB" 0.0921714922988682
"agg" 0.263138804201767
"ave" 0.00921401846044262
"laveB" 0.0828346903793451
"agg" 0.48722992241529
"ave" 0.00699322178507928
"laveB" 0.132300447164686
"agg" 0.447809767287508
"ave" 0.00508081074682891
"laveB" 0.0867020329177025
"agg" 0.440808740292138
"ave" 0.0126858316996856
"laveB" 0.144573088136782
"agg" 0.375750411160506
"ave" 0.0107494207376748
"laveB" 0.118841635087832
"agg" 0.365449233328888
"ave" 0.00790346020545828
"laveB" 0.108285388760492
"agg" 0.365001980665288
"ave" 0.00879155434512097
"laveB" 0.107218505027763
"agg" 0.399803214477552
"ave" 0.0085954191451612
"laveB" 0.100900931685803
"agg" 0.235645636565634
"ave" 0.00594689115224619
"laveB" 0.0545880263815635
"agg" 0.424171958714494
"ave" 0.00844090231079021
"laveB" 0.124184458046825
"agg" 0.266602358093794
"ave" 0.00661054261555401
"laveB" 0.0591496918008246
"agg" 0.266244609284499
"ave" 0.00878582012655775
"laveB" 0.10428516779877
"agg" 0.324074241619177
"ave" 0.00930372147404382
"laveB" 0.0852174321213118
"agg" 0.376193836095171
"ave" 0.00726791269690082
"laveB" 0.0894974483928659
"agg" 0.409557983793947
"ave" 0.0071739504457745
"laveB" 0.079339446078465
"agg" 0.404596760080371
"ave" 0.0096492016366912
"laveB" 0.144895261253289
"agg" 0.479074666203267
"ave" 0.012668424857574
"laveB" 0.14651866521651
"agg" 0.394708360126525
"ave" 0.00463682522774447
"laveB" 0.0815291315137554
"agg" 0.325450675416033
"ave" 0.00388599778090106
"laveB" 0.0771995120198395
"agg" 0.0946697664829175
"ave" 0.000542855823800947
"laveB" 5.98303329713256e-06
"agg" 0.243406553297994
"ave" 0.00270385573353611
"laveB" 0.0407695731210672
"agg" -0.00470737917305229
"ave" -0.000404861476584126
"laveB" 0.00446466873181962
"agg" 0.252341476085256
"ave" 0.00404847757875779
"laveB" 0.0668389081334457
"agg" 0.218606039922363
"ave" 0.00400190796913178
"laveB" 0.066493485793571
"agg" 0.130219800368897
"ave" 0.00181586244009655
"laveB" 0.0207077220544956
"agg" 0.405308265223231
"ave" 0.00899063282107615
"laveB" 0.120720825884192
"agg" 0.426462466455765
"ave" 0.0130118977581006
"laveB" 0.147528889077283
"agg" 0.513116095418968
"ave" 0.0097250567711569
"laveB" 0.147776047393887
"agg" 0.536798545771314
"ave" 0.011049985101501
"laveB" 0.153243052696205
"agg" 0.299885352168426
"ave" 0.00297662192045296
"laveB" 0.0769915047044816
"agg" 0.399672805490208
"ave" 0.00494437385086563
"laveB" 0.089001299625323
"agg" 0.423862701071769
"ave" 0.00789097415289269
"laveB" 0.116914007109816
"agg" 0.436873943721453
"ave" 0.00855075622104279
"laveB" 0.0992881081778974
"agg" 0.476377437546199
"ave" 0.00696166658477179
"laveB" 0.102192585628109
"agg" 0.414052946938471
"ave" 0.00624472162997729
"laveB" 0.0825975789569302
"agg" 0.0578477582935383
"ave" 0.00112929650269606
"laveB" -0.0115284680344579
"agg" 0.144041162130679
"ave" 0.00324301844698506
"laveB" 0.0454215069350104
"agg" 0.0980688566971129
"ave" 0.000800590742080738
"laveB" -0.00887501074783078
"agg" 0.169413531791368
"ave" 0.00188549364217276
"laveB" 0.0263085702007063
"agg" 0.203395721170351
"ave" 0.00325680479130778
"laveB" 0.0475124875613617
"agg" 0.34367606972352
"ave" 0.0049146778980193
"laveB" 0.0817336269301366
"agg" 0.169474237071836
"ave" 0.00249772890871641
"laveB" 0.041427034764394
"agg" 0.559459669479891
"ave" 0.0033751714188212
"laveB" 0.0869985476860533
"agg" 0.410557527744906
"ave" 0.00370061926303917
"laveB" 0.095535990941151
"agg" 0.288755246918474
"ave" 0.00294062936296393
"laveB" 0.0796533286442065
"agg" 0.42965681064864
"ave" 0.00878035144580059
"laveB" 0.131112761891107
"agg" 0.502188251078786
"ave" 0.00975413761223343
"laveB" 0.1549914673444
"agg" 0.426539977096207
"ave" 0.0113721044926847
"laveB" 0.13720243353222
"agg" 0.471083483496795
"ave" 0.0111412695082641
"laveB" 0.137976704894666
"agg" 0.541648596868468
"ave" 0.00996688945918936
"laveB" 0.163424222742309
"agg" 0.496135089106547
"ave" 0.0087960646950693
"laveB" 0.145918906515544
"agg" 0.292087950737566
"ave" 0.00844487799808311
"laveB" 0.0953815829469053
"agg" 0.240905905344151
"ave" 0.00717383773567992
"laveB" 0.0722042389811527
"agg" 0.529811764646691
"ave" 0.00573474995996831
"laveB" 0.128625873296174
"agg" 0.483173309969391
"ave" 0.00411087313149932
"laveB" 0.0897563226756785
"agg" 0.539064251074219
"ave" 0.0113626000438766
"laveB" 0.171823386825585
"agg" 0.523022370162134
"ave" 0.0108043046830643
"laveB" 0.153613753474549
"agg" 0.412970798827765
"ave" 0.00691203662448111
"laveB" 0.123859304186228
"agg" 0.38026704180521
"ave" 0.00685556986656839
"laveB" 0.0946148796522437
"agg" 0.376112925410162
"ave" 0.00628060444318567
"laveB" 0.102361084241672
"agg" 0.191000576087406
"ave" 0.003922131931302
"laveB" 0.0511637281065146
"agg" 0.441509677418679
"ave" 0.0063278336720073
"laveB" 0.121277126160051
"agg" 0.236380059233239
"ave" 0.00456925499135346
"laveB" 0.0551530068223929
"agg" 0.364694496088877
"ave" 0.00973590678485607
"laveB" 0.142282058448159
"agg" 0.372948791028362
"ave" 0.00847552858197578
"laveB" 0.107960538810966
"agg" 0.536954976502884
"ave" 0.00735745552977192
"laveB" 0.111020593325325
"agg" 0.580128720546439
"ave" 0.00756456910629269
"laveB" 0.11145764362709
"agg" 0.456153479219801
"ave" 0.00798036512510218
"laveB" 0.138137156203222
"agg" 0.496799982168679
"ave" 0.00989306613889042
"laveB" 0.157978262297968
"agg" 0.285590412108541
"ave" 0.00261730330443166
"laveB" 0.0704512689832368
"agg" 0.263183192857994
"ave" 0.00244557235261267
"laveB" 0.0615566101737685
"agg" 0.0458741474258947
"ave" 0.000249237084551018
"laveB" 0.00663174269082066
"agg" 0.137945311265379
"ave" 0.00111914902338705
"laveB" 0.0224033718212067
"agg" 0.126715968174041
"ave" 0.00164418830807208
"laveB" 0.0438599350728908
"agg" 0.0141693417314536
"ave" -4.11853575465521e-05
"laveB" 0.00312716098530276
"agg" 0.136962976175749
"ave" 0.00224196195934567
"laveB" 0.0555704071267532
"agg" 0.0354619181095085
"ave" 0.000645100422062925
"laveB" 0.0169315588167517
"agg" 0.461978216916851
"ave" 0.00771802197088343
"laveB" 0.140377698106708
"agg" 0.504427595668806
"ave" 0.0108252768566337
"laveB" 0.168556373750617
"agg" 0.568816380853474
"ave" 0.0077941543587697
"laveB" 0.150800752735343
"agg" 0.58578574710392
"ave" 0.00898692795909204
"laveB" 0.161329630965857
"agg" 0.343933999880022
"ave" 0.00271348172866685
"laveB" 0.062608301750471
"agg" 0.469103414766528
"ave" 0.00426606955047837
"laveB" 0.0975172024994976
"agg" 0.476585343103748
"ave" 0.00674164637127805
"laveB" 0.125918334402552
"agg" 0.468203799868658
"ave" 0.00702169569510857
"laveB" 0.112045798636048
"agg" 0.375070713405155
"ave" 0.00428379691907062
"laveB" 0.0874491891457739
"agg" 0.353635212606201
"ave" 0.00402929311416026
"laveB" 0.0836407299844148
"agg" -0.0788906937299095
"ave" -0.000499912195176687
"laveB" -0.0162352770406783
"agg" 0.0304251855576793
"ave" 0.00121879090448441
"laveB" 0.0242771296917698
"agg" 0.00154126710991768
"ave" 0.00016864930651787
"laveB" 0.00809418620493339
"agg" 0.0139863695835918
"ave" 9.14416609280751e-05
"laveB" 0.008649153502451
"agg" 0.128241027656989
"ave" 0.00197808047901312
"laveB" 0.0520839765089358
"agg" 0.277413331722379
"ave" 0.00303273912996095
"laveB" 0.0765143926022473
"agg" 0.0987172852916753
"ave" 0.0014618188640897
"laveB" 0.0336781634015356
"agg" 0.539517448429452
"ave" 0.00625036728666583
"laveB" 0.146906216986482
"agg" 0.431699023825112
"ave" 0.00529312503255788
"laveB" 0.115580882778291
"agg" 0.313220822857467
"ave" 0.00778057428561907
"laveB" 0.0871625994327647
"agg" 0.445910079875735
"ave" 0.0101246863209914
"laveB" 0.127976333869048
"agg" 0.255138357018636
"ave" 0.00913843558122549
"laveB" 0.0798102215397154
"agg" 0.407998291214532
"ave" 0.0116063488031179
"laveB" 0.120397388476093
"agg" 0.506289690080322
"ave" 0.0111260634414644
"laveB" 0.15147023216639
"agg" 0.525887589888088
"ave" 0.0111716311328101
"laveB" 0.173182756922744
"agg" 0.211351315607384
"ave" 0.00788515787852022
"laveB" 0.0789719456557295
"agg" 0.176159641992947
"ave" 0.00664122386946537
"laveB" 0.0519857453150862
"agg" 0.530870931569161
"ave" 0.00673448301037475
"laveB" 0.133577504619855
"agg" 0.554319722313392
"ave" 0.00546060036068209
"laveB" 0.0961964575921077
"agg" 0.517458552195557
"ave" 0.0125117973362273
"laveB" 0.158066442611773
"agg" 0.484579082187929
"ave" 0.0115279196561185
"laveB" 0.144602099594776
"agg" 0.379121137822005
"ave" 0.00781384986656247
"laveB" 0.100001188618897
"agg" 0.303806051102568
"ave" 0.00728496038859685
"laveB" 0.0981918621480235
"agg" 0.237960300266445
"ave" 0.00458060070553812
"laveB" 0.0593670261694594
"agg" 0.0260470947045585
"ave" 0.00112046822684157
"laveB" 0.00744306731509898
"agg" 0.403131432983671
"ave" 0.00720375179398316
"laveB" 0.110413498365086
"agg" 0.169893600560234
"ave" 0.00387533118301396
"laveB" 0.0452330508576964
"agg" 0.173422691700979
"ave" 0.00511344696151857
"laveB" 0.0648961146749131
"agg" 0.121840920131249
"ave" 0.00403367623874265
"laveB" 0.0356101814356627
"agg" 0.234806324741049
"ave" 0.00408009750363608
"laveB" 0.0480101200878262
"agg" 0.328112574277028
"ave" 0.00497116605891173
"laveB" 0.0750297088553731
"agg" 0.38489597910561
"ave" 0.00799746373453673
"laveB" 0.109625533257808
"agg" 0.383977678975188
"ave" 0.00897768541970324
"laveB" 0.115282377493068
"agg" 0.13575553388784
"ave" 0.0014887266991572
"laveB" 0.0307095932375241
"agg" 0.0819031788806276
"ave" 0.00102013961826429
"laveB" 0.0242999287244787
"agg" 0.0861146331844419
"ave" 0.000728950205099187
"laveB" 0.0234956833427883
"agg" 0.124759711450314
"ave" 0.00125469295289749
"laveB" 0.0168311928151977
"agg" 0.100735837703665
"ave" 0.00193965050244824
"laveB" 0.0189234465897828
"agg" 0.117074828740558
"ave" 0.00120574209526156
"laveB" 0.0171524685504675
"agg" -0.061878270781668
"ave" -0.000822654122136882
"laveB" -0.0258518275197017
"agg" -0.104816923709134
"ave" -0.00123002965506944
"laveB" -0.02351630950728
"agg" 0.421258020396845
"ave" 0.00812667799770719
"laveB" 0.112279957609081
"agg" 0.438846847952894
"ave" 0.0113252074260043
"laveB" 0.145124871818575
"agg" 0.543872277702292
"ave" 0.00900225281769922
"laveB" 0.14844203577166
"agg" 0.528270121328609
"ave" 0.00955723602955105
"laveB" 0.151215639065307
"agg" 0.291511936489831
"ave" 0.00251207979457726
"laveB" 0.0501424814117616
"agg" 0.452928309728379
"ave" 0.00482236282309263
"laveB" 0.0917617065235072
"agg" 0.406107022231295
"ave" 0.00662475855821206
"laveB" 0.095310034460583
"agg" 0.307978960112508
"ave" 0.00569684716510791
"laveB" 0.0591884739070039
"agg" 0.273726506705096
"ave" 0.00373753010478667
"laveB" 0.0524106899299929
"agg" 0.248552569479631
"ave" 0.00352918113119533
"laveB" 0.0696856679126898
"agg" -0.199489428351969
"ave" -0.00368374740724525
"laveB" -0.0743196706084159
"agg" -0.127587261128838
"ave" -0.00225660511065151
"laveB" -0.0357415762416665
"agg" -0.100280601828293
"ave" -0.00111225253587879
"laveB" -0.0325602650615312
"agg" -0.0670692252596769
"ave" -0.00103131331206091
"laveB" -0.0226135786335515
"agg" -0.0243103477580424
"ave" -2.39232775441552e-05
"laveB" 0.000582725651823997
"agg" 0.158084561962958
"ave" 0.00208683488829996
"laveB" 0.0360502787692824
"agg" -0.0557700153150483
"ave" -0.000296107259312059
"laveB" -0.0192542713990319
"agg" 0.46059755165206
"ave" 0.00819441120104479
"laveB" 0.2011955910971
"agg" 0.0683354502167402
"ave" 0.00236145260994302
"laveB" 0.0232562514862609
"agg" 0.214996993894873
"ave" 0.00616682680718411
"laveB" 0.0608364432886381
"agg" -0.0116651458051424
"ave" 0.00174506116332965
"laveB" -0.0190350007318466
"agg" 0.155238370867379
"ave" 0.00699719301545317
"laveB" 0.0504147884290382
"agg" 0.32932130248102
"ave" 0.00995878790195163
"laveB" 0.135769706338429
"agg" 0.334956402558949
"ave" 0.00943253536225511
"laveB" 0.121870796195277
"agg" -0.0544234227096876
"ave" 0.000805305130980013
"laveB" -0.0128562205705312
"agg" -0.122362159847246
"ave" -0.00329892010472202
"laveB" -0.0644966103675747
"agg" 0.310255414157942
"ave" 0.0056910850289389
"laveB" 0.104667116643841
"agg" 0.306387315949533
"ave" 0.00469504077217195
"laveB" 0.100365673313668
"agg" 0.450709192480824
"ave" 0.0162753475076066
"laveB" 0.196935603265977
"agg" 0.455765448120775
"ave" 0.0160961603452474
"laveB" 0.197888066725374
"agg" 0.128829747370826
"ave" 0.00450175908690313
"laveB" 0.0480336859324787
"agg" 0.117120801132487
"ave" 0.00512252132197141
"laveB" 0.05638367012833
"agg" 0.0650618964391877
"ave" 0.00196022675076894
"laveB" 0.0101795734720395
"agg" -0.0688209579902512
"ave" -0.00165734235734938
"laveB" -0.037857078490541
"agg" 0.321239403057086
"ave" 0.00883402893733294
"laveB" 0.122342168329793
"agg" 0.0835589284948059
"ave" 0.00202499309566074
"laveB" 0.00101500077471122
"agg" 0.119758049431617
"ave" 0.005079076216107
"laveB" 0.0540946787549256
"agg" -8.41269231244449e-05
"ave" 0.00146412214515047
"laveB" -0.0180690527274524
"agg" -0.0186703826562243
"ave" -0.000689643938095273
"laveB" -0.0401761367278
"agg" 0.0780485529780515
"ave" 0.00131853689289016
"laveB" 0.00642085347490013
"agg" 0.350241296746737
"ave" 0.0102498034971876
"laveB" 0.15466048590145
"agg" 0.331096734846942
"ave" 0.0123224914359045
"laveB" 0.169509817036863
"agg" 0.0860661677599856
"ave" 0.000981102981347698
"laveB" 0.0204379524134492
"agg" -0.0152860187096268
"ave" -0.000227653072668726
"laveB" 0.00124550720511837
"agg" 0.138987284746427
"ave" 0.00148539771498971
"laveB" 0.0153727919824532
"agg" 0.021702213405403
"ave" 0.00025125902157026
"laveB" -0.00842272328842949
"agg" 0.199966417032474
"ave" 0.00455960677826745
"laveB" 0.0647418241710723
"agg" 0.173313270703679
"ave" 0.003346874941025
"laveB" 0.0808100741974587
"agg" -0.266739067994449
"ave" -0.00606265833376484
"laveB" -0.144961448063929
"agg" -0.37471046321577
"ave" -0.0075260707038296
"laveB" -0.175116926112142
"agg" 0.311471943596118
"ave" 0.00810448642307391
"laveB" 0.0955312905599911
"agg" 0.33137200817085
"ave" 0.0122503438871533
"laveB" 0.148698893611694
"agg" 0.458261308301682
"ave" 0.0111823235718717
"laveB" 0.190904478183133
"agg" 0.480861874493797
"ave" 0.0123833735255728
"laveB" 0.185349983075045
"agg" 0.412066853387947
"ave" 0.00521137695174191
"laveB" 0.123716233875138
"agg" 0.463997265690368
"ave" 0.00720916298877087
"laveB" 0.160916920781578
"agg" 0.391400250307353
"ave" 0.00934348838268263
"laveB" 0.15276035811703
"agg" 0.162930777215372
"ave" 0.00395776038656891
"laveB" 0.0346293238272045
"agg" 0.0755255370019358
"ave" 0.00185231586257917
"laveB" 0.0147897878523574
"agg" 0.0217461210150282
"ave" 0.000733447496302935
"laveB" -0.0129334095493213
"agg" -0.439949636011528
"ave" -0.0117163825752071
"laveB" -0.247229804103108
"agg" -0.36679864855285
"ave" -0.0100280786305635
"laveB" -0.212064948486763
"agg" -0.364673634623124
"ave" -0.00588779701156187
"laveB" -0.166543913874535
"agg" -0.341752951433191
"ave" -0.00628876369005635
"laveB" -0.173800347992506
"agg" -0.257654597493836
"ave" -0.00475340936976999
"laveB" -0.122607789849764
"agg" -0.123855114589807
"ave" -0.00252176230484006
"laveB" -0.0795967187092021
"agg" -0.288966913425886
"ave" -0.00476255709401087
"laveB" -0.128200303160453
