"EST" "CORR"
"agg" 0.647353969642984
"ave" 0.0123802939719514
"laveB" 0.170838791189252
"agg" 0.731032479279864
"ave" 0.0143120028672854
"laveB" 0.172499181727267
"agg" 0.528614174913036
"ave" 0.0227027528311134
"laveB" 0.211307256502098
"agg" 0.689124047437004
"ave" 0.0329290021007252
"laveB" 0.298621180148575
"agg" 0.404810737246419
"ave" 0.0055544435648477
"laveB" 0.0982447639236576
"agg" 0.27987700800614
"ave" 0.00481005722986907
"laveB" 0.0773056648236078
"agg" 0.307581635364167
"ave" 0.00405652006845762
"laveB" 0.0550456649094611
"agg" 0.310659853997457
"ave" 0.00365009308793984
"laveB" 0.0675193543211154
"agg" 0.0829835062161843
"ave" 0.00143388135229856
"laveB" 0.016677524028515
"agg" 0.0192671336886131
"ave" 0.000543368626770075
"laveB" -0.0162634146805618
"agg" 0.406388431628694
"ave" 0.0148232992039938
"laveB" 0.143897156443528
"agg" 0.368171308912332
"ave" 0.0151111803672612
"laveB" 0.151238826906371
"agg" 0.35806386475049
"ave" 0.0100817710253479
"laveB" 0.100252193175049
"agg" 0.243342439887021
"ave" 0.00604546098800555
"laveB" 0.0766794430248963
"agg" 0.21836606478048
"ave" 0.00480720700007118
"laveB" 0.0641256714237436
"agg" 0.17042443879785
"ave" 0.0042693664469707
"laveB" 0.0390951159293774
"agg" 0.347183922751074
"ave" 0.013471245212123
"laveB" 0.0999437549764056
"agg" 0.224773136020776
"ave" 0.00930375207483089
"laveB" 0.0839416761477737
"agg" 0.0937124990993669
"ave" 0.00165441645688555
"laveB" 0.0282309367259192
"agg" 0.0295456789069937
"ave" 0.000510189633708725
"laveB" 0.0127464334443528
"agg" -0.230263356416379
"ave" -0.00917548425511091
"laveB" -0.0778611035371497
"agg" -0.251064746143347
"ave" -0.00906781198008851
"laveB" -0.0935347969898986
"agg" 0.0795478040422923
"ave" 0.00161107316086361
"laveB" 0.0279657975037188
"agg" 0.138461993165376
"ave" 0.00303898788312901
"laveB" 0.0347925492231437
"agg" 0.0503310803125647
"ave" 0.000783440266427198
"laveB" 0.0122268039842083
"agg" 0.302021588731699
"ave" 0.0129864731910907
"laveB" 0.102841806769493
"agg" -0.152737594565804
"ave" -0.00566555614525587
"laveB" -0.0679710655255072
"agg" 0.00993681002543304
"ave" -0.000300521087293903
"laveB" -0.0165028753392011
"agg" 0.547313065858271
"ave" 0.0277599881912909
"laveB" 0.229998096578585
"agg" 0.67572360632844
"ave" 0.0334143949754724
"laveB" 0.263877721337517
"agg" 0.632288372023659
"ave" 0.0205836119204503
"laveB" 0.208126217708486
"agg" 0.66558976914792
"ave" 0.019913321319183
"laveB" 0.194704149228971
"agg" -0.0662385183777828
"ave" -0.002242031724309
"laveB" -0.0313193451371141
"agg" 0.0480490548516807
"ave" -0.0010234263649475
"laveB" -0.00701187128563421
"agg" 0.332325625757129
"ave" 0.00693742694209044
"laveB" 0.119905765185411
"agg" 0.528752341973645
"ave" 0.010056221538355
"laveB" 0.188813113998173
"agg" 0.320159446731076
"ave" 0.00510299766991338
"laveB" 0.114620827429758
"agg" 0.422230456779332
"ave" 0.0090185789814671
"laveB" 0.151451325825544
"agg" 0.154650166100108
"ave" 0.00503274304711066
"laveB" 0.0586562859223539
"agg" 0.135715611434039
"ave" 0.00354733235315295
"laveB" 0.0452637464981476
"agg" 0.488066663916387
"ave" 0.00888855103712687
"laveB" 0.151108208703681
"agg" 0.53539141112121
"ave" 0.00915041612641203
"laveB" 0.168003719448726
"agg" 0.200540796736948
"ave" 0.00431828393536266
"laveB" 0.0926171924093924
"agg" 0.368250675420208
"ave" 0.00835261682305525
"laveB" 0.130706224527155
"agg" 0.126461416117957
"ave" 0.00189091440901545
"laveB" 0.0400729946612641
"agg" 0.137979259080049
"ave" 0.00389286563231449
"laveB" 0.0493361620577181
"agg" 0.135702067566749
"ave" 0.00174276597084112
"laveB" 0.0231436116926621
"agg" 0.137214534076804
"ave" 0.00282544526224554
"laveB" 0.0357614127706524
"agg" 0.180986752480825
"ave" 0.00496443655778018
"laveB" 0.0692608683113922
"agg" 0.225401066959044
"ave" 0.00827880178742833
"laveB" 0.0775949241610576
"agg" 0.125404835899162
"ave" 0.00165939897520512
"laveB" 0.0182993840401842
"agg" 0.267896469944339
"ave" 0.00532396938972246
"laveB" 0.0797962847892833
"agg" 0.488226848727559
"ave" 0.0127482841788104
"laveB" 0.192386006837909
"agg" 0.346859080060444
"ave" 0.00925817543930176
"laveB" 0.143442448054657
"agg" 0.206914727768785
"ave" 0.00250532520307368
"laveB" 0.0381167533193274
"agg" 0.221112710875005
"ave" 0.00317103996892942
"laveB" 0.0620283368806793
"agg" 0.333088673834614
"ave" 0.0035921348265028
"laveB" 0.0557091808260512
"agg" 0.338577596551614
"ave" 0.00472383130187084
"laveB" 0.0790134756106336
"agg" 0.498618494632714
"ave" 0.00582261899752867
"laveB" 0.115369859686437
"agg" 0.82188507418438
"ave" 0.0131914622077273
"laveB" 0.179658280278469
"agg" 0.474784225798925
"ave" 0.0153791639518093
"laveB" 0.113317082992097
"agg" 0.588428239412163
"ave" 0.0217186258893865
"laveB" 0.158961414127032
"agg" 0.30978575034485
"ave" 0.003784649270437
"laveB" 0.0628197355834881
"agg" 0.30266460837267
"ave" 0.00399961346564944
"laveB" 0.0613583083172411
"agg" 0.266017004358896
"ave" 0.003155101600666
"laveB" 0.0457556490695188
"agg" 0.267676558983597
"ave" 0.00275545111700293
"laveB" 0.049394247095905
"agg" 0.246807574326884
"ave" 0.00359000169085045
"laveB" 0.0812673281499723
"agg" 0.258805890473476
"ave" 0.00452339020723994
"laveB" 0.0779126342439432
"agg" 0.395908054521122
"ave" 0.0132197229778752
"laveB" 0.126159193608695
"agg" 0.313584982310481
"ave" 0.0115369336451288
"laveB" 0.107061972159591
"agg" 0.468808147773187
"ave" 0.0136593443161562
"laveB" 0.1395803233019
"agg" 0.35449595919507
"ave" 0.0103700170380121
"laveB" 0.116422418611057
"agg" 0.39027101622184
"ave" 0.00846890830802623
"laveB" 0.106608498172221
"agg" 0.350364143908596
"ave" 0.00872606878315636
"laveB" 0.102674537932292
"agg" 0.498819671012275
"ave" 0.0172456784491701
"laveB" 0.1397390706861
"agg" 0.42194882627087
"ave" 0.0163270201617746
"laveB" 0.131345774433731
"agg" 0.278213417497107
"ave" 0.00465180067763193
"laveB" 0.0711796342926955
"agg" 0.245551054085043
"ave" 0.00446022993311184
"laveB" 0.0691708643188869
"agg" 0.0891969559213814
"ave" 0.0038522789515096
"laveB" 0.0762157955424996
"agg" 0.0882098766751557
"ave" 0.00367755940097457
"laveB" 0.0646141645709709
"agg" 0.362115556600712
"ave" 0.0111664976809486
"laveB" 0.118431136802744
"agg" 0.487050191285062
"ave" 0.0144553132851609
"laveB" 0.147527533188784
"agg" 0.341824941928841
"ave" 0.00945188364009547
"laveB" 0.10766427415877
"agg" 0.297162783916577
"ave" 0.00999467586464636
"laveB" 0.0823081226787395
"agg" 0.289734515137825
"ave" 0.00819454483516256
"laveB" 0.12623112626879
"agg" 0.411919143841169
"ave" 0.0124471732803436
"laveB" 0.142750686919434
"agg" 0.533145642984914
"ave" 0.0209640526324348
"laveB" 0.183218132930896
"agg" 0.557624250665204
"ave" 0.0219217575306748
"laveB" 0.17357207593397
"agg" 0.617634382055513
"ave" 0.0183275530373229
"laveB" 0.171745057205746
"agg" 0.547836460675029
"ave" 0.0154094388165805
"laveB" 0.159217892105774
"agg" 0.123866341058641
"ave" 0.00337685001044673
"laveB" 0.0629272205293037
"agg" 0.27035579481137
"ave" 0.0044457688148818
"laveB" 0.0769609483893283
"agg" 0.579408047985909
"ave" 0.0102383924826941
"laveB" 0.174254160743833
"agg" 0.649160925507365
"ave" 0.0103961738336475
"laveB" 0.169838408624206
"agg" 0.50409188312336
"ave" 0.00653616952314649
"laveB" 0.133183717917506
"agg" 0.596553901867364
"ave" 0.0103629044352297
"laveB" 0.170257205427287
"agg" 0.164235514379514
"ave" 0.00446392407043316
"laveB" 0.0507635831364041
"agg" 0.273517549834538
"ave" 0.00630682169659141
"laveB" 0.0965821065062939
"agg" 0.481691660880509
"ave" 0.00731421733808334
"laveB" 0.119243885310587
"agg" 0.421297613934731
"ave" 0.00602239338861273
"laveB" 0.0993529700358999
"agg" 0.319976776628388
"ave" 0.00694652145058367
"laveB" 0.113154451413532
"agg" 0.294512984466724
"ave" 0.0058452394400552
"laveB" 0.0928392438400422
"agg" 0.342425470849558
"ave" 0.00564359454518468
"laveB" 0.101668029767015
"agg" 0.250069868872222
"ave" 0.00586556618570885
"laveB" 0.0953736586946585
"agg" 0.181060579241845
"ave" 0.00193560137823557
"laveB" 0.0347871589277901
"agg" 0.195882571674856
"ave" 0.00297437216848428
"laveB" 0.0494727811124398
"agg" 0.390702370913398
"ave" 0.0089808019500301
"laveB" 0.113439233877905
"agg" 0.383428248363475
"ave" 0.0112640193969065
"laveB" 0.103280985150965
"agg" 0.458489155751694
"ave" 0.00620860352873026
"laveB" 0.082511961115472
"agg" 0.484377291951239
"ave" 0.00734086646921247
"laveB" 0.0901833232265377
"agg" 0.637990680588251
"ave" 0.0137756429878282
"laveB" 0.199135338341782
"agg" 0.624216844751041
"ave" 0.0137482459726523
"laveB" 0.169273202815017
"agg" 0.530110989640319
"ave" 0.00594187457980837
"laveB" 0.103672708857824
"agg" 0.553790909948525
"ave" 0.00645588266938806
"laveB" 0.122771424684248
"agg" 0.578685611565877
"ave" 0.00609356017662809
"laveB" 0.115809638187713
"agg" 0.592748114502936
"ave" 0.00796013021639299
"laveB" 0.118716348018522
"agg" 0.594112054433081
"ave" 0.00585194145940279
"laveB" 0.105108879167481
"agg" 0.415470479895508
"ave" 0.0141774932945008
"laveB" 0.076614479772221
"agg" 0.670366646605344
"ave" 0.0262299767185615
"laveB" 0.141548339792976
"agg" 0.244441747835464
"ave" 0.00290867893091586
"laveB" 0.0277206948255731
"agg" 0.313327234239857
"ave" 0.00436531699829995
"laveB" 0.0693020462634652
"agg" 0.295946383707334
"ave" 0.00349196544199382
"laveB" 0.0529901599271201
"agg" 0.250748491286113
"ave" 0.00264473766346511
"laveB" 0.04629745153641
"agg" 0.127571349109562
"ave" 0.00180030124377309
"laveB" 0.0357312898636042
"agg" 0.132869042198362
"ave" 0.00273633977553814
"laveB" 0.0403790504324008
"agg" 0.437349102913782
"ave" 0.0144118399523071
"laveB" 0.113870359638227
"agg" 0.411917439767595
"ave" 0.0146684221845004
"laveB" 0.114360465346155
"agg" 0.426094443838567
"ave" 0.0116499442597772
"laveB" 0.107065553603895
"agg" 0.384751930487697
"ave" 0.0106529815897075
"laveB" 0.121461078930985
"agg" 0.349906300299546
"ave" 0.00734402790095855
"laveB" 0.0925200548571903
"agg" 0.318450184540496
"ave" 0.00757653033051615
"laveB" 0.0882640414973594
"agg" 0.424691380602918
"ave" 0.01441074954461
"laveB" 0.111526132005209
"agg" 0.331602805493035
"ave" 0.0124458773278403
"laveB" 0.110269434370439
"agg" 0.163678589929125
"ave" 0.00262387515456884
"laveB" 0.0416253691910006
"agg" 0.0860190701672691
"ave" 0.00169275704330601
"laveB" 0.0419958094967907
"agg" -0.0934212746113947
"ave" -0.00258927051158627
"laveB" 0.0334725609991306
"agg" -0.0859640515026238
"ave" -0.00151088356726245
"laveB" 0.00834202572284708
"agg" 0.192646519674415
"ave" 0.00576910100288566
"laveB" 0.0887338258030942
"agg" 0.327386375991337
"ave" 0.00988570741567946
"laveB" 0.0980334548218794
"agg" 0.148835021418014
"ave" 0.00428288115214567
"laveB" 0.0594835046637284
"agg" 0.365878003430084
"ave" 0.0138759806839611
"laveB" 0.108151396423578
"agg" 0.125369075977007
"ave" 0.00374744713039247
"laveB" 0.0738780362449148
"agg" 0.365199665474872
"ave" 0.0114656328328136
"laveB" 0.139523842480712
"agg" 0.425147002162911
"ave" 0.0176642098672
"laveB" 0.121183869442472
"agg" 0.550097693352696
"ave" 0.0232060092862686
"laveB" 0.132177888626379
"agg" 0.513760947921167
"ave" 0.0149796369945488
"laveB" 0.104200590604142
"agg" 0.565166163423493
"ave" 0.0154206417645197
"laveB" 0.130134859855159
"agg" -0.0599031861161266
"ave" -0.00151518526048079
"laveB" 0.000863328944355362
"agg" 0.125316299137097
"ave" 0.00118806695709914
"laveB" 0.0337538528553438
"agg" 0.509850054024745
"ave" 0.00934454596722663
"laveB" 0.159644605039373
"agg" 0.625223035822989
"ave" 0.0101622885823729
"laveB" 0.167300963147869
"agg" 0.420738953382969
"ave" 0.00556730553750056
"laveB" 0.112483407333839
"agg" 0.563745270369336
"ave" 0.0102711849562935
"laveB" 0.171871689143763
"agg" 0.122656118041042
"ave" 0.00344313736730319
"laveB" 0.0465645299657607
"agg" 0.158999870606269
"ave" 0.00393999881976587
"laveB" 0.0601215205058734
"agg" 0.511637835178536
"ave" 0.00793178045336708
"laveB" 0.101629861168452
"agg" 0.543225835401701
"ave" 0.00774691032453334
"laveB" 0.131770666231191
"agg" 0.339411591193744
"ave" 0.00740467020797073
"laveB" 0.1304871506542
"agg" 0.410286054874411
"ave" 0.00821960519164731
"laveB" 0.107614674079343
"agg" 0.289166605825092
"ave" 0.00451653362698373
"laveB" 0.110237542927251
"agg" 0.172465335931558
"ave" 0.00417326949910735
"laveB" 0.0855471619215275
"agg" 0.192059236228432
"ave" 0.00194397212682469
"laveB" 0.0352725179269959
"agg" 0.137351535803583
"ave" 0.00235214322891488
"laveB" 0.0337677293245958
"agg" 0.170597260088594
"ave" 0.00451683762639338
"laveB" 0.0630707612215926
"agg" 0.285095764520798
"ave" 0.00891532614080467
"laveB" 0.104535777791766
"agg" 0.212417430346893
"ave" 0.00316945940256737
"laveB" 0.0516994292364162
"agg" 0.361536544502653
"ave" 0.00611763154238306
"laveB" 0.0729501507090066
"agg" 0.586323245608557
"ave" 0.0131338835507191
"laveB" 0.174986705660661
"agg" 0.430932503782998
"ave" 0.00970602743065546
"laveB" 0.121237737430935
"agg" 0.386633524533906
"ave" 0.00442091267617899
"laveB" 0.0907192168709424
"agg" 0.377833224631811
"ave" 0.00463679937175921
"laveB" 0.0801188023635052
"agg" 0.587515651117325
"ave" 0.00603506968399764
"laveB" 0.112650671473117
"agg" 0.494161758289615
"ave" 0.00651317960172414
"laveB" 0.108778209775423
"agg" 0.546413276601992
"ave" 0.00554374440077706
"laveB" 0.0961737738317952
"agg" 0.716746568366689
"ave" 0.0600981460151227
"laveB" 0.381392385478453
"agg" 0.246770310657834
"ave" 0.00574456384135516
"laveB" 0.0570041802418155
"agg" 0.250887615724418
"ave" 0.007355562367921
"laveB" 0.0822237674267039
"agg" 0.196972028498565
"ave" 0.00497737476517758
"laveB" 0.0567060360084484
"agg" 0.164657499932485
"ave" 0.00301988582950025
"laveB" 0.0296965667731206
"agg" -0.00301471337484695
"ave" 0.000290330744084491
"laveB" -0.00241061249881753
"agg" -0.0874049679751594
"ave" -0.00304718172928828
"laveB" -0.0556786406161111
"agg" 0.350693851211409
"ave" 0.0209593297122649
"laveB" 0.127007642890304
"agg" 0.191972008534308
"ave" 0.0152342219466955
"laveB" 0.0676703829952299
"agg" 0.313641721789147
"ave" 0.0145202653105803
"laveB" 0.102896418817179
"agg" 0.0608642701686662
"ave" -0.000201585112077731
"laveB" 0.000148739900941125
"agg" 0.0261096179733331
"ave" 0.000500406503276491
"laveB" -0.0212320897784748
"agg" -0.0383683668288271
"ave" -0.00156340737059542
"laveB" -0.0290595421427078
"agg" 0.220483451234338
"ave" 0.0150056427149812
"laveB" 0.0747632536983469
"agg" 0.162936617392484
"ave" 0.0123322792024643
"laveB" 0.0518051131560563
"agg" -0.124632251696667
"ave" -0.00490324883508785
"laveB" -0.0369353610862407
"agg" -0.159259917926661
"ave" -0.00600039948492396
"laveB" -0.0466392948411169
"agg" -0.409498068591985
"ave" -0.0297949512880533
"laveB" -0.210611632796789
"agg" -0.393388261530139
"ave" -0.0262942152705522
"laveB" -0.186188046075836
"agg" -0.146561213009805
"ave" -0.0120682219856904
"laveB" -0.088484755493132
"agg" -0.0181458532590278
"ave" -0.00798538207619937
"laveB" -0.0505845696948723
"agg" -0.0969942318243785
"ave" -0.00786141048208701
"laveB" -0.0694883043722226
"agg" 0.0444361544637393
"ave" 0.00306998960645655
"laveB" -0.01520378593963
"agg" -0.40290812676877
"ave" -0.0253153005332375
"laveB" -0.189243034174082
"agg" -0.322129359490862
"ave" -0.0225059873625229
"laveB" -0.159910477033607
"agg" 0.550807478947393
"ave" 0.0479142824200945
"laveB" 0.28563002327927
"agg" 0.579832673710187
"ave" 0.0486221853750278
"laveB" 0.272804178855905
"agg" 0.639960295343609
"ave" 0.033471533588766
"laveB" 0.204646553965377
"agg" 0.553924532730652
"ave" 0.0266115447451535
"laveB" 0.155192145539373
"agg" -0.156597021292174
"ave" -0.00895293119985001
"laveB" -0.077525358948889
"agg" -0.0838588404585918
"ave" -0.0082346800447385
"laveB" -0.0678426339635864
"agg" 0.207459204375403
"ave" 0.00769010783761133
"laveB" 0.077046601272797
"agg" 0.396344405858483
"ave" 0.0130708034393423
"laveB" 0.145275293764221
"agg" 0.210260240348185
"ave" 0.00543560349514841
"laveB" 0.0747979879598889
"agg" 0.279041012758372
"ave" 0.00984545378799988
"laveB" 0.119607919357639
"agg" -0.0672944442064939
"ave" -0.00435996003262657
"laveB" -0.0501251821615279
"agg" -0.112571356633162
"ave" -0.00526723850889405
"laveB" -0.0533579635116915
"agg" 0.338665539894237
"ave" 0.0111766301980519
"laveB" 0.112813376892493
"agg" 0.219785552861043
"ave" 0.00733656180493338
"laveB" 0.061309257128058
"agg" -0.112763572659675
"ave" -0.0061272524293132
"laveB" -0.0478136849298793
"agg" 0.0210546840847737
"ave" 0.00103467613579818
"laveB" -0.0181634403107435
"agg" -0.23207515801499
"ave" -0.00870214430299536
"laveB" -0.0911795058855804
"agg" -0.225047324616446
"ave" -0.00981785640221212
"laveB" -0.100096247403929
"agg" -0.0857308777385476
"ave" -0.00149807100871015
"laveB" -0.0315295605982457
"agg" -0.0737775220111176
"ave" -0.0020185325173078
"laveB" -0.0152123002839415
"agg" 0.0400405234910773
"ave" 0.00188872717427979
"laveB" 0.0291911410834451
"agg" -0.0238184037985051
"ave" 0.000878356064292186
"laveB" -0.0108380127176075
"agg" -0.0103088860705371
"ave" 0.000178787525812764
"laveB" 0.000767422933556207
"agg" 0.115009033025426
"ave" 0.00478704680348235
"laveB" 0.040243286784357
"agg" 0.449653494626534
"ave" 0.0205824734362435
"laveB" 0.188120923709949
"agg" 0.488290107130668
"ave" 0.02259571534131
"laveB" 0.210633017064034
"agg" 0.0356705856300141
"ave" 0.00066739787361147
"laveB" -0.0132428257387883
"agg" 0.121104635342218
"ave" 0.00238912571071508
"laveB" 0.0363560875913952
"agg" 0.228122046448269
"ave" 0.00409526977732089
"laveB" 0.0310684004419727
"agg" 0.211750854110719
"ave" 0.00540326372864183
"laveB" 0.0309509178069836
"agg" 0.449407985172757
"ave" 0.00887288071592479
"laveB" 0.110538991070511
"agg" 0.375581124678088
"ave" 0.0103481924161351
"laveB" 0.106810927419871
"agg" 0.379272542987432
"ave" 0.0124078585252973
"laveB" 0.142721581067434
"agg" 0.283437664469092
"ave" 0.00763420418983228
"laveB" 0.0787978533949994
"agg" 0.246974251354221
"ave" 0.005102188339244
"laveB" 0.0633415426575211
"agg" -0.00779896135045767
"ave" -0.000348349382748473
"laveB" -0.021852526997584
"agg" -0.0456022435876734
"ave" -0.00216607820493672
"laveB" -0.0561193014325208
"agg" 0.554965921351947
"ave" 0.0394116178080008
"laveB" 0.253505198010565
"agg" 0.461574534347986
"ave" 0.0375207877322231
"laveB" 0.204746503218996
"agg" 0.447742985778432
"ave" 0.0240181643213687
"laveB" 0.15954307140323
"agg" 0.267701526025157
"ave" 0.0111205369606207
"laveB" 0.078833202192353
"agg" 0.16629448855855
"ave" 0.00609416269919111
"laveB" 0.00227042099550026
"agg" 0.154357385927012
"ave" 0.0068993157282435
"laveB" 0.0179083846374421
"agg" 0.43930789451938
"ave" 0.0333142754393921
"laveB" 0.142399469579736
"agg" 0.340773206744348
"ave" 0.0279212214296297
"laveB" 0.134513978264865
"agg" -0.145488302893129
"ave" -0.00770888775651389
"laveB" -0.0616068763734737
"agg" -0.180055395358868
"ave" -0.00848325404834544
"laveB" -0.0637399135471704
"agg" -0.384205298888005
"ave" -0.0345132449122068
"laveB" -0.210085795827495
"agg" -0.352414662345214
"ave" -0.0276656639597994
"laveB" -0.181638223829104
"agg" 0.0242549107719973
"ave" -0.00435875194382393
"laveB" -0.0241258204803058
"agg" 0.126529804502634
"ave" 0.000104852939324523
"laveB" 0.00455114282222689
"agg" -0.0265379672818262
"ave" -0.0057275723617538
"laveB" -0.0553017135059831
"agg" 0.249944031431063
"ave" 0.0223170934593445
"laveB" 0.0997584536620953
"agg" -0.39077682661046
"ave" -0.0308235402396491
"laveB" -0.219516500941606
"agg" -0.180952543317882
"ave" -0.0171681655851485
"laveB" -0.143483308749803
"agg" 0.491583908570793
"ave" 0.0497759988996795
"laveB" 0.271232374603387
"agg" 0.707983431094514
"ave" 0.0705038142576669
"laveB" 0.389612013348665
"agg" 0.733861128017376
"ave" 0.0459472935923775
"laveB" 0.285320768031614
"agg" 0.77927585918944
"ave" 0.0456870828414878
"laveB" 0.269571296231626
"agg" -0.193153253900301
"ave" -0.0148341553977732
"laveB" -0.120703896274883
"agg" -0.0201338350481963
"ave" -0.00695675304821459
"laveB" -0.0447895967098724
"agg" 0.424828605416499
"ave" 0.0170195285489368
"laveB" 0.163931742793096
"agg" 0.582617634284957
"ave" 0.0218851170105552
"laveB" 0.216354326529926
"agg" 0.238291480636496
"ave" 0.00606441571107825
"laveB" 0.0668405843925425
"agg" 0.388298915671079
"ave" 0.0151645692682695
"laveB" 0.15937121500679
"agg" -0.0574190825112939
"ave" -0.00532527470422332
"laveB" -0.0273689868309279
"agg" -0.0446613694929329
"ave" -0.00405776662315776
"laveB" -0.0193272854268353
"agg" 0.595038109575225
"ave" 0.0207593642936496
"laveB" 0.209606809104882
"agg" 0.53351430188608
"ave" 0.018084986607625
"laveB" 0.203829505761147
"agg" 0.0446535740177399
"ave" -0.00158934130070708
"laveB" 0.0156939819010949
"agg" 0.359429015522791
"ave" 0.0168128930441812
"laveB" 0.150223462699648
"agg" -0.116510005744219
"ave" -0.00753427062490075
"laveB" -0.0701877895270856
"agg" -0.113395179546558
"ave" -0.00692581752853919
"laveB" -0.0626888199547798
"agg" -0.058868624367876
"ave" -0.00155763493757279
"laveB" -0.0255024781045369
"agg" 0.00127108964263195
"ave" -0.000490040171517105
"laveB" -0.00231234844807707
"agg" -0.0158278421462569
"ave" -0.00112366762145165
"laveB" -0.0152462113776335
"agg" 0.0716468113265335
"ave" 0.00632920533981751
"laveB" 0.0316658116004469
"agg" 0.0657937844146822
"ave" 0.00236812939345339
"laveB" 0.0100229322236762
"agg" 0.239365081270114
"ave" 0.0109927996393831
"laveB" 0.0919664814384219
"agg" 0.61532640530932
"ave" 0.032400337189724
"laveB" 0.291278657990378
"agg" 0.522654512609008
"ave" 0.0269087652140886
"laveB" 0.228583510043064
"agg" 0.216768393877036
"ave" 0.00449865242044677
"laveB" 0.0232997887503211
"agg" 0.227035691277096
"ave" 0.00551375429366207
"laveB" 0.0525879814236215
"agg" 0.529431876262696
"ave" 0.0112159259259696
"laveB" 0.118291788667709
"agg" 0.407343162382098
"ave" 0.0115325613256699
"laveB" 0.0992809790623837
"agg" 0.6434609072287
"ave" 0.0143667237683956
"laveB" 0.160526505444672
"agg" 0.644913631396202
"ave" 0.00623069671711795
"laveB" 0.149366860880378
"agg" 0.575096998805822
"ave" 0.00445305280983684
"laveB" 0.109229654585344
"agg" 0.610635859606352
"ave" 0.00453016898115381
"laveB" 0.100675838512981
"agg" 0.241017055078003
"ave" 0.00304131519283565
"laveB" 0.0837912196318214
"agg" 0.236444443450671
"ave" 0.00286091900430974
"laveB" 0.0643376437145867
"agg" 0.44353933205821
"ave" 0.0113915508492219
"laveB" 0.127641629448016
"agg" 0.431068722250881
"ave" 0.0116775493944562
"laveB" 0.119834613489676
"agg" 0.411956731367724
"ave" 0.00977352560073054
"laveB" 0.114642359939011
"agg" 0.35924961350064
"ave" 0.00795835183252668
"laveB" 0.085277873607148
"agg" 0.388791518012823
"ave" 0.00630275393957857
"laveB" 0.0766515683011263
"agg" 0.35791539647882
"ave" 0.00659242560839914
"laveB" 0.0821025203776482
"agg" 0.514694115317817
"ave" 0.013794973468892
"laveB" 0.129202815790375
"agg" 0.43040387963396
"ave" 0.0127847604577964
"laveB" 0.116930991634926
"agg" 0.357093476893259
"ave" 0.00402902434532452
"laveB" 0.0805521769822876
"agg" 0.262613559584737
"ave" 0.00341915223151517
"laveB" 0.064187118542641
"agg" 0.090343426145933
"ave" 0.00314883725429068
"laveB" 0.0538799470894171
"agg" 0.103708692703481
"ave" 0.00337646124175845
"laveB" 0.047818076498451
"agg" 0.306498190254466
"ave" 0.00778232179502975
"laveB" 0.0823103915017258
"agg" 0.216107993742511
"ave" 0.00460050968723959
"laveB" 0.055335577652702
"agg" 0.197246203406712
"ave" 0.00447270851770339
"laveB" 0.0531044486843283
"agg" 0.142856530469694
"ave" 0.0043818319592821
"laveB" 0.0389067926229702
"agg" -0.137262033280299
"ave" -0.00285813942350132
"laveB" -0.0387303422891538
"agg" -0.0973916116536803
"ave" -0.00245578287784205
"laveB" -0.0324989854327026
"agg" 0.298832037881548
"ave" 0.00889705859752029
"laveB" 0.102500620709624
"agg" 0.43944939195123
"ave" 0.0128694380946281
"laveB" 0.134480293224427
"agg" 0.497132945797606
"ave" 0.0100678561034031
"laveB" 0.118422671571511
"agg" 0.500229018486418
"ave" 0.00969105985217333
"laveB" 0.125153793087938
"agg" 0.270694443423636
"ave" 0.00577836856960112
"laveB" 0.101059469661766
"agg" 0.330258604087996
"ave" 0.00558615564922198
"laveB" 0.100025738110061
"agg" 0.37875109933553
"ave" 0.0050492656154319
"laveB" 0.108515163063167
"agg" 0.308213879291141
"ave" 0.00359794742746678
"laveB" 0.0719650906780196
"agg" 0.151231368276863
"ave" 0.00120623424541754
"laveB" 0.0284233765051067
"agg" 0.28624254481676
"ave" 0.00365727850567042
"laveB" 0.0688931945084946
"agg" 0.0854286580992597
"ave" 0.00163402565784261
"laveB" 0.0351069488958731
"agg" 0.219968952831683
"ave" 0.00373414172053284
"laveB" 0.0533312031092881
"agg" 0.28701764995833
"ave" 0.00323255816277502
"laveB" 0.0668205281751712
"agg" 0.245657526691807
"ave" 0.0025142794566527
"laveB" 0.0459363641261031
"agg" 0.195980605408559
"ave" 0.00301222596444135
"laveB" 0.0703790052830286
"agg" 0.349710646555583
"ave" 0.00504527934732088
"laveB" 0.104822411544015
"agg" 0.18703171076685
"ave" 0.00239814180117637
"laveB" 0.0542983439408654
"agg" 0.26605808234033
"ave" 0.00468167577596665
"laveB" 0.0792780267009839
"agg" 0.117574075474429
"ave" 0.000788793512027901
"laveB" 0.0160857977456866
"agg" 0.290996624128926
"ave" 0.00315260666985058
"laveB" 0.0684607781375724
"agg" 0.297972642863053
"ave" 0.00506301158970361
"laveB" 0.0886353439820716
"agg" 0.292469789654346
"ave" 0.00623149845754308
"laveB" 0.0729932000798745
"agg" 0.256948254741438
"ave" 0.00249326378733111
"laveB" 0.0415720585396957
"agg" 0.379215389891892
"ave" 0.00438933246003719
"laveB" 0.0589002355982667
"agg" 0.326128796966956
"ave" 0.00513496442694245
"laveB" 0.0854386789197252
"agg" 0.303906582874885
"ave" 0.00506299414871616
"laveB" 0.0734906294539792
"agg" 0.272509281745228
"ave" 0.00241414286694307
"laveB" 0.0454718500709067
"agg" 0.308064612065164
"ave" 0.00281202563580036
"laveB" 0.052430674353089
"agg" 0.355990250906407
"ave" 0.00275651398286053
"laveB" 0.0448184149623467
"agg" 0.385911835437397
"ave" 0.00378044319373598
"laveB" 0.0657631173666675
"agg" 0.392454559449844
"ave" 0.00309903437825633
"laveB" 0.065065106446749
"agg" 0.442454477983069
"ave" 0.00362873453760874
"laveB" 0.0858616584008071
"agg" 0.549574865246711
"ave" 0.00413714824281619
"laveB" 0.101482136328536
"agg" 0.0697246458333763
"ave" 0.000587368354589593
"laveB" -0.00464792353059903
"agg" 0.262897554267929
"ave" 0.00329928226273184
"laveB" 0.0711925928471169
"agg" 0.440063400714532
"ave" 0.0116860068013997
"laveB" 0.134685169769039
"agg" 0.469258412499124
"ave" 0.0132937710156732
"laveB" 0.162540361660443
"agg" 0.376332928921303
"ave" 0.00897659524874228
"laveB" 0.112359322517619
"agg" 0.406628000128753
"ave" 0.00920442766428763
"laveB" 0.118990980477958
"agg" 0.38435535930678
"ave" 0.00617759627400737
"laveB" 0.092402089182368
"agg" 0.36961211258126
"ave" 0.00686683282114867
"laveB" 0.0804703142926777
"agg" 0.481020489124521
"ave" 0.0130361516070273
"laveB" 0.131429367614592
"agg" 0.424968654454323
"ave" 0.012415086103648
"laveB" 0.117849091972736
"agg" 0.239073714360934
"ave" 0.00246047730136459
"laveB" 0.0591040091524286
"agg" 0.154493261490858
"ave" 0.00175400920089938
"laveB" 0.046742860718842
"agg" 0.121884346539288
"ave" 0.00288324374286169
"laveB" 0.0516081849820287
"agg" 0.148972808148039
"ave" 0.00392606672265311
"laveB" 0.069124982571617
"agg" 0.245104915315979
"ave" 0.00591313837756852
"laveB" 0.0750511976488038
"agg" 0.230102331126302
"ave" 0.00466734307956135
"laveB" 0.0761182558499172
"agg" 0.0795125670510269
"ave" 0.0016889810808073
"laveB" 0.0360307461122763
"agg" 0.00683539853771037
"ave" 0.000743934466660462
"laveB" 0.00207307907503988
"agg" -0.107969248863045
"ave" -0.00291502689094214
"laveB" -0.0204923524045932
"agg" -0.03698712303053
"ave" -0.00165189028103875
"laveB" -0.0060695873870986
"agg" 0.348053035823224
"ave" 0.0113938713511319
"laveB" 0.131135782573899
"agg" 0.410617379643613
"ave" 0.0130768861341981
"laveB" 0.138703222339508
"agg" 0.460444840408314
"ave" 0.00990764562781989
"laveB" 0.12984371287764
"agg" 0.471952290876143
"ave" 0.00967648946146392
"laveB" 0.11773547195535
"agg" 0.122496227942607
"ave" 0.00211011760193719
"laveB" 0.0393546910950269
"agg" 0.219572725646257
"ave" 0.00331181237186784
"laveB" 0.0721997039036812
"agg" 0.282840805572544
"ave" 0.00397608709504353
"laveB" 0.0811669967606081
"agg" 0.190678602526318
"ave" 0.00254653278714648
"laveB" 0.0493863484831925
"agg" 0.138806313532616
"ave" 0.00138341205888822
"laveB" 0.0482820584650912
"agg" 0.303893532231013
"ave" 0.00463419954506534
"laveB" 0.102258436295537
"agg" -0.0243768331960833
"ave" -0.000152893526340154
"laveB" 0.00393927162694706
"agg" 0.189786973267676
"ave" 0.00385594799903257
"laveB" 0.0482907376495726
"agg" 0.32785659243232
"ave" 0.00421322442385241
"laveB" 0.0769216307138333
"agg" 0.240000679716632
"ave" 0.00301840756477393
"laveB" 0.0891359222318785
"agg" 0.301229371739653
"ave" 0.00486394419285507
"laveB" 0.0982559270975516
"agg" 0.391182691956814
"ave" 0.00646179764960269
"laveB" 0.13356531500801
"agg" 0.146832438955053
"ave" 0.00158490018785488
"laveB" 0.0346094304813486
"agg" 0.209501657365075
"ave" 0.00321632405109212
"laveB" 0.0672575819795419
"agg" 0.224188512587391
"ave" 0.00164514517587574
"laveB" 0.031139550799208
"agg" 0.391463909111062
"ave" 0.00429601647538294
"laveB" 0.0946215987450767
"agg" 0.275274071980112
"ave" 0.00455210498332315
"laveB" 0.0824975729439299
"agg" 0.326764039265575
"ave" 0.00676011626919434
"laveB" 0.0917312815845097
"agg" 0.108881740594296
"ave" 0.000884093728619993
"laveB" 0.0111128609277525
"agg" 0.395384808630316
"ave" 0.00441674187967157
"laveB" 0.067450505842472
"agg" 0.209723034364147
"ave" 0.00346849580409735
"laveB" 0.0559446875397593
"agg" 0.27510712756493
"ave" 0.00485171107530735
"laveB" 0.0797291326270243
"agg" 0.200955238804359
"ave" 0.00161606194463078
"laveB" 0.0262103223124668
"agg" 0.306227596870978
"ave" 0.00273844636722533
"laveB" 0.0610388801151288
"agg" 0.319150667001867
"ave" 0.00249435790796806
"laveB" 0.0454913086769334
"agg" 0.34150626715942
"ave" 0.00336681934652508
"laveB" 0.0734417249135472
"agg" 0.354719209544023
"ave" 0.00311315406075312
"laveB" 0.0638371882178446
"agg" 0.543436624328543
"ave" 0.00329005323556762
"laveB" 0.0660241283831571
"agg" 0.306850767751886
"ave" 0.00324728962230018
"laveB" 0.0739287236563721
"agg" 0.117524812233271
"ave" 0.00110793202668245
"laveB" 0.00830453053917511
"agg" 0.373614142350903
"ave" 0.00812369869796671
"laveB" 0.0902097359988408
"agg" 0.40037749749356
"ave" 0.00869235500298146
"laveB" 0.106490316666903
"agg" 0.357600480016486
"ave" 0.00654816938290676
"laveB" 0.0751125655668436
"agg" 0.272571428563202
"ave" 0.00426520821641783
"laveB" 0.0591088889242084
"agg" 0.32589577571426
"ave" 0.00420842993746302
"laveB" 0.0509715254400279
"agg" 0.326547506667444
"ave" 0.00450475575145931
"laveB" 0.0563919403928549
"agg" 0.341151449285155
"ave" 0.00776592760786818
"laveB" 0.0663377017988598
"agg" 0.243469683510714
"ave" 0.00576193175550761
"laveB" 0.0547157394475241
"agg" 0.301529102945822
"ave" 0.00247263297734097
"laveB" 0.0389181986186745
"agg" 0.199389531817243
"ave" 0.00187712353612711
"laveB" 0.0383860612779581
"agg" 0.0247719391158789
"ave" -0.000141164070655015
"laveB" 0.00989478147897318
"agg" 0.0148730421487508
"ave" -0.000120607368065952
"laveB" 0.00182855405663611
"agg" 0.135674708759008
"ave" 0.00255443198755738
"laveB" 0.0133570837899161
"agg" 0.0801482427975626
"ave" 0.000990020910210306
"laveB" 0.0122778526628414
"agg" 0.0994100503505942
"ave" 0.00143975343675001
"laveB" 0.0199648226090037
"agg" 0.0675106136183281
"ave" 0.00169442763208901
"laveB" 0.0178304965572428
"agg" -0.0548531435584689
"ave" -0.00108940828645939
"laveB" -0.00960103000563768
"agg" -0.06394153845982
"ave" -0.00133321084036112
"laveB" -0.010616436747241
"agg" 0.417636161563296
"ave" 0.0113963563912071
"laveB" 0.108840287382285
"agg" 0.389358236958869
"ave" 0.0100886982058688
"laveB" 0.0995265130650144
"agg" 0.367514587763878
"ave" 0.00559900887214595
"laveB" 0.0613085809062021
"agg" 0.381539178923645
"ave" 0.00563141898563062
"laveB" 0.0573912698394641
"agg" 0.106353651299854
"ave" 0.00137299813936925
"laveB" 0.0276633866680935
"agg" 0.146914696474252
"ave" 0.00149428239451624
"laveB" 0.025400231624707
"agg" 0.155707883824912
"ave" 0.00202130862249664
"laveB" 0.0265606356620361
"agg" 0.153421417507752
"ave" 0.00177452346756625
"laveB" 0.0287983699872132
"agg" 0.037316202264071
"ave" 0.000372408072190431
"laveB" 8.66311271027624e-05
"agg" 0.154317410990684
"ave" 0.00210966382555238
"laveB" 0.0423271639352814
"agg" 0.110589722381873
"ave" 0.00218555334328896
"laveB" 0.0399593212634565
"agg" 0.0497379661431286
"ave" 0.000486331119615026
"laveB" 0.0119262557902743
"agg" 0.248724937250836
"ave" 0.00257751779492078
"laveB" 0.0474119965521751
"agg" 0.188661251729893
"ave" 0.00174812438841983
"laveB" 0.0286887869940129
"agg" 0.199787048741841
"ave" 0.002358354864692
"laveB" 0.0418477809010357
"agg" 0.290414526308706
"ave" 0.00320748472749117
"laveB" 0.0685198171364486
"agg" 0.171720882013648
"ave" 0.00159087076451526
"laveB" 0.0346249776297277
"agg" 0.235549152648471
"ave" 0.00310870969053002
"laveB" 0.0537374812634383
"agg" 0.337560144946462
"ave" 0.0019450490726257
"laveB" 0.0434359752282662
"agg" 0.317113727962317
"ave" 0.00265993787890029
"laveB" 0.0531671028918634
"agg" 0.271915211828379
"ave" 0.00369381489136877
"laveB" 0.050874000914428
"agg" 0.243772547018915
"ave" 0.00390557683079126
"laveB" 0.0409090045670669
"agg" 0.212130031899662
"ave" 0.00169157794152386
"laveB" 0.0212457817804824
"agg" 0.270764038823777
"ave" 0.00253500437435148
"laveB" 0.0411252771692439
"agg" 0.235685845082196
"ave" 0.00369111503515125
"laveB" 0.0568282790274236
"agg" 0.165111355523409
"ave" 0.00274093919166198
"laveB" 0.0428910306845193
"agg" 0.0952603800832411
"ave" 0.000636606918469954
"laveB" 0.00988819627865877
"agg" 0.162912769014905
"ave" 0.00123110910788602
"laveB" 0.029100612330109
"agg" 0.263243297622977
"ave" 0.00175883872406592
"laveB" 0.0386660496824498
"agg" 0.288561695005031
"ave" 0.00212670906107631
"laveB" 0.0366150180855333
"agg" 0.24945449766091
"ave" 0.00172741284427115
"laveB" 0.0336387504063792
"agg" 0.270502911751363
"ave" 0.00266109831975438
"laveB" 0.046789001622917
"agg" 0.296456211860107
"ave" 0.00285703839793511
"laveB" 0.0621129732738928
"agg" 0.390503144962807
"ave" 0.0083816197460674
"laveB" 0.0999971017863675
"agg" 0.392443465971705
"ave" 0.00843589140376089
"laveB" 0.0977413042876506
"agg" 0.380426010654475
"ave" 0.00754418573217498
"laveB" 0.089488977835745
"agg" 0.392851847584605
"ave" 0.00750051476338074
"laveB" 0.0985980837761228
"agg" 0.511907659528134
"ave" 0.00677086404477468
"laveB" 0.106416525549248
"agg" 0.479847346088251
"ave" 0.00691962132223816
"laveB" 0.098680302207066
"agg" 0.481546382946831
"ave" 0.010493550778256
"laveB" 0.107740047636344
"agg" 0.377988874751584
"ave" 0.0091345425988549
"laveB" 0.09225398708384
"agg" 0.542533233957011
"ave" 0.00525288740471676
"laveB" 0.0910032111109034
"agg" 0.402866578978772
"ave" 0.00431444174370963
"laveB" 0.0849137273005804
"agg" 0.184090076005623
"ave" 0.00475461387440042
"laveB" 0.0629959920478081
"agg" 0.233548460253628
"ave" 0.00545271363374376
"laveB" 0.0672264065758919
"agg" 0.417705140858292
"ave" 0.00873640532901246
"laveB" 0.101058212759464
"agg" 0.329197705323511
"ave" 0.00692934355847188
"laveB" 0.0815053985412672
"agg" 0.282410079357772
"ave" 0.0052562571467573
"laveB" 0.0579774030856186
"agg" 0.17967019204877
"ave" 0.00442121485789973
"laveB" 0.0530957729180953
"agg" 0.0999519270992423
"ave" 0.00254126232409514
"laveB" 0.0417600069302351
"agg" 0.106058470558735
"ave" 0.00278441067228174
"laveB" 0.0261810847111355
"agg" 0.357343816452614
"ave" 0.00851460131136409
"laveB" 0.0904741796498083
"agg" 0.389616398302615
"ave" 0.00920675769175622
"laveB" 0.0930198891463937
"agg" 0.41685426385674
"ave" 0.00705658744817153
"laveB" 0.0910796728272554
"agg" 0.439111905525774
"ave" 0.00727242603743317
"laveB" 0.0988447896053763
"agg" 0.25422775948001
"ave" 0.00439673666037318
"laveB" 0.0759453288276154
"agg" 0.373028362573643
"ave" 0.00517794271492783
"laveB" 0.0873759225981437
"agg" 0.308487047021891
"ave" 0.00327626491658885
"laveB" 0.069479772491733
"agg" 0.197788539247746
"ave" 0.00186897362117211
"laveB" 0.0489905279602841
"agg" 0.156908346455308
"ave" 0.00129957744657665
"laveB" 0.0393550364826113
"agg" 0.174577095799652
"ave" 0.00184228819298816
"laveB" 0.0378720265208891
"agg" 0.106204969738097
"ave" 0.00176157691343899
"laveB" 0.0325345535316494
"agg" 0.168312705050346
"ave" 0.00222979129987479
"laveB" 0.0336584493469128
"agg" 0.180308119374217
"ave" 0.001664413599506
"laveB" 0.0374386112472125
"agg" 0.135670165972755
"ave" 0.00106396966218405
"laveB" 0.0212949786296425
"agg" 0.286590061711703
"ave" 0.00387558010223475
"laveB" 0.067374256367669
"agg" 0.262517366834558
"ave" 0.00295120907326431
"laveB" 0.06725805268076
"agg" 0.366458338561319
"ave" 0.00402470641718763
"laveB" 0.0820549403343671
"agg" 0.404125342148082
"ave" 0.00598882752235809
"laveB" 0.100738327636147
"agg" 0.254258399720007
"ave" 0.00149121521163256
"laveB" 0.0308420088466886
"agg" 0.3406524156151
"ave" 0.00300036874513498
"laveB" 0.0723724834039807
"agg" 0.42357497038417
"ave" 0.00585194000756772
"laveB" 0.0977916149353817
"agg" 0.351755319342443
"ave" 0.00643205542787899
"laveB" 0.0938677082694657
"agg" 0.313444407035788
"ave" 0.00256702328684844
"laveB" 0.0398235842704048
"agg" 0.362105667155743
"ave" 0.00347975682344583
"laveB" 0.0611557786329439
"agg" 0.279802378379086
"ave" 0.00368917394426008
"laveB" 0.0735786178211469
"agg" 0.222017652058335
"ave" 0.00290836375009565
"laveB" 0.0543101170653977
"agg" 0.284239986641097
"ave" 0.00205724445518364
"laveB" 0.0443301899406463
"agg" 0.359182954438821
"ave" 0.00271826356238071
"laveB" 0.054587874304272
"agg" 0.287917662176812
"ave" 0.00196592541655014
"laveB" 0.0514331544369949
"agg" 0.37950214416057
"ave" 0.00291212102089235
"laveB" 0.0607389026684932
"agg" 0.240160687368899
"ave" 0.00163761665765072
"laveB" 0.0320335219781892
"agg" 0.271776639410876
"ave" 0.00375680136673646
"laveB" 0.0938534625646724
"agg" -0.0350484269608204
"ave" -0.000116096365739912
"laveB" -0.0195125846723295
"agg" -0.033501411147265
"ave" -0.000789535136536557
"laveB" -0.0344536276158531
"agg" 0.0799453783147501
"ave" 0.00303771717600669
"laveB" 0.0289159128818288
"agg" 0.0823349696867749
"ave" 0.0021886042247056
"laveB" 0.0157477035822689
"agg" 0.213020352463104
"ave" 0.00402280386431133
"laveB" 0.0528579952250037
"agg" 0.121449555511388
"ave" 0.00254600676366208
"laveB" 0.0277100611932971
"agg" 0.195552493699751
"ave" 0.00673631980300108
"laveB" 0.0644901454456445
"agg" 0.134000387508829
"ave" 0.00486101033273219
"laveB" 0.0393583242372556
"agg" 0.362970496702437
"ave" 0.00512295960797685
"laveB" 0.0974456328409983
"agg" 0.310830102019472
"ave" 0.00479401718835643
"laveB" 0.0920244293536914
"agg" 0.169793249703
"ave" 0.00521969812135514
"laveB" 0.0621778492647998
"agg" 0.254411929542189
"ave" 0.00734084198965909
"laveB" 0.0843559906015892
"agg" 0.261106094009813
"ave" 0.00790894417391177
"laveB" 0.0990123646896418
"agg" 0.321837998118483
"ave" 0.0104538335711039
"laveB" 0.114817103819164
"agg" 0.231579414806777
"ave" 0.00646473714167885
"laveB" 0.0837258895859824
"agg" 0.149209422169313
"ave" 0.00515389959723509
"laveB" 0.0430956464530193
"agg" 0.306705551234499
"ave" 0.00749635493782241
"laveB" 0.114443207332937
"agg" 0.268425538818205
"ave" 0.00706302375332243
"laveB" 0.10179823928363
"agg" 0.167837499976073
"ave" 0.00675315221242514
"laveB" 0.0648825739434749
"agg" 0.132156699737863
"ave" 0.00542038889711309
"laveB" 0.0451230917712736
"agg" 0.0999844136040293
"ave" 0.0036747258180035
"laveB" 0.0356720179547274
"agg" 0.0701785275675536
"ave" 0.00292388036108652
"laveB" 0.0191603063504359
"agg" 0.261737363686766
"ave" 0.00645924498070723
"laveB" 0.110585821478565
"agg" 0.310050276320119
"ave" 0.00618917286205944
"laveB" 0.100806264157877
"agg" 0.230721959119578
"ave" 0.00397863662581084
"laveB" 0.0661228821490335
"agg" 0.134283600683574
"ave" 0.00213427643196894
"laveB" 0.0427516876237137
"agg" 0.165785428170604
"ave" 0.00211144038312682
"laveB" 0.0562116535158169
"agg" 0.1744160938494
"ave" 0.0027593358367116
"laveB" 0.0648016557885417
"agg" 0.0823043562709747
"ave" 0.00186107859721527
"laveB" 0.0504802118700064
"agg" 0.23374530470462
"ave" 0.00438316756796384
"laveB" 0.0740400593782932
"agg" -0.0192264686010822
"ave" -0.00020213324239166
"laveB" -0.0223451445810075
"agg" -0.0975250460687715
"ave" -0.00125848735814146
"laveB" -0.0574740318487207
"agg" 0.0685262092412127
"ave" 0.000766155134337
"laveB" -0.00549501860890234
"agg" -0.00248610131807044
"ave" -0.00117586027291223
"laveB" -0.0204673902970631
"agg" 0.305006231827999
"ave" 0.00489700613978559
"laveB" 0.086938633160484
"agg" 0.284915251229851
"ave" 0.00621538736797984
"laveB" 0.0870900781266017
"agg" 0.152491211348441
"ave" 0.00149646094336831
"laveB" 0.0275963095892478
"agg" 0.103295689521586
"ave" 0.00101614098960107
"laveB" 0.0242291856734915
"agg" 0.369451633210516
"ave" 0.00733609628587875
"laveB" 0.114849756063866
"agg" 0.187949994488753
"ave" 0.00432859713414571
"laveB" 0.0514848676345955
"agg" 0.262707137485996
"ave" 0.00316714930227368
"laveB" 0.0613092880736207
"agg" 0.150618326944936
"ave" 0.00190752592490476
"laveB" 0.0160729699316862
"agg" 0.197709251675936
"ave" 0.00435608701926817
"laveB" 0.0764781645540259
"agg" 0.112962166155847
"ave" 0.00244776192399677
"laveB" 0.0408272489948957
"agg" 0.236550777118105
"ave" 0.00235392786795314
"laveB" 0.0466761525689141
"agg" 0.171184646912149
"ave" 0.00186271140868225
"laveB" 0.039033924259951
"agg" 0.166465797675591
"ave" 0.00189369423060663
"laveB" 0.0471951249643707
"agg" 0.16157428644992
"ave" 0.00168670292982066
"laveB" 0.0399378656877684
"agg" 0.0708012343085763
"ave" 0.00076617489599261
"laveB" 0.0246829549241441
"agg" -0.106721310043039
"ave" -0.00238513067471768
"laveB" -0.0682555743981952
"agg" -0.105949982677341
"ave" -0.00373976584045825
"laveB" -0.0587307482957932
"agg" 0.103005970519915
"ave" 0.00529462091024763
"laveB" 0.0369349170068498
"agg" 0.114414001834966
"ave" 0.00538967927533158
"laveB" 0.0398719755532907
"agg" 0.247950314305559
"ave" 0.00590538422825546
"laveB" 0.0833399069682073
"agg" 0.229717380578718
"ave" 0.00655764594455867
"laveB" 0.0744687975249837
"agg" 0.306955311579512
"ave" 0.0117350281257268
"laveB" 0.100330029354138
"agg" 0.338068106210104
"ave" 0.0145727058653787
"laveB" 0.124860792364999
"agg" 0.467325901960259
"ave" 0.00773064229211309
"laveB" 0.1297742880693
"agg" 0.477824380062609
"ave" 0.00856698346788847
"laveB" 0.128699021076061
"agg" 0.512886579207221
"ave" 0.0194754676175482
"laveB" 0.244222299083595
"agg" 0.552268173945411
"ave" 0.018994981607429
"laveB" 0.251945976440793
"agg" 0.3342895553878
"ave" 0.0111366146954987
"laveB" 0.128209407570358
"agg" 0.455244022969108
"ave" 0.0164613472530499
"laveB" 0.185967897424136
"agg" 0.231629031647139
"ave" 0.00681966290100096
"laveB" 0.09479891700675
"agg" 0.0743225094441198
"ave" 0.00265376736761659
"laveB" 0.0420322394341366
"agg" 0.358991842811087
"ave" 0.0105104944515704
"laveB" 0.157213887139225
"agg" 0.367586203394805
"ave" 0.0120790724679199
"laveB" 0.157129633979201
"agg" 0.077691194725517
"ave" 0.00261417514213078
"laveB" 0.0163101985342579
"agg" 0.167009666556981
"ave" 0.0063847021041333
"laveB" 0.0576633319552285
"agg" 0.151457977496309
"ave" 0.00640197898559545
"laveB" 0.0636266537128446
"agg" 0.170249097369497
"ave" 0.0069208054198715
"laveB" 0.0743474198267545
"agg" 0.558924762974007
"ave" 0.015241691914727
"laveB" 0.237041780222297
"agg" 0.553442468145031
"ave" 0.0132541124128274
"laveB" 0.20076430826085
"agg" 0.315452682449902
"ave" 0.00594532752127157
"laveB" 0.133902121200381
"agg" 0.171043807332293
"ave" 0.00303574095765864
"laveB" 0.0346514391584287
"agg" 0.245721138468181
"ave" 0.00351985603697709
"laveB" 0.0734230899590933
"agg" 0.265619345689783
"ave" 0.00524204133500043
"laveB" 0.0869433420601924
"agg" -0.0514637662925341
"ave" -0.00178763946514411
"laveB" -0.0246703597086384
"agg" 0.314489593995839
"ave" 0.0075967573505446
"laveB" 0.103721830434614
"agg" 0.0261721605156416
"ave" 0.00061440107852678
"laveB" 0.00740936532009383
"agg" -0.123291976952854
"ave" -0.00154249105063393
"laveB" -0.0636320859027866
"agg" 0.176253611518523
"ave" 0.00488811222163199
"laveB" 0.0599562618165633
"agg" -0.020515440660966
"ave" 0.0003716955241062
"laveB" -0.00882151119622627
"agg" 0.372491335305893
"ave" 0.00663350455719689
"laveB" 0.112702108121353
"agg" 0.507152912776082
"ave" 0.0112876811062641
"laveB" 0.168337360375106
"agg" 0.164039443495818
"ave" 0.00167833202847472
"laveB" 0.0368162988535327
"agg" 0.413199530779186
"ave" 0.00620384046690894
"laveB" 0.108353699671112
"agg" 0.457251876706271
"ave" 0.00972204989894962
"laveB" 0.150384684206716
"agg" 0.521943953250402
"ave" 0.0147377701078049
"laveB" 0.156773957642126
"agg" 0.283473889204511
"ave" 0.00323558196454334
"laveB" 0.0588528417232619
"agg" 0.468579475747503
"ave" 0.00676701803339507
"laveB" 0.0945694469719366
"agg" 0.258696851482665
"ave" 0.00582601910183648
"laveB" 0.0859869804714478
"agg" 0.236565441454546
"ave" 0.00566038494948592
"laveB" 0.0778895688374955
"agg" 0.433766751993898
"ave" 0.00513447963879315
"laveB" 0.116255150718778
"agg" 0.3746210039788
"ave" 0.00472072237306832
"laveB" 0.0894889759823085
"agg" 0.283742179676198
"ave" 0.00366192536361361
"laveB" 0.0830909892509895
"agg" 0.258628198136658
"ave" 0.0036247317308741
"laveB" 0.0582056860204573
"agg" 0.116735982694201
"ave" 0.00148668567557948
"laveB" 0.0282041007504974
"agg" 0.918600913844981
"ave" 0.0674728132661424
"laveB" 0.44830631399668
"agg" 0.703538588721124
"ave" 0.0434498738544445
"laveB" 0.288332712189485
"agg" 0.636228112011013
"ave" 0.0383812932115705
"laveB" 0.273312916543082
"agg" 0.611590258933318
"ave" 0.0285117933548714
"laveB" 0.218169648105095
"agg" 0.65184921298668
"ave" 0.033056770553974
"laveB" 0.233315829306329
"agg" 0.702486914829094
"ave" 0.0487578716951092
"laveB" 0.272545877330598
"agg" 0.589557341124323
"ave" 0.0456329627097407
"laveB" 0.241438585965426
"agg" 0.0286874735220387
"ave" 0.0018098808479872
"laveB" 0.0372960349405708
"agg" -0.0459028558522542
"ave" -4.99571205156234e-05
"laveB" 0.00261467125124551
"agg" -0.185230434566499
"ave" -0.00901620580418258
"laveB" -0.058489113455552
"agg" -0.235695279841861
"ave" -0.00963726178324863
"laveB" -0.0802826579339724
"agg" 0.265506968385714
"ave" 0.0183538626197503
"laveB" 0.107509725268032
"agg" 0.16460262489666
"ave" 0.00867682869680222
"laveB" 0.0496662501146262
"agg" 0.104806142385472
"ave" 0.00884321368107003
"laveB" 0.0611724481841507
"agg" 0.167033421718847
"ave" 0.0159254038493367
"laveB" 0.075119943718849
"agg" -0.239530576326315
"ave" -0.0112307107754642
"laveB" -0.101018311552042
"agg" -0.110005931203674
"ave" -0.00487643150231274
"laveB" -0.045103296926977
"agg" 0.27904949703161
"ave" 0.022804404156335
"laveB" 0.130930698308082
"agg" 0.409812211489316
"ave" 0.0321544196657465
"laveB" 0.182140554994865
"agg" 0.557014178581241
"ave" 0.0300596625368281
"laveB" 0.201664055157418
"agg" 0.519637546621968
"ave" 0.0265818181375609
"laveB" 0.171013415477007
"agg" -0.157904113610805
"ave" -0.00642121046115125
"laveB" -0.0620317220640075
"agg" 0.0173924869245883
"ave" 0.000236126167822911
"laveB" 0.00123774457292086
"agg" 0.275906322817886
"ave" 0.0112241370725298
"laveB" 0.106745584528421
"agg" 0.387561825096502
"ave" 0.0128668287062609
"laveB" 0.134372073315567
"agg" 0.104823327832937
"ave" 0.00250443263659085
"laveB" 0.0354077523292586
"agg" 0.168586324218147
"ave" 0.00623012978356339
"laveB" 0.0715778531030315
"agg" 0.179725150958249
"ave" 0.0112272660160162
"laveB" 0.0863608115220651
"agg" -0.0761381293014701
"ave" -0.00137452349883176
"laveB" -0.0253944707090577
"agg" 0.602671691827297
"ave" 0.0187375793012292
"laveB" 0.216843760723701
"agg" 0.574483177201304
"ave" 0.0165833571513143
"laveB" 0.221925251546908
"agg" 0.283360622812446
"ave" 0.0133728132690239
"laveB" 0.165795096941324
"agg" 0.480769989027279
"ave" 0.0201911164149868
"laveB" 0.199497915133858
"agg" 0.0727499824660382
"ave" 0.00255257086818875
"laveB" 0.0309718027648548
"agg" -0.0854691033240076
"ave" -0.00234872822395957
"laveB" -0.0141329955310176
"agg" 0.0108350037591113
"ave" 0.000411650763226002
"laveB" -0.000567823280313836
"agg" -0.00098546803591198
"ave" 0.000955509197438646
"laveB" 0.0177150913773228
"agg" 0.0300992263936656
"ave" 0.00384601547221155
"laveB" 0.0182763375613499
"agg" 0.0338828259792449
"ave" 0.0049152971738664
"laveB" 0.0253968579086554
"agg" 0.185325455840628
"ave" 0.00697991824436652
"laveB" 0.0426798585352202
"agg" 0.189021128787963
"ave" 0.00775680856586828
"laveB" 0.0661813201250301
"agg" 0.402720858044659
"ave" 0.0177377787701323
"laveB" 0.170921310551586
"agg" 0.446196193805275
"ave" 0.0197275876995449
"laveB" 0.190862267251518
"agg" 0.253894386668839
"ave" 0.00623806159824508
"laveB" 0.0692615232152869
"agg" 0.28622990189411
"ave" 0.00765867488283965
"laveB" 0.0742355934356176
"agg" 0.563268455926065
"ave" 0.0114756429136361
"laveB" 0.13197695236557
"agg" 0.49639093118038
"ave" 0.0138832834926289
"laveB" 0.145335296090134
"agg" 0.616692540465536
"ave" 0.0130176637224303
"laveB" 0.1615097845114
"agg" 0.614491544310418
"ave" 0.0388469778944743
"laveB" 0.247722009665228
"agg" 0.631814572866037
"ave" 0.0379417029995562
"laveB" 0.277839216685092
"agg" 0.575130888567065
"ave" 0.0266079823025646
"laveB" 0.183323621857588
"agg" 0.671667739748455
"ave" 0.0336521221756712
"laveB" 0.222034518855985
"agg" 0.614174646845025
"ave" 0.0453234869615473
"laveB" 0.222076959616805
"agg" 0.523236076344692
"ave" 0.0423539815103509
"laveB" 0.206752194759372
"agg" 0.0324793495583098
"ave" -0.000138325106487609
"laveB" 0.015895033819029
"agg" -0.0276486816667857
"ave" -0.00148586659725618
"laveB" 0.0020824887607462
"agg" -0.121217447519643
"ave" -0.0106198059279884
"laveB" -0.0550224071415271
"agg" -0.176842874645155
"ave" -0.011643997858564
"laveB" -0.0670486098618345
"agg" 0.227466407490978
"ave" 0.0139918202025838
"laveB" 0.0950984194131831
"agg" 0.130653828144738
"ave" 0.00482255659885495
"laveB" 0.03391592061855
"agg" 0.115729944668629
"ave" 0.00694732371010703
"laveB" 0.0503370763953976
"agg" 0.187119832437747
"ave" 0.0166020174879322
"laveB" 0.0826435999649855
"agg" -0.211845672306166
"ave" -0.0139151990152487
"laveB" -0.0983504119256099
"agg" -0.0857981253614112
"ave" -0.00635120225266527
"laveB" -0.0425898946297532
"agg" 0.266537394769631
"ave" 0.0236258187166267
"laveB" 0.131019641364375
"agg" 0.379255545551938
"ave" 0.0327732369893304
"laveB" 0.177287073028416
"agg" 0.479783543711665
"ave" 0.0277446306450675
"laveB" 0.17342989259257
"agg" 0.480847441845725
"ave" 0.0257014592573425
"laveB" 0.161483829715624
"agg" -0.159170825943036
"ave" -0.00969794422211066
"laveB" -0.0723756472973556
"agg" -0.00815933046539184
"ave" -0.00290747520101805
"laveB" -0.0266269048513845
"agg" 0.240975995751412
"ave" 0.0100447332184317
"laveB" 0.105640705220272
"agg" 0.295495580873005
"ave" 0.010687441520828
"laveB" 0.124025594414152
"agg" 0.0570391302231756
"ave" 0.00117726092143215
"laveB" 0.0186267371026678
"agg" 0.144428456259869
"ave" 0.00528893053794367
"laveB" 0.0570687240733031
"agg" 0.159815736911986
"ave" 0.0113951209169911
"laveB" 0.0830509718007296
"agg" -0.0271966592069416
"ave" -0.00107170994678572
"laveB" -0.0142811904625255
"agg" 0.598493200689373
"ave" 0.0203945285224138
"laveB" 0.21308029185581
"agg" 0.593707118622765
"ave" 0.0186246952949606
"laveB" 0.237346127945667
"agg" 0.391603180395884
"ave" 0.0173958308308307
"laveB" 0.226413950460525
"agg" 0.633467916574985
"ave" 0.0275905148023423
"laveB" 0.287789240623204
"agg" 0.15237352589353
"ave" 0.00309619293116485
"laveB" 0.0555367207528681
"agg" -0.0145751722629449
"ave" -0.00286807164922157
"laveB" 0.00174820488950665
"agg" 0.109901803966645
"ave" 0.00207591478225662
"laveB" 0.0175528836304993
"agg" 0.128672197531477
"ave" 0.00373556775963099
"laveB" 0.043316502516531
"agg" 0.0202872161591679
"ave" 0.00133999797653989
"laveB" 0.0159306162664794
"agg" 0.0657080955205684
"ave" 0.0031814676405641
"laveB" 0.00184672094332638
"agg" 0.134032366800657
"ave" 0.00478763641997378
"laveB" 0.0244950079022693
"agg" 0.175510771732524
"ave" 0.0064477725516567
"laveB" 0.0425773154967057
"agg" 0.264452023369736
"ave" 0.0126232844440837
"laveB" 0.121535995714133
"agg" 0.278758170538336
"ave" 0.0141166660636399
"laveB" 0.113645816533379
"agg" 0.187820696535502
"ave" 0.00446023924781867
"laveB" 0.045926527935122
"agg" 0.228814758099881
"ave" 0.00606713706509948
"laveB" 0.0577850948650839
"agg" 0.539053629013135
"ave" 0.0113037611919704
"laveB" 0.133110831938652
"agg" 0.440620332721836
"ave" 0.0122606222158974
"laveB" 0.134409672131075
"agg" 0.565686755966031
"ave" 0.0132164969132301
"laveB" 0.155644072005626
"agg" 0.857385809411079
"ave" 0.0526705858543172
"laveB" 0.344576758539366
"agg" 0.737389047293311
"ave" 0.0321727893159566
"laveB" 0.254578634055386
"agg" 0.707998968378983
"ave" 0.0334221392010365
"laveB" 0.23632388067479
"agg" 0.651507998902124
"ave" 0.0446875178063697
"laveB" 0.241565986917067
"agg" 0.704403320530503
"ave" 0.0541475340904884
"laveB" 0.284708297284231
"agg" 0.347058936341925
"ave" 0.0126899848243152
"laveB" 0.113394910802018
"agg" 0.275899444326737
"ave" 0.0114001353368426
"laveB" 0.0846972433154801
"agg" 0.0674421292493585
"ave" 0.0114483683821128
"laveB" 0.0537998150412463
"agg" 0.00445908728430489
"ave" 0.00801831242240031
"laveB" 0.0465857766838806
"agg" 0.437805794688467
"ave" 0.0283738955604777
"laveB" 0.169828711794104
"agg" 0.369066256064909
"ave" 0.0235721045970451
"laveB" 0.129370878802981
"agg" 0.106513306650062
"ave" 0.00712457637764888
"laveB" 0.0511086493311127
"agg" 0.117046162230552
"ave" 0.00790579303244413
"laveB" 0.0481107119354629
"agg" -0.0852406804261852
"ave" -0.00122156509700277
"laveB" -0.0227372333988043
"agg" -0.0126000847944386
"ave" 0.00163020718931034
"laveB" 0.0047197581174957
"agg" 0.264916003704327
"ave" 0.0145258547335587
"laveB" 0.0953508629833287
"agg" 0.387636203605584
"ave" 0.0230407815577214
"laveB" 0.14599615180526
"agg" 0.634764018959656
"ave" 0.0326162189794885
"laveB" 0.210295186233353
"agg" 0.587852614878026
"ave" 0.0284336733416419
"laveB" 0.185950764355956
"agg" 0.173978028293766
"ave" 0.0125522876946196
"laveB" 0.102882239370526
"agg" 0.30883231066355
"ave" 0.0151300529877239
"laveB" 0.114891811508857
"agg" 0.28769053457857
"ave" 0.00993800907820522
"laveB" 0.111528646726876
"agg" 0.343127411759181
"ave" 0.00944010904437119
"laveB" 0.105608476866222
"agg" 0.123574824541581
"ave" 0.00252784321686005
"laveB" 0.0420629302833149
"agg" 0.213851985490235
"ave" 0.00644105016571141
"laveB" 0.073478133217663
"agg" -0.0489553692062543
"ave" -0.00329872328832908
"laveB" -0.0216687431619775
"agg" 0.103143739896795
"ave" 0.00608693610760027
"laveB" 0.0356053978700488
"agg" 0.445979033432571
"ave" 0.0114979362128741
"laveB" 0.125090448683148
"agg" 0.362503087128314
"ave" 0.00808617078101406
"laveB" 0.114088939025345
"agg" 0.287494570911386
"ave" 0.0122139833149401
"laveB" 0.123317459942536
"agg" 0.363957222336724
"ave" 0.0127846560506177
"laveB" 0.119249193862495
"agg" 0.199888337667784
"ave" 0.00726461386774518
"laveB" 0.0754641221252045
"agg" 0.192609348737673
"ave" 0.0105751929139138
"laveB" 0.0782731107699645
"agg" -0.016799944236983
"ave" -0.000298181761409912
"laveB" -0.00910543391996248
"agg" 0.0383216483518354
"ave" 0.00168971320685733
"laveB" 0.0170074048428037
"agg" 0.22424925799602
"ave" 0.0113822772084008
"laveB" 0.0886657154006838
"agg" 0.295379667076962
"ave" 0.0182048383149395
"laveB" 0.106277043726766
"agg" 0.179959910805841
"ave" 0.00606552610947303
"laveB" 0.0411384651417857
"agg" 0.348887533806305
"ave" 0.0108924727403112
"laveB" 0.097341483887489
"agg" 0.467639615721839
"ave" 0.0181233488446209
"laveB" 0.186004613186585
"agg" 0.483723701752417
"ave" 0.019705984462858
"laveB" 0.208376512911434
"agg" 0.426721062248061
"ave" 0.00978464906063398
"laveB" 0.114030524521284
"agg" 0.434163678418821
"ave" 0.0101238669894666
"laveB" 0.103636853134132
"agg" 0.536629762353809
"ave" 0.010614580482867
"laveB" 0.137583735370083
"agg" 0.581477354199754
"ave" 0.0152577403115941
"laveB" 0.172895358422006
"agg" 0.517855346619445
"ave" 0.0096977761695175
"laveB" 0.0993124159645953
"agg" 0.804068727770401
"ave" 0.033158150702972
"laveB" 0.287827690788032
"agg" 0.802411127444343
"ave" 0.0354491961860505
"laveB" 0.285435700379362
"agg" 0.624287886044562
"ave" 0.0407136737311226
"laveB" 0.262022684413494
"agg" 0.723642282233799
"ave" 0.0531685149382859
"laveB" 0.310588356364591
"agg" 0.430179556234471
"ave" 0.0140854051456204
"laveB" 0.132437510427798
"agg" 0.373150533869407
"ave" 0.0137469458363342
"laveB" 0.115531061866163
"agg" 0.24959116193108
"ave" 0.0215660027866609
"laveB" 0.139296316436029
"agg" 0.17689822463562
"ave" 0.01671315980766
"laveB" 0.124232937861103
"agg" 0.523779976175192
"ave" 0.0316953602773378
"laveB" 0.210616110714271
"agg" 0.443890587272812
"ave" 0.0282032252904147
"laveB" 0.168971081321442
"agg" 0.126510194351839
"ave" 0.00731717335059945
"laveB" 0.0397462482400761
"agg" 0.125591377299446
"ave" 0.00698651954325929
"laveB" 0.0445825932314233
"agg" 0.069834517364557
"ave" 0.00653171323895152
"laveB" 0.0482105896318087
"agg" 0.155581159792164
"ave" 0.0109483921050554
"laveB" 0.0610919154906144
"agg" 0.0911166831453084
"ave" 0.00183723071322846
"laveB" 0.0198692883864728
"agg" 0.226754813258618
"ave" 0.0107441270204964
"laveB" 0.109715299719808
"agg" 0.438937165212955
"ave" 0.0232867634183126
"laveB" 0.177908010702389
"agg" 0.469393421947889
"ave" 0.0240727258338675
"laveB" 0.179449656864859
"agg" 0.204652027188537
"ave" 0.0126424504643814
"laveB" 0.115459211687658
"agg" 0.378426531461366
"ave" 0.0178002630470665
"laveB" 0.154876132503595
"agg" 0.233895867769996
"ave" 0.0075671914826871
"laveB" 0.086096349304951
"agg" 0.232332376895768
"ave" 0.00598893713614378
"laveB" 0.0711523240382662
"agg" 0.0468479637784858
"ave" 0.000713695712610214
"laveB" 0.0154998223606549
"agg" 0.156639359768748
"ave" 0.00485654487266788
"laveB" 0.0486633801727141
"agg" -0.066476616964848
"ave" -0.00472376700589197
"laveB" -0.0466174508018834
"agg" 0.144257300623304
"ave" 0.00814675266357493
"laveB" 0.0649890970174679
"agg" 0.334650193156782
"ave" 0.00821309543702177
"laveB" 0.0852789382094906
"agg" 0.336219053835773
"ave" 0.00759652530717046
"laveB" 0.126752294786258
"agg" 0.335501464544867
"ave" 0.0139688038665718
"laveB" 0.136537335156736
"agg" 0.37749563231578
"ave" 0.0133024402443108
"laveB" 0.159866342230501
"agg" 0.332620684468981
"ave" 0.0109027636091313
"laveB" 0.12353258710404
"agg" 0.304134424834926
"ave" 0.0139486875670547
"laveB" 0.127578693387457
"agg" 0.0596257180824466
"ave" 0.0008169024927218
"laveB" 0.000390405859598035
"agg" 0.127604224467075
"ave" 0.00377168097368289
"laveB" 0.0240142971594975
"agg" 0.250391560168646
"ave" 0.011493357978291
"laveB" 0.0964742627629435
"agg" 0.359305890289232
"ave" 0.0198283120598925
"laveB" 0.134224025639508
"agg" 0.160964528991709
"ave" 0.00444233372167402
"laveB" 0.0313361354355786
"agg" 0.335361116328667
"ave" 0.00918711397619942
"laveB" 0.0843355074115696
"agg" 0.358230223620221
"ave" 0.0133489467817009
"laveB" 0.137251403111514
"agg" 0.358752851692328
"ave" 0.0143156963578193
"laveB" 0.144134259077178
"agg" 0.471464838197326
"ave" 0.010164217481097
"laveB" 0.130999203948495
"agg" 0.45342074644241
"ave" 0.0102340953125656
"laveB" 0.115443676780541
"agg" 0.527152983813089
"ave" 0.0103271052416492
"laveB" 0.145901372371202
"agg" 0.572298367393288
"ave" 0.014342671972782
"laveB" 0.175123414590378
"agg" 0.427983689559574
"ave" 0.00803927502953004
"laveB" 0.0986409360777616
"agg" 0.88413403756192
"ave" 0.0273054745548887
"laveB" 0.25366026658992
"agg" 0.726230957987537
"ave" 0.0339292317049688
"laveB" 0.242478912681987
"agg" 0.7558392703474
"ave" 0.0381481078187828
"laveB" 0.239501249993508
"agg" 0.62110594767469
"ave" 0.0128087709766212
"laveB" 0.151698954048769
"agg" 0.551942141133583
"ave" 0.012272830447782
"laveB" 0.144624544272682
"agg" 0.362711571633699
"ave" 0.0177854802091574
"laveB" 0.163825612249069
"agg" 0.343083910800991
"ave" 0.0163096060102246
"laveB" 0.152075118413087
"agg" 0.629034570186633
"ave" 0.0253484316294214
"laveB" 0.206639605210266
"agg" 0.559698829735541
"ave" 0.0231335571085725
"laveB" 0.200183631690009
"agg" 0.320304310691798
"ave" 0.0121327785100043
"laveB" 0.103670469746385
"agg" 0.188202938023796
"ave" 0.00811824159320157
"laveB" 0.0684114522344911
"agg" 0.282657681539389
"ave" 0.0111959771460798
"laveB" 0.124586037353863
"agg" 0.292968219501924
"ave" 0.0118210202352553
"laveB" 0.121589675397967
"agg" 0.134912440351603
"ave" 0.00649263271800912
"laveB" 0.0378319741756254
"agg" 0.194319385342735
"ave" 0.00908410014391407
"laveB" 0.0529378845528276
"agg" 0.369793654920168
"ave" 0.0157559215075999
"laveB" 0.123669122928257
"agg" 0.362846312502412
"ave" 0.0152928052503506
"laveB" 0.130056091561619
"agg" 0.34015683418314
"ave" 0.0120393814434261
"laveB" 0.166040834200366
"agg" 0.463836248880005
"ave" 0.0136431265089121
"laveB" 0.144203403683008
"agg" 0.376160983923641
"ave" 0.00875215357969372
"laveB" 0.120298760195688
"agg" 0.297705643139074
"ave" 0.00622427347798617
"laveB" 0.0810048946895556
"agg" 0.141379200099406
"ave" 0.00224089392396784
"laveB" 0.0375415186919235
"agg" 0.220035655455263
"ave" 0.00512034238120128
"laveB" 0.0757863994463953
"agg" 0.0836390497829745
"ave" 0.0031819433938784
"laveB" 0.0232123884391799
"agg" 0.191786498479964
"ave" 0.00585129785008528
"laveB" 0.0662827972606684
"agg" 0.270283939960492
"ave" 0.00539748941683777
"laveB" 0.0549584359296291
"agg" 0.245385734738078
"ave" 0.00456230315401661
"laveB" 0.0457535957872716
"agg" 0.389503604576848
"ave" 0.0110430411869351
"laveB" 0.119529888894481
"agg" 0.326989169568431
"ave" 0.00816837710019811
"laveB" 0.0969839796481892
"agg" 0.462505596843717
"ave" 0.0101851759466266
"laveB" 0.149692982156652
"agg" 0.406344655070456
"ave" 0.0117088711307431
"laveB" 0.120665015742441
"agg" 0.142241585103321
"ave" 0.00187688571609609
"laveB" 0.0225677285222518
"agg" 0.203460605659011
"ave" 0.00387816248869894
"laveB" 0.0605741614996133
"agg" 0.397039700507477
"ave" 0.0118373768325725
"laveB" 0.110251059593088
"agg" 0.417460258239327
"ave" 0.015429481333682
"laveB" 0.143586369095412
"agg" 0.382938682789941
"ave" 0.00689219903142555
"laveB" 0.0838829611826506
"agg" 0.45994446473367
"ave" 0.00883290076990691
"laveB" 0.0899043611041927
"agg" 0.363234607237758
"ave" 0.0100442034901829
"laveB" 0.110126581540875
"agg" 0.38251879629773
"ave" 0.0112616986742734
"laveB" 0.122397269662759
"agg" 0.551892290619376
"ave" 0.00799838438670982
"laveB" 0.125634031642854
"agg" 0.531312442672865
"ave" 0.00816449765351465
"laveB" 0.0999040149942599
"agg" 0.525816180907877
"ave" 0.00751698959666021
"laveB" 0.11046335224835
"agg" 0.583851251819865
"ave" 0.0102205194837874
"laveB" 0.143271932422701
"agg" 0.406781378146851
"ave" 0.00572018659881691
"laveB" 0.0833128021689495
"agg" 0.700789328723338
"ave" 0.0372919525960208
"laveB" 0.237939256433354
"agg" 0.770948506989974
"ave" 0.0448462753915069
"laveB" 0.274495193877777
"agg" 0.563581000003376
"ave" 0.0132054445350723
"laveB" 0.13596776188539
"agg" 0.57679040263338
"ave" 0.014925641472185
"laveB" 0.162684994718836
"agg" 0.373666142390796
"ave" 0.0201651793151275
"laveB" 0.163108078507179
"agg" 0.334059616881658
"ave" 0.0177225634112747
"laveB" 0.155115682128267
"agg" 0.601550965439186
"ave" 0.0270748228614358
"laveB" 0.201133149264505
"agg" 0.54871375615207
"ave" 0.0255093185107048
"laveB" 0.202970714026864
"agg" 0.356882037475114
"ave" 0.0152804505599298
"laveB" 0.125959646145521
"agg" 0.203912681224249
"ave" 0.0102201773057427
"laveB" 0.0752807584348657
"agg" 0.216966208258687
"ave" 0.00942924044168455
"laveB" 0.0978215210023131
"agg" 0.266697569163918
"ave" 0.0120706532827949
"laveB" 0.103227441627124
"agg" 0.137987374927085
"ave" 0.0076527009791535
"laveB" 0.0411535963007139
"agg" 0.220679886809295
"ave" 0.0121162911856089
"laveB" 0.0674676735609188
"agg" 0.360178612608549
"ave" 0.0169191605835353
"laveB" 0.123309469389393
"agg" 0.357828646277311
"ave" 0.0162323203903647
"laveB" 0.119252369661967
"agg" 0.301708064930429
"ave" 0.012586211037392
"laveB" 0.147266638174031
"agg" 0.42580941726552
"ave" 0.0144648760943372
"laveB" 0.149596660028398
"agg" 0.318025243454307
"ave" 0.00867876696419024
"laveB" 0.106447625968534
"agg" 0.250244970405097
"ave" 0.00609507395062703
"laveB" 0.0628768990894884
"agg" 0.0600556851782733
"ave" 0.000608336660715553
"laveB" 0.0185135925134816
"agg" 0.156065331412314
"ave" 0.00376554047446396
"laveB" 0.050828977818082
"agg" 0.100504451449476
"ave" 0.00454999272612308
"laveB" 0.0327273016409284
"agg" 0.1769024057807
"ave" 0.00524913438496251
"laveB" 0.0563998580744339
"agg" 0.279528464618806
"ave" 0.00596273960992744
"laveB" 0.0510845915179748
"agg" 0.276297555641048
"ave" 0.00537630584984051
"laveB" 0.0811195862490865
"agg" 0.441676211821656
"ave" 0.013438930508407
"laveB" 0.14937131709123
"agg" 0.42757243881366
"ave" 0.0123212890758899
"laveB" 0.141825457568002
"agg" 0.426544005647172
"ave" 0.00955671624417741
"laveB" 0.141598556301576
"agg" 0.375521611151998
"ave" 0.0116095597235991
"laveB" 0.12371482559811
"agg" 0.180940377817216
"ave" 0.00257222892790791
"laveB" 0.0274151378429775
"agg" 0.279152666124257
"ave" 0.00606176733625793
"laveB" 0.0767125600438294
"agg" 0.359373129331917
"ave" 0.0120968916824097
"laveB" 0.103227470586807
"agg" 0.395234966048105
"ave" 0.0161659189738042
"laveB" 0.113213400071938
"agg" 0.380115085238394
"ave" 0.00761802225632823
"laveB" 0.077345411338085
"agg" 0.453984857402085
"ave" 0.0103414936167295
"laveB" 0.101163346495153
"agg" 0.342037469521509
"ave" 0.0111758227411631
"laveB" 0.107364824773588
"agg" 0.362241120347839
"ave" 0.0126710880971715
"laveB" 0.12489575185688
"agg" 0.517581116740624
"ave" 0.00850056813468777
"laveB" 0.102735323503601
"agg" 0.514899940332257
"ave" 0.00910935750664197
"laveB" 0.105060823512916
"agg" 0.590031587251085
"ave" 0.00946150602068344
"laveB" 0.138349067419815
"agg" 0.602597883356827
"ave" 0.0120348050247657
"laveB" 0.147977477754172
"agg" 0.421165474362337
"ave" 0.00662870563294848
"laveB" 0.0843309929883402
"agg" 0.88002065733798
"ave" 0.0705169462555011
"laveB" 0.336157426411629
"agg" 0.447065077367755
"ave" 0.015795983908117
"laveB" 0.142242326448317
"agg" 0.416738414033612
"ave" 0.0162405578176856
"laveB" 0.131013307017636
"agg" 0.244555788498132
"ave" 0.0208212852183303
"laveB" 0.152068660244812
"agg" 0.231719696917983
"ave" 0.0195533967558366
"laveB" 0.134579059558064
"agg" 0.577778137551563
"ave" 0.0374027715703146
"laveB" 0.229454669206259
"agg" 0.560425965496044
"ave" 0.0360839821887662
"laveB" 0.201159566016751
"agg" 0.275994763056452
"ave" 0.0163659934815214
"laveB" 0.091812938921375
"agg" 0.209266122131826
"ave" 0.0151620152476091
"laveB" 0.0728823815722438
"agg" 0.0919370288210048
"ave" 0.00637588183788596
"laveB" 0.0695791309009518
"agg" 0.19081556410919
"ave" 0.0121872253925565
"laveB" 0.0690697897202715
"agg" 0.26762927405364
"ave" 0.0217335682738162
"laveB" 0.0962374187373313
"agg" 0.420616897000244
"ave" 0.0331719107772677
"laveB" 0.158808021957105
"agg" 0.576198385758442
"ave" 0.0368569090939304
"laveB" 0.20885483890539
"agg" 0.528375287342201
"ave" 0.0325184597402316
"laveB" 0.183395436025772
"agg" 0.324487685340696
"ave" 0.0191640608830494
"laveB" 0.149873273913468
"agg" 0.489494168566445
"ave" 0.022992299879259
"laveB" 0.173231641000627
"agg" 0.410703317438696
"ave" 0.0156643128614548
"laveB" 0.138623255473766
"agg" 0.420024431247774
"ave" 0.0140407594582866
"laveB" 0.1233500385723
"agg" 0.101289300713278
"ave" 0.00232049636343119
"laveB" 0.0248458672021075
"agg" 0.264882807512722
"ave" 0.0102938856487268
"laveB" 0.0934139303688436
"agg" 0.111355541191083
"ave" 0.00598927824255598
"laveB" 0.0287113608212027
"agg" 0.0522850275891013
"ave" 0.00352519491315314
"laveB" 0.0297840114154954
"agg" 0.388596902674161
"ave" 0.0118667580734694
"laveB" 0.0910153086836044
"agg" 0.314130602702659
"ave" 0.00885502264324328
"laveB" 0.0869882075504393
"agg" 0.251262326009614
"ave" 0.0115432074465067
"laveB" 0.108511800547084
"agg" 0.366889395181488
"ave" 0.015112564096349
"laveB" 0.125339730588602
"agg" 0.322560707130729
"ave" 0.0111658740844137
"laveB" 0.103739841263042
"agg" 0.336317879704633
"ave" 0.0165235604324288
"laveB" 0.122637193888916
"agg" 0.155257904781783
"ave" 0.00324758823238868
"laveB" 0.0247199659264208
"agg" 0.218428729625204
"ave" 0.00718259079173735
"laveB" 0.062770876230854
"agg" 0.422881416634921
"ave" 0.0209115930804213
"laveB" 0.1467609978842
"agg" 0.427686502909607
"ave" 0.0264524242789088
"laveB" 0.144787969966871
"agg" 0.411943108981893
"ave" 0.0118906010362999
"laveB" 0.0950167858176542
"agg" 0.580490718412717
"ave" 0.0186946058626301
"laveB" 0.124634792916102
"agg" 0.562991293972835
"ave" 0.0253550555140631
"laveB" 0.212723691800991
"agg" 0.624249479019428
"ave" 0.0288340002196065
"laveB" 0.222033718408944
"agg" 0.562689074633756
"ave" 0.0132234696605693
"laveB" 0.140082105446053
"agg" 0.551264593018719
"ave" 0.0140869753823375
"laveB" 0.136011864813536
"agg" 0.67657289670991
"ave" 0.0149500762042782
"laveB" 0.163002577623344
"agg" 0.6886655956228
"ave" 0.0194884105050879
"laveB" 0.171766592476638
"agg" 0.575331985246557
"ave" 0.0123167855945465
"laveB" 0.11981430220807
"agg" 0.481333380779361
"ave" 0.0184608063632508
"laveB" 0.145728284868535
"agg" 0.533123478455472
"ave" 0.0221446214839923
"laveB" 0.19591043554827
"agg" 0.32392839389413
"ave" 0.0290616631638394
"laveB" 0.193044650499124
"agg" 0.28388936853646
"ave" 0.0252344080871606
"laveB" 0.16388209737342
"agg" 0.622256212354098
"ave" 0.0438990348469175
"laveB" 0.237458196552977
"agg" 0.647073409827682
"ave" 0.0459635330982033
"laveB" 0.243299022719707
"agg" 0.258041502786304
"ave" 0.0165615077761235
"laveB" 0.0879048493033737
"agg" 0.183423215472189
"ave" 0.0144903872923704
"laveB" 0.0942795393341336
"agg" 0.108006150977048
"ave" 0.0076717511163663
"laveB" 0.0752433805524718
"agg" 0.193552239267815
"ave" 0.0135258514238905
"laveB" 0.092348710235111
"agg" 0.165136349805912
"ave" 0.0139201369698125
"laveB" 0.0682715644885043
"agg" 0.328897222226084
"ave" 0.0286641513696246
"laveB" 0.141038851047384
"agg" 0.521021434990395
"ave" 0.038056928148548
"laveB" 0.225842142113432
"agg" 0.495292035094055
"ave" 0.0358965752569831
"laveB" 0.197193343832611
"agg" 0.383489792825862
"ave" 0.024644818501471
"laveB" 0.183623788834735
"agg" 0.527881329033343
"ave" 0.0278014460031969
"laveB" 0.184643830338291
"agg" 0.382868902488442
"ave" 0.0162829887259845
"laveB" 0.149837739535451
"agg" 0.325759694331207
"ave" 0.0120719986908921
"laveB" 0.111205156575597
"agg" 0.0278300277371433
"ave" 0.000523151708856641
"laveB" 0.0101146243325698
"agg" 0.195341185732502
"ave" 0.00843658192743841
"laveB" 0.0774840466715082
"agg" -0.0168199278889899
"ave" -0.00255040218724081
"laveB" -0.0150776122169284
"agg" 0.0519118364564244
"ave" 0.0045292249655432
"laveB" 0.0330567058365443
"agg" 0.299431997682139
"ave" 0.0103062891256067
"laveB" 0.0903658712618158
"agg" 0.26452624845075
"ave" 0.00843939878693749
"laveB" 0.0985859812633056
"agg" 0.213031550793382
"ave" 0.010741535047341
"laveB" 0.0976075318720387
"agg" 0.27646798841422
"ave" 0.0133741699554029
"laveB" 0.112720076046735
"agg" 0.268240845151461
"ave" 0.0101052942395359
"laveB" 0.104365425521198
"agg" 0.349250367296177
"ave" 0.0182554731635125
"laveB" 0.143370848501135
"agg" 0.0880234986469786
"ave" 0.0022145972392731
"laveB" 0.0136234489784569
"agg" 0.21176172559691
"ave" 0.00786058346160888
"laveB" 0.0616652327380679
"agg" 0.382941830927873
"ave" 0.0201165449440396
"laveB" 0.143666664559099
"agg" 0.450007729160216
"ave" 0.0301276402869943
"laveB" 0.160730987864358
"agg" 0.335094422479757
"ave" 0.0102967629565751
"laveB" 0.073247898549194
"agg" 0.572597238129987
"ave" 0.0199022680258533
"laveB" 0.150630604453199
"agg" 0.546695395735588
"ave" 0.0270113434841515
"laveB" 0.215436792419895
"agg" 0.597781615126633
"ave" 0.0304832832785705
"laveB" 0.234231272649446
"agg" 0.616127007767509
"ave" 0.0159879871175907
"laveB" 0.158718342486871
"agg" 0.574875493927193
"ave" 0.0159823525454829
"laveB" 0.142561540165579
"agg" 0.671691295928071
"ave" 0.0167924472165908
"laveB" 0.183013892295537
"agg" 0.676186143229238
"ave" 0.0210899455630592
"laveB" 0.191025314232549
"agg" 0.51646327763402
"ave" 0.0125402814027103
"laveB" 0.125716266091128
"agg" 0.874789765458011
"ave" 0.0145389421644854
"laveB" 0.166938030235021
"agg" 0.574109334231437
"ave" 0.0212187325016342
"laveB" 0.187596873578706
"agg" 0.585634782529897
"ave" 0.0198740452213548
"laveB" 0.184636954977999
"agg" 0.596195797367565
"ave" 0.0187561448835123
"laveB" 0.165559182934718
"agg" 0.566799274909409
"ave" 0.019794002306896
"laveB" 0.15574754581442
"agg" 0.32607369235125
"ave" 0.00983223487659499
"laveB" 0.0774379511959703
"agg" 0.104609263766875
"ave" 0.00342497362523613
"laveB" 0.037320673413948
"agg" 0.492779357482703
"ave" 0.0144981082938804
"laveB" 0.128480662954189
"agg" 0.436434575599787
"ave" 0.0136676502900745
"laveB" 0.123150505466503
"agg" 0.139066872424337
"ave" 0.0041452204976023
"laveB" 0.0525258241104231
"agg" 0.128550539276868
"ave" 0.00398844287049387
"laveB" 0.0444831060353649
"agg" 0.206307734763527
"ave" 0.00731317994276673
"laveB" 0.0574796977622228
"agg" 0.190876935431972
"ave" 0.00712833191371686
"laveB" 0.0695525968837026
"agg" 0.63317218953977
"ave" 0.0168131777451268
"laveB" 0.195605107618474
"agg" 0.657027388789582
"ave" 0.0149158969899065
"laveB" 0.175822429187553
"agg" 0.259011651997021
"ave" 0.00436496640394446
"laveB" 0.0694094680352788
"agg" 0.11008117600297
"ave" 0.00163301064359298
"laveB" 0.022506887210517
"agg" 0.147376440633321
"ave" 0.00212175138552141
"laveB" 0.0300928945424416
"agg" 0.188970394344863
"ave" 0.00362980332354544
"laveB" 0.0534149298167894
"agg" 0.0327121759891562
"ave" 0.00114671663019783
"laveB" 0.00482341165984501
"agg" 0.271098741671233
"ave" 0.0064513644567665
"laveB" 0.0764000565768484
"agg" -0.0861828458288291
"ave" -0.00152410802569232
"laveB" -0.0231751863929342
"agg" -0.149155632976671
"ave" -0.00225641094062093
"laveB" -0.0327745028728439
"agg" 0.250647367166588
"ave" 0.00570925747471495
"laveB" 0.054651674365468
"agg" 0.0676046776170362
"ave" 0.000829142236512912
"laveB" 0.0276709411563552
"agg" 0.582315381875818
"ave" 0.0099048766222532
"laveB" 0.147325467642438
"agg" 0.650833684422023
"ave" 0.0144749422805132
"laveB" 0.168348288788252
"agg" 0.310324070201605
"ave" 0.00290702252382801
"laveB" 0.0499967293004409
"agg" 0.402298400731688
"ave" 0.00571379164106794
"laveB" 0.0812918821118667
"agg" 0.651238924483503
"ave" 0.0137552597393387
"laveB" 0.161430115573746
"agg" 0.590713925965425
"ave" 0.0157680545021387
"laveB" 0.154864437036464
"agg" 0.490404696767044
"ave" 0.0057424746041042
"laveB" 0.0695671937183354
"agg" 0.522913320656479
"ave" 0.00709377783013217
"laveB" 0.079047038667178
"agg" 0.251789637282501
"ave" 0.00477876832158911
"laveB" 0.0672269693528402
"agg" 0.195602735103769
"ave" 0.0043927140352852
"laveB" 0.0514154029440467
"agg" 0.529402597265113
"ave" 0.00574744503800761
"laveB" 0.094459592213692
"agg" 0.499658418798225
"ave" 0.00580538917161239
"laveB" 0.0771794984248942
"agg" 0.291272728539581
"ave" 0.00357301304174484
"laveB" 0.0586886461529629
"agg" 0.444183116667871
"ave" 0.00557555917525584
"laveB" 0.0960183347479135
"agg" 0.0898812716063878
"ave" 0.00096709751293521
"laveB" 0.0129265180875546
