"EST" "CORR"
"agg" 0.884219628485859
"ave" 0.0358507979850389
"laveB" 0.334603106550513
"agg" 0.715939906555409
"ave" 0.0255104838339261
"laveB" 0.242883967937257
"agg" 0.652832435578872
"ave" 0.0211003640492155
"laveB" 0.230915050545069
"agg" 0.290322661384904
"ave" 0.0063124882799894
"laveB" 0.0828761531856846
"agg" 0.134257561357306
"ave" 0.00579790711958858
"laveB" 0.0504464649116728
"agg" 0.789445429891539
"ave" 0.0337856926717931
"laveB" 0.320453572945461
"agg" 0.72363505806011
"ave" 0.0277390120004877
"laveB" 0.282550900247612
"agg" 0.521887478575542
"ave" 0.0214287616831363
"laveB" 0.240749921262718
"agg" 0.314640685227178
"ave" 0.0105036840141815
"laveB" 0.0988248341185598
"agg" 0.592514034390939
"ave" 0.0301446112752131
"laveB" 0.227386455389651
"agg" 0.686635724824975
"ave" 0.0304727133537521
"laveB" 0.278059891802648
"agg" 0.832463409137027
"ave" 0.0347542440761545
"laveB" 0.359703741250986
"agg" 0.650599219722055
"ave" 0.0289471045328581
"laveB" 0.264354120630329
"agg" 0.634673045084361
"ave" 0.0251700526968583
"laveB" 0.271746198635274
"agg" 0.58943395559516
"ave" 0.0229891238670268
"laveB" 0.197248645362177
"agg" 0.774775941371253
"ave" 0.034456749310767
"laveB" 0.35530479350468
"agg" 0.787392681640645
"ave" 0.0397715769907587
"laveB" 0.372689460327594
"agg" 0.834396743210811
"ave" 0.0269680174039067
"laveB" 0.296905476138683
"agg" 0.796779811018891
"ave" 0.0211761756469407
"laveB" 0.240102957127294
"agg" 0.500415159530399
"ave" 0.00929323855540788
"laveB" 0.146433974543985
"agg" 0.0969773995172544
"ave" 0.00224678781370325
"laveB" 0.0232300694619968
"agg" 0.684139603572695
"ave" 0.0227118581347539
"laveB" 0.262188827667049
"agg" 0.595863372008008
"ave" 0.0162745035017736
"laveB" 0.170437150575914
"agg" 0.155402305373591
"ave" 0.00319468851440566
"laveB" 0.0460096951944357
"agg" 0.490865385674179
"ave" 0.00852381657708913
"laveB" 0.109196967446241
"agg" 0.713219394711919
"ave" 0.021985472458758
"laveB" 0.285991086140707
"agg" 0.756298484440238
"ave" 0.0289669724431123
"laveB" 0.313349228940865
"agg" 0.584564792084889
"ave" 0.0188997576223034
"laveB" 0.207802741667469
"agg" 0.544499945501067
"ave" 0.0146716082428576
"laveB" 0.19746489788557
"agg" 0.774656746805293
"ave" 0.025485884862015
"laveB" 0.286712948475439
"agg" 0.796489618942598
"ave" 0.0239175293727349
"laveB" 0.278596865926648
"agg" 0.558208468859144
"ave" 0.021545220811165
"laveB" 0.214549372269733
"agg" 0.436028011008092
"ave" 0.0190265239741792
"laveB" 0.173810793137336
"agg" 0.639385847937735
"ave" 0.0124343521930936
"laveB" 0.161209160519581
"agg" 0.451317399218359
"ave" 0.012914826820783
"laveB" 0.162099879158972
"agg" 0.642498045766813
"ave" 0.0158967371921416
"laveB" 0.211853901609624
"agg" 0.415654530617575
"ave" 0.00911068002342474
"laveB" 0.110351029890187
"agg" 0.55747162859164
"ave" 0.0137479844065035
"laveB" 0.206869425696918
"agg" 0.539023112103744
"ave" 0.0163143133784674
"laveB" 0.19070842406364
"agg" 0.758123948071477
"ave" 0.0358481850289912
"laveB" 0.332905493363043
"agg" 0.724847158053756
"ave" 0.0351639079193337
"laveB" 0.317998624135103
"agg" 0.757632242405285
"ave" 0.0367661889848427
"laveB" 0.333376345567981
"agg" 0.675273634155548
"ave" 0.0330904322813574
"laveB" 0.278396386057911
"agg" 0.800143365444344
"ave" 0.0294128692861655
"laveB" 0.325925550981193
"agg" 0.701741491058462
"ave" 0.0252931707798709
"laveB" 0.2603596050948
"agg" 0.71490074434214
"ave" 0.0391028172315443
"laveB" 0.295306751802686
"agg" 0.630627625523362
"ave" 0.0382642022807769
"laveB" 0.290258601945035
"agg" 0.720930249913313
"ave" 0.0202129082598085
"laveB" 0.242340085528041
"agg" 0.62923787450466
"ave" 0.0189439090547713
"laveB" 0.214685106753597
"agg" 0.824794452176255
"ave" 0.0403003640028181
"laveB" 0.349631854112622
"agg" 0.829478488282814
"ave" 0.0379759610691321
"laveB" 0.331117265531943
"agg" 0.827788583842485
"ave" 0.0347167602149996
"laveB" 0.348751942659391
"agg" 0.78509452534586
"ave" 0.0312687789850753
"laveB" 0.316321091905481
"agg" 0.74718789571626
"ave" 0.0364647035313299
"laveB" 0.282710319776971
"agg" 0.619203162628289
"ave" 0.0335128786599778
"laveB" 0.262908215539809
"agg" 0.754259432770801
"ave" 0.0409904708695679
"laveB" 0.327489127961825
"agg" 0.735551378430468
"ave" 0.0367936718758824
"laveB" 0.295463698639832
"agg" 0.604389979552544
"ave" 0.0387927489583735
"laveB" 0.272405360964305
"agg" 0.464349554724264
"ave" 0.0273919388748978
"laveB" 0.205474811288053
"agg" 0.747648674034945
"ave" 0.027224717170148
"laveB" 0.282192941980992
"agg" 0.629705985789265
"ave" 0.0204076988201687
"laveB" 0.239559541526684
"agg" 0.686689652466
"ave" 0.0289077201397989
"laveB" 0.298539601771431
"agg" 0.543612641783344
"ave" 0.0232712945207043
"laveB" 0.216504194057894
"agg" 0.590537681891195
"ave" 0.0161866674134242
"laveB" 0.208098405962047
"agg" 0.640730520201126
"ave" 0.017429559799536
"laveB" 0.242763598257782
"agg" 0.539343699301693
"ave" 0.0147307392764765
"laveB" 0.209045850377409
"agg" 0.568475414290368
"ave" 0.0193327121191746
"laveB" 0.237873775778803
"agg" 0.276983352367408
"ave" 0.0167498082512083
"laveB" 0.135617936508133
"agg" 0.34571183716004
"ave" 0.01421905794752
"laveB" 0.128920368162201
"agg" 0.403167877125471
"ave" 0.0113815487778448
"laveB" 0.152154472003685
"agg" 0.443899329360657
"ave" 0.0109637791678422
"laveB" 0.116804783451241
"agg" 0.701137871247534
"ave" 0.0415800423396455
"laveB" 0.383556903403185
"agg" 0.716884311188718
"ave" 0.039342052429513
"laveB" 0.368483588957171
"agg" 0.840359929766037
"ave" 0.0386653015610349
"laveB" 0.388590308754456
"agg" 0.794490320385126
"ave" 0.0340256691079054
"laveB" 0.322443058027832
"agg" 0.65743325496036
"ave" 0.0165060766313558
"laveB" 0.216237725596374
"agg" 0.548342695033304
"ave" 0.0135390002657571
"laveB" 0.15622356301545
"agg" 0.828095405523451
"ave" 0.0357303058928992
"laveB" 0.333664188474164
"agg" 0.676652965116217
"ave" 0.0308786618782951
"laveB" 0.260565066516063
"agg" 0.756385591089864
"ave" 0.0166081036804595
"laveB" 0.154816344127238
"agg" 0.686533222117165
"ave" 0.0209656280633648
"laveB" 0.233599737752614
"agg" 0.611216761293336
"ave" 0.0199816507030566
"laveB" 0.248818043690695
"agg" 0.528752648962917
"ave" 0.0164868156959189
"laveB" 0.199026346576631
"agg" 0.568715649203249
"ave" 0.0149430631913228
"laveB" 0.203870743237485
"agg" 0.66911582695251
"ave" 0.0175220110446416
"laveB" 0.231601422526568
"agg" 0.609773303264992
"ave" 0.0151676055318335
"laveB" 0.201486221240419
"agg" 0.610270905362816
"ave" 0.0158015801068555
"laveB" 0.223216107260202
"agg" 0.586682271498173
"ave" 0.0136897529274183
"laveB" 0.188041436863901
"agg" 0.627891786902386
"ave" 0.0245255463959125
"laveB" 0.233519642067061
"agg" 0.638423656608242
"ave" 0.0208641567220916
"laveB" 0.222031855789206
"agg" 0.328315988904081
"ave" 0.00644605391954666
"laveB" 0.0872111549140219
"agg" 0.210745562149798
"ave" 0.00830772368962459
"laveB" 0.0651690028721651
"agg" 0.668870538141081
"ave" 0.031053822739299
"laveB" 0.288630104665442
"agg" 0.708517074285025
"ave" 0.028998827849984
"laveB" 0.283265582431643
"agg" 0.441012053424638
"ave" 0.0194436657523409
"laveB" 0.206742707881244
"agg" 0.284634065040668
"ave" 0.010483464199865
"laveB" 0.0911904800833943
"agg" 0.569143182426743
"ave" 0.0296710964649318
"laveB" 0.253246145827112
"agg" 0.721920449155735
"ave" 0.0361924678063878
"laveB" 0.308951593658031
"agg" 0.760899147849327
"ave" 0.0329788791566905
"laveB" 0.335444694594979
"agg" 0.631973506265115
"ave" 0.0315348135686818
"laveB" 0.295873141923274
"agg" 0.561271474474276
"ave" 0.0240283724322173
"laveB" 0.253736494837147
"agg" 0.587152440966049
"ave" 0.0263081592949572
"laveB" 0.215310045104806
"agg" 0.86374959473508
"ave" 0.0397337268148384
"laveB" 0.398729006670087
"agg" 0.863020085861205
"ave" 0.0478752319452668
"laveB" 0.434697263104734
"agg" 0.812971685516232
"ave" 0.0260318128095479
"laveB" 0.282563538058501
"agg" 0.8330977205896
"ave" 0.0222840340012207
"laveB" 0.248097608535627
"agg" 0.475155419044603
"ave" 0.00981857929144183
"laveB" 0.138516796952587
"agg" 0.0480010844765585
"ave" 0.000998702429726126
"laveB" 0.00614707438953835
"agg" 0.62514196522812
"ave" 0.0229913950334118
"laveB" 0.255320858179073
"agg" 0.58770124686495
"ave" 0.0177623280149406
"laveB" 0.195620577475077
"agg" 0.134057419991536
"ave" 0.00326841113316301
"laveB" 0.0448060426181906
"agg" 0.474097414420018
"ave" 0.00946395056543437
"laveB" 0.126576211374013
"agg" 0.773711592940866
"ave" 0.0252039655767191
"laveB" 0.324041034290202
"agg" 0.805608772000067
"ave" 0.0337875938065332
"laveB" 0.358639605014488
"agg" 0.544475390863533
"ave" 0.0201356801169887
"laveB" 0.199228510984818
"agg" 0.531673324404672
"ave" 0.0161724210025942
"laveB" 0.185566105477168
"agg" 0.702719982918798
"ave" 0.0251501432827439
"laveB" 0.266577274962228
"agg" 0.779105293642399
"ave" 0.02516242881345
"laveB" 0.285021414088746
"agg" 0.476794377878749
"ave" 0.0204464165816791
"laveB" 0.204413491023253
"agg" 0.383580077234883
"ave" 0.0184431179937864
"laveB" 0.158495162591922
"agg" 0.6646460583868
"ave" 0.0148757985612454
"laveB" 0.188970200366394
"agg" 0.538893151018119
"ave" 0.0165982130173184
"laveB" 0.206163007048903
"agg" 0.521876041850903
"ave" 0.0142614951803342
"laveB" 0.171630838045184
"agg" 0.443167077842758
"ave" 0.0110140105812243
"laveB" 0.132026481053263
"agg" 0.572785528695546
"ave" 0.015184342356042
"laveB" 0.237446376251457
"agg" 0.623122406170859
"ave" 0.0199010315410995
"laveB" 0.256747535894214
"agg" 0.664077527314882
"ave" 0.0340019785203527
"laveB" 0.284543960984415
"agg" 0.653722713319867
"ave" 0.0342126016781118
"laveB" 0.296983274692708
"agg" 0.70485988148373
"ave" 0.0357111455035567
"laveB" 0.314423994467168
"agg" 0.664894122611928
"ave" 0.0344199228643964
"laveB" 0.278036257677736
"agg" 0.728401029343491
"ave" 0.0286121939193049
"laveB" 0.303861869096486
"agg" 0.63968514627767
"ave" 0.024095782821301
"laveB" 0.238078744247421
"agg" 0.638203635425379
"ave" 0.0366472766993249
"laveB" 0.277061354628707
"agg" 0.583274854911062
"ave" 0.0387381272109177
"laveB" 0.271203194605109
"agg" 0.615576468696177
"ave" 0.0187653390017455
"laveB" 0.203905415464921
"agg" 0.560143697007101
"ave" 0.0196602262133209
"laveB" 0.203702807494904
"agg" 0.883022049256601
"ave" 0.0419687437249437
"laveB" 0.378873300284392
"agg" 0.914326654084645
"ave" 0.0437546476211711
"laveB" 0.376408313700287
"agg" 0.679621720580542
"ave" 0.0294021055403844
"laveB" 0.287358388938637
"agg" 0.724353285287375
"ave" 0.0298405435671354
"laveB" 0.288303708507678
"agg" 0.657627232682805
"ave" 0.0327358428699826
"laveB" 0.265206217193067
"agg" 0.622547119913023
"ave" 0.0349457693349719
"laveB" 0.270445857111654
"agg" 0.672783710207169
"ave" 0.0345597458451589
"laveB" 0.289608958682637
"agg" 0.71030772616174
"ave" 0.0375119692128319
"laveB" 0.276652499837347
"agg" 0.521090208822234
"ave" 0.0363498986085746
"laveB" 0.254661296837325
"agg" 0.462090608147424
"ave" 0.0290092895017294
"laveB" 0.2122831016529
"agg" 0.62423422062673
"ave" 0.0241174887746863
"laveB" 0.245319260527703
"agg" 0.541286496191119
"ave" 0.018448016552688
"laveB" 0.192787291295243
"agg" 0.707200662490756
"ave" 0.0282566098885136
"laveB" 0.287446225975334
"agg" 0.599775673140632
"ave" 0.0242000048585955
"laveB" 0.249153649932808
"agg" 0.6321331124481
"ave" 0.0177244830898435
"laveB" 0.222008331566824
"agg" 0.630608698744007
"ave" 0.017511930014876
"laveB" 0.221060671037329
"agg" 0.569507763338456
"ave" 0.0156532231721189
"laveB" 0.20390151917636
"agg" 0.633508754628143
"ave" 0.0234508942165164
"laveB" 0.273007654447753
"agg" 0.33255881829677
"ave" 0.019974491509718
"laveB" 0.164728918927723
"agg" 0.473340226591586
"ave" 0.0203831740205262
"laveB" 0.174384188533437
"agg" 0.450323566362303
"ave" 0.0147431479905805
"laveB" 0.170544596872525
"agg" 0.435814520307893
"ave" 0.0117445948716326
"laveB" 0.133509472650371
"agg" 0.708164018646312
"ave" 0.0458664477338996
"laveB" 0.394881762484516
"agg" 0.766404602595153
"ave" 0.0463754621900596
"laveB" 0.407434317233987
"agg" 0.839064480259558
"ave" 0.0399992335550931
"laveB" 0.400502032290737
"agg" 0.829758036446171
"ave" 0.038371278485854
"laveB" 0.337372854758779
"agg" 0.592624657562471
"ave" 0.0163370752916735
"laveB" 0.205775760909506
"agg" 0.497162374899949
"ave" 0.0142105112614496
"laveB" 0.150926657716465
"agg" 0.73117403598029
"ave" 0.033204173022386
"laveB" 0.293957748936991
"agg" 0.627076104616146
"ave" 0.0319336386067695
"laveB" 0.235899668518996
"agg" 0.651484100864999
"ave" 0.0145968559818027
"laveB" 0.154417158216748
"agg" 0.614449982757749
"ave" 0.0207076713333523
"laveB" 0.215211847125345
"agg" 0.565451787880848
"ave" 0.0193337327140158
"laveB" 0.230135988224198
"agg" 0.406478613011841
"ave" 0.0143518729587422
"laveB" 0.153761668667541
"agg" 0.570121692542645
"ave" 0.0152144192963406
"laveB" 0.226996407260548
"agg" 0.59695319923817
"ave" 0.0165875255848759
"laveB" 0.196411849420897
"agg" 0.546118542212284
"ave" 0.014695249113747
"laveB" 0.200699331533775
"agg" 0.511546146142089
"ave" 0.0142197543327021
"laveB" 0.187333755294101
"agg" 0.539819045170441
"ave" 0.0126951085166021
"laveB" 0.163749689900999
"agg" 0.843619988926512
"ave" 0.0243275862504524
"laveB" 0.267178604424109
"agg" 0.506957217551309
"ave" 0.00913086152190612
"laveB" 0.120006927648385
"agg" 0.268220043868583
"ave" 0.00939195216192539
"laveB" 0.0816253351662873
"agg" 0.807292311129607
"ave" 0.0355976648570542
"laveB" 0.326394596671953
"agg" 0.709866213986263
"ave" 0.02511192380498
"laveB" 0.258314867549028
"agg" 0.431218306169207
"ave" 0.0158444188765995
"laveB" 0.186543087994714
"agg" 0.233804281222249
"ave" 0.010204852247937
"laveB" 0.0795863254561987
"agg" 0.607357429685368
"ave" 0.0305445657172397
"laveB" 0.277556090563699
"agg" 0.506036601588524
"ave" 0.0226125172054817
"laveB" 0.2038775932444
"agg" 0.687792792498813
"ave" 0.0283129906954283
"laveB" 0.290971410452096
"agg" 0.422351106849832
"ave" 0.0185217969277372
"laveB" 0.191897879543478
"agg" 0.513776734979818
"ave" 0.0186119919149835
"laveB" 0.200600392838388
"agg" 0.505247079157133
"ave" 0.0206995811775194
"laveB" 0.174707006378979
"agg" 0.510732453647286
"ave" 0.021810680139604
"laveB" 0.209984191998536
"agg" 0.541136924692951
"ave" 0.027051951516444
"laveB" 0.250964481671042
"agg" 0.627643094863336
"ave" 0.0184607332682644
"laveB" 0.202253171387817
"agg" 0.618285748575862
"ave" 0.01479269535417
"laveB" 0.170449118594698
"agg" 0.40317705715872
"ave" 0.00733796382133872
"laveB" 0.104901167650467
"agg" 0.0385212797811397
"ave" 0.0010646581165053
"laveB" 0.0141082470800035
"agg" 0.876699541744673
"ave" 0.0288356957068692
"laveB" 0.328386848577593
"agg" 0.765507378330394
"ave" 0.0216830033358781
"laveB" 0.237860123722223
"agg" 0.288355613529239
"ave" 0.00763947604633235
"laveB" 0.0769509832423261
"agg" 0.507577118286729
"ave" 0.0083291747342761
"laveB" 0.114677332943662
"agg" 0.609737545984246
"ave" 0.0183466470376367
"laveB" 0.252759450935528
"agg" 0.568153074631741
"ave" 0.0214498118613511
"laveB" 0.231609357473443
"agg" 0.716692747562184
"ave" 0.0235692389835272
"laveB" 0.262060116959637
"agg" 0.640116779694776
"ave" 0.0182500621170857
"laveB" 0.236563434206759
"agg" 0.793205284019973
"ave" 0.0250992553545265
"laveB" 0.262686952625777
"agg" 0.679557339513464
"ave" 0.0198720771469677
"laveB" 0.23153412228231
"agg" 0.646222188593008
"ave" 0.0240269998209314
"laveB" 0.253007064662379
"agg" 0.438653006491573
"ave" 0.0191226965147944
"laveB" 0.19435257214581
"agg" 0.568970656489983
"ave" 0.0107758873832064
"laveB" 0.140569759276638
"agg" 0.489512084349126
"ave" 0.0136531888679821
"laveB" 0.17616558621085
"agg" 0.458461966651546
"ave" 0.0113147095314544
"laveB" 0.137506065875287
"agg" 0.484915544761675
"ave" 0.010677616004932
"laveB" 0.13359742650496
"agg" 0.498605612718014
"ave" 0.0114798008446099
"laveB" 0.167072224235823
"agg" 0.490108602914263
"ave" 0.0138502323275272
"laveB" 0.177230777759083
"agg" 0.626504869944543
"ave" 0.0277735436392438
"laveB" 0.241578069638301
"agg" 0.593790538737654
"ave" 0.0281271039654623
"laveB" 0.245425657062697
"agg" 0.612596045755684
"ave" 0.027461455001752
"laveB" 0.243719106081632
"agg" 0.538765336649499
"ave" 0.0257924469592123
"laveB" 0.210955319824632
"agg" 0.651443294388865
"ave" 0.0224123753987719
"laveB" 0.252279827798395
"agg" 0.609907153550272
"ave" 0.0207611063781796
"laveB" 0.214190618630419
"agg" 0.622151475099028
"ave" 0.0311112192079469
"laveB" 0.245551293476412
"agg" 0.594196371565554
"ave" 0.0338110680942863
"laveB" 0.248613543341459
"agg" 0.599699942640921
"ave" 0.0157648975098275
"laveB" 0.182740220498253
"agg" 0.556792988882461
"ave" 0.0163909983344769
"laveB" 0.182051358328429
"agg" 0.50477121805173
"ave" 0.0222705751676278
"laveB" 0.199899351282143
"agg" 0.597711289256452
"ave" 0.026592154588404
"laveB" 0.238450789228397
"agg" 0.624404596321697
"ave" 0.0232164234063825
"laveB" 0.224366120575758
"agg" 0.646165023887396
"ave" 0.0235606345034624
"laveB" 0.244656556915838
"agg" 0.586644918189738
"ave" 0.0269502915173294
"laveB" 0.226389177040066
"agg" 0.489231035865216
"ave" 0.0257487301809047
"laveB" 0.221984923130635
"agg" 0.52393203390186
"ave" 0.0257026179083248
"laveB" 0.226190011591689
"agg" 0.441907248684935
"ave" 0.0214425987030317
"laveB" 0.16279474105822
"agg" 0.65994595285228
"ave" 0.0397288496848291
"laveB" 0.306692249805992
"agg" 0.496339043282057
"ave" 0.0289695644868788
"laveB" 0.23022859159641
"agg" 0.779196125400207
"ave" 0.0259980393120738
"laveB" 0.269612056451783
"agg" 0.644119878491537
"ave" 0.0191606189185585
"laveB" 0.215583315914214
"agg" 0.414334758677773
"ave" 0.0155747994097695
"laveB" 0.168952986296448
"agg" 0.403913140858421
"ave" 0.0149911714989745
"laveB" 0.158139847160247
"agg" 0.577362255143677
"ave" 0.0151105215061722
"laveB" 0.21088732952744
"agg" 0.610405818873606
"ave" 0.0157421646592763
"laveB" 0.214987320998745
"agg" 0.421831070264894
"ave" 0.0109282965276544
"laveB" 0.157173067812603
"agg" 0.539601905935244
"ave" 0.0176882820194305
"laveB" 0.213705546693547
"agg" 0.238086593082807
"ave" 0.0134448888478857
"laveB" 0.115405090890814
"agg" 0.354110899874804
"ave" 0.0130836423176994
"laveB" 0.121074215492285
"agg" 0.509738407782459
"ave" 0.0146347858920228
"laveB" 0.187682144295545
"agg" 0.416691545623467
"ave" 0.00959825632377759
"laveB" 0.118734606830478
"agg" 0.473678598716877
"ave" 0.0274053277768487
"laveB" 0.240804124840511
"agg" 0.596290647085721
"ave" 0.0330481336347826
"laveB" 0.310628971136987
"agg" 0.586285391891781
"ave" 0.0243010364059834
"laveB" 0.24448144170192
"agg" 0.576232623568128
"ave" 0.0237437102105018
"laveB" 0.212825465084946
"agg" 0.46371575528096
"ave" 0.0108309080409957
"laveB" 0.128976140002981
"agg" 0.422817867747436
"ave" 0.0106998459799336
"laveB" 0.113211050849654
"agg" 0.658100791132664
"ave" 0.026180099339826
"laveB" 0.257488841779952
"agg" 0.573182807548145
"ave" 0.0252726482008564
"laveB" 0.21433429250543
"agg" 0.656081343673464
"ave" 0.0132404120532354
"laveB" 0.158792967892937
"agg" 0.543991559145942
"ave" 0.0162369525946402
"laveB" 0.174702161400082
"agg" 0.609195674663995
"ave" 0.0181871937512438
"laveB" 0.230278313081168
"agg" 0.597565488643845
"ave" 0.0176009025336829
"laveB" 0.210121118654832
"agg" 0.570260887368432
"ave" 0.0131571154072462
"laveB" 0.196140762149675
"agg" 0.610326568227473
"ave" 0.0147400772008477
"laveB" 0.184449337275623
"agg" 0.518848858525184
"ave" 0.011269462445935
"laveB" 0.163735364736881
"agg" 0.513666677829507
"ave" 0.0120142784650457
"laveB" 0.153704569161822
"agg" 0.533320002162734
"ave" 0.0104846200810454
"laveB" 0.147081696501351
"agg" 0.57498770570132
"ave" 0.00797111755347473
"laveB" 0.125434966507798
"agg" 0.378937755280159
"ave" 0.00768497019185887
"laveB" 0.0477804135072746
"agg" 0.756074551111936
"ave" 0.029084107352823
"laveB" 0.306160482070638
"agg" 0.835275310506825
"ave" 0.0267576789844485
"laveB" 0.328433848005772
"agg" 0.398358892399324
"ave" 0.0160425437831772
"laveB" 0.200893612059489
"agg" 0.432063127377562
"ave" 0.0122719925649705
"laveB" 0.0936408885085896
"agg" 0.627139896967202
"ave" 0.025261934157173
"laveB" 0.250968232875861
"agg" 0.543034968190697
"ave" 0.0222049268074211
"laveB" 0.22151080102672
"agg" 0.648354852666353
"ave" 0.0240776965218128
"laveB" 0.274041334187037
"agg" 0.447928485211662
"ave" 0.0199782241685615
"laveB" 0.220446905398828
"agg" 0.403929395052844
"ave" 0.0152979245104956
"laveB" 0.177286309206306
"agg" 0.502219217762221
"ave" 0.0191846570691938
"laveB" 0.180071659742412
"agg" 0.485248728558701
"ave" 0.0169380265879004
"laveB" 0.191168066885303
"agg" 0.490449750300457
"ave" 0.0205020567077368
"laveB" 0.214309171907158
"agg" 0.586240677809726
"ave" 0.0151301032788953
"laveB" 0.175743783702075
"agg" 0.639129003075137
"ave" 0.0136614918940392
"laveB" 0.174854374325127
"agg" 0.363631697826859
"ave" 0.00627834791093432
"laveB" 0.102286531748323
"agg" -0.0144681975211797
"ave" -0.000809970960495531
"laveB" -0.0206534213588657
"agg" 0.712803886401691
"ave" 0.0192343576470187
"laveB" 0.241848108805604
"agg" 0.761020194261574
"ave" 0.0167851258736551
"laveB" 0.191531879265591
"agg" 0.319685293313321
"ave" 0.00488318107773736
"laveB" 0.0524299882347377
"agg" 0.417832627963893
"ave" 0.00676459134197713
"laveB" 0.108361030111563
"agg" 0.574391201568426
"ave" 0.0144842634934732
"laveB" 0.214155060289381
"agg" 0.534844416410442
"ave" 0.0170690829776163
"laveB" 0.211339829918589
"agg" 0.653492337240333
"ave" 0.0171409397963559
"laveB" 0.194921049007498
"agg" 0.615459299042195
"ave" 0.0134908001181415
"laveB" 0.197883424936747
"agg" 0.733802724861453
"ave" 0.0202706036179245
"laveB" 0.242432898764687
"agg" 0.708877630978289
"ave" 0.0185158081259237
"laveB" 0.24259205371601
"agg" 0.580355916800328
"ave" 0.019949058070471
"laveB" 0.227473832682835
"agg" 0.479558713979723
"ave" 0.0192390317424554
"laveB" 0.208229247262917
"agg" 0.529172636397569
"ave" 0.00954307146675383
"laveB" 0.135034139779499
"agg" 0.503662970529656
"ave" 0.0116499777944416
"laveB" 0.158786947494145
"agg" 0.421514392427914
"ave" 0.00987369143687458
"laveB" 0.133160397721684
"agg" 0.456961449556026
"ave" 0.00882000927480181
"laveB" 0.115788395674217
"agg" 0.511585406306649
"ave" 0.0108878315674768
"laveB" 0.19404661195728
"agg" 0.549226069732781
"ave" 0.0136704533307282
"laveB" 0.197561935638176
"agg" 0.612863330293086
"ave" 0.0242990263556112
"laveB" 0.24269044309179
"agg" 0.582433988129322
"ave" 0.0244058117886978
"laveB" 0.233955563689947
"agg" 0.560444255878956
"ave" 0.0213163612744839
"laveB" 0.209314324832741
"agg" 0.517290235470374
"ave" 0.0203797780226643
"laveB" 0.189032789212431
"agg" 0.6205946444648
"ave" 0.018896666005035
"laveB" 0.227518062516469
"agg" 0.600039772500606
"ave" 0.0180354868477546
"laveB" 0.203686517278761
"agg" 0.594936007951412
"ave" 0.0267738958688467
"laveB" 0.230960194639261
"agg" 0.577021886224523
"ave" 0.0296198354013601
"laveB" 0.249039912354937
"agg" 0.580560050386941
"ave" 0.0138633705368422
"laveB" 0.182604465371174
"agg" 0.548455904719234
"ave" 0.0151247093696966
"laveB" 0.181041895180081
"agg" 0.502640345331991
"ave" 0.019046787935369
"laveB" 0.188872879065052
"agg" 0.55410493854183
"ave" 0.0209329022735939
"laveB" 0.214249674030712
"agg" 0.59277662414479
"ave" 0.0196946896743732
"laveB" 0.210996964296649
"agg" 0.64030067063495
"ave" 0.0201866351490128
"laveB" 0.218089713109645
"agg" 0.617163139298835
"ave" 0.0244089263877258
"laveB" 0.224386932946387
"agg" 0.659013522364722
"ave" 0.0285570267362014
"laveB" 0.256132867669101
"agg" 0.483362628549315
"ave" 0.0214449658952329
"laveB" 0.219751058395565
"agg" 0.457509004439618
"ave" 0.0209038211225717
"laveB" 0.17822568951987
"agg" 0.554323165911652
"ave" 0.0305790746084625
"laveB" 0.273017762848492
"agg" 0.67898183367672
"ave" 0.0326984712367251
"laveB" 0.284348571834571
"agg" 0.697706362142411
"ave" 0.0206628386131654
"laveB" 0.238625002608787
"agg" 0.69971147088859
"ave" 0.0186117575209251
"laveB" 0.238991467437738
"agg" 0.44534691302525
"ave" 0.01417218426991
"laveB" 0.176477412486596
"agg" 0.38290257394275
"ave" 0.0126224686734741
"laveB" 0.147751060721205
"agg" 0.670437341267581
"ave" 0.01477731600088
"laveB" 0.207578803318738
"agg" 0.68881718623736
"ave" 0.0154225484413736
"laveB" 0.235380021916671
"agg" 0.469538854797159
"ave" 0.0102113523958551
"laveB" 0.160641048831654
"agg" 0.588284074868299
"ave" 0.0159159776051999
"laveB" 0.209466625465677
"agg" 0.360548288915369
"ave" 0.017519339840106
"laveB" 0.173320825024747
"agg" 0.472536263366936
"ave" 0.0157635249856374
"laveB" 0.15451938134043
"agg" 0.481129186253826
"ave" 0.0108702240811245
"laveB" 0.145200749086318
"agg" 0.448563914115587
"ave" 0.00909708674704045
"laveB" 0.11778258340684
"agg" 0.464829918191195
"ave" 0.0220809370868609
"laveB" 0.247299770256676
"agg" 0.570294125988574
"ave" 0.025966240284169
"laveB" 0.27177408897807
"agg" 0.54000824562628
"ave" 0.0190144464813209
"laveB" 0.237499610375896
"agg" 0.533026755674535
"ave" 0.0189416613886487
"laveB" 0.217569065835765
"agg" 0.43723501566397
"ave" 0.010325032460659
"laveB" 0.177600813495718
"agg" 0.36130071180963
"ave" 0.00912750124259533
"laveB" 0.138161424539175
"agg" 0.573159931294372
"ave" 0.0201302537374627
"laveB" 0.218901855621205
"agg" 0.58759539811445
"ave" 0.0231328093465954
"laveB" 0.234082351253636
"agg" 0.653060162270154
"ave" 0.0117841711283916
"laveB" 0.154817293743014
"agg" 0.571834797011896
"ave" 0.0159233917785204
"laveB" 0.191312582671527
"agg" 0.689550161519046
"ave" 0.0204152274179286
"laveB" 0.277248065928982
"agg" 0.564122007602298
"ave" 0.0165472347467286
"laveB" 0.214157773917715
"agg" 0.609722487038462
"ave" 0.0131954232212792
"laveB" 0.207257636311537
"agg" 0.59903607934206
"ave" 0.013831684571326
"laveB" 0.215346899302105
"agg" 0.584263150162581
"ave" 0.012656163624522
"laveB" 0.197710674218535
"agg" 0.555351399573864
"ave" 0.0130579427496944
"laveB" 0.203827794328132
"agg" 0.560074975700423
"ave" 0.0106675572096603
"laveB" 0.168097022954191
"agg" 0.665283670734021
"ave" 0.00739186444002113
"laveB" 0.0951467482707181
"agg" 0.2722490968858
"ave" 0.00927056451430362
"laveB" 0.100957774737533
"agg" 0.332382170793106
"ave" 0.00651620090241572
"laveB" 0.100081094189539
"agg" -0.0514331018053191
"ave" 0.00121288885367004
"laveB" 0.00571864323328553
"agg" 0.354067619558313
"ave" 0.00659529312480239
"laveB" 0.102948990914811
"agg" 0.458243084577326
"ave" 0.0116763038306804
"laveB" 0.143796039290761
"agg" 0.0860589560715703
"ave" 0.00312997564608929
"laveB" 0.0341226803084742
"agg" 0.264055527163844
"ave" 0.00761604055688276
"laveB" 0.0977604811430132
"agg" -0.105193836381845
"ave" 0.000533716330899361
"laveB" 0.0152695725183982
"agg" -0.118789566969431
"ave" -0.000703750916525537
"laveB" -0.00450311889747154
"agg" 0.071526656205676
"ave" 0.00350580098942288
"laveB" 0.032019487024713
"agg" 0.332033115601526
"ave" 0.00708806247569971
"laveB" 0.0956455398505417
"agg" 0.232642171524535
"ave" 0.00636107735172024
"laveB" 0.0903935636391987
"agg" 0.354358095296591
"ave" 0.00567066283945563
"laveB" 0.0737192176680355
"agg" 0.276390697443406
"ave" 0.00351922648541562
"laveB" 0.0560806823912027
"agg" 0.0133875649013593
"ave" 0.000466691064363749
"laveB" -0.00282198258949012
"agg" 0.170863607279139
"ave" 0.00160257359036451
"laveB" 0.0296971572073517
"agg" 0.427000918279405
"ave" 0.00647675261100372
"laveB" 0.0933908784791538
"agg" 0.479793840786948
"ave" 0.00646080589406798
"laveB" 0.0792414293690522
"agg" 0.52615522968193
"ave" 0.00579523123133247
"laveB" 0.0844587402273975
"agg" -0.0102976023615074
"ave" 0.00052228549778885
"laveB" 0.00346961781310673
"agg" 0.327404642164981
"ave" 0.00503362042226323
"laveB" 0.0834083728874515
"agg" 0.265740114894318
"ave" 0.0050936067523465
"laveB" 0.0800783414736488
"agg" 0.495066644745387
"ave" 0.00745873731005272
"laveB" 0.116644793281183
"agg" 0.345566911459191
"ave" 0.00446334886299488
"laveB" 0.0883464262750367
"agg" 0.363354707423232
"ave" 0.00634317274556481
"laveB" 0.0954891819415081
"agg" 0.2856599030766
"ave" 0.00513183083295363
"laveB" 0.0721062625086164
"agg" 0.113040303875297
"ave" 0.00291927958028614
"laveB" 0.0428723029048846
"agg" 0.0785994127496916
"ave" 0.00284617187582324
"laveB" 0.0546047860570231
"agg" 0.12677680466159
"ave" 0.00161321532985936
"laveB" 0.0188106643702194
"agg" 0.374977439484219
"ave" 0.00458151260952138
"laveB" 0.0904940141186148
"agg" -0.0628492246077351
"ave" 0.000350149486498612
"laveB" 0.00389301258471181
"agg" 0.251256139606743
"ave" 0.00266871855683456
"laveB" 0.048571236198203
"agg" 0.170991626892259
"ave" 0.00251966703060246
"laveB" 0.0516334239777597
"agg" 0.263416326922868
"ave" 0.0038717345232965
"laveB" 0.0905206389183413
"agg" 0.241028997245842
"ave" 0.0067072086368243
"laveB" 0.0736372913078346
"agg" 0.257790200611941
"ave" 0.00769368479361708
"laveB" 0.0812134625647857
"agg" 0.259801966819095
"ave" 0.00655818788938837
"laveB" 0.0801179962135219
"agg" 0.308195469994067
"ave" 0.00770053798246476
"laveB" 0.0876580938500618
"agg" 0.240420539319603
"ave" 0.00540980008284726
"laveB" 0.0759395319387783
"agg" 0.232563771954599
"ave" 0.00513792697688973
"laveB" 0.0642596006265158
"agg" 0.216388751820346
"ave" 0.0072132972745827
"laveB" 0.0752062960279819
"agg" 0.251079988021039
"ave" 0.009138279886018
"laveB" 0.0902963655332034
"agg" 0.211468439154381
"ave" 0.00386652572696393
"laveB" 0.0712805522699119
"agg" 0.144359662988951
"ave" 0.00327269014216512
"laveB" 0.0438768928830918
"agg" 0.28609709217334
"ave" 0.00659924799716184
"laveB" 0.0844957248422929
"agg" 0.256948786933516
"ave" 0.00583695990060883
"laveB" 0.0766221903225652
"agg" 0.296238815497541
"ave" 0.00649570440683764
"laveB" 0.0817090026222071
"agg" 0.318290072270907
"ave" 0.00654137479240877
"laveB" 0.0809389114201249
"agg" 0.343928908771702
"ave" 0.00939328743822835
"laveB" 0.112072591180697
"agg" 0.394329550472286
"ave" 0.0108563694607
"laveB" 0.110736361279358
"agg" 0.247843092950273
"ave" 0.00720677531688882
"laveB" 0.0880239295922986
"agg" 0.133790406141261
"ave" 0.00417590459679149
"laveB" 0.0404189079635465
"agg" 0.0836399133275672
"ave" 0.0038447905723684
"laveB" 0.0498313946413166
"agg" 0.335636986454092
"ave" 0.00988384832168032
"laveB" 0.115815787202233
"agg" 0.271527340430395
"ave" 0.00557913057445129
"laveB" 0.0745751160757087
"agg" 0.296834690358722
"ave" 0.00498027335187546
"laveB" 0.085571549156648
"agg" 0.261632703658418
"ave" 0.00505820877343557
"laveB" 0.0874310210745442
"agg" 0.267502828024295
"ave" 0.00450308461465626
"laveB" 0.0736144715679387
"agg" 0.455723539271348
"ave" 0.00626219463992469
"laveB" 0.119888824013644
"agg" 0.297868142775283
"ave" 0.00448656360787711
"laveB" 0.0950969350719894
"agg" 0.315836820747219
"ave" 0.00374156366448683
"laveB" 0.0692096768614051
"agg" 0.445823169575199
"ave" 0.00649079058040364
"laveB" 0.0968631719396538
"agg" 0.105296068280327
"ave" 0.00418200443066534
"laveB" 0.0655386783719769
"agg" 0.301266927211898
"ave" 0.00561624809532656
"laveB" 0.081992446311196
"agg" 0.328102204336361
"ave" 0.0041235306414554
"laveB" 0.0581144546003145
"agg" 0.136719507774344
"ave" 0.00176045428212839
"laveB" 0.0314301067544922
"agg" 0.204675676183462
"ave" 0.00692017118930527
"laveB" 0.0842551472819315
"agg" 0.340368527486154
"ave" 0.00923869235378843
"laveB" 0.131812711895524
"agg" 0.222904261691469
"ave" 0.00545956736272556
"laveB" 0.0722050948771708
"agg" 0.166116245072114
"ave" 0.00411767370743363
"laveB" 0.058898178451532
"agg" -0.087101451782157
"ave" -0.00016420111878844
"laveB" -0.00256005295518441
"agg" -0.104626433897572
"ave" 0.000194713828437503
"laveB" 0.0030891541580906
"agg" 0.122159239334916
"ave" 0.00387965458229826
"laveB" 0.05333837305162
"agg" 0.110697563217209
"ave" 0.00428940224473509
"laveB" 0.0510318759113656
"agg" 0.240601920950363
"ave" 0.00352331118501316
"laveB" 0.0641987623956519
"agg" 0.0629117801376839
"ave" 0.00322799262118972
"laveB" 0.0403849134991284
"agg" 0.148033122017237
"ave" 0.00409185383851719
"laveB" 0.0684676998288616
"agg" 0.0728873022055379
"ave" 0.00299299275674079
"laveB" 0.0570603664687647
"agg" 0.244572144269999
"ave" 0.00367677021122346
"laveB" 0.0741400194302651
"agg" 0.180630345359402
"ave" 0.00324987617178857
"laveB" 0.0456586055626627
"agg" 0.124833319717241
"ave" 0.00270676561547243
"laveB" 0.0478225550839059
"agg" 0.122126025893599
"ave" 0.00300952408100725
"laveB" 0.0365703442036257
"agg" 0.169582347807383
"ave" 0.00239832582239969
"laveB" 0.0348767041320542
"agg" 0.0104899423762426
"ave" 0.00814620794706375
"laveB" 0.0477761564652251
"agg" 0.138540612983548
"ave" 0.00409661973097125
"laveB" 0.0589973048892768
"agg" -0.229698339901931
"ave" -0.00337082441727944
"laveB" -0.00699512792167212
"agg" 0.489769364946749
"ave" 0.0150231460072656
"laveB" 0.102118544264621
"agg" 0.325498634342469
"ave" 0.0139484691857715
"laveB" 0.104536095594195
"agg" -0.0456034950330963
"ave" 0.00159318459787923
"laveB" 0.0234161540771707
"agg" 0.0641884354118266
"ave" 0.00600032586516999
"laveB" 0.0486962858830168
"agg" -0.290997893494351
"ave" -0.00469375821500291
"laveB" -0.0445051933617603
"agg" -0.264852925536631
"ave" -0.00469357214453741
"laveB" -0.0369571788256057
"agg" 0.100422064179761
"ave" 0.00833927894807704
"laveB" 0.0639701830144623
"agg" 0.273699824478074
"ave" 0.0107779028746677
"laveB" 0.0972488183866179
"agg" 0.16180032084196
"ave" 0.0089796496449629
"laveB" 0.0786799665603352
"agg" 0.156088183699608
"ave" 0.00540863877535822
"laveB" 0.0485585099464336
"agg" 0.140518090006847
"ave" 0.00348905890444893
"laveB" 0.0327895221128933
"agg" -0.017327601519851
"ave" 0.000848680599720232
"laveB" 0.0130252943857991
"agg" 0.271997804605394
"ave" 0.00450934477136229
"laveB" 0.0457510377861499
"agg" 0.268602622119843
"ave" 0.00647748063145704
"laveB" 0.0623403735043508
"agg" 0.430291732579824
"ave" 0.00890039053855746
"laveB" 0.0452469513325019
"agg" 0.683450291495832
"ave" 0.012463146393645
"laveB" 0.109851191551487
"agg" 0.00136780408726282
"ave" 0.00105554411786992
"laveB" 0.0136788389800802
"agg" 0.248751239776498
"ave" 0.006576911945651
"laveB" 0.0793500570805524
"agg" 0.19929301305226
"ave" 0.00742944779367734
"laveB" 0.0782360982320899
"agg" 0.445937229585241
"ave" 0.0106503149897006
"laveB" 0.115356636913318
"agg" 0.298750665462836
"ave" 0.00664324114371332
"laveB" 0.0888174153978569
"agg" 0.181895320168455
"ave" 0.00640715068228454
"laveB" 0.0564521288916849
"agg" 0.143597805393159
"ave" 0.00535834355810946
"laveB" 0.0658258124882204
"agg" -0.122596023134428
"ave" -0.00241581182790156
"laveB" -0.0118941951448277
"agg" -0.00315278369087979
"ave" 0.00101528296355419
"laveB" 0.0097851645306566
"agg" 0.0350278013802528
"ave" 0.00178014333498336
"laveB" 0.0189671371528677
"agg" 0.335715414181371
"ave" 0.00785808175051024
"laveB" 0.0943002325294229
"agg" -0.133004538497493
"ave" -0.000355067640151123
"laveB" -0.00502369709164445
"agg" 0.26858074224269
"ave" 0.00536580868144385
"laveB" 0.0603113279907753
"agg" 0.131201862467045
"ave" 0.00426719309762148
"laveB" 0.0412846568818541
"agg" 0.212612427539718
"ave" 0.005297734917414
"laveB" 0.0715478481334518
"agg" 0.1212295820894
"ave" 0.00700737315116282
"laveB" 0.055610282277868
"agg" 0.115958603780455
"ave" 0.00695276588952981
"laveB" 0.0383915599650731
"agg" 0.154363671267131
"ave" 0.00731380785479113
"laveB" 0.0406794979239982
"agg" 0.227010032464992
"ave" 0.0105263042187161
"laveB" 0.0712185031868565
"agg" 0.109462980736509
"ave" 0.0049612650534472
"laveB" 0.0307591405286554
"agg" 0.121632905072766
"ave" 0.00462812710966909
"laveB" 0.0409127641773467
"agg" 0.102549941931702
"ave" 0.00635655218555903
"laveB" 0.0342596781986184
"agg" 0.144467319628393
"ave" 0.0093603534208476
"laveB" 0.0533858434253979
"agg" 0.100881841393051
"ave" 0.00357488294797605
"laveB" 0.0349021886320571
"agg" 0.0812444316364509
"ave" 0.00412040935781599
"laveB" 0.0311963058402635
"agg" 0.192930294983527
"ave" 0.00788510314832886
"laveB" 0.0563372868371191
"agg" 0.197550103228529
"ave" 0.00874267406082307
"laveB" 0.067897501960786
"agg" 0.0817722548350277
"ave" 0.00421957298008421
"laveB" 0.0308260587606043
"agg" 0.137738082148802
"ave" 0.00537150074912535
"laveB" 0.0438949629891577
"agg" 0.137627614559887
"ave" 0.00704401790881984
"laveB" 0.0488958154639409
"agg" 0.240102168963094
"ave" 0.0115566590623071
"laveB" 0.0740503580563359
"agg" 0.051415120550167
"ave" 0.00355376652263209
"laveB" 0.0331502070021339
"agg" -0.0385257775285554
"ave" 0.0011294484912555
"laveB" -0.00202671743784174
"agg" -0.0854405856164079
"ave" -0.00114441123445106
"laveB" 0.0141440959303627
"agg" 0.206570310486089
"ave" 0.0111155610138359
"laveB" 0.0779439526277716
"agg" 0.0570826398214126
"ave" 0.00387918734024754
"laveB" 0.0355270385319831
"agg" 0.109818155272932
"ave" 0.00359367215399536
"laveB" 0.0299289153016558
"agg" 0.17985964494315
"ave" 0.00682049535871657
"laveB" 0.0607497206811717
"agg" 0.213017341749406
"ave" 0.00674140456992377
"laveB" 0.0652400548694914
"agg" 0.434645979642759
"ave" 0.0100889035211593
"laveB" 0.117588266325858
"agg" 0.194190005678441
"ave" 0.00497749690198624
"laveB" 0.0543010939962052
"agg" 0.21500854468202
"ave" 0.00458491026017635
"laveB" 0.0503642449313918
"agg" 0.378526760731527
"ave" 0.00989645604285913
"laveB" 0.103808454261808
"agg" 0.0523856440429367
"ave" 0.00372457726438734
"laveB" 0.0319841175002815
"agg" 0.305254889632826
"ave" 0.00989849860000778
"laveB" 0.0820423567238096
"agg" 0.224606162121103
"ave" 0.0050915883875856
"laveB" 0.0627466763472744
"agg" 0.0489380671278568
"ave" 0.00151846019092584
"laveB" 0.0105974209704602
"agg" 0.150508526655805
"ave" 0.0100743678929981
"laveB" 0.0641444689844409
"agg" 0.274405467765427
"ave" 0.0138567048873267
"laveB" 0.111141626988413
"agg" 0.160608728457511
"ave" 0.00745889219319347
"laveB" 0.070223629985517
"agg" 0.0787160506558255
"ave" 0.00490469925863045
"laveB" 0.0318694195192142
"agg" -0.210580478256023
"ave" -0.00249576109119896
"laveB" -0.0266386369002439
"agg" -0.312652943557683
"ave" -0.00342825845236798
"laveB" -0.0449548358136888
"agg" 0.0384076334741985
"ave" 0.00388662344293221
"laveB" 0.0264050983466711
"agg" 0.0072057314283328
"ave" 0.00407067720498336
"laveB" 0.0277579537078187
"agg" 0.0985079339027299
"ave" 0.00329496679031219
"laveB" 0.0300477178343654
"agg" -0.0570665065017545
"ave" 0.0025729111032387
"laveB" 0.0148720120659704
"agg" -0.0621808373828598
"ave" 0.00068258359002515
"laveB" 0.00910895108215255
"agg" -0.119638168691992
"ave" -6.80037609459425e-05
"laveB" -0.0157812532608614
"agg" 0.0673536677497617
"ave" 0.0023260686466103
"laveB" 0.0336524265147268
"agg" -0.0190374225503528
"ave" 0.00140013651748735
"laveB" 0.0231660801435117
"agg" -0.0880183922546896
"ave" -0.000175390795333789
"laveB" -0.00404311553836189
"agg" -0.06013580234959
"ave" 0.000681992024132991
"laveB" -0.0125394172568
"agg" -0.0544978625336355
"ave" 0.000189466555646008
"laveB" 0.00580273588905522
"agg" 0.870311456696314
"ave" 0.0376512000176405
"laveB" 0.362710329584521
"agg" 0.753093736306611
"ave" 0.0304546880231333
"laveB" 0.338198815696311
"agg" 0.32925684080929
"ave" 0.0146800750980322
"laveB" 0.112518893745638
"agg" 0.558754164877195
"ave" 0.0357838429484967
"laveB" 0.288550705589401
"agg" 0.669551961443029
"ave" 0.0328367070068927
"laveB" 0.286589882597334
"agg" 0.805021118337614
"ave" 0.0380190890987533
"laveB" 0.37223713763478
"agg" 0.651440854050701
"ave" 0.0295478605042555
"laveB" 0.283298721302517
"agg" 0.725034255115292
"ave" 0.0287607506025942
"laveB" 0.315701879443901
"agg" 0.647396838483827
"ave" 0.0288557088368537
"laveB" 0.242267836877434
"agg" 0.496998906315968
"ave" 0.0256687389896785
"laveB" 0.243600152426008
"agg" 0.590287703093056
"ave" 0.033745658093917
"laveB" 0.300897430738844
"agg" 0.649533680223251
"ave" 0.0230289799680697
"laveB" 0.270195622908192
"agg" 0.664335193799546
"ave" 0.0193764761657541
"laveB" 0.197993542875245
"agg" 0.509478287688528
"ave" 0.0101369298604314
"laveB" 0.156959551352754
"agg" -0.0245620146374982
"ave" -0.000266629459191982
"laveB" -0.00121907632371961
"agg" 0.767294501288927
"ave" 0.0316426687548574
"laveB" 0.343537188945145
"agg" 0.682573066457942
"ave" 0.0243163082476054
"laveB" 0.247924236171896
"agg" 0.0499426063648434
"ave" 0.00428946240922892
"laveB" 0.0471701466651182
"agg" 0.527003155238021
"ave" 0.0108013664147616
"laveB" 0.134130267145032
"agg" 0.611413072248674
"ave" 0.022636531171475
"laveB" 0.302789930097692
"agg" 0.62647109081291
"ave" 0.0277739703247993
"laveB" 0.290061826819841
"agg" 0.590310956967732
"ave" 0.025985362800808
"laveB" 0.268983774170479
"agg" 0.550470199898947
"ave" 0.0192617173542701
"laveB" 0.233731563524017
"agg" 0.807362815041316
"ave" 0.0311752221371435
"laveB" 0.317163800497618
"agg" 0.754853299830127
"ave" 0.0260905616827424
"laveB" 0.306701554962889
"agg" 0.680379809868525
"ave" 0.0291184470788956
"laveB" 0.290073519224548
"agg" 0.538665155393036
"ave" 0.0266391228525265
"laveB" 0.238824050330756
"agg" 0.651912441537336
"ave" 0.0143792708239519
"laveB" 0.183709998242075
"agg" 0.414888199869003
"ave" 0.0153886489506447
"laveB" 0.181404287833956
"agg" 0.650232916392804
"ave" 0.016924625447318
"laveB" 0.215932725498954
"agg" 0.46257180897605
"ave" 0.0129651333215292
"laveB" 0.160308851049029
"agg" 0.558213576847451
"ave" 0.015425636556946
"laveB" 0.242163292868066
"agg" 0.476472308403887
"ave" 0.0169315894418026
"laveB" 0.218224148041121
"agg" 0.693106637099155
"ave" 0.0361061501656587
"laveB" 0.326980046790425
"agg" 0.63986019531008
"ave" 0.035731472418
"laveB" 0.309684321433589
"agg" 0.618720122725605
"ave" 0.0332561430725763
"laveB" 0.302643887498431
"agg" 0.537778154784585
"ave" 0.0305856907640626
"laveB" 0.248496176576972
"agg" 0.716269005066125
"ave" 0.0291274170433284
"laveB" 0.312422714441853
"agg" 0.645771553196042
"ave" 0.0265093813295191
"laveB" 0.265983709943855
"agg" 0.680193971232832
"ave" 0.0410984800096542
"laveB" 0.336391579064879
"agg" 0.650961949878658
"ave" 0.0448662325434071
"laveB" 0.329010044120917
"agg" 0.679628828827891
"ave" 0.0213914401172052
"laveB" 0.243785596845762
"agg" 0.678288340178635
"ave" 0.0232088863489799
"laveB" 0.246484667419299
"agg" 0.521409342891237
"ave" 0.0278294474281657
"laveB" 0.24589012246942
"agg" 0.60312306265319
"ave" 0.0323298355593989
"laveB" 0.284782827204652
"agg" 0.702755378381842
"ave" 0.031292845155202
"laveB" 0.312641249515334
"agg" 0.667119676048033
"ave" 0.0294077171259606
"laveB" 0.300135950221642
"agg" 0.669355197569328
"ave" 0.036839705929
"laveB" 0.287148325075789
"agg" 0.603181965269764
"ave" 0.0368914436238492
"laveB" 0.286487149608417
"agg" 0.637878069214387
"ave" 0.0369601528999564
"laveB" 0.310265814464587
"agg" 0.612939378265476
"ave" 0.033654922038702
"laveB" 0.255147969894473
"agg" 0.721222179707569
"ave" 0.0506648410536371
"laveB" 0.385547607609127
"agg" 0.558100759754008
"ave" 0.0386674851400695
"laveB" 0.28577090155517
"agg" 0.826750375297611
"ave" 0.0330550351433226
"laveB" 0.323242983684749
"agg" 0.709504588539061
"ave" 0.0254796224950103
"laveB" 0.271486014804906
"agg" 0.434737234182011
"ave" 0.0201232351458031
"laveB" 0.198269794502151
"agg" 0.38624770057171
"ave" 0.0189673039876515
"laveB" 0.191747281285245
"agg" 0.590869199558094
"ave" 0.0195020603935035
"laveB" 0.251096844378474
"agg" 0.675778408109651
"ave" 0.0209505408895881
"laveB" 0.263478560731978
"agg" 0.458375692822237
"ave" 0.014383788387702
"laveB" 0.195548539343837
"agg" 0.529519353534909
"ave" 0.0222136703261575
"laveB" 0.258565085196158
"agg" 0.354569701197904
"ave" 0.0227247249838162
"laveB" 0.201773619185463
"agg" 0.405714619398869
"ave" 0.0193958393420847
"laveB" 0.176258960120567
"agg" 0.427782964251048
"ave" 0.0156839065408252
"laveB" 0.192826030876518
"agg" 0.478404348575007
"ave" 0.013158135410934
"laveB" 0.159803104712761
"agg" 0.535297111855083
"ave" 0.0358096510173318
"laveB" 0.318511589328115
"agg" 0.579097441541712
"ave" 0.0389741268715356
"laveB" 0.34814950983273
"agg" 0.646875019055625
"ave" 0.0317538149781356
"laveB" 0.333648480400745
"agg" 0.637975610160971
"ave" 0.0300014825323182
"laveB" 0.278873108460319
"agg" 0.670160173613124
"ave" 0.0170731913224613
"laveB" 0.235022760902024
"agg" 0.577404354894263
"ave" 0.0151605096325314
"laveB" 0.174291732138682
"agg" 0.737977825841513
"ave" 0.0341305208075305
"laveB" 0.343902991259586
"agg" 0.676981396695725
"ave" 0.0334222504531584
"laveB" 0.28861460908789
"agg" 0.736807765510544
"ave" 0.0174870147027016
"laveB" 0.176054786615133
"agg" 0.716377566538551
"ave" 0.0234907968187727
"laveB" 0.26365776669399
"agg" 0.755568181038076
"ave" 0.0265358126832709
"laveB" 0.328558645578839
"agg" 0.745469603702312
"ave" 0.0249421700133353
"laveB" 0.28371567274212
"agg" 0.633040765100623
"ave" 0.0178656304842398
"laveB" 0.251787790069488
"agg" 0.719827164659866
"ave" 0.020288600892571
"laveB" 0.255619305029992
"agg" 0.670924620088927
"ave" 0.017115747936291
"laveB" 0.237508672387408
"agg" 0.671148799742257
"ave" 0.0183205733671948
"laveB" 0.241401186492463
"agg" 0.62475868753165
"ave" 0.0149144317207032
"laveB" 0.186889105761828
"agg" 0.622115098504772
"ave" 0.0300068928815394
"laveB" 0.316683086536838
"agg" 0.416721873547482
"ave" 0.0135048980659007
"laveB" 0.103593623356489
"agg" 0.631372034196484
"ave" 0.0311596582109213
"laveB" 0.286836117991324
"agg" 0.791644740844062
"ave" 0.0406428883092161
"laveB" 0.345596833907611
"agg" 0.791457751302518
"ave" 0.035022310980616
"laveB" 0.3581021944197
"agg" 0.715653802041196
"ave" 0.038465618186598
"laveB" 0.367083773162906
"agg" 0.589913048085643
"ave" 0.0273648025753112
"laveB" 0.295471524639546
"agg" 0.630093737097637
"ave" 0.0290380671711411
"laveB" 0.27058715312772
"agg" 0.509066770460604
"ave" 0.0207588779685582
"laveB" 0.229953492313269
"agg" 0.58017034606949
"ave" 0.0297060881461567
"laveB" 0.277085060112149
"agg" 0.574817025259899
"ave" 0.0170522509290972
"laveB" 0.20700790303499
"agg" 0.635843734924298
"ave" 0.0163564351094323
"laveB" 0.192196706429694
"agg" 0.452125041901082
"ave" 0.00950843655748625
"laveB" 0.1239412996376
"agg" -0.0943349146053332
"ave" -0.00306441341392691
"laveB" -0.0364718823874603
"agg" 0.662324699454491
"ave" 0.0230721465341511
"laveB" 0.269266692604634
"agg" 0.727336904260038
"ave" 0.021187431224787
"laveB" 0.256566854065157
"agg" 0.0830788261087414
"ave" 0.000420493861173264
"laveB" 0.0319941542971984
"agg" 0.493948410658304
"ave" 0.0113151705373664
"laveB" 0.149586359642079
"agg" 0.617544657574465
"ave" 0.019564246900368
"laveB" 0.273370523082968
"agg" 0.638853481138058
"ave" 0.0260019743628752
"laveB" 0.27941001647955
"agg" 0.552714621218035
"ave" 0.0192463745997062
"laveB" 0.211080193249838
"agg" 0.583749007192013
"ave" 0.0166565830156288
"laveB" 0.211978858930261
"agg" 0.723500790540034
"ave" 0.0250480087992734
"laveB" 0.268849528640245
"agg" 0.76429134872557
"ave" 0.0248551779255523
"laveB" 0.28307625414307
"agg" 0.629569708244009
"ave" 0.0274078223238796
"laveB" 0.290382790844754
"agg" 0.548984836356102
"ave" 0.0286259367721021
"laveB" 0.279178858608129
"agg" 0.619643132125341
"ave" 0.013776037807943
"laveB" 0.181555891074896
"agg" 0.400795262144522
"ave" 0.0107754417170448
"laveB" 0.140790408966159
"agg" 0.602870201388136
"ave" 0.017409148541272
"laveB" 0.217490716649847
"agg" 0.377120138559702
"ave" 0.00902068202211229
"laveB" 0.111718397316745
"agg" 0.535447071940187
"ave" 0.0133047664879198
"laveB" 0.211049307282262
"agg" 0.457624650256318
"ave" 0.0136678981942951
"laveB" 0.189547895490923
"agg" 0.632846346364317
"ave" 0.0311769478683548
"laveB" 0.286811185264948
"agg" 0.593803766615422
"ave" 0.0301510775342054
"laveB" 0.287010460839957
"agg" 0.553775300926037
"ave" 0.0262208654474389
"laveB" 0.250211966352205
"agg" 0.525463272579515
"ave" 0.0253703947074057
"laveB" 0.215296066607589
"agg" 0.669280401691995
"ave" 0.0252661390977702
"laveB" 0.284426677672874
"agg" 0.608333088864059
"ave" 0.0224286498191002
"laveB" 0.246121945928345
"agg" 0.620733085164473
"ave" 0.0351424151392255
"laveB" 0.290066085604649
"agg" 0.604765766157665
"ave" 0.0388169869183321
"laveB" 0.300414573443513
"agg" 0.641850559417036
"ave" 0.0192749865868427
"laveB" 0.228076749957451
"agg" 0.640479261998061
"ave" 0.0222875553250982
"laveB" 0.253417223708787
"agg" 0.507470867425571
"ave" 0.0230367049357046
"laveB" 0.215038799694848
"agg" 0.586978295197933
"ave" 0.0274574729752752
"laveB" 0.250545152966455
"agg" 0.576091127752599
"ave" 0.02317388272904
"laveB" 0.233026791133398
"agg" 0.634419233147628
"ave" 0.0237484166908589
"laveB" 0.253392915215139
"agg" 0.735921115177573
"ave" 0.0366276062893065
"laveB" 0.303902618568174
"agg" 0.79298159844338
"ave" 0.0433995915091679
"laveB" 0.362666726707495
"agg" 0.547100114881319
"ave" 0.0286610300914099
"laveB" 0.241276029399449
"agg" 0.599488380916047
"ave" 0.0344098439560012
"laveB" 0.252069866424841
"agg" 0.641761796034706
"ave" 0.0450932466190373
"laveB" 0.346751111555113
"agg" 0.754746429453501
"ave" 0.0470864454078312
"laveB" 0.378772556542214
"agg" 0.682994219190686
"ave" 0.0248632483007431
"laveB" 0.255607620308677
"agg" 0.696450700281048
"ave" 0.0231101105169782
"laveB" 0.278337602797061
"agg" 0.39018094378768
"ave" 0.0144523626505861
"laveB" 0.162792305371906
"agg" 0.265231880009772
"ave" 0.00949925444238967
"laveB" 0.102956584322423
"agg" 0.640927524679335
"ave" 0.0171444101596262
"laveB" 0.237316744272635
"agg" 0.716851190813496
"ave" 0.0203671115301056
"laveB" 0.267891223290849
"agg" 0.482665631762885
"ave" 0.0130058479233385
"laveB" 0.18491583796378
"agg" 0.566814502605025
"ave" 0.0191863916198798
"laveB" 0.224339014202013
"agg" 0.409618627214854
"ave" 0.0253516152233313
"laveB" 0.220896860846578
"agg" 0.431448687347218
"ave" 0.0178710911612119
"laveB" 0.157749724827304
"agg" 0.506071659252868
"ave" 0.014786893379377
"laveB" 0.188247385350307
"agg" 0.496488316269116
"ave" 0.0133015758526098
"laveB" 0.152844933721973
"agg" 0.547127741779299
"ave" 0.0334329823720192
"laveB" 0.330113085535357
"agg" 0.60212682318265
"ave" 0.0349980683661538
"laveB" 0.332869469842082
"agg" 0.611751456708297
"ave" 0.0266362076564285
"laveB" 0.298200758450682
"agg" 0.627935935772421
"ave" 0.0279711620129099
"laveB" 0.268939043488131
"agg" 0.596055077783066
"ave" 0.017511547266136
"laveB" 0.235524812764693
"agg" 0.572960549393569
"ave" 0.0171628572740085
"laveB" 0.203619129881069
"agg" 0.656403591948172
"ave" 0.028940797095643
"laveB" 0.287321324558726
"agg" 0.727173938674298
"ave" 0.0359942717511127
"laveB" 0.308465344178861
"agg" 0.699155583472027
"ave" 0.0155807815973991
"laveB" 0.175906087047642
"agg" 0.725766898301733
"ave" 0.0244966925005177
"laveB" 0.278919211150203
"agg" 0.803952837375944
"ave" 0.0297095521434605
"laveB" 0.366915082745538
"agg" 0.655693597707018
"ave" 0.0236954168939155
"laveB" 0.306077385082899
"agg" 0.627580920705614
"ave" 0.0167282682467675
"laveB" 0.241933451420806
"agg" 0.693155053537788
"ave" 0.0198583106713786
"laveB" 0.250934676047347
"agg" 0.697904481901722
"ave" 0.0190918541900656
"laveB" 0.270540817760437
"agg" 0.646837343703269
"ave" 0.0188509693673651
"laveB" 0.261172265367387
"agg" 0.590376097074842
"ave" 0.0141871991314914
"laveB" 0.1921943383249
"agg" 0.433610164856303
"ave" 0.0138752730158289
"laveB" 0.16545721013225
"agg" 0.307644122891484
"ave" 0.0164586358916171
"laveB" 0.161391815297898
"agg" 0.604923142449267
"ave" 0.03144670858696
"laveB" 0.293820035664639
"agg" 0.655071985006315
"ave" 0.0294828721696288
"laveB" 0.30506973711872
"agg" 0.6814945604305
"ave" 0.0356147388999257
"laveB" 0.350589848133451
"agg" 0.875701610522146
"ave" 0.0389883013368013
"laveB" 0.456996311029517
"agg" 0.70755857130847
"ave" 0.0296863839352983
"laveB" 0.294656658790558
"agg" 0.272459511290668
"ave" 0.0106737523325685
"laveB" 0.128590074251232
"agg" 0.406737370705129
"ave" 0.0209146725691411
"laveB" 0.234938106838301
"agg" 0.320172092184111
"ave" 0.0103258860789436
"laveB" 0.138363209521543
"agg" 0.404921462353535
"ave" 0.011012354821524
"laveB" 0.123678619266508
"agg" 0.522401015555724
"ave" 0.0104260785088636
"laveB" 0.180527959887487
"agg" 0.0118976147743236
"ave" -0.000641023587600479
"laveB" 0.00223227634536099
"agg" 0.41260436503482
"ave" 0.0159899933949168
"laveB" 0.204495385604997
"agg" 0.35857696672182
"ave" 0.0121424816872025
"laveB" 0.132689197596447
"agg" -0.13728297836679
"ave" -0.00456243289198444
"laveB" -0.039692963916825
"agg" 0.519970559803786
"ave" 0.0118531252049788
"laveB" 0.176052583273198
"agg" 0.34711205147978
"ave" 0.0113802532770132
"laveB" 0.173867371124852
"agg" 0.423995726979953
"ave" 0.017692309899913
"laveB" 0.224174386215586
"agg" 0.269558731635427
"ave" 0.0108203098363655
"laveB" 0.143179177843483
"agg" 0.30767070786655
"ave" 0.00914347182569571
"laveB" 0.108936027951401
"agg" 0.520816872772523
"ave" 0.0189227864438017
"laveB" 0.227303191288515
"agg" 0.523160784188857
"ave" 0.0177434372832394
"laveB" 0.229900236533826
"agg" 0.451509222374741
"ave" 0.020368117237913
"laveB" 0.230414048165821
"agg" 0.363962054537365
"ave" 0.0203365346312845
"laveB" 0.196015112085394
"agg" 0.52737164937932
"ave" 0.0112211121841441
"laveB" 0.155560944147536
"agg" 0.189693263680648
"ave" 0.00406247810474632
"laveB" 0.0706641732439448
"agg" 0.659033459170035
"ave" 0.0193559286746977
"laveB" 0.263163108324817
"agg" 0.311452321909092
"ave" 0.00663866952267262
"laveB" 0.107744311105735
"agg" 0.378375979293156
"ave" 0.00911329703446321
"laveB" 0.163659203225975
"agg" 0.276167501030071
"ave" 0.00884793911755855
"laveB" 0.136467944105893
"agg" 0.470914412744002
"ave" 0.0252185979246301
"laveB" 0.252667671903371
"agg" 0.428558046656853
"ave" 0.0242141825173041
"laveB" 0.232303004719424
"agg" 0.362517545764877
"ave" 0.0193638845965445
"laveB" 0.19225832476458
"agg" 0.279842308517005
"ave" 0.0151546707390384
"laveB" 0.140857532372217
"agg" 0.484965067322895
"ave" 0.0195251460234545
"laveB" 0.226045484431823
"agg" 0.384024268635058
"ave" 0.0161610683292646
"laveB" 0.181190360489326
"agg" 0.438619153403318
"ave" 0.0273861729297896
"laveB" 0.242550368615715
"agg" 0.405262267769799
"ave" 0.0271560374755316
"laveB" 0.222017571348076
"agg" 0.451745123205675
"ave" 0.0144722173332854
"laveB" 0.181441417891629
"agg" 0.497479647088268
"ave" 0.0165844086450998
"laveB" 0.209584392631731
"agg" 0.319114388120662
"ave" 0.0165615811293988
"laveB" 0.164181416374431
"agg" 0.377349374915006
"ave" 0.0189938058054312
"laveB" 0.199127772060791
"agg" 0.441578189722234
"ave" 0.0193191428951652
"laveB" 0.213639373889204
"agg" 0.347680920089703
"ave" 0.0141538667481118
"laveB" 0.167015951917001
"agg" 0.467534080879065
"ave" 0.0257438423774555
"laveB" 0.232289151030087
"agg" 0.411114927798056
"ave" 0.0250872200343435
"laveB" 0.23073168988463
"agg" 0.452663170345379
"ave" 0.0251242487909111
"laveB" 0.242362071124486
"agg" 0.463692532992532
"ave" 0.0268979448053723
"laveB" 0.223398549661153
"agg" 0.519232431030838
"ave" 0.0375409675713867
"laveB" 0.293400003621721
"agg" 0.309330592627787
"ave" 0.0215318667660496
"laveB" 0.170259068790929
"agg" 0.51892768866068
"ave" 0.0198434754997697
"laveB" 0.227458887575276
"agg" 0.379191201966004
"ave" 0.0137813991380275
"laveB" 0.177029503145183
"agg" 0.211473786990828
"ave" 0.00978104841282531
"laveB" 0.0988566651086098
"agg" 0.192326021149556
"ave" 0.00773619076983365
"laveB" 0.084775716362978
"agg" 0.385780922094986
"ave" 0.0107621208942778
"laveB" 0.181063015974798
"agg" 0.540309767337177
"ave" 0.0163171226647862
"laveB" 0.239344165167082
"agg" 0.276727165564944
"ave" 0.00831764304824577
"laveB" 0.138099209458302
"agg" 0.26108194064328
"ave" 0.00905952245813636
"laveB" 0.140323834790318
"agg" 0.211569623839315
"ave" 0.0154910334101655
"laveB" 0.142192078651743
"agg" 0.270926949345658
"ave" 0.0106348202114942
"laveB" 0.111998549467062
"agg" 0.154151855637253
"ave" 0.00407550787838227
"laveB" 0.0762329994152764
"agg" 0.314715588630877
"ave" 0.00893030587626092
"laveB" 0.117873466884576
"agg" 0.328012350090381
"ave" 0.0206305057538842
"laveB" 0.230520416325766
"agg" 0.312486149273034
"ave" 0.0186069265848394
"laveB" 0.201539009303291
"agg" 0.415507828472586
"ave" 0.018787002488338
"laveB" 0.218729296888589
"agg" 0.394486189638306
"ave" 0.0176621996051689
"laveB" 0.186284161417567
"agg" 0.608708486819062
"ave" 0.0177120193303765
"laveB" 0.267271004290337
"agg" 0.550018510275013
"ave" 0.0165245425249437
"laveB" 0.201432773165124
"agg" 0.509823639737821
"ave" 0.0236400378821103
"laveB" 0.239486881838877
"agg" 0.465080829460522
"ave" 0.0237972659859618
"laveB" 0.22542782617841
"agg" 0.580179002864602
"ave" 0.013837169179853
"laveB" 0.159776560988811
"agg" 0.614864007234281
"ave" 0.0202278749496639
"laveB" 0.260079385577361
"agg" 0.623962652030955
"ave" 0.0233040917175819
"laveB" 0.292193186125535
"agg" 0.669178136315761
"ave" 0.0237726055036623
"laveB" 0.301464623704613
"agg" 0.436277442803658
"ave" 0.0117888649034088
"laveB" 0.17656944109409
"agg" 0.564241597551838
"ave" 0.0160170924194536
"laveB" 0.21647678714921
"agg" 0.508212419870319
"ave" 0.0140442442939432
"laveB" 0.192633640424135
"agg" 0.523909275574878
"ave" 0.0154715421484001
"laveB" 0.217908281565578
"agg" 0.489959979498242
"ave" 0.0122037320480511
"laveB" 0.179794098003832
"agg" 0.337696512048029
"ave" 0.0182045285363897
"laveB" 0.130193130400905
"agg" 0.295436745236122
"ave" 0.0128123183123769
"laveB" 0.118469309944833
"agg" 0.381185328314353
"ave" 0.0155329600104364
"laveB" 0.125202170552731
"agg" 0.231110198734463
"ave" 0.00973987836608587
"laveB" 0.0708706182152837
"agg" 0.286695376534854
"ave" 0.00874013408168093
"laveB" 0.0943551023938252
"agg" 0.407252378745009
"ave" 0.0165138030770567
"laveB" 0.131427239907648
"agg" 0.198470690326766
"ave" 0.00914672284932696
"laveB" 0.0747472083938512
"agg" 0.185084672391419
"ave" 0.00961513991973939
"laveB" 0.0767623480665622
"agg" 0.151644752525062
"ave" 0.0055966955329369
"laveB" 0.0553411699624769
"agg" 0.180717786436131
"ave" 0.00419386928467423
"laveB" 0.0307245909935478
"agg" 0.183788925445142
"ave" 0.0031349415412374
"laveB" 0.0459321033542293
"agg" 0.157858965113731
"ave" 0.00224545882569104
"laveB" 0.0273445690459567
"agg" 0.185292037495288
"ave" 0.00662797076282095
"laveB" 0.0811778723514174
"agg" 0.37863450220991
"ave" 0.00963578105487051
"laveB" 0.0807274833955457
"agg" 0.453645583685022
"ave" 0.0102937746897791
"laveB" 0.130168788656583
"agg" 0.177126057026537
"ave" 0.00361071208010786
"laveB" 0.0418690658259864
"agg" 0.164910788640675
"ave" 0.00601224606872235
"laveB" 0.0644395583790274
"agg" 0.232573620380523
"ave" 0.00929150988593383
"laveB" 0.0815509747136753
"agg" 0.284078561221716
"ave" 0.00991836183502512
"laveB" 0.0931118835384072
"agg" 0.289202084723248
"ave" 0.00759922115382103
"laveB" 0.0791519009190067
"agg" 0.281713382741
"ave" 0.00949048290695356
"laveB" 0.105317253126884
"agg" 0.281657336838812
"ave" 0.00873921318863026
"laveB" 0.0893573487306232
"agg" 0.0474432015387281
"ave" 0.00197453469475545
"laveB" 8.71942724924672e-05
"agg" 0.162513322168541
"ave" 0.00666130028465907
"laveB" 0.0513349054633253
"agg" 0.169953180447261
"ave" 0.00367071924058105
"laveB" 0.0392361567364714
"agg" 0.166243968672647
"ave" 0.00624184646535453
"laveB" 0.0604457161941473
"agg" 0.321911465942332
"ave" 0.00639816437725001
"laveB" 0.0746422181348235
"agg" 0.184127459670801
"ave" 0.00466982139221491
"laveB" 0.0457932295785977
"agg" 0.259823541817689
"ave" 0.00627042381641278
"laveB" 0.0952651854050898
"agg" 0.181825154950378
"ave" 0.00602005561113793
"laveB" 0.0662294237406852
"agg" 0.231333909924749
"ave" 0.0101139681067719
"laveB" 0.0902675177104897
"agg" 0.164452982099341
"ave" 0.00832689938317859
"laveB" 0.0540465293981321
"agg" 0.192279360422689
"ave" 0.00864606624789415
"laveB" 0.075820702568263
"agg" 0.175461133376814
"ave" 0.00936932235710248
"laveB" 0.062648416862941
"agg" 0.206657671536805
"ave" 0.00689467669912154
"laveB" 0.0793958153079959
"agg" 0.147879577055512
"ave" 0.00562398748198938
"laveB" 0.0484692951915804
"agg" 0.245253185297766
"ave" 0.0114607596078352
"laveB" 0.0850721598182125
"agg" 0.236932599193861
"ave" 0.0132268384072453
"laveB" 0.0920539846745311
"agg" 0.238445067684024
"ave" 0.00602743950318746
"laveB" 0.0662444559453343
"agg" 0.226209716608171
"ave" 0.00722969931680592
"laveB" 0.0672658474049468
"agg" 0.23308883502156
"ave" 0.00939987275062504
"laveB" 0.0821548788087938
"agg" 0.200348029207789
"ave" 0.00887314741638943
"laveB" 0.0784321316532764
"agg" 0.243114608426832
"ave" 0.00758455061020019
"laveB" 0.0806165406327914
"agg" 0.181763346678559
"ave" 0.00603373659315984
"laveB" 0.0582236954672143
"agg" 0.409455599541135
"ave" 0.0173145305525623
"laveB" 0.135274085662603
"agg" 0.469385363953673
"ave" 0.0236158850629037
"laveB" 0.154507522868299
"agg" 0.153920863328845
"ave" 0.00681823760631139
"laveB" 0.0487757573884167
"agg" 0.156222184776848
"ave" 0.00776978223849107
"laveB" 0.0357923306251712
"agg" 0.113945389635387
"ave" 0.00696984109345625
"laveB" 0.0221611836379585
"agg" 0.382539643381855
"ave" 0.0226771733486653
"laveB" 0.147162737917257
"agg" 0.183883873418596
"ave" 0.00615125295578951
"laveB" 0.0517417603455397
"agg" 0.206592689871492
"ave" 0.00644045631027805
"laveB" 0.0692514148318589
"agg" 0.219596038943801
"ave" 0.00772969055156443
"laveB" 0.083511833247537
"agg" 0.12508037167708
"ave" 0.00483300654358388
"laveB" 0.0467566444034419
"agg" 0.423589224961858
"ave" 0.011932138542097
"laveB" 0.157527415268418
"agg" 0.401756247016097
"ave" 0.0100229317021361
"laveB" 0.11994776295636
"agg" 0.266757322354093
"ave" 0.00744260850994985
"laveB" 0.0811081678919047
"agg" 0.263981521205334
"ave" 0.00959690435773692
"laveB" 0.1051075685836
"agg" 0.108381100218384
"ave" 0.00746895554393839
"laveB" 0.0520208271305276
"agg" 0.21887769600126
"ave" 0.0100238341200828
"laveB" 0.0790639640618914
"agg" -0.00887866445103078
"ave" 0.00199833408789623
"laveB" 0.0121365063065139
"agg" 0.0844923497549419
"ave" 0.00255071479603894
"laveB" 0.0192711792969724
"agg" 0.162761841875233
"ave" 0.00981929832174406
"laveB" 0.0755611486038584
"agg" 0.209888488889983
"ave" 0.0134906154104755
"laveB" 0.0999193589942381
"agg" 0.215656690777827
"ave" 0.00890074875866999
"laveB" 0.0812650390623138
"agg" 0.129438117819141
"ave" 0.00541501493165299
"laveB" 0.0448758546468674
"agg" 0.111697261585713
"ave" 0.00202063027431738
"laveB" 0.0247527463581561
"agg" 0.0582384385155335
"ave" 0.00145346923813027
"laveB" 0.0171170582768827
"agg" 0.223071640671716
"ave" 0.00846553686188115
"laveB" 0.0859015434984806
"agg" 0.206608375916724
"ave" 0.00930721467842914
"laveB" 0.0548943723385606
"agg" 0.365046738713149
"ave" 0.00714019287857984
"laveB" 0.0795760328372278
"agg" 0.31011142460818
"ave" 0.00884037275035202
"laveB" 0.0842320889637848
"agg" 0.238040246548196
"ave" 0.00723164372877854
"laveB" 0.0858354861156129
"agg" 0.224240013426995
"ave" 0.00653576077525623
"laveB" 0.072355628213457
"agg" 0.119460100658731
"ave" 0.00339657147982473
"laveB" 0.0228896620987865
"agg" 0.176196174513834
"ave" 0.00508959741573535
"laveB" 0.0515024227206139
"agg" 0.135446014616587
"ave" 0.00283511919579278
"laveB" 0.0511283818830581
"agg" 0.19763280306123
"ave" 0.00465661859317142
"laveB" 0.0558899616710687
"agg" 0.135634904446109
"ave" 0.00285183411498326
"laveB" 0.0387703890382506
"agg" 0.59106911373882
"ave" 0.0359284018837265
"laveB" 0.300670822696683
"agg" 0.749394594727389
"ave" 0.044542513192092
"laveB" 0.402537566870872
"agg" 0.422926282362934
"ave" 0.0271813666634854
"laveB" 0.226081455992361
"agg" 0.407832186569576
"ave" 0.0202066627476456
"laveB" 0.191981551691432
"agg" 0.43700196748353
"ave" 0.0252809557895327
"laveB" 0.185148301023096
"agg" 0.546883880894245
"ave" 0.0324941729106236
"laveB" 0.300050662454611
"agg" 0.483216265911661
"ave" 0.0330243583088335
"laveB" 0.284973967082362
"agg" 0.473040153205695
"ave" 0.019649081496191
"laveB" 0.198321523283588
"agg" 0.471699149194898
"ave" 0.0159772654356803
"laveB" 0.158066306316414
"agg" 0.330911682052923
"ave" 0.00778054915690341
"laveB" 0.106004850128616
"agg" -0.114445255108248
"ave" -0.0037965050840615
"laveB" -0.0506976833035904
"agg" 0.620250075093887
"ave" 0.0272897543605348
"laveB" 0.297159421971181
"agg" 0.529730341802931
"ave" 0.0204751374686
"laveB" 0.21778108183479
"agg" 0.144415997118322
"ave" 0.00518998557441294
"laveB" 0.0497106127229722
"agg" 0.23483618334988
"ave" 0.00601703013098105
"laveB" 0.0712089139504602
"agg" 0.678264366793667
"ave" 0.0270485255853841
"laveB" 0.323219976953667
"agg" 0.57562661549529
"ave" 0.0285844808236931
"laveB" 0.286874112020744
"agg" 0.516216368983069
"ave" 0.0226588464406663
"laveB" 0.243682540706751
"agg" 0.531405097470272
"ave" 0.0199013547815209
"laveB" 0.241970374974669
"agg" 0.540349601935407
"ave" 0.023105311537776
"laveB" 0.237528807934578
"agg" 0.509399652802651
"ave" 0.0205427410682278
"laveB" 0.20159431388582
"agg" 0.427821057827819
"ave" 0.0223485464787986
"laveB" 0.203032329917398
"agg" 0.270923259219335
"ave" 0.015971876619318
"laveB" 0.128209413212737
"agg" 0.36780969554054
"ave" 0.00979787354539847
"laveB" 0.112699394799103
"agg" 0.412152753380548
"ave" 0.0158507456901619
"laveB" 0.19455615876818
"agg" 0.257624158140751
"ave" 0.0084908293792615
"laveB" 0.104243649094045
"agg" 0.2743906565666
"ave" 0.00850787474735827
"laveB" 0.0967922930405228
"agg" 0.29688716353421
"ave" 0.0101001188934811
"laveB" 0.154570374009521
"agg" 0.393339098612195
"ave" 0.0156099634480984
"laveB" 0.197709194521731
"agg" 0.314371833007296
"ave" 0.0198461381688228
"laveB" 0.156701894907854
"agg" 0.33430908940592
"ave" 0.0208484940478724
"laveB" 0.174283735917438
"agg" 0.323018367314416
"ave" 0.020285917387501
"laveB" 0.164957164069595
"agg" 0.334660871701923
"ave" 0.0219904855848682
"laveB" 0.155572520056258
"agg" 0.375274545524525
"ave" 0.0174952470300854
"laveB" 0.174251516384717
"agg" 0.326946235797348
"ave" 0.0145216771902572
"laveB" 0.137153368612371
"agg" 0.226961510665872
"ave" 0.0176467716126042
"laveB" 0.115762646061685
"agg" 0.200202915328172
"ave" 0.0179935101222938
"laveB" 0.11146044160248
"agg" 0.289202845353857
"ave" 0.0107693253362521
"laveB" 0.118825825271038
"agg" 0.286070050889688
"ave" 0.0121746947733665
"laveB" 0.118716346030071
"agg" 0.448046175540309
"ave" 0.0284500472366879
"laveB" 0.218626336555684
"agg" 0.511586233051431
"ave" 0.0300916332803688
"laveB" 0.24763779668241
"agg" 0.339433795268543
"ave" 0.0182856839240164
"laveB" 0.148764901314793
"agg" 0.464816463782086
"ave" 0.0243890212898921
"laveB" 0.227352943265136
"agg" 0.790357410581161
"ave" 0.0519617643940778
"laveB" 0.393370265965515
"agg" 0.634128840139708
"ave" 0.0459057442636652
"laveB" 0.351477820659058
"agg" 0.580047248867116
"ave" 0.0401447825690796
"laveB" 0.279433514705912
"agg" 0.355409198722166
"ave" 0.0243763626104554
"laveB" 0.172154299476603
"agg" 0.561713190213281
"ave" 0.0468315239172587
"laveB" 0.311469924340812
"agg" 0.669680161776913
"ave" 0.0531302464499974
"laveB" 0.403973248834403
"agg" 0.3981366589443
"ave" 0.0183817221061676
"laveB" 0.165965859264703
"agg" 0.3580034289784
"ave" 0.0150293329269476
"laveB" 0.144316171689054
"agg" 0.386848184171504
"ave" 0.0199457646702627
"laveB" 0.199398559048374
"agg" 0.344075558878986
"ave" 0.0181179340000533
"laveB" 0.160539618518889
"agg" 0.485266693227733
"ave" 0.0179293201441609
"laveB" 0.22493410670661
"agg" 0.441202335558214
"ave" 0.0154353071828035
"laveB" 0.186110598521791
"agg" 0.459907255215349
"ave" 0.0157636576429251
"laveB" 0.21381440127896
"agg" 0.445818976327728
"ave" 0.019709924910821
"laveB" 0.220064768010411
"agg" 0.33061335374525
"ave" 0.0257366397910122
"laveB" 0.214334945804695
"agg" 0.356276867524765
"ave" 0.0178504572969094
"laveB" 0.156804099176388
"agg" 0.503288378690768
"ave" 0.0193442577537405
"laveB" 0.238180410911947
"agg" 0.335387787755495
"ave" 0.0106835607070149
"laveB" 0.121440284689327
"agg" 0.396728687020313
"ave" 0.0314581244130981
"laveB" 0.261369148314176
"agg" 0.577845085037885
"ave" 0.0437833915157936
"laveB" 0.374198024742547
"agg" 0.475083478329845
"ave" 0.0290027213414953
"laveB" 0.265829525089703
"agg" 0.490937245315681
"ave" 0.0280861520470481
"laveB" 0.232510765948668
"agg" 0.350607178512907
"ave" 0.0114889127427685
"laveB" 0.124441879184464
"agg" 0.290026512829157
"ave" 0.010247442222975
"laveB" 0.111140491215168
"agg" 0.472663654316918
"ave" 0.0278192728477527
"laveB" 0.22976614551827
"agg" 0.360377905820182
"ave" 0.0230716962808322
"laveB" 0.160673381650853
"agg" 0.394563639890102
"ave" 0.0123535699050772
"laveB" 0.112220890166036
"agg" 0.31825494478927
"ave" 0.0136038720377392
"laveB" 0.134391070250199
"agg" 0.364489875210875
"ave" 0.0160683880662484
"laveB" 0.185516575397344
"agg" 0.196717002087743
"ave" 0.00923403705329347
"laveB" 0.0855658036213912
"agg" 0.409989009873646
"ave" 0.0132760982477714
"laveB" 0.177604416151747
"agg" 0.364936838000415
"ave" 0.0123304455050848
"laveB" 0.152594515808901
"agg" 0.253479933079694
"ave" 0.00823166706692385
"laveB" 0.0993152609916546
"agg" 0.160670548546271
"ave" 0.00528548905109604
"laveB" 0.0525674144020217
"agg" 0.365274788113415
"ave" 0.0104604842732238
"laveB" 0.135892056320437
"agg" 0.802564019749937
"ave" 0.0410154137062885
"laveB" 0.39079697707565
"agg" 0.890290994332479
"ave" 0.0531423445499879
"laveB" 0.445559150943451
"agg" 0.690845180655099
"ave" 0.0345078668889418
"laveB" 0.315965254131244
"agg" 0.708551093181002
"ave" 0.0361383609299786
"laveB" 0.293461219203323
"agg" 0.582124725445031
"ave" 0.0302575364225952
"laveB" 0.289764512373124
"agg" 0.669853119773915
"ave" 0.0426770502984166
"laveB" 0.373906073707281
"agg" 0.492912915617148
"ave" 0.0173404859517791
"laveB" 0.19817075850766
"agg" 0.558296146998496
"ave" 0.0170852527702108
"laveB" 0.182649921399043
"agg" 0.550252483771604
"ave" 0.0126692160012113
"laveB" 0.182108546288318
"agg" -0.120267980961174
"ave" -0.00403019995161586
"laveB" -0.0347974714071295
"agg" 0.526028138866652
"ave" 0.0227545710551544
"laveB" 0.240647975106458
"agg" 0.549435079603794
"ave" 0.0198982407363272
"laveB" 0.215410642526695
"agg" -0.0539232218202474
"ave" -0.00247320355650974
"laveB" -0.000796332126979191
"agg" 0.522442736181457
"ave" 0.0123980861376361
"laveB" 0.149369617663688
"agg" 0.63391956459682
"ave" 0.0241203502242389
"laveB" 0.3149784161614
"agg" 0.751126830209884
"ave" 0.0363939555731103
"laveB" 0.387329030250943
"agg" 0.457728402947762
"ave" 0.0201873774555068
"laveB" 0.20767666301648
"agg" 0.57712377630676
"ave" 0.0196840350142021
"laveB" 0.22134337307785
"agg" 0.577652552440399
"ave" 0.0242496087028981
"laveB" 0.252534629618061
"agg" 0.70251189359231
"ave" 0.026659676112301
"laveB" 0.279232827836464
"agg" 0.571168387899636
"ave" 0.0280321955406241
"laveB" 0.255341371365177
"agg" 0.461460299516837
"ave" 0.0261186330443299
"laveB" 0.211861314049466
"agg" 0.606401910877987
"ave" 0.0160560600386031
"laveB" 0.186907199864917
"agg" 0.322772212787912
"ave" 0.0118299895966099
"laveB" 0.155556097583497
"agg" 0.668219879659115
"ave" 0.0210735039707519
"laveB" 0.232079525692561
"agg" 0.271653132113296
"ave" 0.00841558725764541
"laveB" 0.102490729145425
"agg" 0.419622167313596
"ave" 0.0122794103546309
"laveB" 0.176106831643671
"agg" 0.364289775763666
"ave" 0.013611993291713
"laveB" 0.176623376302018
"agg" 0.5255740919318
"ave" 0.030049004504352
"laveB" 0.246974101174686
"agg" 0.499639398964004
"ave" 0.0283729791644012
"laveB" 0.251689647084567
"agg" 0.451179664058499
"ave" 0.0251005249680426
"laveB" 0.225273598455436
"agg" 0.438009155111047
"ave" 0.0244015292852293
"laveB" 0.201261194840106
"agg" 0.54653243053822
"ave" 0.0234562893211762
"laveB" 0.249557576033389
"agg" 0.446041113887582
"ave" 0.0181259738187834
"laveB" 0.178371491576719
"agg" 0.416291497781278
"ave" 0.0277957761146097
"laveB" 0.201914294565295
"agg" 0.388202625337651
"ave" 0.0301765977658046
"laveB" 0.204260955178808
"agg" 0.48966995070945
"ave" 0.0172236352909069
"laveB" 0.175887148860697
"agg" 0.554332391699738
"ave" 0.0223522947844769
"laveB" 0.215735827577753
"agg" 0.483868402944163
"ave" 0.0255451032244589
"laveB" 0.237896677505662
"agg" 0.59589282393614
"ave" 0.0331270908146798
"laveB" 0.274919495657321
"agg" 0.416004171988538
"ave" 0.0197402278482304
"laveB" 0.182697249410786
"agg" 0.50013700585877
"ave" 0.0224976326855461
"laveB" 0.221849936125287
"agg" 0.694690236118839
"ave" 0.0411594900215523
"laveB" 0.304070081380087
"agg" 0.738832821336647
"ave" 0.0495916833911812
"laveB" 0.360430785049041
"agg" 0.458344878380146
"ave" 0.0265981602638469
"laveB" 0.221381137303505
"agg" 0.647533628998763
"ave" 0.0425696061421057
"laveB" 0.298810873406526
"agg" 0.548289318263094
"ave" 0.0442617671683694
"laveB" 0.292976884534967
"agg" 0.682714087572495
"ave" 0.0513900659303018
"laveB" 0.350113810804136
"agg" 0.450269255184602
"ave" 0.0188077694167886
"laveB" 0.167457939466506
"agg" 0.492881240592858
"ave" 0.0185407215569151
"laveB" 0.180027699326834
"agg" 0.269953979374701
"ave" 0.0116245955809992
"laveB" 0.128215545323837
"agg" 0.161500494245439
"ave" 0.00647334723456028
"laveB" 0.0788234144523258
"agg" 0.508390506935131
"ave" 0.0164385051106
"laveB" 0.214650693099821
"agg" 0.571457184694563
"ave" 0.018827741897993
"laveB" 0.224658401687073
"agg" 0.451297915427025
"ave" 0.0149900758156285
"laveB" 0.19173589657234
"agg" 0.431303806358952
"ave" 0.0196039556193686
"laveB" 0.224205187658616
"agg" 0.300468822591041
"ave" 0.0213621235464195
"laveB" 0.160168412291211
"agg" 0.32638747803354
"ave" 0.0169437808048767
"laveB" 0.142108970546325
"agg" 0.457204968760226
"ave" 0.017092962917544
"laveB" 0.207220229899679
"agg" 0.432290679985447
"ave" 0.0136807680546093
"laveB" 0.141673077998719
"agg" 0.570897596334977
"ave" 0.0422151649438908
"laveB" 0.350334361916346
"agg" 0.628066887546144
"ave" 0.0450398693590098
"laveB" 0.386745660314583
"agg" 0.613675022205075
"ave" 0.0322723743157584
"laveB" 0.309901244225778
"agg" 0.683062715397591
"ave" 0.0356145139804828
"laveB" 0.313791379772758
"agg" 0.655641847017443
"ave" 0.0216280067615182
"laveB" 0.258580844868054
"agg" 0.682311247883477
"ave" 0.0218070044614628
"laveB" 0.212136486979681
"agg" 0.589287996469813
"ave" 0.030850957051064
"laveB" 0.276961969351249
"agg" 0.699325259990554
"ave" 0.0391313020770893
"laveB" 0.289857831475462
"agg" 0.521977609489677
"ave" 0.0139662299477152
"laveB" 0.130071129278342
"agg" 0.649306689843212
"ave" 0.0240804487926441
"laveB" 0.235715194196787
"agg" 0.602431949044685
"ave" 0.0258170702751114
"laveB" 0.282035851778346
"agg" 0.431655729536334
"ave" 0.0185472757873648
"laveB" 0.174764414730324
"agg" 0.403696478767181
"ave" 0.0135080571603777
"laveB" 0.169526904541689
"agg" 0.595108043228793
"ave" 0.0203159072579635
"laveB" 0.232341240693921
"agg" 0.539337954038358
"ave" 0.017500798516078
"laveB" 0.202304736062082
"agg" 0.466560926003529
"ave" 0.0156310037686523
"laveB" 0.183345902182329
"agg" 0.372985308188351
"ave" 0.0112202389378934
"laveB" 0.126158699098644
"agg" 0.779491403755591
"ave" 0.0400134795910264
"laveB" 0.404113061922682
"agg" 0.738262423208501
"ave" 0.0317470248280243
"laveB" 0.333657159141602
"agg" 0.646062644533793
"ave" 0.0291432322362614
"laveB" 0.256311879077381
"agg" 0.667074891664596
"ave" 0.0313784353673461
"laveB" 0.332304378160085
"agg" 0.671836825283312
"ave" 0.0364892277283937
"laveB" 0.368862781958556
"agg" 0.659593661884394
"ave" 0.0224198093963264
"laveB" 0.265300503389286
"agg" 0.623069598367821
"ave" 0.0170647566016619
"laveB" 0.212977557195801
"agg" 0.481445449822611
"ave" 0.00969551881441017
"laveB" 0.152837742628702
"agg" -0.000876368493381482
"ave" -0.000225427548514565
"laveB" -0.00580912923203222
"agg" 0.632368346603371
"ave" 0.0246094763969257
"laveB" 0.290315564397816
"agg" 0.605251529044586
"ave" 0.0198114335777763
"laveB" 0.206371369606071
"agg" 0.0678286934188797
"ave" 0.00261157249505418
"laveB" 0.0500639093832249
"agg" 0.476066946136498
"ave" 0.0101260633664027
"laveB" 0.146297848060751
"agg" 0.72226317821593
"ave" 0.0245492534030756
"laveB" 0.344799972811406
"agg" 0.724772748552192
"ave" 0.0305779314649297
"laveB" 0.334941261396901
"agg" 0.558888580356535
"ave" 0.0218380642387433
"laveB" 0.245259426439614
"agg" 0.579438112117642
"ave" 0.0184295038899008
"laveB" 0.231898119186769
"agg" 0.703264509786504
"ave" 0.0257782152882676
"laveB" 0.298553954901797
"agg" 0.721337043836514
"ave" 0.023879456071295
"laveB" 0.291925664397514
"agg" 0.557381415259523
"ave" 0.0245406457073657
"laveB" 0.255084549892546
"agg" 0.40477258890813
"ave" 0.0207632191812615
"laveB" 0.203093089992684
"agg" 0.626868987217276
"ave" 0.0134273911765328
"laveB" 0.17514654512467
"agg" 0.382111573826738
"ave" 0.0116187700334129
"laveB" 0.153353068947813
"agg" 0.657494209852525
"ave" 0.0179342938335411
"laveB" 0.247654022036795
"agg" 0.323779323563127
"ave" 0.00775220566505069
"laveB" 0.100920724831904
"agg" 0.495345081444194
"ave" 0.0125847090985883
"laveB" 0.205582528159328
"agg" 0.486315543642158
"ave" 0.0158873768794399
"laveB" 0.232562443212006
"agg" 0.623053166793769
"ave" 0.0325198239099457
"laveB" 0.314176336421821
"agg" 0.593119388358512
"ave" 0.0315039394322357
"laveB" 0.30582407629574
"agg" 0.590942245335464
"ave" 0.0309446845376513
"laveB" 0.302303256753269
"agg" 0.507377031547222
"ave" 0.0271832461868626
"laveB" 0.24750063345475
"agg" 0.670548892150999
"ave" 0.0266121232429952
"laveB" 0.314170772799073
"agg" 0.550668400533305
"ave" 0.0214374108091903
"laveB" 0.244254902702234
"agg" 0.576063381684605
"ave" 0.0346900701260272
"laveB" 0.285571453035279
"agg" 0.521811451450393
"ave" 0.0357144622000138
"laveB" 0.279161116670933
"agg" 0.619797824489448
"ave" 0.0192210752650795
"laveB" 0.23814849064097
"agg" 0.570024267944077
"ave" 0.019420025359773
"laveB" 0.210607545406517
"agg" 0.601376398347853
"ave" 0.0306159896829987
"laveB" 0.286481700499878
"agg" 0.672530095384723
"ave" 0.032999636921319
"laveB" 0.309361013459719
"agg" 0.620853358712542
"ave" 0.027392202701092
"laveB" 0.28635883155091
"agg" 0.64549148581785
"ave" 0.0275890827161491
"laveB" 0.289342075853227
"agg" 0.851644483245259
"ave" 0.047070049692294
"laveB" 0.383306871997964
"agg" 0.682562704491857
"ave" 0.0420212014379957
"laveB" 0.355599641640793
"agg" 0.680221455000852
"ave" 0.0385777874952691
"laveB" 0.340632195794061
"agg" 0.665317692270857
"ave" 0.0366807138429216
"laveB" 0.292306225419723
"agg" 0.588437285493635
"ave" 0.0417959236687476
"laveB" 0.324161565247313
"agg" 0.552236711768329
"ave" 0.038726469711779
"laveB" 0.303993606604207
"agg" 0.615077875591153
"ave" 0.0235823688372281
"laveB" 0.24849909087615
"agg" 0.533707457831702
"ave" 0.0189545782253548
"laveB" 0.221184189734695
"agg" 0.470778974311062
"ave" 0.0202559406812494
"laveB" 0.234433286579129
"agg" 0.345013479362087
"ave" 0.0148348549556435
"laveB" 0.162405142234863
"agg" 0.564192040560989
"ave" 0.0171784016069546
"laveB" 0.244324352026724
"agg" 0.643434805232043
"ave" 0.0193336197971971
"laveB" 0.264153867068025
"agg" 0.525052229296279
"ave" 0.0154225279471142
"laveB" 0.22551430974271
"agg" 0.46030280288648
"ave" 0.0169856503986211
"laveB" 0.213285883759937
"agg" 0.364824621184727
"ave" 0.024904409444102
"laveB" 0.227185610627603
"agg" 0.337993261576183
"ave" 0.0151211230624505
"laveB" 0.140496702102344
"agg" 0.433247458154589
"ave" 0.0141021434066209
"laveB" 0.183343168408535
"agg" 0.413019867449623
"ave" 0.0111841542826854
"laveB" 0.137548664567747
"agg" 0.610833647940676
"ave" 0.0397439609979283
"laveB" 0.378993772442095
"agg" 0.658380451987296
"ave" 0.041023072289634
"laveB" 0.38902827775453
"agg" 0.713049875687003
"ave" 0.0344572957153091
"laveB" 0.385432577572116
"agg" 0.678439799153488
"ave" 0.0312052118789145
"laveB" 0.30945573263156
"agg" 0.616128453068605
"ave" 0.0166510816964121
"laveB" 0.218288018273227
"agg" 0.601483119923652
"ave" 0.0165734546038842
"laveB" 0.19452981069338
"agg" 0.70328225830965
"ave" 0.0332806400197139
"laveB" 0.332108988879026
"agg" 0.626934423897536
"ave" 0.031596818632094
"laveB" 0.27998145435872
"agg" 0.688109439165751
"ave" 0.0168478154109521
"laveB" 0.202486146595906
"agg" 0.667967440799524
"ave" 0.0224300131327763
"laveB" 0.254243332706656
"agg" 0.629271615422236
"ave" 0.0228586659868461
"laveB" 0.286676179271669
"agg" 0.526654931371893
"ave" 0.0185463750226647
"laveB" 0.242798170868492
"agg" 0.517988354913876
"ave" 0.0143276909462098
"laveB" 0.209603064381603
"agg" 0.641225866028784
"ave" 0.0183556329996204
"laveB" 0.248385033729937
"agg" 0.571612112055161
"ave" 0.0153597411595101
"laveB" 0.204385643035552
"agg" 0.547627363528067
"ave" 0.0155316874095937
"laveB" 0.230931093616782
"agg" 0.501343733750111
"ave" 0.0124769094176983
"laveB" 0.172874636727631
"agg" 0.78213215718487
"ave" 0.039045155133521
"laveB" 0.407810761010468
"agg" 0.714049092845328
"ave" 0.0360972027745174
"laveB" 0.311299573045662
"agg" 0.467449053892551
"ave" 0.024053143099279
"laveB" 0.249983054093349
"agg" 0.569796736396854
"ave" 0.0355795669145852
"laveB" 0.322645341987294
"agg" 0.470852583030865
"ave" 0.0165290597724712
"laveB" 0.184169173518292
"agg" 0.502494945420502
"ave" 0.0151955205998132
"laveB" 0.172106566433896
"agg" 0.542995672494495
"ave" 0.0125041542989685
"laveB" 0.180613071667273
"agg" -0.0971321775378622
"ave" -0.00319752013163546
"laveB" -0.0324862300499778
"agg" 0.42768099327178
"ave" 0.0196438106619427
"laveB" 0.212742557424203
"agg" 0.433604606317714
"ave" 0.0167002100893774
"laveB" 0.193005038911953
"agg" -0.119422030738428
"ave" -0.00389321277753282
"laveB" -0.0191229146494644
"agg" 0.578052774276224
"ave" 0.0136914420241823
"laveB" 0.163211394008596
"agg" 0.51745815239122
"ave" 0.0200979335287606
"laveB" 0.256488163829452
"agg" 0.642055208404732
"ave" 0.0315336053369608
"laveB" 0.336754513263198
"agg" 0.351542252881011
"ave" 0.0172309708236523
"laveB" 0.166561889083694
"agg" 0.473340842877408
"ave" 0.0167064975874396
"laveB" 0.18883959454683
"agg" 0.54766617591326
"ave" 0.0230641547299437
"laveB" 0.248426426677268
"agg" 0.671523075209898
"ave" 0.0254284449975643
"laveB" 0.280412760207929
"agg" 0.596703647538693
"ave" 0.0293626635764703
"laveB" 0.286675922646319
"agg" 0.516564824978781
"ave" 0.0303989228636308
"laveB" 0.27205066826621
"agg" 0.56233848678247
"ave" 0.0144835749932491
"laveB" 0.17728624785219
"agg" 0.144134332939885
"ave" 0.0054502269661999
"laveB" 0.0718337693461176
"agg" 0.774123288163469
"ave" 0.0242335274275109
"laveB" 0.297965170529815
"agg" 0.201951757297626
"ave" 0.00599800421539037
"laveB" 0.0804148397903472
"agg" 0.425958195828994
"ave" 0.0118358799835596
"laveB" 0.192232326394128
"agg" 0.343856506124547
"ave" 0.0133374006514364
"laveB" 0.159964828670869
"agg" 0.54883934959485
"ave" 0.0319048782875783
"laveB" 0.284857658839526
"agg" 0.50822905438166
"ave" 0.0292711566078386
"laveB" 0.270740184402289
"agg" 0.464355309848485
"ave" 0.0262908062712657
"laveB" 0.246135052650758
"agg" 0.389437975880955
"ave" 0.0223792356040442
"laveB" 0.203905867003761
"agg" 0.572147313786349
"ave" 0.0251666558972788
"laveB" 0.263444706050005
"agg" 0.481776712170457
"ave" 0.020382552467285
"laveB" 0.215366031814268
"agg" 0.481684144696206
"ave" 0.03244810907605
"laveB" 0.250672476807008
"agg" 0.418547370277895
"ave" 0.0327754886895321
"laveB" 0.245589125106022
"agg" 0.544089049320006
"ave" 0.0193331383815529
"laveB" 0.220841064821336
"agg" 0.574289747162758
"ave" 0.0229242883527202
"laveB" 0.250485796957145
"agg" 0.462112840513605
"ave" 0.0250402714195967
"laveB" 0.223475065973448
"agg" 0.534369941994929
"ave" 0.0295594330797695
"laveB" 0.253074571077219
"agg" 0.453325876582362
"ave" 0.0212586317853337
"laveB" 0.215352742459038
"agg" 0.460709229950687
"ave" 0.020626187082576
"laveB" 0.20413475178055
"agg" 0.641480712664363
"ave" 0.0385792115962687
"laveB" 0.292157046888152
"agg" 0.595115098263153
"ave" 0.0415139106870284
"laveB" 0.333360204655165
"agg" 0.456139117415041
"ave" 0.0268728862576693
"laveB" 0.239895323537608
"agg" 0.6595388727127
"ave" 0.0428023000145789
"laveB" 0.311924290796765
"agg" 0.543729736454531
"ave" 0.0426317765872736
"laveB" 0.310548438500444
"agg" 0.526114199587885
"ave" 0.0413603101258792
"laveB" 0.308079807474429
"agg" 0.485722771908076
"ave" 0.0196063448870182
"laveB" 0.187895156535694
"agg" 0.497663310387307
"ave" 0.0192116672356176
"laveB" 0.195373107374612
"agg" 0.287351375350856
"ave" 0.012368714445375
"laveB" 0.131147282734668
"agg" 0.130251916726544
"ave" 0.00509908752804727
"laveB" 0.0598827493237915
"agg" 0.36600064631898
"ave" 0.012459682141938
"laveB" 0.181077632392171
"agg" 0.557912404562067
"ave" 0.0189014114413555
"laveB" 0.244855175611381
"agg" 0.39539703725769
"ave" 0.0137564967713227
"laveB" 0.183596692357488
"agg" 0.256741955527354
"ave" 0.0128606833893665
"laveB" 0.147657175011426
"agg" 0.320933117417382
"ave" 0.0236008500024869
"laveB" 0.192266936460037
"agg" 0.20261744789503
"ave" 0.0122568216525831
"laveB" 0.0948657869550377
"agg" 0.291309714126127
"ave" 0.0117268207462799
"laveB" 0.14752759620824
"agg" 0.398635440621028
"ave" 0.0131930913283697
"laveB" 0.150155807209308
"agg" 0.542659404315163
"ave" 0.0395103954988228
"laveB" 0.367472658433877
"agg" 0.515162865219852
"ave" 0.0368737768858677
"laveB" 0.339313390717949
"agg" 0.585495911642401
"ave" 0.0305319484459659
"laveB" 0.320748818365597
"agg" 0.66600566000063
"ave" 0.0340860647670907
"laveB" 0.310506405034721
"agg" 0.736586056414186
"ave" 0.0235008329222494
"laveB" 0.307540911982662
"agg" 0.797625716243322
"ave" 0.0245538948879391
"laveB" 0.284483157188014
"agg" 0.628845648103136
"ave" 0.0320862114751657
"laveB" 0.302053424479411
"agg" 0.747423923516492
"ave" 0.0413889931357844
"laveB" 0.352163641950495
"agg" 0.584577429089586
"ave" 0.015484525993034
"laveB" 0.128521799925376
"agg" 0.747377058596789
"ave" 0.0269774877182511
"laveB" 0.292621765024531
"agg" 0.62232784356993
"ave" 0.0262338254244911
"laveB" 0.315339678694876
"agg" 0.499193536601124
"ave" 0.0200997114118362
"laveB" 0.219398930080711
"agg" 0.361254635641292
"ave" 0.0118093374578327
"laveB" 0.150130915840228
"agg" 0.566185839150495
"ave" 0.0191498259472043
"laveB" 0.228528775690176
"agg" 0.577349521971529
"ave" 0.0180186712651126
"laveB" 0.225966169493529
"agg" 0.539190713663818
"ave" 0.0175349576094383
"laveB" 0.230564848366943
"agg" 0.406107401706389
"ave" 0.0117556373393939
"laveB" 0.146889889489274
