"EST" "CORR"
"agg" 0.101976974632635
"ave" 0.0010963326642723
"aggc" 0.00127419837735394
"laveB" 0.00493269505996723
"raveB" 0.00594824845602911
"lraveB" 0.0518294084938584
"saveB" -0.00749083957849911
"slaveB" -0.0342237858004891
"sraveB" 0.231186989593282
"slraveB" 0.343098155358199
"agg" 0.0955957991801475
"ave" 0.00133557500355149
"aggc" 0.00118974865253675
"laveB" 0.00556243789657939
"raveB" 0.0729055442209928
"lraveB" 0.057029430289883
"saveB" -0.0130621611310118
"slaveB" -0.0254014688625534
"sraveB" 0.141007027720882
"slraveB" 0.326809818804106
"agg" 0.0186928415956139
"ave" 0.000242489383204561
"aggc" 0.00018069154440815
"laveB" 0.00333797373184012
"raveB" -0.0184834328033075
"lraveB" 0.00782090751449248
"saveB" -0.00754178467010998
"slaveB" -0.0279499219338482
"sraveB" 0.164617141095334
"slraveB" 0.307610765946146
"agg" 0.0332963086325739
"ave" 0.000684668582748941
"aggc" 0.000446926555486829
"laveB" 0.011905802771369
"raveB" 0.0239944772757268
"lraveB" 0.0144989678986029
"saveB" -0.00157589720129923
"slaveB" -0.0240634664588875
"sraveB" 0.211358333435654
"slraveB" 0.379548204957598
"agg" 0.123604097626604
"ave" 0.00238282703471186
"aggc" 0.00228227106035437
"laveB" 0.0141076551963555
"raveB" -0.00972911571177887
"lraveB" 0.220696173289669
"saveB" 0.00534155933837122
"slaveB" -0.00102784755427969
"sraveB" 0.189492462224864
"slraveB" 0.344197757809621
"agg" 0.068942083800106
"ave" 0.00116652860647451
"aggc" 0.00101831271680833
"laveB" 0.0134639829158813
"raveB" -0.0183526370050794
"lraveB" 0.159777706016484
"saveB" -0.0112712138795554
"slaveB" -0.0169620482744659
"sraveB" 0.264443998233297
"slraveB" 0.296247378965454
"agg" 0.0562221674621771
"ave" 0.000838521559870586
"aggc" 0.000753471045628352
"laveB" 0.0134032751173046
"raveB" -0.0365864974077732
"lraveB" 0.16249644082802
"saveB" -0.00354196093707986
"slaveB" -0.0104948470005171
"sraveB" 0.192970528418448
"slraveB" 0.387285279728296
"agg" 0.20932661419888
"ave" 0.00225205835044
"aggc" 0.00215532108691491
"laveB" 0.0281444590735099
"raveB" 0.0492332089685414
"lraveB" 0.281236934467186
"saveB" 0.00101025982215778
"slaveB" -0.0104604410373899
"sraveB" 0.238831376323721
"slraveB" 0.340858469586755
"agg" -0.0654482470329558
"ave" -0.000913882339178603
"aggc" -0.000956328643221049
"laveB" -0.0153624848315913
"raveB" -0.0890670186113025
"lraveB" 0.00236670547060678
"saveB" -0.0135375908904519
"slaveB" -0.0369229069921885
"sraveB" 0.219104634983362
"slraveB" 0.239112410176964
"agg" 0.122477071693042
"ave" 0.00114424996818082
"aggc" 0.00109658160263136
"laveB" 0.0115032554371436
"raveB" -0.0742024076149729
"lraveB" 0.0706331633635819
"saveB" -0.0122257244826085
"slaveB" -0.00336634037679958
"sraveB" 0.108590370300455
"slraveB" 0.330995953884795
"agg" 0.0728068819679739
"ave" 0.000789437272791093
"aggc" 0.000756961246974519
"laveB" 0.0104663950611477
"raveB" 0.0414467774344506
"lraveB" 0.0348955886263211
"saveB" -0.00623899390290801
"slaveB" -0.0305688468106571
"sraveB" 0.195260454845486
"slraveB" 0.299654400115909
"agg" -0.01222926256415
"ave" -0.0002406564970225
"aggc" -0.000133828507847542
"laveB" -0.00220444804859361
"raveB" -0.026550936723248
"lraveB" -0.0155700776783097
"saveB" -0.0120619522678139
"slaveB" -0.0174390899095131
"sraveB" 0.186918782305421
"slraveB" 0.336332429929214
"agg" -0.102674132590806
"ave" -0.00105335425573172
"aggc" -0.00111413667659711
"laveB" -0.0143443334830478
"raveB" 0.00823980225474907
"lraveB" -0.0760545866452157
"saveB" -0.00493073629435026
"slaveB" -0.0327480044660953
"sraveB" 0.100128788698427
"slraveB" 0.261989261350865
"agg" 0.0500667444720818
"ave" 0.000652304975771058
"aggc" 0.000506694189377897
"laveB" 0.00413740750274502
"raveB" 0.0730069927808667
"lraveB" 0.0609056282879046
"saveB" -0.0174801539208922
"slaveB" -0.0237299729974136
"sraveB" 0.156077510103604
"slraveB" 0.261529666829482
"agg" 0.032615789011586
"ave" 0.000263886842014474
"aggc" 0.000353040987647092
"laveB" 0.00249901443079967
"raveB" 0.0710354755258493
"lraveB" -0.04169605697247
"saveB" -0.0151117387095741
"slaveB" -0.0317801137333805
"sraveB" 0.105813452706308
"slraveB" 0.351169658357388
"agg" -0.085168073576783
"ave" -0.00100100051113966
"aggc" -0.000933928538592849
"laveB" -0.0118536169518836
"raveB" -0.0408249867808566
"lraveB" -0.0551618665818292
"saveB" -0.00896228838455669
"slaveB" -0.0467601700618931
"sraveB" 0.152704372868306
"slraveB" 0.276261713958767
"agg" 0.281129287360535
"ave" 0.00324826547903628
"aggc" 0.00312156955469965
"laveB" 0.0391309286340874
"raveB" -0.0546370681805871
"lraveB" 0.338381508548844
"saveB" -0.00678486545668397
"slaveB" -0.00709408421680194
"sraveB" 0.229951627320249
"slraveB" 0.396461278747159
"agg" 0.0185039076683878
"ave" 0.000214949098576235
"aggc" 0.0002361758663017
"laveB" 0.00101915704150791
"raveB" -0.0225237344838594
"lraveB" -0.0169679255454978
"saveB" 0.00121841294421733
"slaveB" -0.0364010875306664
"sraveB" 0.195088716586994
"slraveB" 0.432862585303461
"agg" -0.0159025623079367
"ave" -0.00016011849406528
"aggc" -0.000157646836797813
"laveB" 0.00504116953795002
"raveB" 0.00915282719042352
"lraveB" -0.0405253662742649
"saveB" -0.00626398914965135
"slaveB" -0.0217940285102736
"sraveB" 0.200909065845931
"slraveB" 0.240148897314392
"agg" 0.0690874509013477
"ave" 0.000810315633540815
"aggc" 0.000951031477965046
"laveB" 0.00926615352488998
"raveB" 0.0851972607628975
"lraveB" 0.159832698106122
"saveB" -0.0126638107297969
"slaveB" -0.0398352068742269
"sraveB" 0.255670454699223
"slraveB" 0.388313822767909
"agg" -0.127642010854346
"ave" -0.00260863473602569
"aggc" -0.00241703891839573
"laveB" -0.0231450980441439
"raveB" -0.0652620589122598
"lraveB" -0.300000736891921
"saveB" -0.0199579442123253
"slaveB" -0.0670112407066724
"sraveB" 0.0957665763007909
"slraveB" 0.128188588828587
"agg" 0.050190871841151
"ave" 0.000587302583913321
"aggc" 0.000760286277600499
"laveB" 0.017824728766868
"raveB" -0.00955791540763066
"lraveB" 0.121998970112176
"saveB" -0.0160925739073355
"slaveB" -0.0162188370087017
"sraveB" 0.136171118598059
"slraveB" 0.219745774039194
"agg" 0.0906703139694098
"ave" 0.00140790414614233
"aggc" 0.00124617706489639
"laveB" 0.0171415310750215
"raveB" -0.0108646182541868
"lraveB" 0.196817629339658
"saveB" -0.00934875610047361
"slaveB" -0.0215370059332054
"sraveB" 0.189669685549842
"slraveB" 0.346932974483493
"agg" 0.0253933850898437
"ave" 0.000146763958070177
"aggc" 0.000268141342097663
"laveB" 0.00563750273731822
"raveB" 0.0123773177361538
"lraveB" 0.00897343032314883
"saveB" -0.0111018823978671
"slaveB" -0.0239875897224234
"sraveB" 0.197920378136279
"slraveB" 0.280571796126026
"agg" 0.0166940590445858
"ave" 0.00042036704328453
"aggc" 0.000250165110848264
"laveB" 0.00709571708153548
"raveB" -0.0200600386134454
"lraveB" 0.0293289866921464
"saveB" -0.0127428446294035
"slaveB" -0.0255518128778995
"sraveB" 0.248028605672323
"slraveB" 0.204854368485219
"agg" 0.0111149106129325
"ave" 7.04551629965659e-05
"aggc" 0.000102058172308349
"laveB" 0.00401461380199093
"raveB" -0.0222623637941636
"lraveB" 0.0155145088095012
"saveB" 0.000841562810712133
"slaveB" -0.00961268141745354
"sraveB" 0.17328107898568
"slraveB" 0.273786316923985
"agg" -0.0255522228182701
"ave" -0.000240047985940422
"aggc" -0.000272449208583322
"laveB" -0.00307021984002663
"raveB" -0.016083976023697
"lraveB" -0.0424151323846544
"saveB" -0.0163766342814289
"slaveB" -0.0524800525319155
"sraveB" 0.113318177851559
"slraveB" 0.321755907057107
"agg" -0.0852048283285313
"ave" -0.00100899266801554
"aggc" -0.00095624289870031
"laveB" -0.0153973297511387
"raveB" -0.0691629742604048
"lraveB" -0.119474791991337
"saveB" -0.0118076409549263
"slaveB" -0.06519334226536
"sraveB" 0.2185058155594
"slraveB" 0.234076429787357
"agg" 0.106912300632621
"ave" 0.00101619815240456
"aggc" 0.00118976381064762
"laveB" 0.0129477370140012
"raveB" -0.00965014613547658
"lraveB" 0.129518773598178
"saveB" -0.00210941668193481
"slaveB" -0.0147424960282616
"sraveB" 0.21058523655959
"slraveB" 0.24939520609297
"agg" 0.00608937390199776
"ave" 0.000103511285291624
"aggc" 6.32011329644849e-05
"laveB" 0.00847934561639679
"raveB" 0.0193979868959081
"lraveB" 0.105660166416972
"saveB" -0.00793617760112658
"slaveB" -0.0169298942635669
"sraveB" 0.252757412813821
"slraveB" 0.311019523741251
"agg" -0.0219744158864198
"ave" -0.000243270890896837
"aggc" -0.000243932816920641
"laveB" -0.0162977299338956
"raveB" 0.0377577793575251
"lraveB" -0.0321655647969974
"saveB" -0.00928125214880958
"slaveB" -0.046011588786067
"sraveB" 0.22413789789039
"slraveB" 0.334822680519508
"agg" 0.0261896194985615
"ave" 9.85257072477093e-05
"aggc" 0.000294524659302591
"laveB" 0.00695366190898328
"raveB" 0.0149809680920023
"lraveB" -0.0727243929353407
"saveB" -0.00112539405878767
"slaveB" -0.0294754031740223
"sraveB" 0.242792364766062
"slraveB" 0.430871896630551
"agg" 0.15623396272808
"ave" 0.00171931649763952
"aggc" 0.00177909043169431
"laveB" 0.0219834648551928
"raveB" -0.0341322496352032
"lraveB" 0.157055052492163
"saveB" -0.00821075714931613
"slaveB" -0.0404648964356928
"sraveB" 0.261135581902835
"slraveB" 0.243345233902079
"agg" 0.0700936614222998
"ave" 0.000708943863413717
"aggc" 0.000692115205759503
"laveB" 0.0189193682933353
"raveB" 0.0372448170387381
"lraveB" 0.0636322802566751
"saveB" -0.00468770038564814
"slaveB" 0.000642912394706609
"sraveB" 0.0916382909634886
"slraveB" 0.336476401481797
"agg" -0.0619648857134943
"ave" -0.000661215447308146
"aggc" -0.000849616357243925
"laveB" -0.0104236755097518
"raveB" 0.0280317997835176
"lraveB" 0.0682251191672904
"saveB" -0.00751346714985951
"slaveB" -0.0549979929725741
"sraveB" 0.220919947340354
"slraveB" 0.188440305538001
"agg" 0.0533681743606154
"ave" 0.00104892381202536
"aggc" 0.00100659285113795
"laveB" 0.00532210957885664
"raveB" -0.0437428337339325
"lraveB" -0.0264662441123666
"saveB" 0.00684199562857458
"slaveB" -0.0292642449317112
"sraveB" 0.174387794521799
"slraveB" 0.261195649682327
"agg" -0.0461177174151734
"ave" -0.00029365274676662
"aggc" -0.000695827687060615
"laveB" -0.00840645546323369
"raveB" 0.000964346693181153
"lraveB" -0.308748714282277
"saveB" -0.00233222089231706
"slaveB" -0.0544634705548787
"sraveB" 0.170980534235111
"slraveB" 0.27723069761226
"agg" -0.00939424246714225
"ave" -0.00013098379503235
"aggc" -0.0001286050104144
"laveB" -0.00220443246827446
"raveB" -0.00867263077306138
"lraveB" -0.128460694970264
"saveB" -0.0167516613769573
"slaveB" -0.051145173210957
"sraveB" 0.225157723538971
"slraveB" 0.201482930235776
"agg" -0.0114331806053717
"ave" -6.70353325233813e-05
"aggc" -0.000120251840772687
"laveB" -0.00811674335675789
"raveB" -0.0131700995208093
"lraveB" -0.145319259545495
"saveB" -0.0131485780607747
"slaveB" -0.042507261106217
"sraveB" 0.222513789623597
"slraveB" 0.180102992300406
"agg" 0.0805769469078656
"ave" 0.00104862474505366
"aggc" 0.00120269939552231
"laveB" 0.0154021927954318
"raveB" -0.0286609590739237
"lraveB" 0.162212324431051
"saveB" -0.0056392482691273
"slaveB" -0.024398660727082
"sraveB" 0.116833964837824
"slraveB" 0.191873480498071
"agg" -0.0636582093671321
"ave" -0.000514689337937534
"aggc" -0.000582207397972217
"laveB" -0.00189278478888228
"raveB" -0.00914672660786182
"lraveB" -0.0937888996366451
"saveB" -0.012191516525573
"slaveB" -0.0256846065685534
"sraveB" 0.141017820554287
"slraveB" 0.197479303382639
"agg" 0.0537917248125818
"ave" 0.00063751873847036
"aggc" 0.000571286319223697
"laveB" 0.00434097160177492
"raveB" 0.0286284611946445
"lraveB" 0.0588162688883427
"saveB" 0.00398983934017397
"slaveB" -0.0272947382221361
"sraveB" 0.205115673948133
"slraveB" 0.313335640401322
"agg" 0.0668090128030214
"ave" 0.000735362877540726
"aggc" 0.000746827946380522
"laveB" 0.0123212786352048
"raveB" 0.00435768010066195
"lraveB" 0.168383885105333
"saveB" -0.0107390188726214
"slaveB" -0.0245936625286768
"sraveB" 0.153076970339868
"slraveB" 0.328886236598925
"agg" -0.0408809245044362
"ave" -0.000321574093768481
"aggc" -0.000453143001926633
"laveB" -0.00593502332435807
"raveB" -0.0221158750354434
"lraveB" 0.0337925673792597
"saveB" 8.997851212042e-05
"slaveB" -0.0187834604174564
"sraveB" 0.237351649643791
"slraveB" 0.336279991149214
"agg" 0.0381815292124939
"ave" 0.000552585518838856
"aggc" 0.000394718089107148
"laveB" 0.0132535837403517
"raveB" -0.0479228358080101
"lraveB" 0.150655030090598
"saveB" -0.0137923942129723
"slaveB" -0.0193289797164866
"sraveB" 0.182468300014789
"slraveB" 0.311732630373123
"agg" 0.030993099601933
"ave" 0.000200849281782572
"aggc" 0.000342688391063559
"laveB" 0.0107397357209368
"raveB" 0.0263997928311447
"lraveB" 0.106517379150868
"saveB" -0.01130349705019
"slaveB" -0.0339192492249952
"sraveB" 0.220363088306611
"slraveB" 0.394016978576488
"agg" -0.0379273991964336
"ave" -0.000593880605610797
"aggc" -0.000424841589967499
"laveB" -0.000291500150661199
"raveB" -0.0441823993976872
"lraveB" 0.0188684920962872
"saveB" -0.0253952615591608
"slaveB" -0.0529413092510861
"sraveB" 0.182007488330892
"slraveB" 0.178232245063111
"agg" 0.110267864210303
"ave" 0.00107409911786998
"aggc" 0.00125069964781677
"laveB" 0.0132592337253302
"raveB" 0.0127322652616527
"lraveB" 0.0258405020008155
"saveB" -0.0171952351910698
"slaveB" -0.0306923956146446
"sraveB" 0.242702751941638
"slraveB" 0.36373207590056
"agg" 0.0451995741765298
"ave" 0.000533559968342162
"aggc" 0.000481346309273525
"laveB" 0.0111935056620545
"raveB" 0.0129097945262125
"lraveB" 0.0751817260980712
"saveB" -0.0119017727105066
"slaveB" -0.0199402883093752
"sraveB" 0.257510956757402
"slraveB" 0.342081884618014
"agg" 0.0876195745327705
"ave" 0.00128633421936846
"aggc" 0.00128356754059619
"laveB" 0.0133510292478309
"raveB" 0.037422571291092
"lraveB" 0.117946458135797
"saveB" -0.00781367143966855
"slaveB" -0.00558475064763372
"sraveB" 0.185391764930428
"slraveB" 0.267485103952578
"agg" -0.080122404517772
"ave" -0.00106032698982378
"aggc" -0.00093893162368938
"laveB" -0.00504483888540954
"raveB" 0.0244410078799892
"lraveB" -0.0989832289011192
"saveB" -0.01843956264946
"slaveB" -0.0288550790218128
"sraveB" 0.197924395504026
"slraveB" 0.28076094942609
"agg" 0.143336303444274
"ave" 0.00156696631573436
"aggc" 0.00152404719017858
"laveB" 0.0264859448836095
"raveB" 0.0272999315342826
"lraveB" 0.237840086761803
"saveB" 0.00721971006420802
"slaveB" -0.0124705559754271
"sraveB" 0.15383823976015
"slraveB" 0.312953550250064
"agg" -0.0444998827569359
"ave" -0.000345674112442301
"aggc" -0.000363521102432708
"laveB" -0.0104229217157187
"raveB" 0.0221627141226336
"lraveB" -0.0800075967383896
"saveB" 0.000195948163070943
"slaveB" -0.0419112410581673
"sraveB" 0.199244666157399
"slraveB" 0.104172487953561
"agg" 0.0994609185053013
"ave" 0.00106011110394799
"aggc" 0.00115304124160275
"laveB" 0.0156734747434396
"raveB" -0.0183322365734121
"lraveB" 0.145764797194465
"saveB" -0.00309096489775147
"slaveB" -0.00468053154601724
"sraveB" 0.162714853589498
"slraveB" 0.186574134529568
"agg" -0.0416335012898031
"ave" -0.00021704915879712
"aggc" -0.000295741538517211
"laveB" -0.00620868982628607
"raveB" 0.0290574185845391
"lraveB" -0.0773913000566974
"saveB" -0.0104378096918732
"slaveB" -0.0247956336201403
"sraveB" 0.185507429362579
"slraveB" 0.224912819343327
"agg" 0.068394658581083
"ave" 0.000597023413398971
"aggc" 0.000564165637956588
"laveB" 0.00839282795301248
"raveB" -0.050023213196298
"lraveB" 0.0252136151563058
"saveB" -0.0148551634594261
"slaveB" -0.0328177481891069
"sraveB" 0.242065768211669
"slraveB" 0.308138105663856
"agg" -0.0829106818677101
"ave" -0.000667090328091771
"aggc" -0.000719850124486368
"laveB" -0.0117381595711711
"raveB" 0.0251977513033895
"lraveB" -0.124186873269663
"saveB" -0.00830913376703521
"slaveB" -0.0442859314654968
"sraveB" 0.184364990759957
"slraveB" 0.277924147381535
"agg" 0.0663437122675249
"ave" 0.000659544152042011
"aggc" 0.000571163476592701
"laveB" -0.000533269637664463
"raveB" 0.00344994389514106
"lraveB" 0.0314062705157015
"saveB" -0.00366711312814418
"slaveB" -0.0028417190851606
"sraveB" 0.174875768546108
"slraveB" 0.288557475830377
"agg" -0.0407877562341831
"ave" -0.000349099761731536
"aggc" -0.000327498727735785
"laveB" -0.00295347519434446
"raveB" 0.0415752599936742
"lraveB" -0.0854842510792527
"saveB" -0.0105248374073909
"slaveB" -0.027494858139195
"sraveB" 0.181659472197784
"slraveB" 0.256979702059792
"agg" 0.0252365340986715
"ave" 0.00013210618608585
"aggc" 0.000216725583779479
"laveB" 0.00393977781578133
"raveB" 0.0337746959135317
"lraveB" 0.0424056399494001
"saveB" -0.00669731264061188
"slaveB" -0.0367384940305496
"sraveB" 0.228578500977315
"slraveB" 0.252292120826631
"agg" 0.0387575870383255
"ave" 0.000202793341483734
"aggc" 0.000337191629096471
"laveB" 0.000522190443308773
"raveB" 0.00655093722452302
"lraveB" 0.119174781560757
"saveB" -0.0216789391689554
"slaveB" -0.0284972088492699
"sraveB" 0.18571966041347
"slraveB" 0.381472283998983
"agg" 0.111789481730816
"ave" 0.000800262440201202
"aggc" 0.000984806935189025
"laveB" 0.00479480608131205
"raveB" 0.0337659108323415
"lraveB" -0.0052036925674196
"saveB" -0.0209909940958144
"slaveB" -0.0471884669523149
"sraveB" 0.2655712386531
"slraveB" 0.266842116172216
"agg" -0.00444949611773322
"ave" -5.68010965247017e-05
"aggc" -9.05119634108572e-05
"laveB" -0.00483685878351086
"raveB" -0.0369631072113362
"lraveB" -0.00723385999190064
"saveB" -0.0157119642612225
"slaveB" -0.0149475295381852
"sraveB" 0.223986227192112
"slraveB" 0.324848028489307
"agg" -0.00838919660297736
"ave" -0.000168177318370605
"aggc" -0.000136514232680055
"laveB" -0.011910877050249
"raveB" -0.0373075170367875
"lraveB" -0.0113387705802979
"saveB" 0.000507030907055667
"slaveB" -0.0423675816333361
"sraveB" 0.281298672343647
"slraveB" 0.359910040526954
"agg" -0.0150361836527997
"ave" -0.000417531453942548
"aggc" -0.000222002264163541
"laveB" -0.00717857068469794
"raveB" -0.0248688300607576
"lraveB" -0.0630058270755009
"saveB" -0.00895953646937686
"slaveB" -0.0340067757151803
"sraveB" 0.173537135637351
"slraveB" 0.360252652637897
"agg" 0.109326946580363
"ave" 0.00128049574825426
"aggc" 0.00124015379461222
"laveB" 0.0112328137474023
"raveB" -0.0255821577577688
"lraveB" 0.0739285561295486
"saveB" -0.00702227221261702
"slaveB" -0.0149677226014356
"sraveB" 0.236573105702277
"slraveB" 0.343938220035276
"agg" 0.0975377734015125
"ave" 0.00140582243115776
"aggc" 0.00157015591899859
"laveB" 0.00786222608194273
"raveB" 0.0384148141007926
"lraveB" 0.185108653234766
"saveB" -0.0112515022418767
"slaveB" 0.00185568230791391
"sraveB" 0.221917738986204
"slraveB" 0.194931247785235
"agg" 0.0419450035658416
"ave" 0.000496854446846538
"aggc" 0.000413739700300118
"laveB" 0.007127977149751
"raveB" -0.0524012481827562
"lraveB" -0.0156469087989349
"saveB" -0.0021759005456687
"slaveB" -0.0011512370937979
"sraveB" 0.274583525348927
"slraveB" 0.46547082652909
"agg" 0.0744940226400893
"ave" 0.000898706298953638
"aggc" 0.000853264032138102
"laveB" 0.0110836129608967
"raveB" 0.0514556659946883
"lraveB" 0.261595139675701
"saveB" -0.0106184227018892
"slaveB" 0.00290267538100962
"sraveB" 0.245183405115091
"slraveB" 0.259923094476983
"agg" -0.0537334344234439
"ave" -0.000773251321495226
"aggc" -0.000647819124371574
"laveB" -0.0136737706208743
"raveB" -0.0206959517531737
"lraveB" -0.100511867688658
"saveB" -0.01778986870513
"slaveB" -0.0146974311292358
"sraveB" 0.172015331689748
"slraveB" 0.277824724267722
"agg" -0.0295563972822232
"ave" -0.000182979857047595
"aggc" -0.000353337492563044
"laveB" -0.011895348146385
"raveB" -0.0288355994064039
"lraveB" -0.134669668660999
"saveB" -0.00851440245327238
"slaveB" -0.00612530465718113
"sraveB" 0.263706718669267
"slraveB" 0.310177391579339
"agg" 0.0312677183973595
"ave" 0.000303825641406497
"aggc" 0.000348621014008428
"laveB" 1.05830254929046e-05
"raveB" 0.00555626005625307
"lraveB" -0.0214344259199274
"saveB" -0.00711345864350196
"slaveB" -0.0199583013232368
"sraveB" 0.163779408056208
"slraveB" 0.452635882281273
"agg" 0.0669666939585834
"ave" 0.000805935772720345
"aggc" 0.000798577184323044
"laveB" 0.0105259339667184
"raveB" -0.00393210776687876
"lraveB" 0.10088215892457
"saveB" -0.00735356590777197
"slaveB" -0.0163629952630449
"sraveB" 0.173719021224117
"slraveB" 0.386265925715162
"agg" -0.0839290738910853
"ave" -0.000946795309545528
"aggc" -0.00101393485407877
"laveB" -0.0136207714635547
"raveB" -0.0997239684935197
"lraveB" -0.140487564235203
"saveB" -0.00420154772666961
"slaveB" -0.0547901511374725
"sraveB" 0.206793042155771
"slraveB" 0.445477294704544
"agg" 0.00951820514240004
"ave" 7.80237916964597e-05
"aggc" 0.000116434795314612
"laveB" 0.00340947427196567
"raveB" -0.0229086788655294
"lraveB" 0.0639670371578469
"saveB" -0.00487613443411975
"slaveB" -0.032757921963372
"sraveB" 0.185035575766707
"slraveB" 0.359579907292142
"agg" 0.00122089635828283
"ave" 0.000245108901298272
"aggc" 2.73294342529751e-05
"laveB" 0.00259151624006318
"raveB" 0.00626936580999983
"lraveB" -0.0563945624394694
"saveB" -0.0122499117910007
"slaveB" -0.0500339255706954
"sraveB" 0.185314420841731
"slraveB" 0.242533748491707
"agg" -0.096460990326582
"ave" -0.00215228801097685
"aggc" -0.00195914139793649
"laveB" -0.0331137654579053
"raveB" 0.0109028676564093
"lraveB" -0.169157485657543
"saveB" -0.0122623797294339
"slaveB" -0.0660419450296076
"sraveB" 0.147180824350696
"slraveB" 0.226363425887122
"agg" 0.0158407285230159
"ave" 0.000298569543618669
"aggc" 0.00024718252366369
"laveB" 0.0150162480583433
"raveB" 0.0191351994131472
"lraveB" 0.112607358272541
"saveB" -0.0151996405820378
"slaveB" -0.0214332694697594
"sraveB" 0.171144382168785
"slraveB" 0.213023266218363
"agg" 0.0160908736541572
"ave" 0.00030690459887583
"aggc" 0.00035632299599714
"laveB" 0.0070152749586934
"raveB" 0.0601220306461087
"lraveB" 0.0578131907031488
"saveB" -0.0139317670970506
"slaveB" -0.0132553791588284
"sraveB" 0.135390496286327
"slraveB" 0.332846813043141
"agg" -0.00874157443200634
"ave" -0.000228795153538854
"aggc" -0.000118612621031665
"laveB" 0.00520779998326114
"raveB" 0.03511874579487
"lraveB" 0.0871839781634737
"saveB" -0.01579298628082
"slaveB" 0.0134353339250846
"sraveB" 0.13585009006476
"slraveB" 0.269709616972179
"agg" 0.124824550323397
"ave" 0.0020153759662833
"aggc" 0.00196678236606592
"laveB" 0.0255996099365445
"raveB" -0.0350896887457625
"lraveB" 0.28070793359954
"saveB" -0.00400374968268959
"slaveB" -0.00790327098071355
"sraveB" 0.165789594221161
"slraveB" 0.402920327208008
"agg" -0.117720212086534
"ave" -0.0020448348430199
"aggc" -0.00195233564668028
"laveB" -0.0156530703933022
"raveB" -0.0768314963900435
"lraveB" -0.172582840420737
"saveB" -0.00962315192970138
"slaveB" -0.0413049368321751
"sraveB" 0.204683392159104
"slraveB" 0.225899292645239
"agg" 0.0975907168888842
"ave" 0.00162726154408046
"aggc" 0.00160487428607689
"laveB" 0.01387210348171
"raveB" -0.0220945813172855
"lraveB" 0.170774471352785
"saveB" -0.0150493616594248
"slaveB" -0.0115804759711736
"sraveB" 0.205750839068748
"slraveB" 0.341912462098619
"agg" 0.0751159981494858
"ave" 0.00114201337171094
"aggc" 0.00115208386796681
"laveB" 0.0114561269259197
"raveB" 0.0342212479916757
"lraveB" 0.204536540966679
"saveB" -0.0112698531402028
"slaveB" -0.0154970599485109
"sraveB" 0.210526338332555
"slraveB" 0.465130762694694
"agg" 0.0119297194846031
"ave" 6.52642551597602e-05
"aggc" 0.000195696272668657
"laveB" 0.00030343474507829
"raveB" 0.00347584229361223
"lraveB" 0.0719451420177832
"saveB" -0.00940348849434234
"slaveB" -0.0306251289158018
"sraveB" 0.207552357630484
"slraveB" 0.271720847565862
"agg" -0.0527748557415503
"ave" -0.000886754902070533
"aggc" -0.000877039107646709
"laveB" -0.00456067398158764
"raveB" 0.00874357534982556
"lraveB" -0.120593712690467
"saveB" -0.00473641906912305
"slaveB" -0.0403093897246515
"sraveB" 0.217362025117814
"slraveB" 0.218509249397382
"agg" 0.01771489863398
"ave" 0.000543905084061833
"aggc" 0.00029809910904177
"laveB" 0.0092417586700239
"raveB" 0.0431673626304352
"lraveB" 0.116493821060991
"saveB" -0.0114078175308987
"slaveB" -0.0373297404187939
"sraveB" 0.180140610884151
"slraveB" 0.35742072743011
"agg" 0.0226702683188986
"ave" 0.000339905512989438
"aggc" 0.000368326640649554
"laveB" 0.0120069821319201
"raveB" 0.13558403653799
"lraveB" 0.163398661700301
"saveB" -0.02117132774698
"slaveB" -0.0250382575178718
"sraveB" 0.190977282581265
"slraveB" 0.354566352295429
"agg" -0.00905607228516819
"ave" 0.000101811311234056
"aggc" -0.00011304331833954
"laveB" 0.00216933937731984
"raveB" -0.0566811378769767
"lraveB" -0.0132110037706003
"saveB" -0.00221120611850147
"slaveB" -0.0328500883529494
"sraveB" 0.231868385474954
"slraveB" 0.287698418118999
"agg" -0.0445444412651676
"ave" -0.000599854347965247
"aggc" -0.000789078388043071
"laveB" -0.00664079424698373
"raveB" -0.0262778842260759
"lraveB" -0.0851270581837988
"saveB" -0.0125976344492676
"slaveB" -0.0265549393996355
"sraveB" 0.256916349402218
"slraveB" 0.353792572091967
"agg" 0.0748828138021438
"ave" 0.000827633933774214
"aggc" 0.00081280394807882
"laveB" 0.0126501266625487
"raveB" -0.0151462052570825
"lraveB" 0.156014437928677
"saveB" -0.0029599136759218
"slaveB" -0.00629493454489356
"sraveB" 0.222064082439993
"slraveB" 0.345198610798816
"agg" -0.0975825126067709
"ave" -0.00131102337113003
"aggc" -0.00122995918019624
"laveB" -0.011197515303576
"raveB" -0.05123397359908
"lraveB" -0.150380316095114
"saveB" -0.00990369476314418
"slaveB" -0.0660760083560311
"sraveB" 0.282764689190102
"slraveB" 0.350022456293673
"agg" 0.148182193282082
"ave" 0.00204294753248573
"aggc" 0.00196590203853013
"laveB" 0.0188897758735353
"raveB" -0.0635347532297269
"lraveB" 0.116791616932556
"saveB" -0.0146567687284875
"slaveB" -0.0201537237821234
"sraveB" 0.319933287210743
"slraveB" 0.380609079037353
"agg" -0.0366192714358479
"ave" -0.000493652329009389
"aggc" -0.000481731023985176
"laveB" -0.00555450699300699
"raveB" 0.0675808203598267
"lraveB" 0.0798791885729471
"saveB" -0.0198674380741888
"slaveB" -0.0160726353615539
"sraveB" 0.20667993123534
"slraveB" 0.341268446837166
"agg" 0.153232768706337
"ave" 0.00192587495628499
"aggc" 0.00188003401978139
"laveB" 0.0271365064873205
"raveB" 0.00167788758380341
"lraveB" 0.1860313671732
"saveB" -0.0179299760387603
"slaveB" -0.00500509136599912
"sraveB" 0.197436361327395
"slraveB" 0.483315483681913
"agg" -0.106813630826374
"ave" -0.00119821224756987
"aggc" -0.00140165589033231
"laveB" -0.023347800357035
"raveB" -0.0167562089897319
"lraveB" -0.138250173476133
"saveB" -0.0135995257392745
"slaveB" -0.064348642420033
"sraveB" 0.203327629002093
"slraveB" 0.301955880454863
"agg" 0.048190494876667
"ave" 0.000627299178086747
"aggc" 0.000640642427252078
"laveB" 0.0181054289903085
"raveB" 0.0323203444738815
"lraveB" 0.182969374512187
"saveB" -0.0140357718387729
"slaveB" -0.047536516353839
"sraveB" 0.24350688920337
"slraveB" 0.283460458420654
"agg" 0.0275756148046708
"ave" 0.000717016476839504
"aggc" 0.000371201409558149
"laveB" 0.00948658237954506
"raveB" 0.0423228476430802
"lraveB" 0.0629433355761992
"saveB" -0.0170598178693406
"slaveB" -0.033399924800891
"sraveB" 0.177749351146727
"slraveB" 0.273956254766303
"agg" -0.169740512088382
"ave" -0.00197445891764203
"aggc" -0.00192243979287208
"laveB" -0.0194827630480076
"raveB" -0.0149484079096765
"lraveB" -0.00218751649970779
"saveB" -0.00248045745419451
"slaveB" -0.0474082939238073
"sraveB" 0.129466807986945
"slraveB" 0.222095444264315
"agg" 0.130391896406711
"ave" 0.00224032492419647
"aggc" 0.00209574991289374
"laveB" 0.0249669323230038
"raveB" 0.074261356434239
"lraveB" 0.134595262671387
"saveB" -0.00753486782180462
"slaveB" 0.0115321070623507
"sraveB" 0.215949576652954
"slraveB" 0.341504313921941
"agg" -0.0795830755702242
"ave" -0.000830723382620974
"aggc" -0.000783766308036511
"laveB" -0.020565409906368
"raveB" -0.0563448205366263
"lraveB" -0.188030537708126
"saveB" -0.00921932791077693
"slaveB" -0.0151892825062169
"sraveB" 0.109913140100594
"slraveB" 0.432514006139713
"agg" 0.0118773933398075
"ave" 6.39485500117728e-05
"aggc" 0.000135831989967887
"laveB" -0.000599822520380628
"raveB" 0.0302540158966232
"lraveB" 0.0443144413633277
"saveB" -0.0198391387998239
"slaveB" -0.0236303491319955
"sraveB" 0.137299390151191
"slraveB" 0.302750520439565
"agg" -0.00696052063809421
"ave" -1.67469721962343e-05
"aggc" -8.3785680650061e-05
"laveB" 0.00119268615632084
"raveB" 0.00692096353661574
"lraveB" 0.139866623382189
"saveB" -0.00467209200629774
"slaveB" -0.0109900904709832
"sraveB" 0.226837891541401
"slraveB" 0.281381220680385
"agg" 0.075486682652425
"ave" 0.000889897795391038
"aggc" 0.000901005576987107
"laveB" 0.0151921127587492
"raveB" 0.0113351902175611
"lraveB" 0.0989375595075823
"saveB" -0.00252688595905111
"slaveB" -0.00229104445988334
"sraveB" 0.174734936902679
"slraveB" 0.475785277459599
"agg" 0.0868971150856639
"ave" 0.0010634537991127
"aggc" 0.000967345553892018
"laveB" 0.0162632480710324
"raveB" 0.0169114737241203
"lraveB" 0.0575017964461197
"saveB" -0.00191064740097644
"slaveB" 0.00365620622896019
"sraveB" 0.206210995750506
"slraveB" 0.367010287083205
"agg" 0.0429914633896017
"ave" 0.000690409457006634
"aggc" 0.000511869413222866
"laveB" 0.00745644358995226
"raveB" -0.0257198035058355
"lraveB" 0.155330074727627
"saveB" -0.00305134941460072
"slaveB" -0.0264709380664416
"sraveB" 0.203703029394411
"slraveB" 0.382564634923082
"agg" 0.0054007165139351
"ave" 9.25745579658071e-05
"aggc" 6.51430239137246e-05
"laveB" 0.00348297809465769
"raveB" 0.0402024352949969
"lraveB" -0.00675965535986962
"saveB" -0.00502315443520675
"slaveB" -0.0197238842940343
"sraveB" 0.180144067579511
"slraveB" 0.312309784425293
"agg" -0.0135575944872405
"ave" -0.000220437828897145
"aggc" -0.000165588157891474
"laveB" -0.000962017330320923
"raveB" -0.0407816141380329
"lraveB" 0.0434172723337718
"saveB" -0.00519384348485118
"slaveB" -0.0179447544888986
"sraveB" 0.177533362305082
"slraveB" 0.279730811066912
"agg" -0.114625261055437
"ave" -0.00137460483617319
"aggc" -0.00141546044769263
"laveB" -0.0230670227476447
"raveB" -0.0159434279069388
"lraveB" -0.127711764229606
"saveB" -0.00348402480272283
"slaveB" -0.041533429291919
"sraveB" 0.209650389956263
"slraveB" 0.237750794875279
"agg" 0.105202551244426
"ave" 0.000884700303843847
"aggc" 0.000796013968732244
"laveB" 0.00563750224697989
"raveB" 0.0106062715244903
"lraveB" 0.0690984931193385
"saveB" -0.00961978035149981
"slaveB" -0.0148451928254373
"sraveB" 0.250043734480497
"slraveB" 0.401196560064848
"agg" 0.0695872278397972
"ave" 0.000685055155435309
"aggc" 0.000611419105598988
"laveB" 0.00302909510301744
"raveB" -0.0147256875590187
"lraveB" 0.160886249226384
"saveB" -0.00160413498491699
"slaveB" -0.0331102779445981
"sraveB" 0.11188608161499
"slraveB" 0.312277635121553
"agg" 0.0431325451438521
"ave" 0.000387977522415465
"aggc" 0.000398897861113566
"laveB" 0.00543232810143713
"raveB" 0.0155286125120243
"lraveB" -0.0130322636116882
"saveB" -0.0108472506899397
"slaveB" -0.0367600813343524
"sraveB" 0.23551398780316
"slraveB" 0.349763060341418
"agg" -0.0191213759685347
"ave" -0.000221922843171753
"aggc" -0.000175349618442204
"laveB" -0.00321238009242255
"raveB" -0.0295487408529153
"lraveB" -0.0462619266778547
"saveB" -0.0219627679340399
"slaveB" -0.0365724805863837
"sraveB" 0.160835588073079
"slraveB" 0.333960788418094
"agg" -0.0109285971053314
"ave" -0.000108983907599023
"aggc" -9.34693542848105e-05
"laveB" -0.000933761630359945
"raveB" 0.0222974718320809
"lraveB" 0.0346271429769432
"saveB" 0.00142252116327155
"slaveB" -0.0309413700528326
"sraveB" 0.165908171827088
"slraveB" 0.279397572995547
"agg" 0.132041511934253
"ave" 0.00120348568437619
"aggc" 0.00120785829102287
"laveB" 0.00679774587537453
"raveB" 0.0187089945222473
"lraveB" 0.033660533850644
"saveB" 0.00241520483333435
"slaveB" -0.0363088324429147
"sraveB" 0.186368303190612
"slraveB" 0.354329723650158
"agg" -0.0110365629170868
"ave" -0.000164532926067884
"aggc" -0.000102277221631507
"laveB" 0.000354966322895702
"raveB" -0.0069510785810156
"lraveB" -0.0469179983243707
"saveB" -0.0143335734764772
"slaveB" -0.0494054907981815
"sraveB" 0.221273720339014
"slraveB" 0.300320214165012
"agg" 0.0954791421848461
"ave" 0.000851632204348945
"aggc" 0.000895949824981153
"laveB" 0.0172762551373664
"raveB" 0.00987521830468682
"lraveB" 0.193366534947737
"saveB" -0.0165161701434089
"slaveB" -0.0415312379620688
"sraveB" 0.234172866906976
"slraveB" 0.334324709965312
"agg" -0.0117148290476599
"ave" -0.000225415483795864
"aggc" -0.000125791700507107
"laveB" -0.00490762775204483
"raveB" 0.0199975666232889
"lraveB" 0.0197420687145502
"saveB" -0.0139266822324057
"slaveB" -0.0177373992623571
"sraveB" 0.167834105272278
"slraveB" 0.41196439219356
"agg" 0.111904603566722
"ave" 0.00139387082659186
"aggc" 0.00139533676830431
"laveB" 0.00838393681244327
"raveB" -0.00152094438101613
"lraveB" 0.131017520897056
"saveB" -0.0106461788029849
"slaveB" -0.0205540156385668
"sraveB" 0.151652865691501
"slraveB" 0.315861643213253
"agg" 0.140731683421267
"ave" 0.00190733619553651
"aggc" 0.00184701371586055
"laveB" 0.0241715787030212
"raveB" 0.00254748866150727
"lraveB" 0.162224069238141
"saveB" -0.0209784665904894
"slaveB" 0.0252960596851966
"sraveB" 0.263749108967712
"slraveB" 0.515972514413085
"agg" 0.204026751959615
"ave" 0.00266173814888216
"aggc" 0.00265518273793481
"laveB" 0.0344808764986609
"raveB" 0.0269965951294873
"lraveB" 0.0871956297869918
"saveB" -0.0130448610210935
"slaveB" 0.040943913669292
"sraveB" 0.168480522805064
"slraveB" 0.497352808605259
"agg" 0.0695921379612936
"ave" 0.000757537216024637
"aggc" 0.000844669128205819
"laveB" 0.0162492122865442
"raveB" 0.0705851004377294
"lraveB" 0.162234545935857
"saveB" -0.00539889032161039
"slaveB" 0.00360302785147135
"sraveB" 0.286500719985479
"slraveB" 0.389769444317194
"agg" 0.121077680007823
"ave" 0.00156951162522904
"aggc" 0.0015717779890429
"laveB" 0.0101546121858476
"raveB" 0.0256448793323264
"lraveB" 0.100865560987225
"saveB" -0.0106346272885307
"slaveB" -0.00596993869492886
"sraveB" 0.268696021953065
"slraveB" 0.330820321508236
"agg" 0.0548050532601706
"ave" 0.000695286510455185
"aggc" 0.000720754393299343
"laveB" 0.00653801624235029
"raveB" 0.0211723811136927
"lraveB" 0.0186276664317933
"saveB" -0.00984974018003374
"slaveB" 0.00435120474182898
"sraveB" 0.225533870047326
"slraveB" 0.424143596434986
"agg" 0.00337483003515212
"ave" -2.05678518942982e-05
"aggc" 4.49416177709912e-05
"laveB" 0.0038870829775312
"raveB" -0.0512341892305114
"lraveB" -0.0123980813153459
"saveB" -0.0129421583858119
"slaveB" -0.0352368349068945
"sraveB" 0.206038587150425
"slraveB" 0.346350378487585
"agg" 0.050380038697556
"ave" 0.000349666237704284
"aggc" 0.000384916562411325
"laveB" 0.00363783109953606
"raveB" -0.0126463818616021
"lraveB" 0.0978845786082401
"saveB" -0.00691106862398188
"slaveB" -0.0228058682714203
"sraveB" 0.191141293156258
"slraveB" 0.348555506621007
"agg" 0.0264679832602781
"ave" 0.000167442158873507
"aggc" 0.000212851201276787
"laveB" -0.000725214173856223
"raveB" -0.0176072254759538
"lraveB" -0.00883892196271445
"saveB" -0.00574586173260347
"slaveB" -0.047847141732493
"sraveB" 0.214894280188026
"slraveB" 0.180906029206755
"agg" 0.0320041122959891
"ave" 0.000354449965042788
"aggc" 0.000255205542573809
"laveB" -0.00437735508332991
"raveB" 0.0137549286303371
"lraveB" -0.0256146451414975
"saveB" 0.000582345287229119
"slaveB" -0.0168609977008486
"sraveB" 0.173982067057384
"slraveB" 0.400849855506118
"agg" -0.00282707515962335
"ave" -9.04420970692771e-05
"aggc" -2.10252328275551e-05
"laveB" -0.0010581776465026
"raveB" -0.00118525508341443
"lraveB" 0.101576060997718
"saveB" -0.0186750056967389
"slaveB" -0.0173920806964493
"sraveB" 0.26783141390208
"slraveB" 0.293162975620723
"agg" 0.0815845331053275
"ave" 0.000661628330710732
"aggc" 0.000648951081965718
"laveB" 0.00920394008863725
"raveB" -0.0392789022601054
"lraveB" 0.044738609291198
"saveB" -0.0116847069280457
"slaveB" -0.0208887107506046
"sraveB" 0.224469722083898
"slraveB" 0.329292715577277
"agg" -0.0445200084888485
"ave" -0.000301973952273969
"aggc" -0.000358755814891014
"laveB" 0.00110233010263053
"raveB" -0.0239107732646352
"lraveB" -0.0354003574933032
"saveB" -0.00793205083417781
"slaveB" -0.0412440964714853
"sraveB" 0.192568037298362
"slraveB" 0.319010271757762
"agg" -0.0214936693784723
"ave" -0.00017930224325661
"aggc" -0.000175381740922331
"laveB" -0.00120142133971995
"raveB" -0.0308947880805521
"lraveB" 0.0210935319384072
"saveB" -0.00728593775414154
"slaveB" -0.0434825265349615
"sraveB" 0.255228097640412
"slraveB" 0.333711153030133
"agg" -0.13236090824514
"ave" -0.0012332366812424
"aggc" -0.00123603294201403
"laveB" -0.0178418391237459
"raveB" 0.0216315255957456
"lraveB" -0.0714915281520107
"saveB" -0.00272980039302801
"slaveB" -0.04598978615489
"sraveB" 0.266191016825973
"slraveB" 0.226736132399031
"agg" 0.128253364361799
"ave" 0.00104225101637237
"aggc" 0.00118759438520016
"laveB" 0.00854785842529711
"raveB" -0.0181659663342601
"lraveB" 0.0623334825046419
"saveB" 0.00253966126084877
"slaveB" 0.00387379554396787
"sraveB" 0.273394971538896
"slraveB" 0.377052262684386
"agg" -0.0190679947447363
"ave" -0.00023562596903
"aggc" -0.000164673431416075
"laveB" 1.07733155171346e-05
"raveB" 0.00283619689909833
"lraveB" 0.0632597350539416
"saveB" -0.0101225738312532
"slaveB" -0.0354610405541197
"sraveB" 0.202569344735399
"slraveB" 0.286680674335396
"agg" 0.013819176919558
"ave" 0.000136907357147959
"aggc" 0.000127644279982345
"laveB" 0.00143485040309006
"raveB" 0.0450411440117657
"lraveB" 0.122874989767894
"saveB" -0.0102332152073661
"slaveB" -0.0397064755359219
"sraveB" 0.172186179091964
"slraveB" 0.392552291163246
"agg" 0.0145481242964435
"ave" -7.7996670087087e-05
"aggc" 0.000136133736894677
"laveB" 0.00150221072980599
"raveB" -0.071747089472331
"lraveB" 0.0389286450092002
"saveB" -0.0137436745010653
"slaveB" -0.0366920323411318
"sraveB" 0.171424705889316
"slraveB" 0.396740266420128
"agg" 0.0798965823908504
"ave" 0.000806675923117481
"aggc" 0.000757036933368572
"laveB" 0.00638848435578328
"raveB" -0.0102504911720237
"lraveB" 0.0300418643356774
"saveB" -0.0160005987040849
"slaveB" -0.0509731142869739
"sraveB" 0.17796878763299
"slraveB" 0.353891047466889
"agg" 0.019738542953347
"ave" 0.000194336775424888
"aggc" 0.000192380749653323
"laveB" -0.00207875421483182
"raveB" -0.0594441629510512
"lraveB" 0.0258718780445376
"saveB" -0.012688736840286
"slaveB" -0.0235230857876087
"sraveB" 0.194275127842715
"slraveB" 0.392060741930262
"agg" 0.0134125427090245
"ave" 9.21951706313113e-05
"aggc" 0.000121920513196013
"laveB" 0.00484073482881848
"raveB" -0.0183939326411135
"lraveB" 0.169635980444098
"saveB" -0.0157416126905779
"slaveB" -0.00844396620729471
"sraveB" 0.147111716190743
"slraveB" 0.305027320854301
"agg" 0.0396796243140315
"ave" 0.000436728021266983
"aggc" 0.000385774826882708
"laveB" 0.00144001748192812
"raveB" 0.0237417120709865
"lraveB" -0.004822994079403
"saveB" -0.00304774718982935
"slaveB" -0.0318460472457061
"sraveB" 0.197285256218469
"slraveB" 0.342395557129342
"agg" 0.0516767866559814
"ave" 0.000509854531858298
"aggc" 0.000508980819185385
"laveB" 0.00534190450607825
"raveB" -0.03537305241648
"lraveB" 0.080476464549508
"saveB" -0.00883007783360606
"slaveB" -0.0345613073908232
"sraveB" 0.322390348718099
"slraveB" 0.359581889226269
"agg" 0.000767609029489096
"ave" 5.48872390908421e-05
"aggc" 7.65554462609893e-06
"laveB" 0.00727986598245888
"raveB" -0.002696000751657
"lraveB" 0.0204201519675538
"saveB" -0.00890141027220101
"slaveB" -0.033427568333557
"sraveB" 0.134145096456028
"slraveB" 0.247159461417885
"agg" -0.0425600063935459
"ave" -0.000484328239352011
"aggc" -0.000383615733638534
"laveB" 0.00211584868709735
"raveB" -0.0625050523093629
"lraveB" 0.0190115670749394
"saveB" -0.0118917641536632
"slaveB" -0.0549020385890499
"sraveB" 0.142747389353687
"slraveB" 0.295860363435508
"agg" -0.0158222237766002
"ave" -0.000181219309665962
"aggc" -0.000152532686115929
"laveB" 0.001484551493158
"raveB" -0.00453503514252189
"lraveB" 0.0926370267102466
"saveB" -0.012494320794817
"slaveB" -0.0355983430627818
"sraveB" 0.301805721069912
"slraveB" 0.335603330049756
"agg" 0.103160879622489
"ave" 0.000873204997207533
"aggc" 0.00100751150599153
"laveB" 0.0110851176721497
"raveB" 0.00329949118578976
"lraveB" 0.122912741989719
"saveB" -0.0152127230510233
"slaveB" -0.034356642735618
"sraveB" 0.194763948282519
"slraveB" 0.342329026051018
"agg" -0.0292171039715731
"ave" -0.000412057460287664
"aggc" -0.000288936392454585
"laveB" -0.00390294854268694
"raveB" -0.00219363620555043
"lraveB" -0.0379542039979687
"saveB" -0.0306557109178793
"slaveB" -0.0481381147719637
"sraveB" 0.161524440703918
"slraveB" 0.172861260733319
"agg" 0.173687375679787
"ave" 0.00160866410350136
"aggc" 0.00156164671345945
"laveB" 0.0140715945066588
"raveB" 0.0421949076856213
"lraveB" 0.167234862446095
"saveB" 0.00329949079690861
"slaveB" -0.0112199854385815
"sraveB" 0.185912105450091
"slraveB" 0.329052272443446
"agg" 0.0126710590461498
"ave" 0.000149392410641717
"aggc" 0.000115416270117943
"laveB" 0.00517261784960546
"raveB" -0.0147650579166548
"lraveB" 0.0309532003882901
"saveB" -0.00763888128397753
"slaveB" -0.0362040555827839
"sraveB" 0.284349147716003
"slraveB" 0.253993256648375
"agg" -0.0377770305274923
"ave" -0.000271872791446062
"aggc" -0.000348427190969896
"laveB" -0.00486339740813721
"raveB" 0.0509606529806302
"lraveB" -0.00157147281663909
"saveB" -0.0108309016006077
"slaveB" -0.0319245992912066
"sraveB" 0.236060930369018
"slraveB" 0.265100262712552
"agg" -0.0455400964042585
"ave" -0.000530345256338184
"aggc" -0.000443658427334088
"laveB" -0.00454968194618139
"raveB" -0.00868325159976839
"lraveB" -0.0595839110031165
"saveB" -0.00667420749183015
"slaveB" -0.0511274203339083
"sraveB" 0.204295301608675
"slraveB" 0.241319221036696
"agg" -0.00971512757611007
"ave" -0.000114161769765976
"aggc" -9.58370417764921e-05
"laveB" -0.0023195461817519
"raveB" 0.00972456521549356
"lraveB" -0.142061046764728
"saveB" -0.0088554202956307
"slaveB" -0.0377466004257017
"sraveB" 0.207973657619029
"slraveB" 0.285359135102105
"agg" -0.0317319746884989
"ave" -0.000303622682443086
"aggc" -0.000317118496091416
"laveB" -0.0124506097831946
"raveB" -0.00941461838069177
"lraveB" -0.100279241250316
"saveB" -0.0128088518713217
"slaveB" -0.0654525928805928
"sraveB" 0.182290306927523
"slraveB" 0.310624033698215
