"V1" "V2" "V3" "V4" "V5" "V6" "V7" "V8" "V9" "V10" "V11" "V12" "V13" "V14" "V15" "V16" "V17" "V18" "V19" "V20" "V21" "V22"
1 2 4 5 7 10 11 16 18 19 20 21 24 25 30 32 37 39 41 43 48 50
140 97 45 46 92 161 82 66 69 43 45 77 182 82 203 153 133 135 201 165 167 134
